{
    "metadata":{
        "normal":998,
        "type":"BufferGeometry",
        "version":3,
        "uv":998,
        "generator":"io_three",
        "position":998
    },
    "data":{
        "attributes":{
            "normal":{
                "array":[0.00921659,-0.993957,0.109256,0.00921659,-0.993988,0.108921,0.00921659,-0.993988,0.108951,0.00921659,-0.993957,0.109165,0.514389,-0.848201,0.126164,0.514328,-0.84817,0.126682,0.514328,-0.84817,0.126591,0.514359,-0.84817,0.126591,0.868587,-0.483077,0.110263,0.868526,-0.483108,0.110508,0.868618,-0.483047,0.109989,0.868618,-0.483016,0.110324,0.997772,-0.00119022,0.0662862,0.997772,-0.00122074,0.0663778,0.997772,-0.00122074,0.0663778,0.997772,-0.0011597,0.0666524,0.872677,0.488235,0.00469985,0.872677,0.488205,0.00463881,0.872707,0.488174,0.00463881,0.872646,0.488266,0.00469985,0.506363,0.860195,-0.0601825,0.506363,0.860195,-0.0603046,0.506394,0.860164,-0.060152,0.506363,0.860195,-0.0601825,-0.00924711,0.993988,-0.108829,-0.00924711,0.993988,-0.109043,-0.00921659,0.993988,-0.109043,-0.00921659,0.993957,-0.109165,-0.514298,0.84817,-0.126682,-0.514328,0.84817,-0.126713,-0.514359,0.84814,-0.126591,-0.514389,0.848109,-0.126804,-0.868557,0.483108,-0.110416,-0.868557,0.483108,-0.110446,-0.868587,0.483047,-0.110263,-0.868618,0.483047,-0.110263,-0.997772,0.00119022,-0.0663472,-0.997772,0.00122074,-0.0663167,-0.997772,0.00122074,-0.0663472,-0.997772,0.00122074,-0.0663472,-0.872677,-0.488235,-0.00454726,-0.872677,-0.488266,-0.00466933,-0.872677,-0.488266,-0.00469985,-0.872677,-0.488235,-0.00463881,-0.506424,-0.860134,0.0602741,-0.506394,-0.860164,0.0602741,-0.506363,-0.860195,0.0601215,-0.506333,-0.860195,0.060152,0.0658284,-0.108127,-0.991943,0.0658284,-0.108127,-0.991943,0.0658284,-0.108158,-0.991943,0.0658284,-0.108127,-0.991943,0.0658284,-0.108127,-0.991943,0.0658284,-0.108158,-0.991943,0.0657979,-0.108158,-0.991943,0.0657979,-0.108158,-0.991943,0.0658895,-0.108158,-0.991943,0.0658589,-0.108158,-0.991943,0.0658284,-0.108158,-0.991943,0.0657674,-0.108097,-0.991943,0.0658284,-0.108127,-0.991943,0.0658284,-0.108158,-0.991943,0.0658284,-0.108097,-0.991943,0.0658284,-0.108127,-0.991943,0.0657979,-0.108158,-0.991943,0.0657979,-0.108158,-0.991943,0.0658284,-0.108158,-0.991943,0.0658284,-0.108158,-0.991943,0.0657979,-0.108127,-0.991943,0.0657979,-0.108127,-0.991943,0.0657979,-0.108158,-0.991943,0.0657979,-0.108158,-0.991943,-0.0658895,0.107974,0.991943,-0.0658895,0.107974,0.991943,-0.0657979,0.108127,0.991943,-0.0657979,0.108127,0.991943,-0.0658284,0.108005,0.991943,-0.0658284,0.108005,0.991943,-0.0660115,0.108249,0.991913,-0.0660115,0.10828,0.991913,-0.0660115,0.108158,0.991913,-0.0660421,0.108127,0.991913,-0.0658589,0.108066,0.991943,-0.0658589,0.108066,0.991943,-0.0658589,0.107852,0.991974,-0.0658589,0.107883,0.991974,-0.0658895,0.108402,0.991913,-0.0658895,0.108432,0.991913,-0.065981,0.108371,0.991913,-0.065981,0.108371,0.991913,-0.06592,0.108158,0.991943,-0.06592,0.108158,0.991943,-0.0656758,0.108188,0.991943,-0.0656758,0.108188,0.991943,-0.0658895,0.108097,0.991943,-0.0658895,0.108097,0.991943,0.0657979,-0.108158,-0.991943,0.0658284,-0.108097,-0.991943,0.0658589,-0.108158,-0.991943,0.0657979,-0.108158,-0.991943,0.0658284,-0.108127,-0.991943,0.0658284,-0.108127,-0.991943,0.0658284,-0.108158,-0.991943,0.0657979,-0.108188,-0.991943,0.0657979,-0.108158,-0.991943,0.0658589,-0.108158,-0.991943,0.0658284,-0.108188,-0.991943,0.0657674,-0.108127,-0.991943,0.0658284,-0.108127,-0.991943,0.0658589,-0.108158,-0.991943,0.0658284,-0.108158,-0.991943,0.0658284,-0.108158,-0.991943,0.0658284,-0.108127,-0.991943,0.0658284,-0.108158,-0.991943,0.0658284,-0.108188,-0.991943,0.0657674,-0.108158,-0.991943,-0.0657979,0.108158,0.991943,-0.0658284,0.108188,0.991943,-0.0658284,0.108158,0.991943,-0.0658284,0.108158,0.991943,-0.0658284,0.108158,0.991943,-0.0657979,0.108158,0.991943,-0.0657979,0.108127,0.991943,-0.0658284,0.108127,0.991943,-0.0658284,0.108158,0.991943,-0.0658284,0.108158,0.991943,-0.0657979,0.108127,0.991943,-0.0658284,0.108127,0.991943,-0.0657979,0.108158,0.991943,-0.0658284,0.108158,0.991943,-0.0657979,0.108158,0.991943,-0.0658284,0.108127,0.991943,-0.0657979,0.108188,0.991943,-0.0658284,0.108158,0.991943,-0.0657979,0.108127,0.991943,-0.0657674,0.108158,0.991943,-0.0658284,0.108127,0.991943,-0.0658284,0.108127,0.991943,-0.0657979,0.108158,0.991943,-0.0658284,0.108158,0.991943,-0.0657979,0.108158,0.991943,-0.0657979,0.108127,0.991943,-0.0657979,0.108127,0.991943,-0.0657674,0.108127,0.991943,-0.0658284,0.108158,0.991943,-0.0657979,0.108158,0.991943,0.065981,-0.107974,-0.991943,0.0658284,-0.108158,-0.991943,0.0659505,-0.108188,-0.991913,-0.0658284,0.108158,0.991943,-0.0657369,0.108127,0.991943,-0.0656758,0.108615,0.991882,-0.171239,0.978118,-0.118015,-0.171117,0.978118,-0.118107,-0.171178,0.978118,-0.118046,-0.17127,0.978118,-0.117985,-0.806482,0.579608,-0.116672,-0.806482,0.579577,-0.116672,-0.806452,0.579638,-0.116672,-0.806421,0.579669,-0.116672,-0.98587,-0.160314,-0.0479141,-0.98587,-0.160344,-0.0479141,-0.9859,-0.160283,-0.0479141,-0.9859,-0.160222,-0.0479446,-0.619037,-0.784082,0.0443739,-0.619037,-0.784082,0.0443129,-0.619037,-0.784082,0.0443434,-0.619007,-0.784082,0.0444044,0.145268,-0.982452,0.116733,0.145421,-0.982421,0.116794,0.14536,-0.982452,0.116764,0.145207,-0.982482,0.116703,0.777245,-0.617817,0.118961,0.777306,-0.617725,0.119053,0.777276,-0.617756,0.118992,0.777215,-0.617847,0.1189,0.992157,0.112857,0.0534989,0.992157,0.112918,0.0535295,0.992157,0.112888,0.0535295,0.992157,0.112827,0.0534989,0.639424,0.767724,-0.0413221,0.639363,0.767754,-0.041261,0.639393,0.767754,-0.0412915,0.639424,0.767724,-0.0413526,-0.145268,0.982452,-0.116764,-0.145177,0.982452,-0.116825,-0.145238,0.982452,-0.116794,-0.145329,0.982452,-0.116764,-0.777276,0.617786,-0.118931,-0.777337,0.617725,-0.118839,-0.777306,0.617756,-0.1189,-0.777245,0.617786,-0.118961,-0.992157,-0.112705,-0.0535295,-0.992187,-0.112674,-0.0534989,-0.992157,-0.112735,-0.05356,-0.992157,-0.112766,-0.05356,-0.639302,-0.767815,0.0412305,-0.639332,-0.767785,0.0412305,-0.639271,-0.767846,0.041261,-0.639241,-0.767876,0.041261,0.171148,-0.978149,0.117985,0.171117,-0.978149,0.117985,0.171178,-0.978118,0.117985,0.171239,-0.978118,0.117985,0.806604,-0.579424,0.116642,0.806543,-0.579516,0.116611,0.806574,-0.579455,0.116611,0.806635,-0.579363,0.116672,0.9859,0.160192,0.0479751,0.9859,0.160222,0.0480056,0.9859,0.160192,0.0479751,0.9859,0.160192,0.0479751,0.618946,0.784143,-0.0444044,0.618946,0.784143,-0.0444044,0.618946,0.784143,-0.0444044,0.618946,0.784143,-0.0444349,-0.0657979,0.108097,0.991943,-0.0657979,0.108188,0.991943,-0.0657979,0.108158,0.991943,-0.0657369,0.108127,0.991943,-0.0657674,0.108158,0.991943,-0.0658589,0.108127,0.991943,-0.0657063,0.108188,0.991943,-0.0658589,0.108005,0.991943,-0.0658284,0.108188,0.991943,0.0657674,-0.108158,-0.991943,0.0658589,-0.108127,-0.991943,0.0658284,-0.108188,-0.991943,0.0658589,-0.108127,-0.991943,0.0658589,-0.108158,-0.991943,0.0658284,-0.108127,-0.991943,0.0656148,-0.108158,-0.991943,0.0662557,-0.107608,-0.991974,0.0658284,-0.108219,-0.991913,0.0657369,-0.108158,-0.991943,0.0657674,-0.108158,-0.991943,0.0657979,-0.108158,-0.991943,0.0658895,-0.108127,-0.991943,-0.0658895,0.108127,0.991943,-0.0657674,0.108188,0.991943,-0.0658284,0.108158,0.991943,-0.0657979,0.108158,0.991943,0.0657674,-0.108249,-0.991943,-0.0658284,0.108036,0.991943,-0.0656758,0.108676,0.991882,-0.0658284,0.108188,0.991943,-0.0658284,0.108158,0.991943,-0.0658284,0.108127,0.991943,0.0657979,-0.108188,-0.991943,0.0660115,-0.108219,-0.991913,-0.143773,0.901334,-0.40849,-0.143864,0.901456,-0.408185,-0.14301,0.900235,-0.411206,-0.142918,0.900143,-0.411451,-0.182684,0.965361,0.186102,-0.182958,0.965819,0.183569,-0.182928,0.965758,0.183813,-0.182684,0.965331,0.186316,-0.750786,0.5215,-0.405377,-0.750755,0.52147,-0.405438,-0.750938,0.521561,-0.404981,-0.750969,0.521561,-0.40492,-0.789911,0.58562,0.181829,-0.78985,0.585711,0.181768,-0.78985,0.585681,0.181768,-0.789911,0.58562,0.181829,-0.924039,-0.185858,-0.334056,-0.927183,-0.184301,-0.32606,-0.926878,-0.184454,-0.326823,-0.923765,-0.18598,-0.334697,-0.964019,-0.12302,0.235603,-0.964171,-0.12302,0.234901,-0.962401,-0.122929,0.242195,-0.962249,-0.122898,0.242775,-0.567125,-0.778649,-0.268441,-0.566912,-0.778344,-0.269753,-0.568865,-0.781243,-0.256905,-0.569018,-0.781518,-0.255745,-0.609546,-0.714408,0.343547,-0.609851,-0.714774,0.342235,-0.60683,-0.711264,0.354686,-0.606555,-0.710929,0.355846,0.1583,-0.969115,-0.189062,0.158452,-0.969329,-0.187689,0.156926,-0.966979,-0.200659,0.156774,-0.966765,-0.201849,0.117161,-0.899167,0.421552,0.117191,-0.898648,0.422651,0.116825,-0.903653,0.412,0.116794,-0.90408,0.411023,0.763237,-0.62392,-0.16776,0.762871,-0.622486,-0.174566,0.762902,-0.622639,-0.173925,0.763268,-0.624043,-0.167211,0.724723,-0.559679,0.401837,0.72454,-0.559313,0.402661,0.72631,-0.563066,0.394147,0.726463,-0.563372,0.393475,0.967223,0.0756554,-0.242256,0.967254,0.0756554,-0.242225,0.967162,0.075808,-0.242531,0.967132,0.0758385,-0.242561,0.927824,0.139988,0.345683,0.927793,0.139988,0.345775,0.928251,0.139714,0.344646,0.928281,0.139683,0.344554,0.629414,0.699393,-0.338603,0.629383,0.69921,-0.338969,0.629688,0.700888,-0.334971,0.629688,0.701041,-0.334635,0.590594,0.764916,0.257027,0.590747,0.764946,0.25663,0.589251,0.764794,0.260475,0.589129,0.764763,0.260781,-0.118473,0.903714,-0.411389,-0.118809,0.904202,-0.410199,-0.115635,0.899503,-0.421308,-0.115329,0.899045,-0.422346,-0.158361,0.967009,0.199377,-0.158544,0.966765,0.200507,-0.156713,0.969268,0.189581,-0.156529,0.969481,0.188574,-0.726066,0.562609,-0.395306,-0.724601,0.559343,-0.402539,-0.724723,0.559648,-0.401868,-0.726157,0.562853,-0.394726,-0.762932,0.622669,0.17362,-0.762902,0.622517,0.174352,-0.763329,0.624104,0.166753,-0.763359,0.624226,0.166143,-0.928251,-0.139622,-0.344737,-0.92822,-0.139622,-0.344798,-0.928465,-0.139592,-0.344157,-0.928465,-0.139592,-0.344096,-0.967071,-0.0755944,0.242988,-0.967223,-0.0757469,0.242286,-0.967223,-0.0757164,0.242347,-0.96704,-0.0755638,0.243049,-0.589953,-0.764672,-0.259194,-0.589923,-0.764611,-0.259499,-0.590381,-0.765282,-0.256417,-0.590411,-0.765343,-0.256142,-0.629536,-0.700369,0.336283,-0.629597,-0.700491,0.335978,-0.629048,-0.699423,0.339183,-0.629017,-0.699332,0.339457,0.182684,-0.96588,-0.183386,0.182928,-0.965392,-0.185705,0.182928,-0.965453,-0.185492,0.182653,-0.965941,-0.183203,0.143284,-0.900174,0.411267,0.143254,-0.900052,0.411512,0.143345,-0.901242,0.408856,0.143345,-0.901334,0.408643,0.790155,-0.585559,-0.180975,0.790185,-0.585559,-0.180822,0.78985,-0.585498,-0.18244,0.789819,-0.585467,-0.182592,0.750999,-0.521439,0.405042,0.750633,-0.521531,0.405591,0.750664,-0.521531,0.40553,0.75103,-0.521439,0.404981,0.96231,0.122837,-0.242561,0.964202,0.123203,-0.234718,0.964019,0.123173,-0.235481,0.962157,0.122806,-0.243202,0.926725,0.185217,0.326884,0.924039,0.184698,0.334697,0.924284,0.184729,0.333934,0.926939,0.185247,0.326243,0.607044,0.711844,-0.35316,0.610126,0.715171,-0.340892,0.609821,0.714805,-0.342204,0.606769,0.711509,-0.354289,0.569597,0.780175,0.258522,0.570055,0.780236,0.257363,0.565783,0.779687,0.268197,0.565386,0.779626,0.269204,0.00497452,0.225074,-0.974303,0.00485244,0.22541,-0.974242,0.00598163,0.222449,-0.974914,0.00604266,0.222266,-0.974944,-0.118564,0.426435,0.896695,-0.118534,0.42616,0.896817,-0.118748,0.428968,0.895444,-0.118778,0.429151,0.895352,-0.21012,0.0936613,-0.973144,-0.21012,0.0936613,-0.973174,-0.210211,0.0937529,-0.973144,-0.210211,0.0937834,-0.973144,-0.334391,0.297525,0.894223,-0.334727,0.297586,0.89407,-0.334697,0.297586,0.89407,-0.334361,0.297525,0.894223,-0.277261,-0.157994,-0.947691,-0.285318,-0.158086,-0.94528,-0.284433,-0.158086,-0.945555,-0.276772,-0.157994,-0.947844,-0.407727,0.0444349,0.911985,-0.408551,0.0443739,0.911618,-0.400983,0.0450148,0.914945,-0.400555,0.0450758,0.915159,-0.139866,-0.361705,-0.92172,-0.140324,-0.362438,-0.921354,-0.13419,-0.352977,-0.925932,-0.133518,-0.35197,-0.92642,-0.258034,-0.148778,0.954588,-0.257363,-0.148045,0.954894,-0.265969,-0.157292,0.951048,-0.267037,-0.158452,0.95056,0.10773,-0.426313,-0.898099,0.107974,-0.415418,-0.903165,0.107944,-0.416547,-0.902646,0.1077,-0.427107,-0.897732,-0.0167852,-0.211249,0.977264,-0.0168157,-0.209998,0.977538,-0.01648,-0.222297,0.974822,-0.0164495,-0.223212,0.974609,0.334086,-0.31962,-0.886654,0.328562,-0.313974,-0.890744,0.329112,-0.314524,-0.890347,0.334422,-0.319956,-0.88641,0.21131,-0.116123,0.970489,0.203925,-0.111484,0.972594,0.204382,-0.111759,0.972472,0.212165,-0.116672,0.970214,0.396558,-0.0636616,-0.915769,0.396252,-0.0637532,-0.915922,0.396283,-0.0637532,-0.915891,0.396588,-0.0636616,-0.915769,0.272744,0.139897,0.951842,0.272744,0.139927,0.951842,0.272835,0.139744,0.951842,0.272835,0.139744,0.951842,0.273354,0.152623,-0.949705,0.276009,0.155217,-0.948515,0.275704,0.154942,-0.948637,0.273202,0.15244,-0.949797,0.149876,0.357158,0.921903,0.149785,0.357036,0.921964,0.151189,0.358837,0.921049,0.151341,0.35902,0.920957,0.018189,0.211371,-0.977233,0.0184332,0.210456,-0.977416,0.0150456,0.222022,-0.974914,0.0146489,0.223457,-0.974578,-0.10773,0.426069,0.898221,-0.10773,0.426862,0.897855,-0.107913,0.416181,0.902829,-0.107944,0.415052,0.903348,-0.211646,0.11655,-0.970367,-0.212439,0.117038,-0.970122,-0.205206,0.112369,-0.972228,-0.20481,0.112125,-0.97235,-0.328715,0.315317,0.890225,-0.335612,0.319498,0.886135,-0.33488,0.319041,0.886593,-0.328288,0.315073,0.890439,-0.272225,-0.139927,-0.951994,-0.273873,-0.139775,-0.951537,-0.273782,-0.139775,-0.951567,-0.272042,-0.139927,-0.952025,-0.396527,0.0638142,0.915769,-0.39732,0.0637226,0.915433,-0.397229,0.0637226,0.915464,-0.396466,0.0638142,0.915799,-0.149144,-0.356639,-0.922239,-0.151952,-0.359233,-0.920774,-0.151646,-0.358959,-0.920927,-0.148961,-0.356487,-0.92233,-0.273873,-0.152562,0.949553,-0.275918,-0.156224,0.948363,-0.275796,-0.15598,0.948454,-0.273659,-0.152196,0.949675,0.118046,-0.425733,-0.897092,0.117985,-0.425489,-0.897214,0.119144,-0.429334,-0.89523,0.119297,-0.429762,-0.894986,-0.00604266,-0.222266,0.974944,-0.00457778,-0.2266,0.973968,-0.00473037,-0.226142,0.974059,-0.00613422,-0.221992,0.975005,0.335002,-0.297647,-0.893948,0.335124,-0.297678,-0.893887,0.333323,-0.297128,-0.894742,0.33314,-0.297067,-0.894833,0.210089,-0.0936003,0.973174,0.21015,-0.0936003,0.973144,0.20954,-0.0936613,0.973296,0.20951,-0.0936613,0.973296,0.401074,-0.0459609,-0.914884,0.400311,-0.0462355,-0.915189,0.407971,-0.0434584,-0.911924,0.408429,-0.0433058,-0.91174,0.277108,0.157201,0.947874,0.285836,0.159307,0.944914,0.285318,0.159185,0.945097,0.276223,0.156957,0.94818,0.259041,0.148167,-0.954405,0.258461,0.147069,-0.954741,0.264138,0.157781,-0.951476,0.264565,0.158544,-0.951231,0.133732,0.354534,0.925413,0.133091,0.353984,0.925718,0.141209,0.361156,0.92172,0.142186,0.362041,0.921232,-0.0658284,0.108127,0.991943,-0.0657979,0.108188,0.991943,-0.0657979,0.108127,0.991943,-0.0657674,0.108127,0.991943,-0.0658284,0.108158,0.991943,-0.0657674,0.108188,0.991943,-0.0657979,0.108188,0.991943,-0.0657979,0.108127,0.991943,-0.0657979,0.108097,0.991943,-0.0657674,0.108127,0.991943,-0.0658589,0.108158,0.991943,-0.0657979,0.108158,0.991943,0.00918607,-0.993927,0.109378,0.00918607,-0.993927,0.109561,0.00921659,-0.993957,0.109256,0.00921659,-0.993957,0.109165,0.514328,-0.84817,0.126682,0.514389,-0.848201,0.126164,0.51445,-0.848201,0.125767,0.514328,-0.84814,0.126804,0.868496,-0.483108,0.110721,0.868648,-0.483077,0.109622,0.868618,-0.483047,0.109989,0.868526,-0.483108,0.110508,0.997772,-0.00122074,0.0664083,0.997742,-0.00112918,0.0670492,0.997772,-0.0011597,0.0666524,0.997772,-0.00122074,0.0663778,0.872768,0.488083,0.00457778,0.872707,0.488174,0.00463881,0.872677,0.488205,0.00463881,0.872707,0.488174,0.00457778,0.506363,0.860195,-0.0603961,0.506455,0.860134,-0.060152,0.506394,0.860164,-0.060152,0.506363,0.860195,-0.0603046,-0.00921659,0.993957,-0.109165,-0.00918607,0.993957,-0.109287,-0.00924711,0.994018,-0.108646,-0.00924711,0.993988,-0.108829,-0.514267,0.848201,-0.126713,-0.514298,0.84817,-0.126682,-0.514389,0.848109,-0.126804,-0.514389,0.848079,-0.127079,-0.868496,0.483169,-0.110538,-0.868496,0.483108,-0.11063,-0.868557,0.483108,-0.110446,-0.868557,0.483108,-0.110416,-0.997772,0.00119022,-0.0663472,-0.997772,0.00122074,-0.0663472,-0.997772,0.00122074,-0.0663472,-0.997772,0.00119022,-0.0663472,-0.872677,-0.488235,-0.00463881,-0.872677,-0.488205,-0.00457778,-0.872677,-0.488205,-0.00439467,-0.872677,-0.488235,-0.00454726,-0.506394,-0.860164,0.0604266,-0.506394,-0.860164,0.0602741,-0.506424,-0.860134,0.0602741,-0.506516,-0.860073,0.0603961,-0.00930815,0.994049,-0.108249,-0.00930815,0.993988,-0.109012,-0.00930815,0.993988,-0.108982,-0.00930815,0.994079,-0.108219,0.50618,0.860317,-0.0599384,0.50618,0.860317,-0.0599689,0.506424,0.860256,-0.0588397,0.506455,0.860225,-0.0588397,0.872524,0.488479,0.00589007,0.872524,0.488479,0.00589007,0.872616,0.488327,0.00589007,0.872616,0.488327,0.00589007,0.997742,-0.0011597,0.0667135,0.997742,-0.0011597,0.066744,0.997833,-0.0011597,0.0656453,0.997833,-0.0011597,0.0656148,0.868679,-0.483108,0.109439,0.868679,-0.483077,0.109439,0.868526,-0.483474,0.108921,0.868526,-0.483474,0.108921,0.514145,-0.847957,0.128819,0.514542,-0.848109,0.126194,0.514542,-0.848109,0.126225,0.514115,-0.847957,0.128819,0.00915555,-0.993713,0.111423,0.00915555,-0.993713,0.111423,0.00915555,-0.993683,0.111667,0.00915555,-0.993683,0.111667,-0.50676,-0.859706,0.0636311,-0.50679,-0.859706,0.0636311,-0.506302,-0.860073,0.0624714,-0.506302,-0.860073,0.0624409,-0.872768,-0.488083,-0.00412,-0.872494,-0.488601,-0.00244148,-0.872494,-0.488601,-0.00244148,-0.872768,-0.488083,-0.00415052,-0.997894,0.00128178,-0.0644856,-0.997894,0.00128178,-0.0644856,-0.997894,0.00143437,-0.0646382,-0.997894,0.00143437,-0.0646382,-0.868984,0.48265,-0.10889,-0.868984,0.48265,-0.108829,-0.868068,0.483139,-0.113895,-0.868068,0.483169,-0.113956,-0.513871,0.847957,-0.129917,-0.514084,0.848354,-0.126255,-0.514084,0.848354,-0.126286,-0.513871,0.847926,-0.129948,-0.0595111,-0.212897,0.975249,-0.0595111,-0.212897,0.975249,-0.0594806,-0.212989,0.975219,-0.0594806,-0.212989,0.975219,0.102847,-0.170324,0.97998,0.10361,-0.17066,0.979858,0.10358,-0.17066,0.979858,0.102847,-0.170324,0.97998,0.22187,-0.0555437,0.973479,0.22187,-0.0555437,0.973479,0.221046,-0.0552385,0.973693,0.221015,-0.0552385,0.973693,0.263527,0.10184,0.959227,0.263161,0.101932,0.959319,0.263192,0.101932,0.959319,0.263527,0.10184,0.959227,0.218146,0.25959,0.940733,0.218146,0.25959,0.940733,0.219398,0.259835,0.940367,0.219398,0.259835,0.940367,0.0982086,0.3755,0.921567,0.0982086,0.3755,0.921567,0.0985443,0.37608,0.921323,0.0985443,0.37608,0.921323,-0.0654317,0.41728,0.9064,-0.0654317,0.417249,0.9064,-0.0653096,0.418226,0.905972,-0.0653096,0.418226,0.905972,-0.228004,0.375164,0.898465,-0.227088,0.374462,0.898984,-0.227119,0.374493,0.898953,-0.228004,0.375164,0.898465,-0.345195,0.259713,0.901852,-0.345195,0.259713,0.901852,-0.345347,0.259713,0.901791,-0.345347,0.259713,0.901791,-0.389019,0.102756,0.915464,-0.387005,0.102573,0.916318,-0.387036,0.102573,0.916318,-0.38905,0.102756,0.915433,-0.343089,-0.0551164,0.937681,-0.343059,-0.0551164,0.937681,-0.344157,-0.0550859,0.937284,-0.344188,-0.0550859,0.937254,-0.222999,-0.170415,0.959777,-0.222999,-0.170415,0.959777,-0.223121,-0.170904,0.959685,-0.223121,-0.170904,0.959655,-0.0652791,0.418134,0.906003,-0.0652791,0.418134,0.906003,-0.0653706,0.417798,0.906156,-0.0653706,0.417798,0.906156,0.0985443,0.37611,0.921293,0.0984527,0.375591,0.921506,0.0984527,0.375591,0.921506,0.0985443,0.37611,0.921293,0.218482,0.25959,0.940672,0.21897,0.259865,0.940458,0.21897,0.259865,0.940458,0.218482,0.25956,0.940672,0.262795,0.101901,0.959441,0.262795,0.101901,0.959441,0.263283,0.10184,0.959319,0.263314,0.10184,0.959288,0.22074,-0.0549028,0.973754,0.22074,-0.0549028,0.973754,0.220862,-0.055208,0.973724,0.220862,-0.055208,0.973724,0.103641,-0.171148,0.979766,0.103641,-0.171178,0.979766,0.102939,-0.169927,0.980041,0.102908,-0.169897,0.980041,-0.0595111,-0.21305,0.975219,-0.0595111,-0.213019,0.975219,-0.0594501,-0.213446,0.975127,-0.0594501,-0.213446,0.975127,-0.222541,-0.169836,0.95999,-0.22251,-0.169836,0.95999,-0.223395,-0.17011,0.959746,-0.223426,-0.17011,0.959746,-0.341807,-0.0542314,0.938169,-0.341807,-0.0542314,0.938169,-0.34257,-0.054445,0.937895,-0.34257,-0.0544755,0.937895,-0.386883,0.102695,0.916379,-0.386883,0.102695,0.916379,-0.38728,0.102573,0.916196,-0.38728,0.102573,0.916196,-0.345439,0.260018,0.901669,-0.345408,0.260018,0.901669,-0.34611,0.260048,0.901425,-0.34611,0.260048,0.901395,-0.227882,0.375378,0.898404,-0.228401,0.375958,0.898007,-0.228401,0.375958,0.898007,-0.227882,0.375378,0.898404,-0.0118717,-0.909909,0.414594,-0.0118717,-0.909909,0.414594,-0.0119022,-0.909482,0.41554,-0.0119022,-0.909452,0.415571,0.468154,-0.772515,0.428968,0.468673,-0.772698,0.428083,0.468673,-0.772698,0.428083,0.468154,-0.772515,0.428999,0.806269,-0.426527,0.409833,0.806269,-0.426527,0.409833,0.806635,-0.426557,0.40904,0.806665,-0.426557,0.409009,0.930052,0.0319529,0.366008,0.929807,0.0318308,0.366619,0.929807,0.0318308,0.366588,0.930052,0.0319834,0.365978,0.80929,0.497452,0.312357,0.80929,0.497421,0.312357,0.809015,0.498123,0.31193,0.809015,0.498123,0.31193,0.459822,0.850276,0.25602,0.459792,0.850642,0.25483,0.459792,0.850642,0.25486,0.459822,0.850276,0.25602,-0.0293893,0.97763,0.208136,-0.0293893,0.97763,0.208106,-0.0295724,0.977355,0.209387,-0.0295724,0.977355,0.209418,-0.50972,0.839747,0.186926,-0.508957,0.839869,0.188574,-0.508957,0.839869,0.188543,-0.50972,0.839747,0.186926,-0.847041,0.492813,0.199011,-0.847041,0.492813,0.199011,-0.847041,0.492965,0.198706,-0.847041,0.492965,0.198706,-0.969909,0.0343638,0.241005,-0.969909,0.0343638,0.241005,-0.970092,0.0341502,0.240303,-0.970092,0.0341502,0.240272,-0.849818,-0.430677,0.303812,-0.849788,-0.430677,0.303812,-0.850185,-0.430677,0.302713,-0.850185,-0.430677,0.302713,-0.501175,-0.782464,0.369488,-0.501175,-0.782464,0.369488,-0.501572,-0.782434,0.368999,-0.501602,-0.782434,0.368999,-0.0294504,0.977691,0.207923,-0.0294504,0.977691,0.207892,-0.0294198,0.977477,0.20893,-0.0294198,0.977477,0.20896,0.460097,0.850642,0.25425,0.459944,0.85052,0.255013,0.459944,0.85052,0.254982,0.460097,0.850673,0.25425,0.809259,0.497665,0.312021,0.809503,0.497696,0.31138,0.809503,0.497696,0.31138,0.809259,0.497665,0.312021,0.929502,0.0320444,0.367382,0.929502,0.0320444,0.367382,0.929838,0.0317698,0.366558,0.929838,0.0317698,0.366558,0.806665,-0.426649,0.408887,0.807001,-0.426984,0.40788,0.807001,-0.426984,0.40791,0.806665,-0.426649,0.408887,0.468337,-0.772851,0.428144,0.468978,-0.773186,0.426862,0.468947,-0.773186,0.426862,0.468307,-0.772851,0.428175,-0.0117496,-0.910459,0.413404,-0.0119327,-0.909452,0.415571,-0.0119327,-0.909482,0.41554,-0.0117496,-0.910459,0.413343,-0.501938,-0.782769,0.367809,-0.501938,-0.782769,0.367809,-0.501358,-0.783227,0.367626,-0.501358,-0.783227,0.367626,-0.850551,-0.430525,0.301981,-0.850551,-0.430494,0.301981,-0.850185,-0.43086,0.30253,-0.850154,-0.43086,0.30253,-0.969878,0.0343638,0.241096,-0.970244,0.0340892,0.239601,-0.970244,0.0340892,0.239631,-0.969878,0.0343638,0.241127,-0.846797,0.492813,0.200079,-0.846797,0.492813,0.20011,-0.846919,0.492813,0.199561,-0.846919,0.492813,0.199561,-0.509049,0.8399,0.188086,-0.509018,0.83993,0.188086,-0.509537,0.839473,0.188665,-0.509537,0.839473,0.188696,-0.0294504,0.97763,0.208167,-0.0294198,0.977447,0.20896,-0.0294198,0.977477,0.20896,-0.0294504,0.97763,0.208167,-0.50911,0.839412,0.190069,-0.50911,0.839412,0.1901,-0.509445,0.839686,0.188055,-0.509445,0.839686,0.188025,-0.846553,0.492782,0.201147,-0.846553,0.492782,0.201209,-0.847102,0.493271,0.197607,-0.847102,0.493271,0.197546,-0.970275,0.0340587,0.23957,-0.970275,0.0340587,0.23957,-0.970275,0.0341197,0.239448,-0.970275,0.0341197,0.239448,-0.850093,-0.430647,0.303049,-0.850002,-0.430464,0.303537,-0.850002,-0.430464,0.303537,-0.850093,-0.430647,0.303018,-0.501297,-0.78283,0.368542,-0.50148,-0.782739,0.36845,-0.50148,-0.782739,0.36848,-0.501297,-0.78283,0.368542,-0.0119327,-0.909299,0.415937,-0.0119327,-0.909146,0.416272,-0.0119327,-0.909146,0.416272,-0.0119327,-0.909299,0.415906,0.468734,-0.773431,0.426649,0.468734,-0.773461,0.426588,0.46852,-0.772179,0.429151,0.46852,-0.772179,0.429182,0.806696,-0.426801,0.408704,0.806665,-0.426801,0.408704,0.80697,-0.426832,0.408094,0.80697,-0.426832,0.408094,0.929746,0.0320444,0.366741,0.929746,0.0320444,0.36671,0.929563,0.0319834,0.367229,0.929563,0.0319834,0.36726,0.808802,0.498062,0.312601,0.808802,0.498062,0.312601,0.808863,0.497665,0.313059,0.808863,0.497665,0.313059,0.460067,0.850887,0.253548,0.460097,0.850887,0.253517,0.4597,0.850368,0.255898,0.4597,0.850368,0.255959,-0.0653401,0.418439,0.905881,-0.0653401,0.418439,0.905881,-0.0653096,0.418226,0.905972,-0.0653096,0.418226,0.905972,-0.228309,0.375958,0.898038,-0.227729,0.375378,0.898434,-0.22776,0.375378,0.898434,-0.228309,0.375988,0.898038,-0.345927,0.259987,0.901486,-0.345988,0.259926,0.901486,-0.345988,0.259926,0.901486,-0.345927,0.259987,0.901486,-0.387097,0.102695,0.916288,-0.388226,0.102634,0.915799,-0.388195,0.102634,0.915799,-0.387097,0.102695,0.916288,-0.342967,-0.0545061,0.937742,-0.34373,-0.0552385,0.937407,-0.34373,-0.0552385,0.937437,-0.342967,-0.0545061,0.937742,-0.223395,-0.171117,0.959563,-0.223182,-0.170537,0.959716,-0.223182,-0.170568,0.959716,-0.223426,-0.171117,0.959563,-0.0594806,-0.213172,0.975188,-0.0594806,-0.213202,0.975188,-0.0594806,-0.212714,0.97528,-0.0594806,-0.212714,0.97528,0.103183,-0.170446,0.979919,0.103183,-0.170446,0.979919,0.102725,-0.169927,0.980071,0.102695,-0.169927,0.980071,0.220649,-0.0547807,0.973785,0.221046,-0.055208,0.973693,0.221046,-0.055208,0.973693,0.220618,-0.0547807,0.973785,0.2631,0.101749,0.959349,0.2631,0.101749,0.959349,0.263283,0.10181,0.959319,0.263283,0.10181,0.959319,0.21775,0.259468,0.940855,0.217719,0.259468,0.940855,0.219367,0.259072,0.94058,0.219398,0.259072,0.94058,0.0986358,0.375866,0.921384,0.0977813,0.375042,0.921812,0.0978118,0.375042,0.921812,0.0986358,0.375866,0.921384,0.0294809,-0.977477,-0.208899,0.0294809,-0.977477,-0.208899,0.0294809,-0.977538,-0.208655,0.0294809,-0.977538,-0.208655,0.509415,-0.839778,-0.187658,0.509323,-0.839869,-0.187445,0.509323,-0.839869,-0.187445,0.509415,-0.839778,-0.187689,0.847072,-0.492935,-0.198584,0.847072,-0.492904,-0.198584,0.847011,-0.492935,-0.198798,0.847011,-0.492965,-0.198798,0.970061,-0.0342723,-0.240394,0.970061,-0.0342723,-0.240394,0.96997,-0.0342723,-0.240761,0.96997,-0.0342723,-0.240791,0.84994,0.430403,-0.303812,0.84994,0.430403,-0.303842,0.84994,0.430616,-0.303507,0.84994,0.430647,-0.303507,0.501358,0.782403,-0.369335,0.501297,0.782281,-0.369732,0.501297,0.782281,-0.369701,0.501389,0.782403,-0.369335,0.0119022,0.909574,-0.415326,0.0119022,0.909574,-0.415296,0.0119327,0.909391,-0.415693,0.0119327,0.909391,-0.415723,-0.46849,0.77279,-0.428083,-0.46849,0.77282,-0.428053,-0.468429,0.772668,-0.428388,-0.468429,0.772637,-0.428419,-0.806665,0.426801,-0.408765,-0.806574,0.426679,-0.40904,-0.806574,0.426679,-0.409009,-0.806665,0.426801,-0.408734,-0.929716,-0.0320139,-0.366863,-0.929746,-0.0318613,-0.366741,-0.929746,-0.0318613,-0.366771,-0.929716,-0.0320444,-0.366863,-0.809137,-0.497696,-0.312326,-0.809137,-0.497696,-0.312326,-0.809137,-0.497696,-0.312326,-0.809137,-0.497696,-0.312326,-0.459853,-0.85052,-0.255135,-0.459853,-0.85052,-0.255135,-0.459944,-0.850551,-0.254921,-0.459944,-0.850551,-0.254921,0.0653706,-0.41792,-0.906095,0.0653706,-0.41792,-0.906095,0.0654012,-0.418165,-0.906003,0.0654012,-0.418195,-0.905972,0.227973,-0.375439,-0.898343,0.227973,-0.375439,-0.898343,0.227943,-0.375408,-0.898373,0.227943,-0.375408,-0.898373,0.345622,-0.259804,-0.901669,0.345622,-0.259804,-0.901669,0.345683,-0.259896,-0.901608,0.345683,-0.259896,-0.901608,0.387432,-0.102664,-0.916135,0.387432,-0.102664,-0.916135,0.387677,-0.102634,-0.916044,0.387707,-0.102634,-0.916013,0.343333,0.0548418,-0.93759,0.343364,0.0548723,-0.93759,0.342845,0.0546281,-0.937773,0.342814,0.0545976,-0.937803,0.223151,0.170446,-0.959746,0.223212,0.170629,-0.959685,0.223212,0.170598,-0.959716,0.223151,0.170415,-0.959746,0.0594806,0.212867,-0.975249,0.0594806,0.212867,-0.975249,0.0594806,0.213141,-0.975188,0.0594806,0.213141,-0.975188,-0.103336,0.170598,-0.979888,-0.103305,0.170812,-0.979858,-0.103305,0.170812,-0.979858,-0.103336,0.170598,-0.979888,-0.221137,0.0553911,-0.973632,-0.221137,0.0554216,-0.973662,-0.22129,0.0553911,-0.973632,-0.22129,0.0553911,-0.973601,-0.263405,-0.101871,-0.959258,-0.263405,-0.101871,-0.959258,-0.263161,-0.10181,-0.959349,-0.263131,-0.10181,-0.959349,-0.218635,-0.25956,-0.940642,-0.218635,-0.25956,-0.940642,-0.218635,-0.259651,-0.940611,-0.218635,-0.259651,-0.940611,-0.0983001,-0.375622,-0.921537,-0.0983612,-0.375744,-0.921476,-0.0983612,-0.375744,-0.921476,-0.0982696,-0.375622,-0.921537],
                "itemSize":3,
                "type":"Float32Array"
            },
            "position":{
                "array":[0.56426,0.410992,0.270545,0.564381,0.410794,0.26873,0.568161,0.410856,0.268974,0.56804,0.411054,0.27079,0.57133,0.413049,0.27079,0.56804,0.411054,0.27079,0.568161,0.410856,0.268974,0.571451,0.412851,0.268975,0.573369,0.416245,0.268732,0.573249,0.416443,0.270548,0.57133,0.413049,0.27079,0.571451,0.412851,0.268975,0.573369,0.416245,0.268732,0.573402,0.420128,0.268311,0.573282,0.420326,0.270126,0.573249,0.416443,0.270548,0.57154,0.42346,0.267824,0.57142,0.423659,0.26964,0.573282,0.420326,0.270126,0.573402,0.420128,0.268311,0.568283,0.425348,0.267402,0.568163,0.425546,0.269217,0.57142,0.423659,0.26964,0.57154,0.42346,0.267824,0.568163,0.425546,0.269217,0.568283,0.425348,0.267402,0.564503,0.425286,0.267158,0.564382,0.425485,0.268973,0.564382,0.425485,0.268973,0.564503,0.425286,0.267158,0.561213,0.423291,0.267157,0.561092,0.423489,0.268972,0.559174,0.420095,0.269215,0.561092,0.423489,0.268972,0.561213,0.423291,0.267157,0.559294,0.419897,0.2674,0.559174,0.420095,0.269215,0.559294,0.419897,0.2674,0.559262,0.416014,0.267821,0.559141,0.416212,0.269637,0.559141,0.416212,0.269637,0.559262,0.416014,0.267821,0.561123,0.412682,0.268308,0.561003,0.41288,0.270123,0.56426,0.410992,0.270545,0.561003,0.41288,0.270123,0.561123,0.412682,0.268308,0.564381,0.410794,0.26873,0.564502,0.411118,0.268334,0.564844,0.412392,0.268218,0.567774,0.41244,0.268407,0.568094,0.411177,0.268566,0.561408,0.412912,0.267933,0.562319,0.413855,0.26789,0.559639,0.416077,0.26747,0.560876,0.416437,0.267513,0.55967,0.419766,0.26707,0.560902,0.419447,0.267187,0.562389,0.422077,0.266998,0.561493,0.422991,0.266839,0.564618,0.424886,0.26684,0.564938,0.423624,0.266999,0.56821,0.424945,0.267072,0.567868,0.423671,0.267188,0.570393,0.422208,0.267515,0.571304,0.423151,0.267473,0.571835,0.419626,0.267893,0.573073,0.419986,0.267936,0.573042,0.416297,0.268336,0.57181,0.416616,0.268219,0.571219,0.413072,0.268566,0.570323,0.413986,0.268407,0.564344,0.411403,0.270783,0.564271,0.411131,0.270808,0.567995,0.411191,0.271048,0.567926,0.411462,0.271014,0.571235,0.413157,0.271049,0.571044,0.413353,0.271015,0.573125,0.4165,0.27081,0.572861,0.416569,0.270785,0.573158,0.420325,0.270395,0.572892,0.420248,0.270386,0.571128,0.423405,0.269924,0.571324,0.423607,0.269915,0.568115,0.425467,0.2695,0.568042,0.425194,0.269525,0.564392,0.425406,0.269259,0.56446,0.425135,0.269293,0.561151,0.423441,0.269258,0.561343,0.423245,0.269293,0.559261,0.420098,0.269498,0.559525,0.420029,0.269523,0.559229,0.416272,0.269913,0.559494,0.416349,0.269922,0.561063,0.41299,0.270392,0.561258,0.413192,0.270383,0.562467,0.4169,0.267568,0.564412,0.417466,0.267635,0.564923,0.416549,0.267769,0.563491,0.415067,0.267836,0.562485,0.419036,0.267336,0.564421,0.418534,0.26752,0.56354,0.420903,0.267203,0.564948,0.419467,0.267453,0.56535,0.422,0.267203,0.565853,0.420016,0.267453,0.5683,0.418597,0.26777,0.567788,0.419514,0.267636,0.569221,0.420996,0.26757,0.570245,0.419163,0.267838,0.570227,0.417027,0.268069,0.568291,0.417529,0.267886,0.567764,0.416596,0.267953,0.569171,0.41516,0.268203,0.567362,0.414063,0.268202,0.566859,0.416047,0.267953,0.569027,0.415398,0.270381,0.567619,0.416834,0.270131,0.566714,0.416285,0.270131,0.567217,0.414301,0.270381,0.570082,0.417265,0.270248,0.568147,0.417767,0.270065,0.5701,0.419401,0.270016,0.568156,0.418835,0.269949,0.569076,0.421233,0.269748,0.567644,0.419751,0.269815,0.564804,0.419705,0.269632,0.565708,0.420253,0.269632,0.565205,0.422238,0.269382,0.563396,0.42114,0.269382,0.564276,0.418771,0.269698,0.562341,0.419273,0.269515,0.564267,0.417703,0.269814,0.562323,0.417138,0.269747,0.563347,0.415305,0.270015,0.564779,0.416787,0.269948,0.570179,0.414223,0.270586,0.567629,0.412677,0.270585,0.571665,0.416854,0.270398,0.571691,0.419863,0.270071,0.570248,0.422446,0.269694,0.564794,0.423861,0.269178,0.562244,0.422315,0.269177,0.560757,0.419684,0.269365,0.560732,0.416675,0.269692,0.562175,0.414092,0.270069,0.565819,0.41603,0.267886,0.566356,0.418032,0.267703,0.566893,0.420033,0.26752,0.566211,0.418269,0.269881,0.565675,0.416268,0.270064,0.566748,0.42027,0.269699,0.565002,0.413048,0.268341,0.564882,0.413246,0.270156,0.565953,0.413439,0.270206,0.566073,0.413242,0.268391,0.565953,0.413439,0.270206,0.56657,0.414288,0.270155,0.566691,0.414091,0.268339,0.566073,0.413242,0.268391,0.566523,0.415161,0.268211,0.566691,0.414091,0.268339,0.56657,0.414288,0.270155,0.566402,0.415359,0.270027,0.565614,0.415975,0.269907,0.565734,0.415777,0.268092,0.566523,0.415161,0.268211,0.566402,0.415359,0.270027,0.564619,0.415822,0.269858,0.56474,0.415624,0.268043,0.565734,0.415777,0.268092,0.565614,0.415975,0.269907,0.56474,0.415624,0.268043,0.564619,0.415822,0.269858,0.563936,0.414972,0.269906,0.564057,0.414774,0.26809,0.564057,0.414774,0.26809,0.563936,0.414972,0.269906,0.564048,0.413934,0.270026,0.564168,0.413736,0.268211,0.564882,0.413246,0.270156,0.565002,0.413048,0.268341,0.564168,0.413736,0.268211,0.564048,0.413934,0.270026,0.566954,0.420325,0.267677,0.566833,0.420524,0.269492,0.567828,0.420676,0.269542,0.567948,0.420478,0.267726,0.568511,0.421527,0.269494,0.568631,0.421329,0.267679,0.567948,0.420478,0.267726,0.567828,0.420676,0.269542,0.56852,0.422367,0.267558,0.568631,0.421329,0.267679,0.568511,0.421527,0.269494,0.568399,0.422565,0.269374,0.568399,0.422565,0.269374,0.567565,0.423252,0.269243,0.567685,0.423055,0.267428,0.56852,0.422367,0.267558,0.566615,0.422861,0.267378,0.567685,0.423055,0.267428,0.567565,0.423252,0.269243,0.566494,0.423059,0.269193,0.566615,0.422861,0.267378,0.566494,0.423059,0.269193,0.565877,0.42221,0.269245,0.565997,0.422012,0.26743,0.566045,0.421139,0.269373,0.566165,0.420941,0.267557,0.565997,0.422012,0.26743,0.565877,0.42221,0.269245,0.566165,0.420941,0.267557,0.566045,0.421139,0.269373,0.566833,0.420524,0.269492,0.566954,0.420325,0.267677,0.566034,0.413301,0.270412,0.564821,0.413084,0.270355,0.564699,0.412629,0.270396,0.56565,0.416177,0.270072,0.564539,0.416014,0.270016,0.565887,0.421041,0.269558,0.565689,0.422275,0.26941,0.568548,0.422677,0.269556,0.568675,0.4215,0.269693,0.568028,0.420286,0.267568,0.568819,0.421263,0.267514,0.566533,0.423,0.267173,0.565833,0.422037,0.267231,0.564019,0.413624,0.268028,0.564966,0.412846,0.268176,0.56668,0.415259,0.268027,0.565795,0.415939,0.267894,0.566179,0.413063,0.268233,0.566879,0.414026,0.268174,0.564684,0.415777,0.267838,0.563893,0.4148,0.267892,0.566032,0.420804,0.267379,0.566535,0.415497,0.270205,0.566734,0.414263,0.270353,0.567883,0.420524,0.269747,0.563748,0.415038,0.27007,0.568693,0.422439,0.267377,0.566389,0.423237,0.269351,0.566772,0.420361,0.269691,0.567724,0.423909,0.269367,0.567602,0.423454,0.269408,0.563875,0.413861,0.270207,0.567746,0.423217,0.26723,0.566917,0.420124,0.267512,0.564999,0.412988,0.268209,0.565002,0.413048,0.268341,0.566073,0.413242,0.268391,0.566105,0.413187,0.268261,0.565953,0.413439,0.270206,0.564882,0.413246,0.270156,0.564861,0.413215,0.270297,0.565967,0.413415,0.270348,0.566105,0.413187,0.268261,0.566073,0.413242,0.268391,0.566691,0.414091,0.268339,0.566744,0.414064,0.268207,0.56657,0.414288,0.270155,0.565953,0.413439,0.270206,0.565967,0.413415,0.270348,0.566605,0.414292,0.270295,0.566691,0.414091,0.268339,0.566523,0.415161,0.268211,0.566568,0.415176,0.268074,0.566744,0.414064,0.268207,0.566429,0.415404,0.270162,0.566402,0.415359,0.270027,0.56657,0.414288,0.270155,0.566605,0.414292,0.270295,0.566568,0.415176,0.268074,0.566523,0.415161,0.268211,0.565734,0.415777,0.268092,0.565755,0.415808,0.267952,0.565617,0.416036,0.270039,0.565614,0.415975,0.269907,0.566402,0.415359,0.270027,0.566429,0.415404,0.270162,0.565755,0.415808,0.267952,0.565734,0.415777,0.268092,0.56474,0.415624,0.268043,0.564732,0.415653,0.267901,0.564593,0.41588,0.269988,0.564619,0.415822,0.269858,0.565614,0.415975,0.269907,0.565617,0.416036,0.270039,0.56474,0.415624,0.268043,0.564057,0.414774,0.26809,0.564022,0.414771,0.26795,0.564732,0.415653,0.267901,0.563883,0.414998,0.270038,0.563936,0.414972,0.269906,0.564619,0.415822,0.269858,0.564593,0.41588,0.269988,0.564022,0.414771,0.26795,0.564057,0.414774,0.26809,0.564168,0.413736,0.268211,0.564137,0.413698,0.268074,0.563998,0.413926,0.270162,0.564048,0.413934,0.270026,0.563936,0.414972,0.269906,0.563883,0.414998,0.270038,0.564137,0.413698,0.268074,0.564168,0.413736,0.268211,0.565002,0.413048,0.268341,0.564999,0.412988,0.268209,0.564861,0.413215,0.270297,0.564882,0.413246,0.270156,0.564048,0.413934,0.270026,0.563998,0.413926,0.270162,0.566951,0.420265,0.267545,0.566954,0.420325,0.267677,0.567948,0.420478,0.267726,0.567974,0.42042,0.267596,0.567835,0.420648,0.269684,0.567828,0.420676,0.269542,0.566833,0.420524,0.269492,0.566812,0.420493,0.269633,0.567948,0.420478,0.267726,0.568631,0.421329,0.267679,0.568684,0.421302,0.267547,0.567974,0.42042,0.267596,0.568546,0.42153,0.269635,0.568511,0.421527,0.269494,0.567828,0.420676,0.269542,0.567835,0.420648,0.269684,0.568684,0.421302,0.267547,0.568631,0.421329,0.267679,0.56852,0.422367,0.267558,0.568569,0.422375,0.267422,0.568399,0.422565,0.269374,0.568511,0.421527,0.269494,0.568546,0.42153,0.269635,0.56843,0.422603,0.26951,0.568569,0.422375,0.267422,0.56852,0.422367,0.267558,0.567685,0.423055,0.267428,0.567707,0.423085,0.267288,0.567568,0.423313,0.269375,0.567565,0.423252,0.269243,0.568399,0.422565,0.269374,0.56843,0.422603,0.26951,0.567685,0.423055,0.267428,0.566615,0.422861,0.267378,0.5666,0.422886,0.267236,0.567707,0.423085,0.267288,0.566462,0.423114,0.269324,0.566494,0.423059,0.269193,0.567565,0.423252,0.269243,0.567568,0.423313,0.269375,0.5666,0.422886,0.267236,0.566615,0.422861,0.267378,0.565997,0.422012,0.26743,0.565962,0.422009,0.267289,0.565877,0.42221,0.269245,0.566494,0.423059,0.269193,0.566462,0.423114,0.269324,0.565824,0.422236,0.269377,0.565997,0.422012,0.26743,0.566165,0.420941,0.267557,0.566138,0.420897,0.267422,0.565962,0.422009,0.267289,0.566045,0.421139,0.269373,0.565877,0.42221,0.269245,0.565824,0.422236,0.269377,0.565999,0.421125,0.26951,0.566165,0.420941,0.267557,0.566954,0.420325,0.267677,0.566951,0.420265,0.267545,0.566138,0.420897,0.267422,0.566812,0.420493,0.269633,0.566833,0.420524,0.269492,0.566045,0.421139,0.269373,0.565999,0.421125,0.26951,0.564966,0.412846,0.268176,0.564999,0.412988,0.268209,0.566105,0.413187,0.268261,0.566179,0.413063,0.268233,0.566034,0.413301,0.270412,0.565967,0.413415,0.270348,0.564861,0.413215,0.270297,0.564821,0.413084,0.270355,0.566744,0.414064,0.268207,0.566879,0.414026,0.268174,0.566179,0.413063,0.268233,0.566105,0.413187,0.268261,0.566034,0.413301,0.270412,0.566734,0.414263,0.270353,0.566605,0.414292,0.270295,0.565967,0.413415,0.270348,0.566744,0.414064,0.268207,0.566568,0.415176,0.268074,0.56668,0.415259,0.268027,0.566879,0.414026,0.268174,0.566535,0.415497,0.270205,0.566429,0.415404,0.270162,0.566605,0.414292,0.270295,0.566734,0.414263,0.270353,0.565755,0.415808,0.267952,0.565795,0.415939,0.267894,0.56668,0.415259,0.268027,0.566568,0.415176,0.268074,0.566429,0.415404,0.270162,0.566535,0.415497,0.270205,0.56565,0.416177,0.270072,0.565617,0.416036,0.270039,0.565755,0.415808,0.267952,0.564732,0.415653,0.267901,0.564684,0.415777,0.267838,0.565795,0.415939,0.267894,0.564539,0.416014,0.270016,0.564593,0.41588,0.269988,0.565617,0.416036,0.270039,0.56565,0.416177,0.270072,0.564732,0.415653,0.267901,0.564022,0.414771,0.26795,0.563893,0.4148,0.267892,0.564684,0.415777,0.267838,0.564539,0.416014,0.270016,0.563748,0.415038,0.27007,0.563883,0.414998,0.270038,0.564593,0.41588,0.269988,0.564022,0.414771,0.26795,0.564137,0.413698,0.268074,0.564019,0.413624,0.268028,0.563893,0.4148,0.267892,0.563875,0.413861,0.270207,0.563998,0.413926,0.270162,0.563883,0.414998,0.270038,0.563748,0.415038,0.27007,0.564137,0.413698,0.268074,0.564999,0.412988,0.268209,0.564966,0.412846,0.268176,0.564019,0.413624,0.268028,0.563998,0.413926,0.270162,0.563875,0.413861,0.270207,0.564821,0.413084,0.270355,0.564861,0.413215,0.270297,0.567974,0.42042,0.267596,0.568028,0.420286,0.267568,0.566917,0.420124,0.267512,0.566951,0.420265,0.267545,0.566812,0.420493,0.269633,0.566772,0.420361,0.269691,0.567883,0.420524,0.269747,0.567835,0.420648,0.269684,0.568028,0.420286,0.267568,0.567974,0.42042,0.267596,0.568684,0.421302,0.267547,0.568819,0.421263,0.267514,0.568546,0.42153,0.269635,0.567835,0.420648,0.269684,0.567883,0.420524,0.269747,0.568675,0.4215,0.269693,0.568693,0.422439,0.267377,0.568819,0.421263,0.267514,0.568684,0.421302,0.267547,0.568569,0.422375,0.267422,0.56843,0.422603,0.26951,0.568546,0.42153,0.269635,0.568675,0.4215,0.269693,0.568548,0.422677,0.269556,0.568569,0.422375,0.267422,0.567707,0.423085,0.267288,0.567746,0.423217,0.26723,0.568693,0.422439,0.267377,0.568548,0.422677,0.269556,0.567602,0.423454,0.269408,0.567568,0.423313,0.269375,0.56843,0.422603,0.26951,0.5666,0.422886,0.267236,0.566533,0.423,0.267173,0.567746,0.423217,0.26723,0.567707,0.423085,0.267288,0.566462,0.423114,0.269324,0.567568,0.423313,0.269375,0.567602,0.423454,0.269408,0.566389,0.423237,0.269351,0.565962,0.422009,0.267289,0.565833,0.422037,0.267231,0.566533,0.423,0.267173,0.5666,0.422886,0.267236,0.565689,0.422275,0.26941,0.565824,0.422236,0.269377,0.566462,0.423114,0.269324,0.566389,0.423237,0.269351,0.565833,0.422037,0.267231,0.565962,0.422009,0.267289,0.566138,0.420897,0.267422,0.566032,0.420804,0.267379,0.565689,0.422275,0.26941,0.565887,0.421041,0.269558,0.565999,0.421125,0.26951,0.565824,0.422236,0.269377,0.566032,0.420804,0.267379,0.566138,0.420897,0.267422,0.566951,0.420265,0.267545,0.566917,0.420124,0.267512,0.565999,0.421125,0.26951,0.565887,0.421041,0.269558,0.566772,0.420361,0.269691,0.566812,0.420493,0.269633,0.567889,0.411649,0.270715,0.564421,0.411592,0.270491,0.570908,0.41348,0.270715,0.572668,0.416594,0.270493,0.572698,0.420157,0.270106,0.57099,0.423214,0.269659,0.568002,0.424946,0.269272,0.564533,0.424889,0.269048,0.561515,0.423059,0.269048,0.559754,0.419944,0.26927,0.559725,0.416382,0.269657,0.561433,0.413324,0.270104,0.568029,0.411071,0.270953,0.564249,0.41101,0.270709,0.56426,0.410992,0.270545,0.56804,0.411054,0.27079,0.56804,0.411054,0.27079,0.57133,0.413049,0.27079,0.57132,0.413067,0.270954,0.568029,0.411071,0.270953,0.573238,0.416461,0.270711,0.57132,0.413067,0.270954,0.57133,0.413049,0.27079,0.573249,0.416443,0.270548,0.573271,0.420344,0.27029,0.573238,0.416461,0.270711,0.573249,0.416443,0.270548,0.573282,0.420326,0.270126,0.573271,0.420344,0.27029,0.573282,0.420326,0.270126,0.57142,0.423659,0.26964,0.571409,0.423676,0.269803,0.568152,0.425564,0.269381,0.571409,0.423676,0.269803,0.57142,0.423659,0.26964,0.568163,0.425546,0.269217,0.564382,0.425485,0.268973,0.564371,0.425502,0.269137,0.568152,0.425564,0.269381,0.568163,0.425546,0.269217,0.564371,0.425502,0.269137,0.564382,0.425485,0.268973,0.561092,0.423489,0.268972,0.561082,0.423507,0.269136,0.559163,0.420113,0.269379,0.561082,0.423507,0.269136,0.561092,0.423489,0.268972,0.559174,0.420095,0.269215,0.559174,0.420095,0.269215,0.559141,0.416212,0.269637,0.55913,0.41623,0.2698,0.559163,0.420113,0.269379,0.561003,0.41288,0.270123,0.560992,0.412898,0.270287,0.55913,0.41623,0.2698,0.559141,0.416212,0.269637,0.560992,0.412898,0.270287,0.561003,0.41288,0.270123,0.56426,0.410992,0.270545,0.564249,0.41101,0.270709,0.564381,0.411501,0.270664,0.567906,0.411558,0.270892,0.56791,0.411553,0.270837,0.564385,0.411495,0.27061,0.561347,0.413255,0.270216,0.561343,0.413261,0.270271,0.564381,0.411501,0.270664,0.564385,0.411495,0.27061,0.561343,0.413261,0.270271,0.561347,0.413255,0.270216,0.559611,0.416363,0.269762,0.559608,0.416369,0.269816,0.559608,0.416369,0.269816,0.559611,0.416363,0.269762,0.559642,0.419984,0.269369,0.559638,0.41999,0.269424,0.559638,0.41999,0.269424,0.559642,0.419984,0.269369,0.561431,0.423149,0.269143,0.561427,0.423155,0.269197,0.564495,0.425015,0.269198,0.561427,0.423155,0.269197,0.561431,0.423149,0.269143,0.564499,0.425009,0.269143,0.564495,0.425015,0.269198,0.564499,0.425009,0.269143,0.568024,0.425067,0.269371,0.56802,0.425073,0.269426,0.56802,0.425073,0.269426,0.568024,0.425067,0.269371,0.571061,0.423306,0.269765,0.571057,0.423313,0.269819,0.572794,0.420205,0.270273,0.571057,0.423313,0.269819,0.571061,0.423306,0.269765,0.572797,0.420199,0.270219,0.572794,0.420205,0.270273,0.572797,0.420199,0.270219,0.572767,0.416578,0.270612,0.572763,0.416584,0.270666,0.572763,0.416584,0.270666,0.572767,0.416578,0.270612,0.570978,0.413413,0.270838,0.570974,0.413419,0.270893,0.570978,0.413413,0.270838,0.56791,0.411553,0.270837,0.567906,0.411558,0.270892,0.570974,0.413419,0.270893,0.568017,0.411107,0.271031,0.567995,0.411191,0.271048,0.564271,0.411131,0.270808,0.564251,0.411046,0.270788,0.571235,0.413157,0.271049,0.567995,0.411191,0.271048,0.568017,0.411107,0.271031,0.571295,0.413095,0.271032,0.573206,0.416477,0.27079,0.573125,0.4165,0.27081,0.571235,0.413157,0.271049,0.571295,0.413095,0.271032,0.573158,0.420325,0.270395,0.573125,0.4165,0.27081,0.573206,0.416477,0.27079,0.573239,0.420345,0.270371,0.571384,0.423665,0.269886,0.571324,0.423607,0.269915,0.573158,0.420325,0.270395,0.573239,0.420345,0.270371,0.571324,0.423607,0.269915,0.571384,0.423665,0.269886,0.568139,0.425546,0.269465,0.568115,0.425467,0.2695,0.564373,0.425484,0.269222,0.564392,0.425406,0.269259,0.568115,0.425467,0.2695,0.568139,0.425546,0.269465,0.561151,0.423441,0.269258,0.564392,0.425406,0.269259,0.564373,0.425484,0.269222,0.561095,0.423496,0.269221,0.559184,0.420115,0.269463,0.559261,0.420098,0.269498,0.561151,0.423441,0.269258,0.561095,0.423496,0.269221,0.559229,0.416272,0.269913,0.559261,0.420098,0.269498,0.559184,0.420115,0.269463,0.559151,0.416246,0.269883,0.561006,0.412927,0.270368,0.561063,0.41299,0.270392,0.559229,0.416272,0.269913,0.559151,0.416246,0.269883,0.564251,0.411046,0.270788,0.564271,0.411131,0.270808,0.561063,0.41299,0.270392,0.561006,0.412927,0.270368,0.564368,0.411482,0.270748,0.564344,0.411403,0.270783,0.567926,0.411462,0.271014,0.567907,0.41154,0.270977,0.561258,0.413192,0.270383,0.564344,0.411403,0.270783,0.564368,0.411482,0.270748,0.561319,0.41325,0.270353,0.559494,0.416349,0.269922,0.561258,0.413192,0.270383,0.561319,0.41325,0.270353,0.559576,0.41637,0.269897,0.559606,0.420006,0.269503,0.559525,0.420029,0.269523,0.559494,0.416349,0.269922,0.559576,0.41637,0.269897,0.561402,0.423183,0.269276,0.561343,0.423245,0.269293,0.559525,0.420029,0.269523,0.559606,0.420006,0.269503,0.564483,0.425051,0.269276,0.56446,0.425135,0.269293,0.561343,0.423245,0.269293,0.561402,0.423183,0.269276,0.568022,0.425109,0.269505,0.568042,0.425194,0.269525,0.56446,0.425135,0.269293,0.564483,0.425051,0.269276,0.571072,0.423342,0.2699,0.571128,0.423405,0.269924,0.568042,0.425194,0.269525,0.568022,0.425109,0.269505,0.571128,0.423405,0.269924,0.571072,0.423342,0.2699,0.572815,0.420222,0.270356,0.572892,0.420248,0.270386,0.572784,0.416586,0.27075,0.572861,0.416569,0.270785,0.572892,0.420248,0.270386,0.572815,0.420222,0.270356,0.572861,0.416569,0.270785,0.572784,0.416586,0.27075,0.570988,0.413408,0.270978,0.571044,0.413353,0.271015,0.567926,0.411462,0.271014,0.571044,0.413353,0.271015,0.570988,0.413408,0.270978,0.567907,0.41154,0.270977,0.564251,0.411046,0.270788,0.564249,0.41101,0.270709,0.568029,0.411071,0.270953,0.568017,0.411107,0.271031,0.571295,0.413095,0.271032,0.568017,0.411107,0.271031,0.568029,0.411071,0.270953,0.57132,0.413067,0.270954,0.571295,0.413095,0.271032,0.57132,0.413067,0.270954,0.573238,0.416461,0.270711,0.573206,0.416477,0.27079,0.573239,0.420345,0.270371,0.573206,0.416477,0.27079,0.573238,0.416461,0.270711,0.573271,0.420344,0.27029,0.571409,0.423676,0.269803,0.571384,0.423665,0.269886,0.573239,0.420345,0.270371,0.573271,0.420344,0.27029,0.571409,0.423676,0.269803,0.568152,0.425564,0.269381,0.568139,0.425546,0.269465,0.571384,0.423665,0.269886,0.568139,0.425546,0.269465,0.568152,0.425564,0.269381,0.564371,0.425502,0.269137,0.564373,0.425484,0.269222,0.561095,0.423496,0.269221,0.564373,0.425484,0.269222,0.564371,0.425502,0.269137,0.561082,0.423507,0.269136,0.561095,0.423496,0.269221,0.561082,0.423507,0.269136,0.559163,0.420113,0.269379,0.559184,0.420115,0.269463,0.559184,0.420115,0.269463,0.559163,0.420113,0.269379,0.55913,0.41623,0.2698,0.559151,0.416246,0.269883,0.560992,0.412898,0.270287,0.561006,0.412927,0.270368,0.559151,0.416246,0.269883,0.55913,0.41623,0.2698,0.561006,0.412927,0.270368,0.560992,0.412898,0.270287,0.564249,0.41101,0.270709,0.564251,0.411046,0.270788,0.564381,0.411501,0.270664,0.564368,0.411482,0.270748,0.567907,0.41154,0.270977,0.567906,0.411558,0.270892,0.561319,0.41325,0.270353,0.564368,0.411482,0.270748,0.564381,0.411501,0.270664,0.561343,0.413261,0.270271,0.561343,0.413261,0.270271,0.559608,0.416369,0.269816,0.559576,0.41637,0.269897,0.561319,0.41325,0.270353,0.559638,0.41999,0.269424,0.559606,0.420006,0.269503,0.559576,0.41637,0.269897,0.559608,0.416369,0.269816,0.559638,0.41999,0.269424,0.561427,0.423155,0.269197,0.561402,0.423183,0.269276,0.559606,0.420006,0.269503,0.564483,0.425051,0.269276,0.561402,0.423183,0.269276,0.561427,0.423155,0.269197,0.564495,0.425015,0.269198,0.568022,0.425109,0.269505,0.564483,0.425051,0.269276,0.564495,0.425015,0.269198,0.56802,0.425073,0.269426,0.568022,0.425109,0.269505,0.56802,0.425073,0.269426,0.571057,0.423313,0.269819,0.571072,0.423342,0.2699,0.571072,0.423342,0.2699,0.571057,0.423313,0.269819,0.572794,0.420205,0.270273,0.572815,0.420222,0.270356,0.572784,0.416586,0.27075,0.572815,0.420222,0.270356,0.572794,0.420205,0.270273,0.572763,0.416584,0.270666,0.570974,0.413419,0.270893,0.570988,0.413408,0.270978,0.572784,0.416586,0.27075,0.572763,0.416584,0.270666,0.567906,0.411558,0.270892,0.567907,0.41154,0.270977,0.570988,0.413408,0.270978,0.570974,0.413419,0.270893,0.564385,0.411495,0.27061,0.56791,0.411553,0.270837,0.567908,0.411571,0.270752,0.564397,0.411513,0.270526,0.570978,0.413413,0.270838,0.570964,0.413424,0.270753,0.567908,0.411571,0.270752,0.56791,0.411553,0.270837,0.570964,0.413424,0.270753,0.570978,0.413413,0.270838,0.572767,0.416578,0.270612,0.572746,0.416576,0.270527,0.572746,0.416576,0.270527,0.572767,0.416578,0.270612,0.572797,0.420199,0.270219,0.572776,0.420183,0.270136,0.572797,0.420199,0.270219,0.571061,0.423306,0.269765,0.571047,0.423277,0.269684,0.572776,0.420183,0.270136,0.568022,0.425031,0.269292,0.571047,0.423277,0.269684,0.571061,0.423306,0.269765,0.568024,0.425067,0.269371,0.564511,0.424973,0.269065,0.568022,0.425031,0.269292,0.568024,0.425067,0.269371,0.564499,0.425009,0.269143,0.561431,0.423149,0.269143,0.561455,0.42312,0.269065,0.564511,0.424973,0.269065,0.564499,0.425009,0.269143,0.559642,0.419984,0.269369,0.559673,0.419968,0.26929,0.561455,0.42312,0.269065,0.561431,0.423149,0.269143,0.559673,0.419968,0.26929,0.559642,0.419984,0.269369,0.559611,0.416363,0.269762,0.559643,0.416361,0.269681,0.561347,0.413255,0.270216,0.561372,0.413267,0.270133,0.559643,0.416361,0.269681,0.559611,0.416363,0.269762,0.564385,0.411495,0.27061,0.564397,0.411513,0.270526,0.561372,0.413267,0.270133,0.561347,0.413255,0.270216,0.564421,0.411592,0.270491,0.564397,0.411513,0.270526,0.567908,0.411571,0.270752,0.567889,0.411649,0.270715,0.570908,0.41348,0.270715,0.567889,0.411649,0.270715,0.567908,0.411571,0.270752,0.570964,0.413424,0.270753,0.570964,0.413424,0.270753,0.572746,0.416576,0.270527,0.572668,0.416594,0.270493,0.570908,0.41348,0.270715,0.572698,0.420157,0.270106,0.572668,0.416594,0.270493,0.572746,0.416576,0.270527,0.572776,0.420183,0.270136,0.572776,0.420183,0.270136,0.571047,0.423277,0.269684,0.57099,0.423214,0.269659,0.572698,0.420157,0.270106,0.571047,0.423277,0.269684,0.568022,0.425031,0.269292,0.568002,0.424946,0.269272,0.57099,0.423214,0.269659,0.568002,0.424946,0.269272,0.568022,0.425031,0.269292,0.564511,0.424973,0.269065,0.564533,0.424889,0.269048,0.564533,0.424889,0.269048,0.564511,0.424973,0.269065,0.561455,0.42312,0.269065,0.561515,0.423059,0.269048,0.561455,0.42312,0.269065,0.559673,0.419968,0.26929,0.559754,0.419944,0.26927,0.561515,0.423059,0.269048,0.559643,0.416361,0.269681,0.559725,0.416382,0.269657,0.559754,0.419944,0.26927,0.559673,0.419968,0.26929,0.561372,0.413267,0.270133,0.561433,0.413324,0.270104,0.559725,0.416382,0.269657,0.559643,0.416361,0.269681,0.564421,0.411592,0.270491,0.561433,0.413324,0.270104,0.561372,0.413267,0.270133,0.564397,0.411513,0.270526,0.568156,0.410916,0.268691,0.568161,0.410856,0.268974,0.564381,0.410794,0.26873,0.564423,0.410855,0.268449,0.571451,0.412851,0.268975,0.568161,0.410856,0.268974,0.568156,0.410916,0.268691,0.571405,0.412887,0.268691,0.573299,0.416238,0.268451,0.573369,0.416245,0.268732,0.571451,0.412851,0.268975,0.571405,0.412887,0.268691,0.573369,0.416245,0.268732,0.573299,0.416238,0.268451,0.573332,0.420073,0.268035,0.573402,0.420128,0.268311,0.571493,0.423363,0.267555,0.57154,0.42346,0.267824,0.573402,0.420128,0.268311,0.573332,0.420073,0.268035,0.568283,0.425348,0.267402,0.57154,0.42346,0.267824,0.571493,0.423363,0.267555,0.568277,0.425228,0.267138,0.564544,0.425167,0.266897,0.564503,0.425286,0.267158,0.568283,0.425348,0.267402,0.568277,0.425228,0.267138,0.564503,0.425286,0.267158,0.564544,0.425167,0.266897,0.561295,0.423196,0.266896,0.561213,0.423291,0.267157,0.559294,0.419897,0.2674,0.561213,0.423291,0.267157,0.561295,0.423196,0.266896,0.5594,0.419845,0.267136,0.559262,0.416014,0.267821,0.559294,0.419897,0.2674,0.5594,0.419845,0.267136,0.559368,0.41601,0.267552,0.561206,0.412719,0.268033,0.561123,0.412682,0.268308,0.559262,0.416014,0.267821,0.559368,0.41601,0.267552,0.561123,0.412682,0.268308,0.561206,0.412719,0.268033,0.564423,0.410855,0.268449,0.564381,0.410794,0.26873,0.568094,0.411177,0.268566,0.568156,0.410916,0.268691,0.564423,0.410855,0.268449,0.564502,0.411118,0.268334,0.571219,0.413072,0.268566,0.571405,0.412887,0.268691,0.568156,0.410916,0.268691,0.568094,0.411177,0.268566,0.571405,0.412887,0.268691,0.571219,0.413072,0.268566,0.573042,0.416297,0.268336,0.573299,0.416238,0.268451,0.573073,0.419986,0.267936,0.573332,0.420073,0.268035,0.573299,0.416238,0.268451,0.573042,0.416297,0.268336,0.571304,0.423151,0.267473,0.571493,0.423363,0.267555,0.573332,0.420073,0.268035,0.573073,0.419986,0.267936,0.568277,0.425228,0.267138,0.571493,0.423363,0.267555,0.571304,0.423151,0.267473,0.56821,0.424945,0.267072,0.568277,0.425228,0.267138,0.56821,0.424945,0.267072,0.564618,0.424886,0.26684,0.564544,0.425167,0.266897,0.561295,0.423196,0.266896,0.564544,0.425167,0.266897,0.564618,0.424886,0.26684,0.561493,0.422991,0.266839,0.55967,0.419766,0.26707,0.5594,0.419845,0.267136,0.561295,0.423196,0.266896,0.561493,0.422991,0.266839,0.5594,0.419845,0.267136,0.55967,0.419766,0.26707,0.559639,0.416077,0.26747,0.559368,0.41601,0.267552,0.559368,0.41601,0.267552,0.559639,0.416077,0.26747,0.561408,0.412912,0.267933,0.561206,0.412719,0.268033,0.564423,0.410855,0.268449,0.561206,0.412719,0.268033,0.561408,0.412912,0.267933,0.564502,0.411118,0.268334],
                "itemSize":3,
                "type":"Float32Array"
            },
            "uv":{
                "array":[0.8154,0.2563,0.8154,0.2269,0.8762,0.2269,0.8762,0.2563,0.9371,0.2563,0.8762,0.2563,0.8762,0.2269,0.9371,0.2269,0.998,0.2269,0.998,0.2563,0.9371,0.2563,0.9371,0.2269,0.2675,0.2269,0.3284,0.2269,0.3284,0.2563,0.2675,0.2563,0.3892,0.2269,0.3892,0.2563,0.3284,0.2563,0.3284,0.2269,0.4501,0.2269,0.4501,0.2563,0.3892,0.2563,0.3892,0.2269,0.4501,0.2563,0.4501,0.2269,0.511,0.2269,0.511,0.2563,0.511,0.2563,0.511,0.2269,0.5719,0.2269,0.5719,0.2563,0.6327,0.2563,0.5719,0.2563,0.5719,0.2269,0.6327,0.2269,0.6327,0.2563,0.6327,0.2269,0.6936,0.2269,0.6936,0.2563,0.6936,0.2563,0.6936,0.2269,0.7545,0.2269,0.7545,0.2563,0.8154,0.2563,0.7545,0.2563,0.7545,0.2269,0.8154,0.2269,0.0902,0.4933,0.0955,0.4734,0.1432,0.4737,0.1484,0.4935,0.0396,0.4644,0.0541,0.4498,0.0106,0.4139,0.0305,0.4085,0.0107,0.3556,0.0306,0.361,0.0544,0.3198,0.0398,0.3052,0.0902,0.276,0.0955,0.2958,0.1485,0.2762,0.1431,0.2962,0.1845,0.3197,0.1991,0.3051,0.2082,0.361,0.2281,0.3557,0.228,0.4139,0.2081,0.4086,0.1989,0.4644,0.1843,0.4498,0.2514,0.1637,0.2562,0.165,0.222,0.2233,0.2185,0.2197,0.1632,0.2567,0.1619,0.2519,0.0956,0.2562,0.0969,0.2514,0.0373,0.222,0.0408,0.2185,0.0087,0.1619,0.0039,0.1632,0.0044,0.0956,0.0092,0.0969,0.0386,0.0373,0.0421,0.0408,0.0974,0.0039,0.0987,0.0087,0.165,0.0044,0.1637,0.0092,0.2233,0.0386,0.2197,0.0421,0.2567,0.0974,0.2519,0.0987,0.0563,0.4017,0.0878,0.3932,0.0962,0.4078,0.073,0.4309,0.0563,0.3679,0.0878,0.3763,0.0732,0.3386,0.0962,0.3617,0.1024,0.3217,0.1108,0.3533,0.1509,0.3763,0.1425,0.3617,0.1656,0.3386,0.1824,0.3679,0.1824,0.4017,0.1509,0.3932,0.1425,0.4078,0.1655,0.4309,0.1362,0.4479,0.1279,0.4162,0.3921,0.1737,0.3838,0.1419,0.3986,0.1334,0.4217,0.1569,0.358,0.1735,0.3667,0.1417,0.3286,0.1562,0.352,0.1331,0.3118,0.1266,0.3436,0.1183,0.3672,0.0782,0.3524,0.0866,0.3293,0.0631,0.3589,0.0463,0.3842,0.0783,0.393,0.0465,0.3989,0.0869,0.4224,0.0638,0.4392,0.0934,0.4073,0.1017,0.3988,0.1998,0.4406,0.1761,0.3508,0.1994,0.3094,0.1751,0.2857,0.1334,0.3104,0.0439,0.3521,0.0202,0.4001,0.0206,0.4415,0.0449,0.4652,0.0866,0.1109,0.4163,0.1193,0.3848,0.1277,0.3533,0.3755,0.11,0.4072,0.1187,0.3438,0.1013,0.5265,0.0023,0.5262,0.0317,0.5088,0.0315,0.509,0.0021,0.5088,0.0315,0.4924,0.0314,0.4926,0.002,0.509,0.0021,0.6097,0.003,0.6268,0.0031,0.6265,0.0325,0.6094,0.0324,0.5933,0.0322,0.5935,0.0028,0.6097,0.003,0.6094,0.0324,0.5772,0.0321,0.5774,0.0027,0.5935,0.0028,0.5933,0.0322,0.5774,0.0027,0.5772,0.0321,0.5601,0.032,0.5603,0.0026,0.5603,0.0026,0.5601,0.032,0.5437,0.0318,0.5439,0.0024,0.5262,0.0317,0.5265,0.0023,0.5439,0.0024,0.5437,0.0318,0.0355,0.5112,0.0352,0.5406,0.0191,0.5405,0.0193,0.5111,0.002,0.5403,0.0023,0.5109,0.0193,0.5111,0.0191,0.5405,0.12,0.512,0.1364,0.5122,0.1361,0.5416,0.1197,0.5414,0.1197,0.5414,0.1023,0.5413,0.1026,0.5119,0.12,0.512,0.0851,0.5117,0.1026,0.5119,0.1023,0.5413,0.0848,0.5411,0.0851,0.5117,0.0848,0.5411,0.0684,0.5409,0.0687,0.5115,0.0514,0.5408,0.0516,0.5114,0.0687,0.5115,0.0684,0.5409,0.0516,0.5114,0.0514,0.5408,0.0352,0.5406,0.0355,0.5112,0.4449,0.1482,0.4577,0.1327,0.4649,0.1346,0.4087,0.1191,0.4198,0.1046,0.3401,0.0827,0.3249,0.0697,0.2963,0.1072,0.3114,0.1187,0.1463,0.3496,0.1592,0.3343,0.1214,0.3061,0.1102,0.3212,0.0817,0.4539,0.0974,0.4663,0.1252,0.4286,0.1106,0.4176,0.1172,0.4635,0.1285,0.4483,0.0924,0.4199,0.0795,0.4352,0.1135,0.3409,0.4108,0.1373,0.4261,0.1503,0.3311,0.1154,0.4396,0.1013,0.157,0.3156,0.306,0.0718,0.3423,0.1009,0.2861,0.0854,0.2933,0.0873,0.4547,0.1128,0.1413,0.3032,0.1281,0.3519,0.098,0.4643,0.0985,0.4623,0.115,0.4599,0.1161,0.4617,0.4435,0.1456,0.4548,0.1319,0.4555,0.1321,0.4439,0.1462,0.1161,0.4617,0.115,0.4599,0.1243,0.4472,0.1264,0.4478,0.4269,0.1474,0.4435,0.1456,0.4439,0.1462,0.4267,0.1481,0.1243,0.4472,0.1218,0.4311,0.1236,0.4299,0.1264,0.4478,0.4129,0.1365,0.4136,0.1362,0.4269,0.1474,0.4267,0.1481,0.1236,0.4299,0.1218,0.4311,0.1095,0.4218,0.11,0.4197,0.4108,0.1197,0.4115,0.1199,0.4136,0.1362,0.4129,0.1365,0.11,0.4197,0.1095,0.4218,0.0942,0.4239,0.0932,0.4219,0.4212,0.1064,0.4217,0.107,0.4115,0.1199,0.4108,0.1197,0.0942,0.4239,0.0835,0.4363,0.0815,0.4357,0.0932,0.4219,0.439,0.1035,0.4388,0.1042,0.4217,0.107,0.4212,0.1064,0.0815,0.4357,0.0835,0.4363,0.0854,0.4519,0.0835,0.4529,0.4528,0.1139,0.4521,0.1143,0.4388,0.1042,0.439,0.1035,0.0835,0.4529,0.0854,0.4519,0.0985,0.4623,0.098,0.4643,0.4555,0.1321,0.4548,0.1319,0.4521,0.1143,0.4528,0.1139,0.1287,0.3498,0.1292,0.3478,0.1445,0.3457,0.1455,0.3476,0.3298,0.1136,0.3293,0.113,0.3394,0.1001,0.3401,0.1003,0.1445,0.3457,0.1551,0.3332,0.1572,0.3338,0.1455,0.3476,0.312,0.1165,0.3122,0.1158,0.3293,0.113,0.3298,0.1136,0.1572,0.3338,0.1551,0.3332,0.1533,0.3176,0.1551,0.3166,0.2988,0.1057,0.3122,0.1158,0.312,0.1165,0.2982,0.1061,0.1551,0.3166,0.1533,0.3176,0.1402,0.3073,0.1407,0.3052,0.2954,0.0879,0.2962,0.0881,0.2988,0.1057,0.2982,0.1061,0.1402,0.3073,0.1236,0.3096,0.1225,0.3078,0.1407,0.3052,0.3071,0.0738,0.3075,0.0744,0.2962,0.0881,0.2954,0.0879,0.1225,0.3078,0.1236,0.3096,0.1144,0.3223,0.1123,0.3218,0.3241,0.0726,0.3075,0.0744,0.3071,0.0738,0.3243,0.0719,0.1144,0.3223,0.1169,0.3385,0.1151,0.3396,0.1123,0.3218,0.3374,0.0838,0.3241,0.0726,0.3243,0.0719,0.3381,0.0835,0.1169,0.3385,0.1292,0.3478,0.1287,0.3498,0.1151,0.3396,0.3401,0.1003,0.3394,0.1001,0.3374,0.0838,0.3381,0.0835,0.0974,0.4663,0.098,0.4643,0.1161,0.4617,0.1172,0.4635,0.4449,0.1482,0.4439,0.1462,0.4555,0.1321,0.4577,0.1327,0.1264,0.4478,0.1285,0.4483,0.1172,0.4635,0.1161,0.4617,0.4449,0.1482,0.4261,0.1503,0.4267,0.1481,0.4439,0.1462,0.1264,0.4478,0.1236,0.4299,0.1252,0.4286,0.1285,0.4483,0.4108,0.1373,0.4129,0.1365,0.4267,0.1481,0.4261,0.1503,0.11,0.4197,0.1106,0.4176,0.1252,0.4286,0.1236,0.4299,0.4129,0.1365,0.4108,0.1373,0.4087,0.1191,0.4108,0.1197,0.11,0.4197,0.0932,0.4219,0.0924,0.4199,0.1106,0.4176,0.4198,0.1046,0.4212,0.1064,0.4108,0.1197,0.4087,0.1191,0.0932,0.4219,0.0815,0.4357,0.0795,0.4352,0.0924,0.4199,0.4198,0.1046,0.4396,0.1013,0.439,0.1035,0.4212,0.1064,0.0815,0.4357,0.0835,0.4529,0.0817,0.4539,0.0795,0.4352,0.4547,0.1128,0.4528,0.1139,0.439,0.1035,0.4396,0.1013,0.0835,0.4529,0.098,0.4643,0.0974,0.4663,0.0817,0.4539,0.4528,0.1139,0.4547,0.1128,0.4577,0.1327,0.4555,0.1321,0.1455,0.3476,0.1463,0.3496,0.1281,0.3519,0.1287,0.3498,0.3401,0.1003,0.3423,0.1009,0.3311,0.1154,0.3298,0.1136,0.1463,0.3496,0.1455,0.3476,0.1572,0.3338,0.1592,0.3343,0.312,0.1165,0.3298,0.1136,0.3311,0.1154,0.3114,0.1187,0.157,0.3156,0.1592,0.3343,0.1572,0.3338,0.1551,0.3166,0.2982,0.1061,0.312,0.1165,0.3114,0.1187,0.2963,0.1072,0.1551,0.3166,0.1407,0.3052,0.1413,0.3032,0.157,0.3156,0.2963,0.1072,0.2933,0.0873,0.2954,0.0879,0.2982,0.1061,0.1225,0.3078,0.1214,0.3061,0.1413,0.3032,0.1407,0.3052,0.3071,0.0738,0.2954,0.0879,0.2933,0.0873,0.306,0.0718,0.1123,0.3218,0.1102,0.3212,0.1214,0.3061,0.1225,0.3078,0.3249,0.0697,0.3243,0.0719,0.3071,0.0738,0.306,0.0718,0.1102,0.3212,0.1123,0.3218,0.1151,0.3396,0.1135,0.3409,0.3249,0.0697,0.3401,0.0827,0.3381,0.0835,0.3243,0.0719,0.1135,0.3409,0.1151,0.3396,0.1287,0.3498,0.1281,0.3519,0.3381,0.0835,0.3401,0.0827,0.3423,0.1009,0.3401,0.1003,0.4526,0.1882,0.4813,0.1392,0.4031,0.2163,0.3463,0.2159,0.2973,0.1871,0.2692,0.1377,0.2696,0.0808,0.2984,0.0318,0.3478,0.0037,0.4047,0.0041,0.4537,0.0329,0.4817,0.0823,0.2766,0.2798,0.2728,0.2797,0.2728,0.2797,0.2766,0.2798,0.2766,0.2798,0.28,0.2778,0.28,0.2778,0.2766,0.2798,0.282,0.2745,0.28,0.2778,0.28,0.2778,0.282,0.2745,0.282,0.2706,0.282,0.2745,0.282,0.2745,0.282,0.2706,0.282,0.2706,0.282,0.2706,0.2801,0.2672,0.2801,0.2672,0.2767,0.2652,0.2801,0.2672,0.2801,0.2672,0.2767,0.2652,0.2729,0.2652,0.2729,0.2652,0.2767,0.2652,0.2767,0.2652,0.2729,0.2652,0.2729,0.2652,0.2695,0.2671,0.2695,0.2671,0.2675,0.2705,0.2695,0.2671,0.2695,0.2671,0.2675,0.2705,0.2675,0.2705,0.2675,0.2744,0.2675,0.2744,0.2675,0.2705,0.2694,0.2778,0.2694,0.2778,0.2675,0.2744,0.2675,0.2744,0.2694,0.2778,0.2694,0.2778,0.2728,0.2797,0.2728,0.2797,0.0069,0.564,0.0105,0.564,0.0105,0.564,0.0069,0.564,0.0038,0.5622,0.0038,0.5622,0.0069,0.564,0.0069,0.564,0.0038,0.5622,0.0038,0.5622,0.002,0.559,0.002,0.559,0.002,0.559,0.002,0.559,0.002,0.5554,0.002,0.5554,0.002,0.5554,0.002,0.5554,0.0039,0.5523,0.0039,0.5523,0.007,0.5505,0.0039,0.5523,0.0039,0.5523,0.007,0.5505,0.007,0.5505,0.007,0.5505,0.0106,0.5505,0.0106,0.5505,0.0106,0.5505,0.0106,0.5505,0.0138,0.5523,0.0138,0.5523,0.0156,0.5555,0.0138,0.5523,0.0138,0.5523,0.0156,0.5555,0.0156,0.5555,0.0156,0.5555,0.0155,0.5591,0.0155,0.5591,0.0155,0.5591,0.0155,0.5591,0.0137,0.5622,0.0137,0.5622,0.0137,0.5622,0.0105,0.564,0.0105,0.564,0.0137,0.5622,0.223,0.2244,0.222,0.2233,0.2562,0.165,0.2576,0.1654,0.1632,0.2567,0.222,0.2233,0.223,0.2244,0.1636,0.2581,0.0952,0.2576,0.0956,0.2562,0.1632,0.2567,0.1636,0.2581,0.0373,0.222,0.0956,0.2562,0.0952,0.2576,0.0362,0.223,0.0025,0.1636,0.0039,0.1632,0.0373,0.222,0.0362,0.223,0.0039,0.1632,0.0025,0.1636,0.003,0.0952,0.0044,0.0956,0.0376,0.0362,0.0386,0.0373,0.0044,0.0956,0.003,0.0952,0.0974,0.0039,0.0386,0.0373,0.0376,0.0362,0.097,0.0025,0.1654,0.003,0.165,0.0044,0.0974,0.0039,0.097,0.0025,0.2233,0.0386,0.165,0.0044,0.1654,0.003,0.2244,0.0376,0.2581,0.097,0.2567,0.0974,0.2233,0.0386,0.2244,0.0376,0.2576,0.1654,0.2562,0.165,0.2567,0.0974,0.2581,0.097,0.25,0.1633,0.2514,0.1637,0.2185,0.2197,0.2174,0.2187,0.2519,0.0987,0.2514,0.1637,0.25,0.1633,0.2504,0.099,0.2197,0.0421,0.2519,0.0987,0.2504,0.099,0.2187,0.0432,0.1633,0.0106,0.1637,0.0092,0.2197,0.0421,0.2187,0.0432,0.099,0.0102,0.0987,0.0087,0.1637,0.0092,0.1633,0.0106,0.0432,0.0419,0.0421,0.0408,0.0987,0.0087,0.099,0.0102,0.0106,0.0973,0.0092,0.0969,0.0421,0.0408,0.0432,0.0419,0.0102,0.1616,0.0087,0.1619,0.0092,0.0969,0.0106,0.0973,0.0087,0.1619,0.0102,0.1616,0.0419,0.2174,0.0408,0.2185,0.0973,0.25,0.0969,0.2514,0.0408,0.2185,0.0419,0.2174,0.0969,0.2514,0.0973,0.25,0.1616,0.2504,0.1619,0.2519,0.2185,0.2197,0.1619,0.2519,0.1616,0.2504,0.2174,0.2187,0.2576,0.1654,0.2581,0.1655,0.2234,0.2247,0.223,0.2244,0.1636,0.2581,0.223,0.2244,0.2234,0.2247,0.1637,0.2586,0.1636,0.2581,0.1637,0.2586,0.0951,0.2581,0.0952,0.2576,0.0362,0.223,0.0952,0.2576,0.0951,0.2581,0.0359,0.2234,0.002,0.1637,0.0025,0.1636,0.0362,0.223,0.0359,0.2234,0.002,0.1637,0.0025,0.0951,0.003,0.0952,0.0025,0.1636,0.003,0.0952,0.0025,0.0951,0.0372,0.0359,0.0376,0.0362,0.097,0.0025,0.0376,0.0362,0.0372,0.0359,0.0969,0.002,0.097,0.0025,0.0969,0.002,0.1655,0.0025,0.1654,0.003,0.1654,0.003,0.1655,0.0025,0.2247,0.0372,0.2244,0.0376,0.2586,0.0969,0.2581,0.097,0.2244,0.0376,0.2247,0.0372,0.2581,0.097,0.2586,0.0969,0.2581,0.1655,0.2576,0.1654,0.2495,0.1631,0.25,0.1633,0.2174,0.2187,0.2171,0.2183,0.2504,0.099,0.25,0.1633,0.2495,0.1631,0.2499,0.0992,0.2499,0.0992,0.2183,0.0435,0.2187,0.0432,0.2504,0.099,0.1631,0.0111,0.1633,0.0106,0.2187,0.0432,0.2183,0.0435,0.1631,0.0111,0.0992,0.0107,0.099,0.0102,0.1633,0.0106,0.0432,0.0419,0.099,0.0102,0.0992,0.0107,0.0435,0.0423,0.0106,0.0973,0.0432,0.0419,0.0435,0.0423,0.0111,0.0974,0.0106,0.0973,0.0111,0.0974,0.0107,0.1614,0.0102,0.1616,0.0102,0.1616,0.0107,0.1614,0.0423,0.2171,0.0419,0.2174,0.0973,0.25,0.0419,0.2174,0.0423,0.2171,0.0974,0.2495,0.1614,0.2499,0.1616,0.2504,0.0973,0.25,0.0974,0.2495,0.2171,0.2183,0.2174,0.2187,0.1616,0.2504,0.1614,0.2499,0.4831,0.1397,0.4538,0.1895,0.4535,0.1892,0.4826,0.1395,0.4036,0.218,0.4035,0.2176,0.4535,0.1892,0.4538,0.1895,0.4035,0.2176,0.4036,0.218,0.3458,0.2176,0.3459,0.2172,0.3459,0.2172,0.3458,0.2176,0.296,0.1883,0.2963,0.188,0.296,0.1883,0.2675,0.1381,0.2679,0.138,0.2963,0.188,0.2683,0.0805,0.2679,0.138,0.2675,0.1381,0.2679,0.0803,0.2975,0.0308,0.2683,0.0805,0.2679,0.0803,0.2971,0.0305,0.3474,0.002,0.3475,0.0024,0.2975,0.0308,0.2971,0.0305,0.4051,0.0024,0.405,0.0028,0.3475,0.0024,0.3474,0.002,0.405,0.0028,0.4051,0.0024,0.455,0.0317,0.4546,0.032,0.4835,0.0819,0.483,0.082,0.4546,0.032,0.455,0.0317,0.4831,0.1397,0.4826,0.1395,0.483,0.082,0.4835,0.0819,0.4813,0.1392,0.4826,0.1395,0.4535,0.1892,0.4526,0.1882,0.4031,0.2163,0.4526,0.1882,0.4535,0.1892,0.4035,0.2176,0.4035,0.2176,0.3459,0.2172,0.3463,0.2159,0.4031,0.2163,0.2973,0.1871,0.3463,0.2159,0.3459,0.2172,0.2963,0.188,0.2963,0.188,0.2679,0.138,0.2692,0.1377,0.2973,0.1871,0.2679,0.138,0.2683,0.0805,0.2696,0.0808,0.2692,0.1377,0.2696,0.0808,0.2683,0.0805,0.2975,0.0308,0.2984,0.0318,0.2984,0.0318,0.2975,0.0308,0.3475,0.0024,0.3478,0.0037,0.3475,0.0024,0.405,0.0028,0.4047,0.0041,0.3478,0.0037,0.4546,0.032,0.4537,0.0329,0.4047,0.0041,0.405,0.0028,0.483,0.082,0.4817,0.0823,0.4537,0.0329,0.4546,0.032,0.4813,0.1392,0.4817,0.0823,0.483,0.082,0.4826,0.1395,0.1496,0.4978,0.1507,0.502,0.0879,0.502,0.089,0.4977,0.2052,0.4707,0.1507,0.502,0.1496,0.4978,0.202,0.4675,0.2323,0.4151,0.2366,0.4162,0.2052,0.4707,0.202,0.4675,0.2366,0.4162,0.2323,0.4151,0.2324,0.3545,0.2367,0.3533,0.2022,0.302,0.2053,0.2988,0.2367,0.3533,0.2324,0.3545,0.1508,0.2675,0.2053,0.2988,0.2022,0.302,0.1497,0.2719,0.0891,0.2718,0.0879,0.2675,0.1508,0.2675,0.1497,0.2719,0.0879,0.2675,0.0891,0.2718,0.0366,0.302,0.0335,0.2989,0.002,0.3533,0.0335,0.2989,0.0366,0.302,0.0064,0.3545,0.002,0.4162,0.002,0.3533,0.0064,0.3545,0.0063,0.415,0.0365,0.4675,0.0333,0.4707,0.002,0.4162,0.0063,0.415,0.0333,0.4707,0.0365,0.4675,0.089,0.4977,0.0879,0.502,0.1484,0.4935,0.1496,0.4978,0.089,0.4977,0.0902,0.4933,0.1989,0.4644,0.202,0.4675,0.1496,0.4978,0.1484,0.4935,0.202,0.4675,0.1989,0.4644,0.228,0.4139,0.2323,0.4151,0.2281,0.3557,0.2324,0.3545,0.2323,0.4151,0.228,0.4139,0.1991,0.3051,0.2022,0.302,0.2324,0.3545,0.2281,0.3557,0.1497,0.2719,0.2022,0.302,0.1991,0.3051,0.1485,0.2762,0.1497,0.2719,0.1485,0.2762,0.0902,0.276,0.0891,0.2718,0.0366,0.302,0.0891,0.2718,0.0902,0.276,0.0398,0.3052,0.0107,0.3556,0.0064,0.3545,0.0366,0.302,0.0398,0.3052,0.0064,0.3545,0.0107,0.3556,0.0106,0.4139,0.0063,0.415,0.0063,0.415,0.0106,0.4139,0.0396,0.4644,0.0365,0.4675,0.089,0.4977,0.0365,0.4675,0.0396,0.4644,0.0902,0.4933],
                "itemSize":2,
                "type":"Float32Array"
            }
        },
        "index":{
            "array":[0,1,2,2,3,0,4,5,6,6,7,4,8,9,10,10,11,8,12,13,14,14,15,12,16,17,18,18,19,16,20,21,22,22,23,20,24,25,26,26,27,24,28,29,30,30,31,28,32,33,34,34,35,32,36,37,38,38,39,36,40,41,42,42,43,40,44,45,46,46,47,44,48,49,50,50,51,48,48,52,53,53,49,48,54,55,53,53,52,54,56,57,55,55,54,56,58,57,56,56,59,58,58,59,60,60,61,58,60,62,63,63,61,60,64,63,62,62,65,64,66,64,65,65,67,66,66,67,68,68,69,66,69,68,70,70,71,69,70,51,50,50,71,70,72,73,74,74,75,72,75,74,76,76,77,75,78,79,77,77,76,78,79,78,80,80,81,79,82,81,80,80,83,82,84,85,82,82,83,84,86,87,85,85,84,86,87,86,88,88,89,87,89,88,90,90,91,89,90,92,93,93,91,90,93,92,94,94,95,93,73,72,95,95,94,73,96,97,98,98,99,96,97,96,100,100,101,97,102,103,101,101,100,102,104,105,103,103,102,104,106,107,108,108,109,106,109,110,111,111,106,109,112,111,110,110,113,112,114,115,112,112,113,114,116,117,118,118,119,116,117,116,120,120,121,117,121,120,122,122,123,121,124,125,123,123,122,124,126,127,128,128,129,126,130,126,129,129,131,130,132,130,131,131,133,132,134,135,132,132,133,134,99,53,55,55,96,99,96,55,57,57,100,96,100,57,58,58,102,100,102,58,61,61,104,102,64,66,109,109,108,64,110,109,66,66,69,110,110,69,71,71,113,110,50,114,113,113,71,50,136,116,119,119,137,136,116,136,138,138,120,116,139,122,120,120,138,139,139,140,124,124,122,139,128,141,142,142,129,128,143,131,129,129,142,143,143,144,133,133,131,143,133,144,145,145,134,133,146,147,115,98,147,146,97,147,98,101,147,97,103,147,101,105,147,103,148,147,105,107,147,148,106,147,107,111,147,106,112,147,111,115,147,112,118,149,150,117,149,118,121,149,117,123,149,121,125,149,123,151,149,125,127,149,151,126,149,127,130,149,126,132,149,130,135,149,132,150,149,135,152,153,154,154,155,152,156,157,158,158,159,156,160,161,162,162,163,160,164,165,166,166,167,164,168,169,170,170,171,168,172,173,174,174,175,172,176,177,178,178,179,176,180,181,182,182,183,180,184,185,186,186,187,184,188,189,190,190,191,188,192,193,194,194,195,192,196,197,198,198,199,196,200,201,202,202,203,200,204,205,206,206,207,204,208,209,210,210,211,208,212,213,214,214,215,212,216,217,218,218,137,216,219,150,135,135,220,219,127,221,222,222,128,127,223,224,124,124,140,223,108,107,225,225,226,108,227,228,104,104,61,227,49,53,229,229,230,49,231,232,146,146,115,231,233,234,114,114,50,233,98,235,236,236,99,98,237,105,104,104,228,237,119,118,238,238,239,119,240,125,124,124,224,240,220,135,134,134,241,220,242,64,108,108,226,242,243,141,128,128,222,243,244,221,127,127,151,244,125,240,244,244,151,125,140,245,246,246,223,140,246,245,141,141,243,246,216,137,119,119,239,216,218,217,247,247,145,218,145,247,241,241,134,145,118,150,219,219,238,118,234,231,115,115,114,234,49,230,233,233,50,49,53,99,236,236,229,53,146,232,235,235,98,146,248,63,64,64,242,248,227,61,63,63,248,227,237,249,148,148,105,237,107,148,249,249,225,107,250,251,252,252,253,250,254,255,256,256,257,254,258,259,260,260,261,258,262,263,264,264,265,262,266,267,268,268,269,266,270,271,272,272,273,270,274,275,276,276,277,274,278,279,280,280,281,278,282,283,284,284,285,282,286,287,288,288,289,286,290,291,292,292,293,290,294,295,296,296,297,294,298,299,300,300,301,298,302,303,304,304,305,302,306,307,308,308,309,306,310,311,312,312,313,310,314,315,316,316,317,314,318,319,320,320,321,318,322,323,324,324,325,322,326,327,328,328,329,326,330,331,332,332,333,330,334,335,336,336,337,334,338,339,340,340,341,338,342,343,344,344,345,342,346,347,348,348,349,346,350,351,352,352,353,350,354,355,356,356,357,354,358,359,360,360,361,358,362,363,364,364,365,362,366,367,368,368,369,366,370,371,372,372,373,370,374,375,376,376,377,374,378,379,380,380,381,378,382,383,384,384,385,382,386,387,388,388,389,386,390,391,392,392,393,390,394,395,396,396,397,394,398,399,400,400,401,398,402,403,404,404,405,402,406,407,408,408,409,406,410,411,412,412,413,410,414,415,416,416,417,414,418,419,420,420,421,418,422,423,424,424,425,422,426,427,428,428,429,426,430,431,432,432,433,430,434,435,436,436,437,434,438,439,440,440,441,438,442,443,444,444,445,442,446,447,448,448,449,446,450,451,452,452,453,450,454,455,456,456,457,454,458,459,460,460,461,458,462,463,464,464,465,462,466,467,468,468,469,466,470,471,472,472,473,470,474,475,476,476,477,474,478,479,480,480,481,478,482,483,484,484,485,482,486,487,488,488,489,486,490,491,492,492,493,490,494,495,496,496,497,494,498,499,500,500,501,498,502,503,504,504,505,502,506,137,218,218,507,506,506,508,136,136,137,506,138,136,508,508,509,138,509,510,139,139,138,509,511,140,139,139,510,511,245,140,511,511,512,245,513,141,245,245,512,513,141,513,514,514,142,141,514,515,143,143,142,514,515,516,144,144,143,515,144,516,517,517,145,144,145,517,507,507,218,145,518,519,520,520,521,518,522,523,524,524,525,522,526,527,528,528,529,526,530,531,532,532,533,530,534,535,536,536,537,534,538,539,540,540,541,538,542,543,544,544,545,542,546,547,548,548,549,546,550,551,552,552,553,550,554,555,556,556,557,554,558,559,560,560,561,558,562,563,564,564,565,562,566,567,568,568,569,566,570,571,572,572,573,570,574,575,576,576,577,574,578,579,580,580,581,578,582,583,584,584,585,582,586,587,588,588,589,586,590,591,592,592,593,590,594,595,596,596,597,594,598,599,600,600,601,598,602,603,604,604,605,602,606,607,608,608,609,606,610,611,612,612,613,610,614,615,616,616,617,614,618,619,620,620,621,618,622,623,624,624,625,622,626,627,628,628,629,626,630,631,632,632,633,630,634,635,636,636,637,634,638,639,640,640,641,638,642,643,644,644,645,642,646,647,648,648,649,646,650,651,652,652,653,650,654,655,656,656,657,654,658,659,660,660,661,658,662,663,664,664,665,662,666,667,668,668,669,666,670,671,672,672,673,670,674,675,676,676,677,674,678,679,680,680,681,678,682,683,684,684,685,682,686,687,688,688,689,686,690,691,692,692,693,690,694,695,696,696,697,694,698,699,700,700,701,698,702,703,704,704,705,702,706,707,708,708,709,706,710,711,712,712,713,710,714,715,716,716,717,714,718,719,720,720,721,718,722,723,724,724,725,722,726,727,728,728,729,726,730,731,732,732,733,730,734,735,736,736,737,734,738,739,740,740,741,738,742,743,744,744,745,742,746,747,748,748,749,746,750,751,752,752,753,750,754,755,756,756,757,754,758,759,760,760,761,758,762,763,764,764,765,762,766,767,768,768,769,766,770,771,772,772,773,770,774,775,776,776,777,774,778,779,780,780,781,778,782,783,784,784,785,782,786,787,788,788,789,786,790,791,792,792,793,790,794,795,796,796,797,794,798,799,800,800,801,798,802,803,804,804,805,802,806,807,808,808,809,806,810,811,812,812,813,810,814,815,816,816,817,814,818,819,820,820,821,818,822,823,824,824,825,822,826,827,828,828,829,826,830,831,832,832,833,830,834,835,836,836,837,834,838,839,840,840,841,838,842,843,844,844,845,842,846,847,848,848,849,846,850,851,852,852,853,850,854,855,856,856,857,854,858,859,860,860,861,858,862,863,864,864,865,862,866,867,868,868,869,866,870,871,872,872,873,870,874,875,876,876,877,874,878,879,880,880,881,878,882,883,884,884,885,882,886,887,888,888,889,886,890,891,892,892,893,890,894,895,896,896,897,894,898,899,900,900,901,898,902,903,904,904,905,902,906,907,908,908,909,906,910,911,912,912,913,910,914,915,916,916,917,914,918,919,920,920,921,918,922,923,924,924,925,922,926,927,928,928,929,926,930,931,932,932,933,930,934,935,936,936,937,934,938,939,940,940,941,938,942,943,944,944,945,942,946,947,948,948,949,946,950,951,952,952,953,950,954,955,956,956,957,954,958,959,960,960,961,958,962,963,964,964,965,962,966,967,968,968,969,966,970,971,972,972,973,970,974,975,976,976,977,974,978,979,980,980,981,978,982,983,984,984,985,982,986,987,988,988,989,986,990,991,992,992,993,990,994,995,996,996,997,994],
            "itemSize":1,
            "type":"Uint16Array"
        }
    }
}