{
    "metadata":{
        "normal":998,
        "type":"BufferGeometry",
        "version":3,
        "uv":998,
        "generator":"io_three",
        "position":998
    },
    "data":{
        "attributes":{
            "normal":{
                "array":[-0.423231,-0.902066,0.0844142,-0.423261,-0.902066,0.0840785,-0.423261,-0.902066,0.084109,-0.423231,-0.902036,0.0844142,0.0950652,-0.990966,0.0943327,0.0950652,-0.990966,0.0945769,0.0950652,-0.990966,0.0943632,0.0950652,-0.990966,0.0943632,0.572741,-0.815851,0.0794092,0.57271,-0.815851,0.0797143,0.572802,-0.815821,0.0792566,0.572741,-0.815851,0.0794397,0.898373,-0.436933,0.0445875,0.898343,-0.436964,0.0446791,0.898343,-0.436933,0.0446791,0.898373,-0.436872,0.0449232,0.998199,0.0599078,-0.0021363,0.998199,0.0598773,-0.00219733,0.998199,0.0599078,-0.00219733,0.998199,0.0599078,-0.0021363,0.829707,0.555956,-0.0498062,0.829707,0.555956,-0.0498672,0.829707,0.555925,-0.0498062,0.829707,0.555956,-0.0498062,0.423231,0.902097,-0.0840785,0.423261,0.902066,-0.084109,0.423292,0.902066,-0.0842006,0.423322,0.902036,-0.0839869,-0.0950957,0.990966,-0.0944853,-0.0950346,0.990966,-0.0944853,-0.0950957,0.990966,-0.0943632,-0.0950957,0.990936,-0.0946989,-0.57268,0.815882,-0.0794092,-0.57271,0.815851,-0.0796838,-0.57271,0.815851,-0.0794092,-0.57271,0.815851,-0.0794092,-0.898373,0.436933,-0.0445875,-0.898343,0.436964,-0.0446181,-0.898343,0.436964,-0.0446181,-0.898343,0.436964,-0.0443739,-0.998199,-0.0598773,0.00250252,-0.998199,-0.0599078,0.0021363,-0.998199,-0.0599078,0.0021363,-0.998199,-0.0598773,0.00241096,-0.829707,-0.555925,0.0502029,-0.829676,-0.555986,0.0500198,-0.829707,-0.555925,0.0498062,-0.829707,-0.555925,0.0498062,0.00350963,-0.0944853,-0.995514,0.00350963,-0.0944853,-0.995514,0.00347911,-0.0945158,-0.995514,0.00347911,-0.0944853,-0.995514,0.00347911,-0.0944853,-0.995514,0.00347911,-0.0944853,-0.995514,0.00347911,-0.0944853,-0.995514,0.00347911,-0.0944853,-0.995514,0.00354015,-0.0945158,-0.995514,0.00350963,-0.0945158,-0.995514,0.00347911,-0.0944853,-0.995514,0.00347911,-0.0944548,-0.995514,0.00350963,-0.0944853,-0.995514,0.00350963,-0.0944853,-0.995514,0.00350963,-0.0944548,-0.995514,0.00347911,-0.0944853,-0.995514,0.00347911,-0.0944853,-0.995514,0.00347911,-0.0944853,-0.995514,0.00350963,-0.0944853,-0.995514,0.00347911,-0.0944853,-0.995514,0.00347911,-0.0944853,-0.995514,0.00350963,-0.0944853,-0.995514,0.00347911,-0.0945158,-0.995514,0.00347911,-0.0944853,-0.995514,-0.00360118,0.0943022,0.995514,-0.00360118,0.0943022,0.995514,-0.00350963,0.0943938,0.995514,-0.00350963,0.0943938,0.995514,-0.00347911,0.0943632,0.995514,-0.00347911,0.0943632,0.995514,-0.00372326,0.0946989,0.995483,-0.00372326,0.0947295,0.995483,-0.00350963,0.0944853,0.995514,-0.00347911,0.0944853,0.995514,-0.00350963,0.0944853,0.995514,-0.00350963,0.0944853,0.995514,-0.0036317,0.0943022,0.995514,-0.0036317,0.0943022,0.995514,-0.00344859,0.0947905,0.995483,-0.00344859,0.0947905,0.995483,-0.00357067,0.09476,0.995483,-0.00357067,0.09476,0.995483,-0.00341807,0.0944548,0.995514,-0.00341807,0.0944548,0.995514,-0.00350963,0.0945158,0.995514,-0.00350963,0.0945158,0.995514,-0.00354015,0.0944853,0.995514,-0.00354015,0.0944853,0.995514,0.00347911,-0.0944853,-0.995514,0.00350963,-0.0944548,-0.995514,0.00350963,-0.0945158,-0.995514,0.00350963,-0.0944853,-0.995514,0.00347911,-0.0944853,-0.995514,0.00347911,-0.0944853,-0.995514,0.00347911,-0.0944853,-0.995514,0.00344859,-0.0945158,-0.995514,0.00347911,-0.0944853,-0.995514,0.00350963,-0.0945158,-0.995514,0.00347911,-0.0945158,-0.995514,0.00347911,-0.0944853,-0.995514,0.00350963,-0.0944853,-0.995514,0.00350963,-0.0945158,-0.995514,0.00347911,-0.0944853,-0.995514,0.00350963,-0.0944853,-0.995514,0.00350963,-0.0944853,-0.995514,0.00347911,-0.0944853,-0.995514,0.00347911,-0.0945158,-0.995514,0.00344859,-0.0944853,-0.995514,-0.00347911,0.0945158,0.995514,-0.00347911,0.0944853,0.995514,-0.00350963,0.0944853,0.995514,-0.00347911,0.0944853,0.995514,-0.00350963,0.0945158,0.995514,-0.00347911,0.0944853,0.995514,-0.00350963,0.0944853,0.995514,-0.00350963,0.0944548,0.995514,-0.00347911,0.0944853,0.995514,-0.00347911,0.0944853,0.995514,-0.00350963,0.0944548,0.995514,-0.00350963,0.0944853,0.995514,-0.00347911,0.0944853,0.995514,-0.00347911,0.0944853,0.995514,-0.00347911,0.0944853,0.995514,-0.00350963,0.0944853,0.995514,-0.00347911,0.0945158,0.995514,-0.00347911,0.0944853,0.995514,-0.00350963,0.0945158,0.995514,-0.00347911,0.0944548,0.995514,-0.00347911,0.0944853,0.995514,-0.00347911,0.0944853,0.995514,-0.00347911,0.0944853,0.995514,-0.00350963,0.0944853,0.995514,-0.00347911,0.0944853,0.995514,-0.00350963,0.0944548,0.995514,-0.00347911,0.0944548,0.995514,-0.00347911,0.0944853,0.995514,-0.00347911,0.0944853,0.995514,-0.00347911,0.0944853,0.995514,0.00354015,-0.0944548,-0.995514,0.00347911,-0.0944853,-0.995514,0.00357067,-0.0944243,-0.995514,-0.00347911,0.0944853,0.995514,-0.00360118,0.0944243,0.995514,-0.003296,0.0948515,0.995453,0.270425,0.958495,-0.0900296,0.270486,0.958464,-0.0900906,0.270455,0.958495,-0.0900601,0.270363,0.958525,-0.0899991,-0.474899,0.875942,-0.0847499,-0.474868,0.875942,-0.0847194,-0.474899,0.875912,-0.0847499,-0.474929,0.875912,-0.0847804,-0.957762,0.285836,-0.030488,-0.957762,0.285836,-0.030488,-0.957762,0.285836,-0.030488,-0.957762,0.285836,-0.030488,-0.898129,-0.437971,0.0383923,-0.898099,-0.438032,0.0384228,-0.898129,-0.438002,0.0384228,-0.89816,-0.437941,0.0383618,-0.295694,-0.951079,0.0892972,-0.295633,-0.951109,0.0893277,-0.295663,-0.951079,0.0892972,-0.295724,-0.951079,0.0892666,0.431989,-0.897671,0.0867336,0.432142,-0.89758,0.0868252,0.432051,-0.897641,0.0867641,0.431898,-0.897732,0.0866726,0.942808,-0.331462,0.0347301,0.942808,-0.331492,0.0347301,0.942808,-0.331462,0.0347301,0.942808,-0.331431,0.0347301,0.909391,0.414319,-0.0361339,0.90936,0.41438,-0.0361034,0.909391,0.41435,-0.0361339,0.909391,0.414319,-0.0361339,0.295663,0.951079,-0.0892666,0.295755,0.951048,-0.0892972,0.295724,0.951079,-0.0892666,0.295633,0.951109,-0.0892361,-0.431928,0.897702,-0.0867336,-0.431928,0.897702,-0.0867336,-0.431928,0.897702,-0.0867336,-0.431898,0.897702,-0.0867336,-0.942808,0.331462,-0.0347911,-0.942808,0.331492,-0.0347911,-0.942808,0.331431,-0.0348216,-0.942808,0.3314,-0.0348216,-0.909391,-0.41435,0.0361339,-0.909391,-0.41435,0.0361339,-0.90936,-0.41438,0.0361034,-0.90936,-0.41438,0.0361034,-0.270516,-0.958464,0.0900601,-0.270608,-0.958434,0.0900906,-0.270455,-0.958495,0.0899991,-0.270394,-0.958525,0.0899686,0.475051,-0.87582,0.0848109,0.47496,-0.875881,0.0847499,0.475021,-0.875851,0.0847804,0.475112,-0.87579,0.0848415,0.957762,-0.285897,0.0305185,0.957762,-0.285928,0.0305185,0.957762,-0.285897,0.0305185,0.957762,-0.285897,0.030549,0.898099,0.438093,-0.0384228,0.898038,0.438185,-0.0383923,0.898068,0.438124,-0.0383923,0.898099,0.438032,-0.0384533,-0.00350963,0.0944548,0.995514,-0.00347911,0.0945158,0.995514,-0.00347911,0.0944853,0.995514,-0.00360118,0.0944243,0.995514,-0.00347911,0.0945158,0.995514,-0.00347911,0.0945463,0.995514,-0.00347911,0.0945158,0.995514,-0.00357067,0.0943938,0.995514,-0.00344859,0.0944853,0.995514,0.00347911,-0.0944853,-0.995514,0.00344859,-0.0944548,-0.995514,0.00347911,-0.0945158,-0.995514,0.00347911,-0.0944243,-0.995514,0.00350963,-0.0945158,-0.995514,0.00347911,-0.0944853,-0.995514,0.003296,-0.0943938,-0.995514,0.00366222,-0.0943022,-0.995514,0.00347911,-0.0945463,-0.995483,0.00344859,-0.0944853,-0.995514,0.00344859,-0.0945158,-0.995514,0.00350963,-0.0944853,-0.995514,0.00354015,-0.0945158,-0.995514,-0.00354015,0.0945158,0.995514,-0.00347911,0.0945158,0.995514,-0.00350963,0.0945158,0.995514,-0.00350963,0.0945158,0.995514,0.00344859,-0.0945158,-0.995514,-0.00354015,0.0943938,0.995514,-0.00326548,0.0949126,0.995453,-0.00347911,0.0945158,0.995514,-0.00350963,0.0944853,0.995514,-0.00350963,0.0944548,0.995514,0.00341807,-0.0945158,-0.995514,0.00354015,-0.0943938,-0.995514,0.259163,0.886807,-0.38258,0.259163,0.886959,-0.382214,0.259346,0.88525,-0.385998,0.259377,0.885128,-0.386334,0.257241,0.942228,0.214515,0.257118,0.94293,0.211432,0.257149,0.942869,0.211737,0.257241,0.942167,0.214759,-0.452528,0.808557,-0.376049,-0.452528,0.808557,-0.376019,-0.452589,0.808496,-0.37611,-0.452589,0.808496,-0.37611,-0.454665,0.864681,0.213385,-0.454634,0.864589,0.213843,-0.454634,0.864589,0.213813,-0.454665,0.864711,0.213355,-0.915738,0.244942,-0.318369,-0.917936,0.247627,-0.309854,-0.917722,0.247353,-0.310709,-0.915555,0.244728,-0.319071,-0.919462,0.300821,0.253029,-0.919645,0.300912,0.252266,-0.917814,0.300027,0.259926,-0.917661,0.299966,0.260567,-0.851772,-0.445692,-0.275338,-0.851466,-0.445479,-0.276559,-0.854183,-0.447584,-0.264565,-0.854396,-0.447798,-0.263497,-0.856929,-0.388989,0.338115,-0.857387,-0.389111,0.336802,-0.852962,-0.387799,0.349284,-0.852565,-0.387677,0.350444,-0.280801,-0.934965,-0.216712,-0.28074,-0.93527,-0.2154,-0.281289,-0.932127,-0.228004,-0.28132,-0.931822,-0.229163,-0.282174,-0.873928,0.395703,-0.281899,-0.873531,0.396802,-0.284555,-0.877407,0.386212,-0.284799,-0.877743,0.385266,0.41435,-0.888028,-0.199133,0.414228,-0.886502,-0.206183,0.414228,-0.886624,-0.205512,0.41438,-0.88815,-0.198553,0.412305,-0.831446,0.372356,0.412305,-0.83105,0.373241,0.412427,-0.835139,0.363872,0.412427,-0.835475,0.363109,0.90173,-0.344584,-0.260903,0.901761,-0.344584,-0.260872,0.901669,-0.344646,-0.261055,0.901669,-0.344646,-0.261055,0.899319,-0.28843,0.328593,0.899289,-0.2884,0.328684,0.899503,-0.288644,0.327952,0.899503,-0.288675,0.327891,0.868099,0.366619,-0.334574,0.868038,0.366497,-0.33491,0.868801,0.36787,-0.331339,0.868892,0.367962,-0.331065,0.866878,0.423627,0.262703,0.867,0.423597,0.262337,0.865658,0.423963,0.266213,0.865535,0.423994,0.266518,0.283059,0.877987,-0.385937,0.282998,0.878597,-0.384655,0.283608,0.872982,-0.396741,0.28367,0.872463,-0.397839,0.279977,0.932798,0.226844,0.279702,0.932615,0.227973,0.282266,0.934477,0.216865,0.28251,0.934629,0.215857,-0.412336,0.834529,-0.365337,-0.412366,0.831629,-0.371899,-0.412366,0.831904,-0.371288,-0.412336,0.834773,-0.364818,-0.414319,0.88641,0.206305,-0.41435,0.886196,0.20716,-0.414197,0.888272,0.19837,-0.414197,0.888455,0.197668,-0.899747,0.288827,-0.327097,-0.899747,0.288827,-0.327067,-0.899686,0.288766,-0.327342,-0.899686,0.288766,-0.327342,-0.901334,0.344493,0.26249,-0.901456,0.344615,0.261818,-0.901456,0.344615,0.261879,-0.901303,0.344493,0.262551,-0.865902,-0.423627,-0.265908,-0.86581,-0.423566,-0.266243,-0.866665,-0.424116,-0.262673,-0.866726,-0.424146,-0.262398,-0.868892,-0.367138,0.33198,-0.869015,-0.367168,0.331584,-0.867611,-0.366863,0.335582,-0.867489,-0.366832,0.335917,-0.257485,-0.942778,-0.211737,-0.256935,-0.942381,-0.214148,-0.256966,-0.942412,-0.213935,-0.257515,-0.942808,-0.211554,-0.25895,-0.885495,0.385754,-0.258889,-0.885372,0.386059,-0.259499,-0.886502,0.383038,-0.25956,-0.886593,0.382794,0.454909,-0.86462,-0.213111,0.45497,-0.86465,-0.212958,0.454634,-0.864498,-0.214331,0.454604,-0.864467,-0.214423,0.452651,-0.808832,0.375286,0.452864,-0.808893,0.374889,0.452834,-0.808893,0.37492,0.45262,-0.808832,0.375317,0.917722,-0.299966,-0.260353,0.919706,-0.300943,-0.251991,0.919523,-0.300851,-0.252815,0.917539,-0.299905,-0.261025,0.917875,-0.246345,0.311045,0.915311,-0.245949,0.318827,0.915555,-0.24601,0.318094,0.918088,-0.246406,0.310434,0.853298,0.387982,-0.348308,0.857356,0.389294,-0.33665,0.856929,0.389172,-0.337901,0.852901,0.38786,-0.349376,0.854701,0.446272,0.265084,0.855129,0.446181,0.263863,0.851039,0.447157,0.275155,0.850673,0.447249,0.276223,0.093936,0.23133,-0.968322,0.093997,0.231666,-0.96823,0.0935697,0.228645,-0.968993,0.0935392,0.228431,-0.969024,0.0867336,0.40727,0.909146,0.086642,0.407025,0.909268,0.0876797,0.409345,0.908139,0.0877407,0.409497,0.908048,-0.157018,0.206519,-0.965758,-0.156987,0.206488,-0.965758,-0.157079,0.206793,-0.965667,-0.157109,0.206854,-0.965667,-0.163793,0.38493,0.908261,-0.163854,0.385052,0.9082,-0.163854,0.385052,0.9082,-0.163793,0.384899,0.908292,-0.326212,0.00817896,-0.94525,-0.334117,0.0118107,-0.942442,-0.333262,0.0114139,-0.942747,-0.325755,0.00796533,-0.945402,-0.339824,0.188299,0.921415,-0.340587,0.188604,0.921079,-0.333506,0.185919,0.924223,-0.33311,0.185766,0.924375,-0.291421,-0.235725,-0.927061,-0.292123,-0.236213,-0.926725,-0.282601,-0.230018,-0.931242,-0.281594,-0.229347,-0.9317,-0.288552,-0.0520341,0.956023,-0.287606,-0.0516984,0.956328,-0.299448,-0.0559404,0.952452,-0.300912,-0.0564592,0.951964,-0.09653,-0.402203,-0.910428,-0.0912809,-0.39198,-0.915403,-0.0917997,-0.393017,-0.914914,-0.0969268,-0.402936,-0.910062,-0.0982391,-0.213507,0.971984,-0.0976897,-0.212348,0.972289,-0.103061,-0.22364,0.969176,-0.103458,-0.224494,0.968963,0.153844,-0.404797,-0.901364,0.151158,-0.397046,-0.90524,0.151433,-0.397809,-0.904843,0.153996,-0.405225,-0.90112,0.148167,-0.227027,0.962523,0.14359,-0.219947,0.964873,0.143864,-0.220374,0.964721,0.148686,-0.227821,0.962279,0.321665,-0.200934,-0.92526,0.321116,-0.200629,-0.925504,0.321177,-0.200659,-0.925474,0.321696,-0.200934,-0.92526,0.315012,-0.023072,0.94879,0.315012,-0.0231025,0.94879,0.31489,-0.0228889,0.94882,0.31489,-0.0228889,0.94882,0.304483,0.048616,-0.951262,0.307474,0.0497147,-0.950224,0.307138,0.0496231,-0.950346,0.30427,0.0485549,-0.951323,0.297983,0.227149,0.927122,0.2978,0.227088,0.927183,0.300577,0.227821,0.926115,0.300882,0.227912,0.925993,0.099826,0.213446,-0.971831,0.0996734,0.212531,-0.972045,0.101566,0.224189,-0.969207,0.101779,0.225623,-0.968871,0.0962554,0.401715,0.910672,0.0966216,0.402417,0.910306,0.0917692,0.392834,0.915006,0.0912809,0.391797,0.915494,-0.148198,0.227638,-0.962371,-0.148656,0.228462,-0.962127,-0.144261,0.221015,-0.964507,-0.144017,0.220588,-0.96466,-0.150853,0.398633,0.904599,-0.155095,0.405164,0.900967,-0.154637,0.404462,0.901364,-0.150609,0.398267,0.904813,-0.314585,0.0227973,-0.948943,-0.315134,0.0231635,-0.948729,-0.315104,0.023133,-0.948759,-0.314524,0.0227363,-0.948943,-0.321574,0.200903,0.925291,-0.321848,0.200934,0.925199,-0.321818,0.200934,0.925199,-0.321574,0.200903,0.925321,-0.297708,-0.226997,-0.927244,-0.301218,-0.228004,-0.925871,-0.300851,-0.227882,-0.926023,-0.297464,-0.226936,-0.927335,-0.304666,-0.0483718,0.951201,-0.308359,-0.0506607,0.949889,-0.308115,-0.0505081,0.94998,-0.3043,-0.0481277,0.951353,-0.0867946,-0.406537,-0.909482,-0.0867336,-0.406323,-0.909574,-0.087344,-0.409711,-0.908017,-0.087405,-0.410077,-0.907834,-0.0935087,-0.228126,0.969115,-0.0942412,-0.233009,0.967895,-0.0941496,-0.23249,0.968017,-0.0934477,-0.227821,0.969176,0.164098,-0.385083,-0.908139,0.164159,-0.385144,-0.908109,0.163335,-0.384259,-0.908628,0.163244,-0.384167,-0.908689,0.156743,-0.206397,0.965819,0.156713,-0.206427,0.965819,0.156774,-0.206122,0.96585,0.156774,-0.206091,0.96588,0.333232,-0.186712,-0.924161,0.332438,-0.186621,-0.924467,0.340434,-0.187689,-0.921323,0.340892,-0.18775,-0.92114,0.325877,-0.009064,0.945341,0.334971,-0.0109256,0.942137,0.334422,-0.0108341,0.942351,0.324931,-0.00888089,0.945677,0.289407,0.0509964,-0.95584,0.288339,0.050264,-0.956175,0.298593,0.0572832,-0.952635,0.299356,0.0578021,-0.952361,0.282968,0.231544,0.930754,0.282174,0.2313,0.931028,0.292001,0.234382,0.927213,0.293222,0.234748,0.926756,-0.00347911,0.0944853,0.995514,-0.00347911,0.0945158,0.995514,-0.00347911,0.0944243,0.995514,-0.00344859,0.0944548,0.995514,-0.00354015,0.0945158,0.995514,-0.00344859,0.0945158,0.995514,-0.00347911,0.0944853,0.995514,-0.00347911,0.0944853,0.995514,-0.00347911,0.0944243,0.995514,-0.00347911,0.0944548,0.995514,-0.00354015,0.0945158,0.995514,-0.00347911,0.0944853,0.995514,-0.4232,-0.902036,0.0847194,-0.4232,-0.902036,0.0847194,-0.423231,-0.902066,0.0844142,-0.423231,-0.902036,0.0844142,0.0950652,-0.990966,0.0945769,0.0950652,-0.990966,0.0943327,0.0950652,-0.990966,0.0943327,0.0950652,-0.990936,0.0947905,0.57271,-0.815821,0.0800195,0.572832,-0.815821,0.0790735,0.572802,-0.815821,0.0792566,0.57271,-0.815851,0.0797143,0.898343,-0.436933,0.0447707,0.898373,-0.436842,0.045259,0.898373,-0.436872,0.0449232,0.898343,-0.436933,0.0446791,0.998199,0.0599078,-0.00225837,0.998199,0.0599078,-0.00219733,0.998199,0.0598773,-0.00219733,0.998199,0.0598773,-0.00228889,0.829707,0.555925,-0.0499283,0.829707,0.555925,-0.0498062,0.829707,0.555925,-0.0498062,0.829707,0.555956,-0.0498672,0.423322,0.902036,-0.0839869,0.423353,0.902066,-0.0837428,0.4232,0.902097,-0.0840175,0.423231,0.902097,-0.0840785,-0.0951262,0.990936,-0.0945463,-0.0950957,0.990966,-0.0944853,-0.0950957,0.990936,-0.0946989,-0.0950957,0.990905,-0.0950652,-0.572649,0.815912,-0.0794397,-0.57271,0.815821,-0.0800195,-0.57271,0.815851,-0.0796838,-0.57268,0.815882,-0.0794092,-0.898373,0.436933,-0.0445875,-0.898343,0.436964,-0.0443739,-0.898343,0.436995,-0.0441298,-0.898373,0.436933,-0.044557,-0.998199,-0.0598773,0.00241096,-0.998199,-0.0598468,0.00268563,-0.998199,-0.0598163,0.00286874,-0.998199,-0.0598773,0.00250252,-0.829615,-0.556017,0.050264,-0.829676,-0.555986,0.0500198,-0.829707,-0.555925,0.0502029,-0.829707,-0.555895,0.0506302,0.42317,0.902127,-0.0839869,0.423444,0.902066,-0.0830409,0.423444,0.902066,-0.0830409,0.42317,0.902127,-0.0839869,0.829585,0.556108,-0.0499588,0.829585,0.556108,-0.0499588,0.829768,0.555895,-0.04944,0.829768,0.555895,-0.04944,0.998169,0.0599994,-0.000946074,0.998169,0.0599994,-0.000946074,0.998169,0.0599994,-0.00186163,0.998169,0.0599994,-0.00186163,0.898282,-0.437056,0.0449843,0.898282,-0.437056,0.0449843,0.898343,-0.436995,0.0446181,0.898343,-0.436995,0.0446181,0.572588,-0.816004,0.0789209,0.572588,-0.816004,0.0789209,0.572802,-0.815912,0.0784326,0.572802,-0.815882,0.0784326,0.0950957,-0.990753,0.0964995,0.0950346,-0.991089,0.093234,0.0950346,-0.991089,0.0932646,0.0950957,-0.990753,0.09653,-0.423353,-0.901914,0.0853603,-0.423353,-0.901914,0.0853908,-0.42317,-0.902036,0.084994,-0.42317,-0.902036,0.084994,-0.829646,-0.555864,0.0514237,-0.829646,-0.555864,0.0514237,-0.829615,-0.555895,0.0517289,-0.829615,-0.555895,0.0517289,-0.998169,-0.0599994,0.00173956,-0.998199,-0.0598163,0.00308237,-0.998199,-0.0598163,0.00305185,-0.998169,-0.0600299,0.00173956,-0.89816,0.437422,-0.0438246,-0.89816,0.437422,-0.0438246,-0.898556,0.436689,-0.0430006,-0.898556,0.436689,-0.0429701,-0.572588,0.816034,-0.0784936,-0.572588,0.816034,-0.0784631,-0.57268,0.815729,-0.0809961,-0.57268,0.815729,-0.0810266,-0.0950652,0.990875,-0.0954009,-0.0950346,0.991089,-0.0930815,-0.0950346,0.991089,-0.093112,-0.0950652,0.990875,-0.0954314,-0.13773,-0.196539,0.970763,-0.13773,-0.196539,0.970763,-0.137669,-0.196753,0.970733,-0.137669,-0.196753,0.970733,0.027253,-0.229163,0.972991,0.0273141,-0.229377,0.97293,0.0273141,-0.229377,0.97293,0.027253,-0.229163,0.972991,0.183905,-0.177038,0.966857,0.183935,-0.177038,0.966857,0.183447,-0.176702,0.967009,0.183447,-0.176702,0.967009,0.290628,-0.0534989,0.955321,0.289468,-0.0533464,0.955687,0.289499,-0.0533464,0.955687,0.290628,-0.0534989,0.955321,0.317759,0.108737,0.941893,0.317759,0.108737,0.941893,0.318857,0.108798,0.941527,0.318857,0.108798,0.941527,0.260201,0.26606,0.928159,0.260201,0.26606,0.928159,0.260933,0.266549,0.927793,0.260964,0.266549,0.927793,0.130467,0.375103,0.917753,0.130436,0.375072,0.917753,0.131504,0.376782,0.916898,0.131504,0.376782,0.916898,-0.0339061,0.408155,0.912259,-0.0338145,0.407361,0.912625,-0.0338145,0.407361,0.912625,-0.0339061,0.408155,0.912259,-0.189764,0.354869,0.915433,-0.189764,0.354839,0.915433,-0.189947,0.355296,0.91522,-0.189947,0.355296,0.91522,-0.296915,0.232002,0.926267,-0.295694,0.231605,0.926756,-0.295724,0.231605,0.926756,-0.296945,0.232002,0.926267,-0.325236,0.0701315,0.942991,-0.325236,0.0701315,0.942991,-0.324778,0.0701621,0.943175,-0.324778,0.0701621,0.943175,-0.26661,-0.0869167,0.959868,-0.26661,-0.0869167,0.959868,-0.266793,-0.0870693,0.959807,-0.266793,-0.0870693,0.959807,0.131443,0.376476,0.91702,0.131443,0.376476,0.91702,0.130924,0.375988,0.917295,0.130924,0.375958,0.917325,0.260323,0.266274,0.928037,0.260079,0.266305,0.928098,0.260079,0.266305,0.928098,0.260353,0.266274,0.928037,0.318613,0.108737,0.941618,0.318461,0.108768,0.941649,0.318461,0.108768,0.941649,0.318613,0.108737,0.941618,0.289041,-0.0528886,0.95584,0.28901,-0.0528581,0.95584,0.290689,-0.0534684,0.95529,0.290719,-0.0534684,0.95529,0.183294,-0.176397,0.967071,0.183294,-0.176397,0.967071,0.183172,-0.176336,0.967101,0.183172,-0.176336,0.967101,0.0273446,-0.230689,0.972625,0.0273446,-0.23072,0.972625,0.027253,-0.228858,0.973052,0.027253,-0.228828,0.973052,-0.137852,-0.196692,0.970702,-0.137852,-0.196692,0.970702,-0.137974,-0.197607,0.970519,-0.137974,-0.197607,0.970489,-0.265572,-0.0863063,0.960204,-0.265572,-0.0863063,0.960204,-0.266945,-0.0868252,0.959777,-0.266976,-0.0868252,0.959777,-0.324015,0.0702536,0.943419,-0.324015,0.0702536,0.943419,-0.32429,0.0702536,0.943327,-0.32429,0.0702536,0.943327,-0.296487,0.231819,0.92645,-0.296518,0.231819,0.92645,-0.295755,0.231544,0.926756,-0.295724,0.231544,0.926756,-0.1901,0.355602,0.915067,-0.1901,0.355602,0.915067,-0.190161,0.355602,0.915067,-0.190161,0.355602,0.915067,-0.0339061,0.408399,0.912168,-0.0339366,0.408673,0.912015,-0.0339366,0.408673,0.912015,-0.0339061,0.408368,0.912168,-0.402936,-0.826838,0.392346,-0.402936,-0.826838,0.392346,-0.403088,-0.826807,0.392224,-0.403119,-0.826807,0.392224,0.0892361,-0.912534,0.399091,0.0892972,-0.912992,0.398022,0.0892972,-0.912992,0.398053,0.0892361,-0.912534,0.399091,0.544023,-0.747307,0.381451,0.544023,-0.747307,0.381481,0.54387,-0.747856,0.380627,0.54387,-0.747887,0.380596,0.854274,-0.387249,0.346751,0.854183,-0.387097,0.347118,0.854183,-0.387097,0.347118,0.854274,-0.387249,0.346751,0.947752,0.0862758,0.307108,0.947752,0.0862758,0.307108,0.947783,0.0863369,0.306925,0.947783,0.0863369,0.306925,0.786126,0.557451,0.266854,0.786431,0.557512,0.265847,0.786431,0.557512,0.265847,0.786126,0.557451,0.266884,0.400555,0.886044,0.233283,0.400555,0.886044,0.233283,0.400555,0.885922,0.233741,0.400586,0.885922,0.233741,-0.091525,0.971252,0.219672,-0.0914335,0.971221,0.219916,-0.0914335,0.971221,0.219886,-0.091525,0.971252,0.219642,-0.546251,0.805475,0.229713,-0.546251,0.805475,0.229713,-0.546342,0.805811,0.228339,-0.546342,0.805811,0.228309,-0.85638,0.44496,0.261818,-0.85638,0.44496,0.261818,-0.856594,0.445021,0.261025,-0.856594,0.445021,0.261025,-0.94995,-0.0276193,0.311136,-0.94995,-0.0276193,0.311136,-0.950346,-0.0277108,0.309915,-0.950346,-0.0277108,0.309915,-0.78869,-0.497818,0.360698,-0.788659,-0.497818,0.360729,-0.788903,-0.498337,0.359478,-0.788903,-0.498367,0.359447,0.400494,0.885922,0.233924,0.400494,0.885922,0.233924,0.400678,0.886044,0.233161,0.400678,0.886044,0.233161,0.78637,0.55739,0.266274,0.78637,0.557421,0.266182,0.78637,0.557421,0.266182,0.78637,0.55736,0.266274,0.947874,0.0862758,0.306711,0.948057,0.0861843,0.306131,0.948057,0.0861843,0.306162,0.947844,0.0862758,0.306742,0.854091,-0.387158,0.34724,0.854091,-0.387158,0.34727,0.854488,-0.387188,0.346263,0.854488,-0.387188,0.346233,0.544145,-0.747642,0.380627,0.544206,-0.7481,0.37962,0.544206,-0.7481,0.37965,0.544145,-0.747642,0.380627,0.0893277,-0.912259,0.399701,0.0893277,-0.913083,0.397839,0.0893277,-0.913053,0.39787,0.0893277,-0.912259,0.399731,-0.403211,-0.827052,0.391614,-0.402722,-0.826197,0.393902,-0.402722,-0.826228,0.393872,-0.403211,-0.827052,0.391583,-0.788842,-0.498245,0.359752,-0.788842,-0.498245,0.359752,-0.788842,-0.498459,0.359416,-0.788842,-0.498459,0.359416,-0.950285,-0.0276803,0.310099,-0.950285,-0.0276803,0.310068,-0.950072,-0.0276803,0.310739,-0.950072,-0.0276803,0.310739,-0.856258,0.444929,0.262337,-0.856502,0.445021,0.26133,-0.856502,0.445021,0.261361,-0.856258,0.444899,0.262337,-0.546251,0.805414,0.229957,-0.546251,0.805414,0.229987,-0.546281,0.805597,0.229255,-0.546281,0.805597,0.229255,-0.091464,0.971435,0.218879,-0.091464,0.971435,0.218848,-0.091464,0.971252,0.219642,-0.091464,0.971252,0.219672,0.400891,0.885922,0.233192,0.400678,0.886074,0.232978,0.400678,0.886074,0.233009,0.400891,0.885922,0.233192,-0.0914335,0.970946,0.221015,-0.0914335,0.970946,0.221046,-0.091464,0.971435,0.218848,-0.091464,0.971465,0.218818,-0.546037,0.805292,0.230873,-0.546037,0.805292,0.230873,-0.54619,0.805506,0.229713,-0.54619,0.805506,0.229713,-0.856197,0.444868,0.262673,-0.856197,0.444868,0.262673,-0.856319,0.444868,0.262246,-0.856319,0.444868,0.262246,-0.949889,-0.0276193,0.311289,-0.94995,-0.0275582,0.311106,-0.94995,-0.0275582,0.311106,-0.949889,-0.0276498,0.311289,-0.788781,-0.498062,0.360179,-0.78869,-0.497787,0.360729,-0.78869,-0.497787,0.360698,-0.788781,-0.498062,0.360149,-0.402783,-0.826319,0.393597,-0.402844,-0.82635,0.393445,-0.402844,-0.82635,0.393445,-0.402783,-0.826319,0.393628,0.0892666,-0.913083,0.397809,0.0892666,-0.913083,0.397809,0.0892056,-0.912564,0.39903,0.0892056,-0.912564,0.39903,0.543962,-0.747673,0.38084,0.543962,-0.747673,0.380871,0.54442,-0.748009,0.379559,0.54442,-0.748009,0.379528,0.853999,-0.387005,0.347636,0.853999,-0.387005,0.347636,0.854213,-0.387097,0.347026,0.854213,-0.387097,0.347026,0.947691,0.0863063,0.307199,0.947691,0.0863063,0.307199,0.947661,0.0862758,0.307321,0.947661,0.0862758,0.307321,0.786309,0.557512,0.266182,0.786309,0.557512,0.266182,0.786493,0.55736,0.26603,0.786493,0.557329,0.265999,0.131291,0.376324,0.917112,0.131291,0.376324,0.917112,0.131108,0.37611,0.917234,0.131108,0.37611,0.917234,-0.0339366,0.408979,0.911893,-0.0339366,0.408673,0.912015,-0.0339366,0.408673,0.912015,-0.0339366,0.408979,0.911893,-0.190405,0.356029,0.914853,-0.190588,0.355998,0.914823,-0.190588,0.355998,0.914823,-0.190374,0.356029,0.914853,-0.295969,0.231635,0.926664,-0.297037,0.232185,0.926176,-0.297006,0.232185,0.926206,-0.295938,0.231635,0.926664,-0.323771,0.0702231,0.94351,-0.325053,0.0701621,0.943083,-0.325022,0.0701621,0.943083,-0.32374,0.0702231,0.94351,-0.267067,-0.0870693,0.959716,-0.266701,-0.0870083,0.959838,-0.266701,-0.0870083,0.959838,-0.267067,-0.0870693,0.959716,-0.137791,-0.197119,0.970611,-0.137791,-0.19715,0.970611,-0.137455,-0.196631,0.970763,-0.137425,-0.196631,0.970794,0.0272225,-0.229347,0.97293,0.0272225,-0.229347,0.97293,0.0272225,-0.228858,0.973052,0.0272225,-0.228858,0.973052,0.183172,-0.176336,0.967132,0.18366,-0.176641,0.966948,0.18366,-0.176641,0.966979,0.183172,-0.176336,0.967132,0.289621,-0.0531938,0.955657,0.289621,-0.0531938,0.955657,0.289804,-0.0532548,0.955596,0.289804,-0.0532548,0.955596,0.31785,0.108676,0.941862,0.31785,0.108676,0.941862,0.318308,0.108768,0.94171,0.318339,0.108768,0.94171,0.26075,0.266427,0.927885,0.259468,0.265786,0.928434,0.259499,0.265816,0.928434,0.26075,0.266427,0.927885,-0.400525,-0.885952,-0.233741,-0.400525,-0.885952,-0.233741,-0.400647,-0.885891,-0.233711,-0.400647,-0.885891,-0.233711,0.091464,-0.971313,-0.219459,0.091464,-0.971343,-0.219306,0.091464,-0.971343,-0.219306,0.091464,-0.971313,-0.219459,0.546312,-0.805597,-0.229194,0.546312,-0.805597,-0.229194,0.546312,-0.805536,-0.229347,0.546312,-0.805536,-0.229347,0.856288,-0.444838,-0.262337,0.856288,-0.444838,-0.262307,0.856105,-0.444929,-0.262795,0.856105,-0.444929,-0.262825,0.949858,0.0275582,-0.311411,0.949858,0.0275582,-0.311411,0.949919,0.0275887,-0.311258,0.949919,0.0275887,-0.311228,0.788598,0.49794,-0.360729,0.788568,0.497818,-0.360942,0.788568,0.497848,-0.360942,0.788598,0.49794,-0.360729,0.402844,0.826594,-0.392926,0.402844,0.826594,-0.392926,0.402875,0.826472,-0.3932,0.402875,0.826441,-0.3932,-0.0892972,0.912778,-0.39848,-0.0892972,0.912809,-0.39848,-0.0892666,0.912717,-0.398694,-0.0892666,0.912717,-0.398694,-0.544176,0.747734,-0.380413,-0.544115,0.747734,-0.380505,-0.544115,0.747734,-0.380474,-0.544176,0.747734,-0.380413,-0.854091,0.386975,-0.347514,-0.854183,0.387066,-0.347148,-0.854183,0.387036,-0.347179,-0.85406,0.386975,-0.347514,-0.947783,-0.0862758,-0.306986,-0.947783,-0.0862758,-0.306986,-0.947722,-0.0862758,-0.307138,-0.947722,-0.0862758,-0.307138,-0.786431,-0.557421,-0.265969,-0.786431,-0.557421,-0.265969,-0.786401,-0.557451,-0.26606,-0.786401,-0.557451,-0.26606,-0.131046,-0.375988,-0.917295,-0.131046,-0.375988,-0.917295,-0.131046,-0.375958,-0.917295,-0.131046,-0.375958,-0.917295,0.0339061,-0.408429,-0.912137,0.0339061,-0.408399,-0.912137,0.0339061,-0.40849,-0.912107,0.0339061,-0.40849,-0.912107,0.190191,-0.35548,-0.915098,0.190191,-0.35548,-0.915098,0.190191,-0.355602,-0.915067,0.190191,-0.355632,-0.915036,0.296152,-0.231819,-0.926572,0.296121,-0.231819,-0.926572,0.296609,-0.23188,-0.926389,0.29664,-0.23191,-0.926389,0.32487,-0.0701621,-0.943144,0.32487,-0.0701315,-0.943114,0.324351,-0.0701926,-0.943297,0.32429,-0.0702231,-0.943327,0.266518,0.0867946,-0.959899,0.266915,0.0869472,-0.959777,0.266915,0.0869472,-0.959777,0.266488,0.0867946,-0.959899,0.137638,0.1966,-0.970763,0.137638,0.1966,-0.970763,0.13773,0.196875,-0.970672,0.13773,0.196905,-0.970672,-0.0272835,0.229469,-0.97293,-0.0272835,0.229743,-0.972839,-0.0272835,0.229713,-0.972839,-0.0272835,0.229438,-0.97293,-0.183477,0.176855,-0.966979,-0.183477,0.176855,-0.966979,-0.183538,0.176794,-0.966979,-0.183538,0.176794,-0.966979,-0.289804,0.0532243,-0.955596,-0.289773,0.0532243,-0.955596,-0.289834,0.0532548,-0.955565,-0.289834,0.0532548,-0.955565,-0.318003,-0.108737,-0.941832,-0.317972,-0.108737,-0.941832,-0.318125,-0.108737,-0.941771,-0.318125,-0.108737,-0.941771,-0.260048,-0.26606,-0.92819,-0.260048,-0.266091,-0.92819,-0.260048,-0.266091,-0.92819,-0.260048,-0.26606,-0.92819],
                "itemSize":3,
                "type":"Float32Array"
            },
            "position":{
                "array":[0.227572,0.0311442,0.194823,0.227579,0.0309713,0.193001,0.231011,0.029376,0.193164,0.231004,0.0295489,0.194986,0.234835,0.0299144,0.194965,0.231004,0.0295489,0.194986,0.231011,0.029376,0.193164,0.234841,0.0297415,0.193143,0.238043,0.03197,0.192943,0.238037,0.0321428,0.194765,0.234835,0.0299144,0.194965,0.234841,0.0297415,0.193143,0.238043,0.03197,0.192943,0.239759,0.035464,0.192617,0.239753,0.035637,0.194439,0.238037,0.0321428,0.194765,0.239529,0.0392877,0.192253,0.239522,0.0394607,0.194075,0.239753,0.035637,0.194439,0.239759,0.035464,0.192617,0.237414,0.0424164,0.191949,0.237408,0.0425893,0.193771,0.239522,0.0394607,0.194075,0.239529,0.0392877,0.192253,0.237408,0.0425893,0.193771,0.237414,0.0424164,0.191949,0.233982,0.0440116,0.191785,0.233975,0.0441847,0.193607,0.233975,0.0441847,0.193607,0.233982,0.0440116,0.191785,0.230151,0.0436462,0.191806,0.230145,0.043819,0.193628,0.226943,0.0415907,0.193829,0.230145,0.043819,0.193628,0.230151,0.0436462,0.191806,0.226949,0.0414179,0.192007,0.226943,0.0415907,0.193829,0.226949,0.0414179,0.192007,0.225234,0.0379236,0.192332,0.225227,0.0380965,0.194154,0.225227,0.0380965,0.194154,0.225234,0.0379236,0.192332,0.225464,0.0341,0.192696,0.225457,0.0342729,0.194518,0.227572,0.0311442,0.194823,0.225457,0.0342729,0.194518,0.225464,0.0341,0.192696,0.227579,0.0309713,0.193001,0.227826,0.0312228,0.19261,0.228686,0.0322243,0.192518,0.231347,0.0309878,0.192645,0.231087,0.0297073,0.192765,0.225817,0.0341951,0.192321,0.227047,0.0346489,0.192282,0.225598,0.0378276,0.191975,0.226869,0.0376124,0.192,0.227228,0.041147,0.191666,0.228199,0.0403203,0.191748,0.23068,0.0420475,0.191592,0.23027,0.043264,0.191475,0.233909,0.0436113,0.191455,0.233649,0.0423306,0.191576,0.237169,0.0420956,0.191611,0.236309,0.0410942,0.191703,0.237948,0.0386695,0.191939,0.239178,0.0391234,0.1919,0.238126,0.0357061,0.192221,0.239397,0.035491,0.192246,0.237767,0.0321714,0.192555,0.236797,0.0329982,0.192473,0.234725,0.0300546,0.192745,0.234315,0.0312712,0.192628,0.227829,0.0314707,0.195068,0.227645,0.0312561,0.195088,0.231026,0.0296846,0.195249,0.231082,0.0299591,0.195223,0.234799,0.0300447,0.195228,0.234711,0.0303054,0.195203,0.237953,0.0322397,0.195031,0.237745,0.0324169,0.195013,0.239643,0.0356813,0.19471,0.23937,0.0357275,0.194705,0.239152,0.0393505,0.19436,0.239416,0.0394477,0.194352,0.237333,0.0425295,0.194052,0.237149,0.0423148,0.194072,0.233952,0.0441008,0.193891,0.233896,0.0438264,0.193917,0.230179,0.0437407,0.193912,0.230267,0.0434802,0.193937,0.227025,0.0415458,0.194109,0.227233,0.0413688,0.194127,0.225335,0.0381042,0.19443,0.225608,0.038058,0.194435,0.225562,0.0343378,0.194788,0.225826,0.034435,0.19478,0.228503,0.0373357,0.192032,0.2305,0.0369974,0.192071,0.230564,0.035946,0.192171,0.22863,0.0352327,0.192232,0.229447,0.0392574,0.191853,0.230972,0.0379584,0.191982,0.231208,0.0404831,0.191743,0.231853,0.0385712,0.191926,0.233315,0.0406841,0.191731,0.232906,0.0386717,0.191921,0.234495,0.0363212,0.192149,0.234432,0.0373725,0.192049,0.236365,0.0380858,0.191988,0.236492,0.0359828,0.192189,0.235548,0.034061,0.192368,0.234023,0.0353602,0.192239,0.233142,0.0347473,0.192294,0.233787,0.0328354,0.192478,0.231681,0.0326344,0.192489,0.232089,0.0346468,0.1923,0.23378,0.033043,0.194664,0.233135,0.0349549,0.194481,0.232082,0.0348544,0.194486,0.231673,0.032842,0.194676,0.235541,0.0342687,0.194554,0.234015,0.0355677,0.194425,0.236484,0.0361905,0.194375,0.234487,0.0365286,0.194336,0.236358,0.0382934,0.194175,0.234424,0.0375802,0.194236,0.231845,0.0387787,0.194113,0.232898,0.0388793,0.194107,0.233307,0.0408916,0.193918,0.2312,0.0406907,0.193929,0.230964,0.0381659,0.194168,0.229439,0.039465,0.194039,0.230493,0.0372051,0.194258,0.228495,0.0375432,0.194218,0.228622,0.0354402,0.194419,0.230556,0.0361536,0.194358,0.234307,0.0314787,0.194815,0.231339,0.0311955,0.194831,0.236789,0.0332057,0.194659,0.238119,0.0359138,0.194407,0.23794,0.038877,0.194125,0.233641,0.0425382,0.193762,0.230673,0.0422547,0.193779,0.228191,0.0405278,0.193934,0.226861,0.0378199,0.194186,0.22704,0.0348566,0.194468,0.231145,0.0350855,0.192255,0.232498,0.0366593,0.19211,0.23385,0.038233,0.191966,0.23249,0.0368668,0.194297,0.231138,0.0352932,0.194441,0.233842,0.0384405,0.194152,0.229116,0.0327422,0.192654,0.229109,0.0329153,0.194476,0.230158,0.0326224,0.194508,0.230164,0.0324495,0.192686,0.230158,0.0326224,0.194508,0.231083,0.0331196,0.194464,0.231089,0.0329468,0.192642,0.230164,0.0324495,0.192686,0.231403,0.0339875,0.192544,0.231089,0.0329468,0.192642,0.231083,0.0331196,0.194464,0.231397,0.0341605,0.194366,0.230954,0.0350613,0.194279,0.23096,0.0348882,0.192457,0.231403,0.0339875,0.192544,0.231397,0.0341605,0.194366,0.229991,0.0353576,0.194247,0.229998,0.0351844,0.192425,0.23096,0.0348882,0.192457,0.230954,0.0350613,0.194279,0.229998,0.0351844,0.192425,0.229991,0.0353576,0.194247,0.229007,0.0348876,0.194289,0.229013,0.0347148,0.192466,0.229013,0.0347148,0.192466,0.229007,0.0348876,0.194289,0.228657,0.0339011,0.194381,0.228663,0.0337281,0.192559,0.229109,0.0329153,0.194476,0.229116,0.0327422,0.192654,0.228663,0.0337281,0.192559,0.228657,0.0339011,0.194381,0.234034,0.0384648,0.192128,0.234027,0.0386379,0.19395,0.23499,0.0383415,0.193982,0.234996,0.0381686,0.19216,0.235974,0.0388113,0.193941,0.235981,0.0386383,0.192119,0.234996,0.0381686,0.19216,0.23499,0.0383415,0.193982,0.236331,0.0396249,0.192026,0.235981,0.0386383,0.192119,0.235974,0.0388113,0.193941,0.236324,0.039798,0.193848,0.236324,0.039798,0.193848,0.235872,0.0407838,0.193753,0.235878,0.0406107,0.191931,0.236331,0.0396249,0.192026,0.234829,0.0409038,0.191899,0.235878,0.0406107,0.191931,0.235872,0.0407838,0.193753,0.234823,0.0410766,0.193721,0.234829,0.0409038,0.191899,0.234823,0.0410766,0.193721,0.233898,0.0405794,0.193765,0.233905,0.0404064,0.191943,0.233584,0.0395384,0.193863,0.233591,0.0393655,0.192041,0.233905,0.0404064,0.191943,0.233898,0.0405794,0.193765,0.233591,0.0393655,0.192041,0.233584,0.0395384,0.193863,0.234027,0.0386379,0.19395,0.234034,0.0384648,0.192128,0.230173,0.0324555,0.194707,0.228986,0.0327895,0.194671,0.228679,0.0324319,0.194704,0.231076,0.0352215,0.194448,0.230005,0.0355602,0.194412,0.233402,0.0395131,0.194049,0.233759,0.0407144,0.193936,0.236509,0.0398285,0.19403,0.236112,0.0387102,0.194134,0.234983,0.0379659,0.191995,0.23612,0.0385026,0.191948,0.234814,0.0410706,0.1917,0.233766,0.0405068,0.191749,0.228478,0.0336977,0.192377,0.228994,0.032582,0.192485,0.231586,0.0340129,0.192358,0.231084,0.0350139,0.192262,0.230181,0.0322479,0.192521,0.231229,0.0328117,0.192471,0.230013,0.0353525,0.192226,0.228876,0.0348159,0.192272,0.23341,0.0393056,0.191862,0.231578,0.0342204,0.194545,0.231221,0.0330192,0.194658,0.234975,0.0381736,0.194181,0.228868,0.0350235,0.194459,0.236517,0.0396208,0.191843,0.234807,0.0412781,0.193886,0.233904,0.038512,0.194145,0.236301,0.0413019,0.193889,0.235994,0.040944,0.193922,0.228471,0.0339052,0.194564,0.236002,0.0407366,0.191736,0.233911,0.0383045,0.191959,0.229086,0.0326936,0.192521,0.229116,0.0327422,0.192654,0.230164,0.0324495,0.192686,0.230169,0.0323904,0.192553,0.230158,0.0326224,0.194508,0.229109,0.0329153,0.194476,0.229078,0.0328924,0.194616,0.230161,0.0325893,0.194649,0.230169,0.0323904,0.192553,0.230164,0.0324495,0.192686,0.231089,0.0329468,0.192642,0.231125,0.0329043,0.192508,0.231083,0.0331196,0.194464,0.230158,0.0326224,0.194508,0.230161,0.0325893,0.194649,0.231117,0.0331031,0.194603,0.231089,0.0329468,0.192642,0.231403,0.0339875,0.192544,0.231449,0.0339853,0.192406,0.231125,0.0329043,0.192508,0.231442,0.0341842,0.194502,0.231397,0.0341605,0.194366,0.231083,0.0331196,0.194464,0.231117,0.0331031,0.194603,0.231449,0.0339853,0.192406,0.231403,0.0339875,0.192544,0.23096,0.0348882,0.192457,0.230991,0.0349111,0.192317,0.230984,0.03511,0.194412,0.230954,0.0350613,0.194279,0.231397,0.0341605,0.194366,0.231442,0.0341842,0.194502,0.230991,0.0349111,0.192317,0.23096,0.0348882,0.192457,0.229998,0.0351844,0.192425,0.230002,0.0352179,0.192284,0.229994,0.0354167,0.19438,0.229991,0.0353576,0.194247,0.230954,0.0350613,0.194279,0.230984,0.03511,0.194412,0.229998,0.0351844,0.192425,0.229013,0.0347148,0.192466,0.228979,0.0347313,0.192327,0.230002,0.0352179,0.192284,0.228972,0.0349303,0.194422,0.229007,0.0348876,0.194289,0.229991,0.0353576,0.194247,0.229994,0.0354167,0.19438,0.228979,0.0347313,0.192327,0.229013,0.0347148,0.192466,0.228663,0.0337281,0.192559,0.228617,0.0337118,0.192422,0.22861,0.0339108,0.194518,0.228657,0.0339011,0.194381,0.229007,0.0348876,0.194289,0.228972,0.0349303,0.194422,0.228617,0.0337118,0.192422,0.228663,0.0337281,0.192559,0.229116,0.0327422,0.192654,0.229086,0.0326936,0.192521,0.229078,0.0328924,0.194616,0.229109,0.0329153,0.194476,0.228657,0.0339011,0.194381,0.22861,0.0339108,0.194518,0.234004,0.0384161,0.191995,0.234034,0.0384648,0.192128,0.234996,0.0381686,0.19216,0.234993,0.0381092,0.192027,0.234986,0.0383083,0.194123,0.23499,0.0383415,0.193982,0.234027,0.0386379,0.19395,0.233996,0.038615,0.19409,0.234996,0.0381686,0.19216,0.235981,0.0386383,0.192119,0.236016,0.0385958,0.191985,0.234993,0.0381092,0.192027,0.236008,0.0387946,0.19408,0.235974,0.0388113,0.193941,0.23499,0.0383415,0.193982,0.234986,0.0383083,0.194123,0.236016,0.0385958,0.191985,0.235981,0.0386383,0.192119,0.236331,0.0396249,0.192026,0.236378,0.0396153,0.191889,0.236324,0.039798,0.193848,0.235974,0.0388113,0.193941,0.236008,0.0387946,0.19408,0.23637,0.0398142,0.193985,0.236378,0.0396153,0.191889,0.236331,0.0396249,0.192026,0.235878,0.0406107,0.191931,0.235909,0.0406336,0.191791,0.235902,0.0408325,0.193886,0.235872,0.0407838,0.193753,0.236324,0.039798,0.193848,0.23637,0.0398142,0.193985,0.235878,0.0406107,0.191931,0.234829,0.0409038,0.191899,0.234826,0.0409368,0.191758,0.235909,0.0406336,0.191791,0.234819,0.0411356,0.193854,0.234823,0.0410766,0.193721,0.235872,0.0407838,0.193753,0.235902,0.0408325,0.193886,0.234826,0.0409368,0.191758,0.234829,0.0409038,0.191899,0.233905,0.0404064,0.191943,0.23387,0.040423,0.191804,0.233898,0.0405794,0.193765,0.234823,0.0410766,0.193721,0.234819,0.0411356,0.193854,0.233863,0.0406218,0.193899,0.233905,0.0404064,0.191943,0.233591,0.0393655,0.192041,0.233546,0.0393419,0.191905,0.23387,0.040423,0.191804,0.233584,0.0395384,0.193863,0.233898,0.0405794,0.193765,0.233863,0.0406218,0.193899,0.233538,0.0395407,0.194001,0.233591,0.0393655,0.192041,0.234034,0.0384648,0.192128,0.234004,0.0384161,0.191995,0.233546,0.0393419,0.191905,0.233996,0.038615,0.19409,0.234027,0.0386379,0.19395,0.233584,0.0395384,0.193863,0.233538,0.0395407,0.194001,0.228994,0.032582,0.192485,0.229086,0.0326936,0.192521,0.230169,0.0323904,0.192553,0.230181,0.0322479,0.192521,0.230173,0.0324555,0.194707,0.230161,0.0325893,0.194649,0.229078,0.0328924,0.194616,0.228986,0.0327895,0.194671,0.231125,0.0329043,0.192508,0.231229,0.0328117,0.192471,0.230181,0.0322479,0.192521,0.230169,0.0323904,0.192553,0.230173,0.0324555,0.194707,0.231221,0.0330192,0.194658,0.231117,0.0331031,0.194603,0.230161,0.0325893,0.194649,0.231125,0.0329043,0.192508,0.231449,0.0339853,0.192406,0.231586,0.0340129,0.192358,0.231229,0.0328117,0.192471,0.231578,0.0342204,0.194545,0.231442,0.0341842,0.194502,0.231117,0.0331031,0.194603,0.231221,0.0330192,0.194658,0.230991,0.0349111,0.192317,0.231084,0.0350139,0.192262,0.231586,0.0340129,0.192358,0.231449,0.0339853,0.192406,0.231442,0.0341842,0.194502,0.231578,0.0342204,0.194545,0.231076,0.0352215,0.194448,0.230984,0.03511,0.194412,0.230991,0.0349111,0.192317,0.230002,0.0352179,0.192284,0.230013,0.0353525,0.192226,0.231084,0.0350139,0.192262,0.230005,0.0355602,0.194412,0.229994,0.0354167,0.19438,0.230984,0.03511,0.194412,0.231076,0.0352215,0.194448,0.230002,0.0352179,0.192284,0.228979,0.0347313,0.192327,0.228876,0.0348159,0.192272,0.230013,0.0353525,0.192226,0.230005,0.0355602,0.194412,0.228868,0.0350235,0.194459,0.228972,0.0349303,0.194422,0.229994,0.0354167,0.19438,0.228979,0.0347313,0.192327,0.228617,0.0337118,0.192422,0.228478,0.0336977,0.192377,0.228876,0.0348159,0.192272,0.228471,0.0339052,0.194564,0.22861,0.0339108,0.194518,0.228972,0.0349303,0.194422,0.228868,0.0350235,0.194459,0.228617,0.0337118,0.192422,0.229086,0.0326936,0.192521,0.228994,0.032582,0.192485,0.228478,0.0336977,0.192377,0.22861,0.0339108,0.194518,0.228471,0.0339052,0.194564,0.228986,0.0327895,0.194671,0.229078,0.0328924,0.194616,0.234993,0.0381092,0.192027,0.234983,0.0379659,0.191995,0.233911,0.0383045,0.191959,0.234004,0.0384161,0.191995,0.233996,0.038615,0.19409,0.233904,0.038512,0.194145,0.234975,0.0381736,0.194181,0.234986,0.0383083,0.194123,0.234983,0.0379659,0.191995,0.234993,0.0381092,0.192027,0.236016,0.0385958,0.191985,0.23612,0.0385026,0.191948,0.236008,0.0387946,0.19408,0.234986,0.0383083,0.194123,0.234975,0.0381736,0.194181,0.236112,0.0387102,0.194134,0.236517,0.0396208,0.191843,0.23612,0.0385026,0.191948,0.236016,0.0385958,0.191985,0.236378,0.0396153,0.191889,0.23637,0.0398142,0.193985,0.236008,0.0387946,0.19408,0.236112,0.0387102,0.194134,0.236509,0.0398285,0.19403,0.236378,0.0396153,0.191889,0.235909,0.0406336,0.191791,0.236002,0.0407366,0.191736,0.236517,0.0396208,0.191843,0.236509,0.0398285,0.19403,0.235994,0.040944,0.193922,0.235902,0.0408325,0.193886,0.23637,0.0398142,0.193985,0.234826,0.0409368,0.191758,0.234814,0.0410706,0.1917,0.236002,0.0407366,0.191736,0.235909,0.0406336,0.191791,0.234819,0.0411356,0.193854,0.235902,0.0408325,0.193886,0.235994,0.040944,0.193922,0.234807,0.0412781,0.193886,0.23387,0.040423,0.191804,0.233766,0.0405068,0.191749,0.234814,0.0410706,0.1917,0.234826,0.0409368,0.191758,0.233759,0.0407144,0.193936,0.233863,0.0406218,0.193899,0.234819,0.0411356,0.193854,0.234807,0.0412781,0.193886,0.233766,0.0405068,0.191749,0.23387,0.040423,0.191804,0.233546,0.0393419,0.191905,0.23341,0.0393056,0.191862,0.233759,0.0407144,0.193936,0.233402,0.0395131,0.194049,0.233538,0.0395407,0.194001,0.233863,0.0406218,0.193899,0.23341,0.0393056,0.191862,0.233546,0.0393419,0.191905,0.234004,0.0384161,0.191995,0.233911,0.0383045,0.191959,0.233538,0.0395407,0.194001,0.233402,0.0395131,0.194049,0.233904,0.038512,0.194145,0.233996,0.038615,0.19409,0.231127,0.0301526,0.194929,0.227978,0.0316164,0.194779,0.234642,0.030488,0.19491,0.237579,0.0325326,0.194726,0.239154,0.0357385,0.194427,0.238942,0.0392466,0.194093,0.237002,0.0421173,0.193814,0.233853,0.0435809,0.193664,0.230338,0.0432456,0.193684,0.227401,0.041201,0.193867,0.225826,0.0379952,0.194166,0.226038,0.0344869,0.1945,0.231004,0.0295646,0.19515,0.227572,0.0311598,0.194987,0.227572,0.0311442,0.194823,0.231004,0.0295489,0.194986,0.231004,0.0295489,0.194986,0.234835,0.0299144,0.194965,0.234834,0.02993,0.195129,0.231004,0.0295646,0.19515,0.238036,0.0321584,0.194929,0.234834,0.02993,0.195129,0.234835,0.0299144,0.194965,0.238037,0.0321428,0.194765,0.239752,0.0356526,0.194603,0.238036,0.0321584,0.194929,0.238037,0.0321428,0.194765,0.239753,0.035637,0.194439,0.239752,0.0356526,0.194603,0.239753,0.035637,0.194439,0.239522,0.0394607,0.194075,0.239522,0.0394762,0.194239,0.237407,0.0426048,0.193935,0.239522,0.0394762,0.194239,0.239522,0.0394607,0.194075,0.237408,0.0425893,0.193771,0.233975,0.0441847,0.193607,0.233975,0.0442003,0.193771,0.237407,0.0426048,0.193935,0.237408,0.0425893,0.193771,0.233975,0.0442003,0.193771,0.233975,0.0441847,0.193607,0.230145,0.043819,0.193628,0.230144,0.0438347,0.193792,0.226942,0.0416063,0.193993,0.230144,0.0438347,0.193792,0.230145,0.043819,0.193628,0.226943,0.0415907,0.193829,0.226943,0.0415907,0.193829,0.225227,0.0380965,0.194154,0.225227,0.0381122,0.194318,0.226942,0.0416063,0.193993,0.225457,0.0342729,0.194518,0.225457,0.0342885,0.194682,0.225227,0.0381122,0.194318,0.225227,0.0380965,0.194154,0.225457,0.0342885,0.194682,0.225457,0.0342729,0.194518,0.227572,0.0311442,0.194823,0.227572,0.0311598,0.194987,0.227904,0.0315461,0.194951,0.231104,0.0300585,0.195104,0.231104,0.0300533,0.195049,0.227904,0.0315409,0.194896,0.225932,0.0344584,0.194613,0.225932,0.0344637,0.194667,0.227904,0.0315461,0.194951,0.227904,0.0315409,0.194896,0.225932,0.0344637,0.194667,0.225932,0.0344584,0.194613,0.225717,0.038024,0.194273,0.225717,0.0380292,0.194328,0.225717,0.0380292,0.194328,0.225717,0.038024,0.194273,0.227317,0.0412824,0.19397,0.227317,0.0412875,0.194024,0.227317,0.0412875,0.194024,0.227317,0.0412824,0.19397,0.230303,0.0433603,0.193783,0.230303,0.0433654,0.193838,0.233874,0.0437063,0.193818,0.230303,0.0433654,0.193838,0.230303,0.0433603,0.193783,0.233875,0.043701,0.193763,0.233874,0.0437063,0.193818,0.233875,0.043701,0.193763,0.237075,0.0422135,0.193916,0.237075,0.0422187,0.19397,0.237075,0.0422187,0.19397,0.237075,0.0422135,0.193916,0.239047,0.0392959,0.1942,0.239047,0.0393013,0.194254,0.239262,0.0357355,0.194593,0.239047,0.0393013,0.194254,0.239047,0.0392959,0.1942,0.239262,0.0357305,0.194539,0.239262,0.0357355,0.194593,0.239262,0.0357305,0.194539,0.237662,0.032472,0.194842,0.237662,0.0324772,0.194897,0.237662,0.0324772,0.194897,0.237662,0.032472,0.194842,0.234676,0.030394,0.195029,0.234676,0.0303993,0.195084,0.234676,0.030394,0.195029,0.231104,0.0300533,0.195049,0.231104,0.0300585,0.195104,0.234676,0.0303993,0.195084,0.231009,0.0295997,0.19523,0.231026,0.0296846,0.195249,0.227645,0.0312561,0.195088,0.22759,0.031189,0.195067,0.234799,0.0300447,0.195228,0.231026,0.0296846,0.195249,0.231009,0.0295997,0.19523,0.234825,0.0299639,0.195208,0.238015,0.0321839,0.195009,0.237953,0.0322397,0.195031,0.234799,0.0300447,0.195228,0.234825,0.0299639,0.195208,0.239643,0.0356813,0.19471,0.237953,0.0322397,0.195031,0.238015,0.0321839,0.195009,0.239725,0.0356649,0.194684,0.239495,0.0394742,0.194322,0.239416,0.0394477,0.194352,0.239643,0.0356813,0.19471,0.239725,0.0356649,0.194684,0.239416,0.0394477,0.194352,0.239495,0.0394742,0.194322,0.237388,0.0425912,0.194019,0.237333,0.0425295,0.194052,0.233969,0.0441806,0.193856,0.233952,0.0441008,0.193891,0.237333,0.0425295,0.194052,0.237388,0.0425912,0.194019,0.230179,0.0437407,0.193912,0.233952,0.0441008,0.193891,0.233969,0.0441806,0.193856,0.230153,0.0438164,0.193877,0.226963,0.0415965,0.194077,0.227025,0.0415458,0.194109,0.230179,0.0437407,0.193912,0.230153,0.0438164,0.193877,0.225335,0.0381042,0.19443,0.227025,0.0415458,0.194109,0.226963,0.0415965,0.194077,0.225253,0.0381154,0.194401,0.225483,0.034306,0.194763,0.225562,0.0343378,0.194788,0.225335,0.0381042,0.19443,0.225253,0.0381154,0.194401,0.22759,0.031189,0.195067,0.227645,0.0312561,0.195088,0.225562,0.0343378,0.194788,0.225483,0.034306,0.194763,0.227885,0.0315324,0.195035,0.227829,0.0314707,0.195068,0.231082,0.0299591,0.195223,0.231098,0.0300389,0.195188,0.225826,0.034435,0.19478,0.227829,0.0314707,0.195068,0.227885,0.0315324,0.195035,0.225905,0.0344617,0.19475,0.225608,0.038058,0.194435,0.225826,0.034435,0.19478,0.225905,0.0344617,0.19475,0.225689,0.0380415,0.194409,0.227296,0.0413131,0.194105,0.227233,0.0413688,0.194127,0.225608,0.038058,0.194435,0.225689,0.0380415,0.194409,0.230294,0.0433992,0.193917,0.230267,0.0434802,0.193937,0.227233,0.0413688,0.194127,0.227296,0.0413131,0.194105,0.23388,0.0437416,0.193897,0.233896,0.0438264,0.193917,0.230267,0.0434802,0.193937,0.230294,0.0433992,0.193917,0.237093,0.0422477,0.19405,0.237149,0.0423148,0.194072,0.233896,0.0438264,0.193917,0.23388,0.0437416,0.193897,0.239073,0.0393187,0.194335,0.239152,0.0393505,0.19436,0.237149,0.0423148,0.194072,0.237093,0.0422477,0.19405,0.239152,0.0393505,0.19436,0.239073,0.0393187,0.194335,0.239289,0.0357388,0.194676,0.23937,0.0357275,0.194705,0.237683,0.0324673,0.194981,0.237745,0.0324169,0.195013,0.23937,0.0357275,0.194705,0.239289,0.0357388,0.194676,0.237745,0.0324169,0.195013,0.237683,0.0324673,0.194981,0.234685,0.030381,0.195168,0.234711,0.0303054,0.195203,0.231082,0.0299591,0.195223,0.234711,0.0303054,0.195203,0.234685,0.030381,0.195168,0.231098,0.0300389,0.195188,0.22759,0.031189,0.195067,0.227572,0.0311598,0.194987,0.231004,0.0295646,0.19515,0.231009,0.0295997,0.19523,0.234825,0.0299639,0.195208,0.231009,0.0295997,0.19523,0.231004,0.0295646,0.19515,0.234834,0.02993,0.195129,0.234825,0.0299639,0.195208,0.234834,0.02993,0.195129,0.238036,0.0321584,0.194929,0.238015,0.0321839,0.195009,0.239725,0.0356649,0.194684,0.238015,0.0321839,0.195009,0.238036,0.0321584,0.194929,0.239752,0.0356526,0.194603,0.239522,0.0394762,0.194239,0.239495,0.0394742,0.194322,0.239725,0.0356649,0.194684,0.239752,0.0356526,0.194603,0.239522,0.0394762,0.194239,0.237407,0.0426048,0.193935,0.237388,0.0425912,0.194019,0.239495,0.0394742,0.194322,0.237388,0.0425912,0.194019,0.237407,0.0426048,0.193935,0.233975,0.0442003,0.193771,0.233969,0.0441806,0.193856,0.230153,0.0438164,0.193877,0.233969,0.0441806,0.193856,0.233975,0.0442003,0.193771,0.230144,0.0438347,0.193792,0.230153,0.0438164,0.193877,0.230144,0.0438347,0.193792,0.226942,0.0416063,0.193993,0.226963,0.0415965,0.194077,0.226963,0.0415965,0.194077,0.226942,0.0416063,0.193993,0.225227,0.0381122,0.194318,0.225253,0.0381154,0.194401,0.225457,0.0342885,0.194682,0.225483,0.034306,0.194763,0.225253,0.0381154,0.194401,0.225227,0.0381122,0.194318,0.225483,0.034306,0.194763,0.225457,0.0342885,0.194682,0.227572,0.0311598,0.194987,0.22759,0.031189,0.195067,0.227904,0.0315461,0.194951,0.227885,0.0315324,0.195035,0.231098,0.0300389,0.195188,0.231104,0.0300585,0.195104,0.225905,0.0344617,0.19475,0.227885,0.0315324,0.195035,0.227904,0.0315461,0.194951,0.225932,0.0344637,0.194667,0.225932,0.0344637,0.194667,0.225717,0.0380292,0.194328,0.225689,0.0380415,0.194409,0.225905,0.0344617,0.19475,0.227317,0.0412875,0.194024,0.227296,0.0413131,0.194105,0.225689,0.0380415,0.194409,0.225717,0.0380292,0.194328,0.227317,0.0412875,0.194024,0.230303,0.0433654,0.193838,0.230294,0.0433992,0.193917,0.227296,0.0413131,0.194105,0.23388,0.0437416,0.193897,0.230294,0.0433992,0.193917,0.230303,0.0433654,0.193838,0.233874,0.0437063,0.193818,0.237093,0.0422477,0.19405,0.23388,0.0437416,0.193897,0.233874,0.0437063,0.193818,0.237075,0.0422187,0.19397,0.237093,0.0422477,0.19405,0.237075,0.0422187,0.19397,0.239047,0.0393013,0.194254,0.239073,0.0393187,0.194335,0.239073,0.0393187,0.194335,0.239047,0.0393013,0.194254,0.239262,0.0357355,0.194593,0.239289,0.0357388,0.194676,0.237683,0.0324673,0.194981,0.239289,0.0357388,0.194676,0.239262,0.0357355,0.194593,0.237662,0.0324772,0.194897,0.234676,0.0303993,0.195084,0.234685,0.030381,0.195168,0.237683,0.0324673,0.194981,0.237662,0.0324772,0.194897,0.231104,0.0300585,0.195104,0.231098,0.0300389,0.195188,0.234685,0.030381,0.195168,0.234676,0.0303993,0.195084,0.227904,0.0315409,0.194896,0.231104,0.0300533,0.195049,0.23111,0.0300729,0.194964,0.227922,0.0315546,0.194813,0.234676,0.030394,0.195029,0.234668,0.0304125,0.194945,0.23111,0.0300729,0.194964,0.231104,0.0300533,0.195049,0.234668,0.0304125,0.194945,0.234676,0.030394,0.195029,0.237662,0.032472,0.194842,0.237642,0.032482,0.194759,0.237642,0.032482,0.194759,0.237662,0.032472,0.194842,0.239262,0.0357305,0.194539,0.239235,0.0357272,0.194456,0.239262,0.0357305,0.194539,0.239047,0.0392959,0.1942,0.239021,0.0392784,0.194118,0.239235,0.0357272,0.194456,0.237057,0.0421842,0.193836,0.239021,0.0392784,0.194118,0.239047,0.0392959,0.1942,0.237075,0.0422135,0.193916,0.233869,0.0436658,0.193684,0.237057,0.0421842,0.193836,0.237075,0.0422135,0.193916,0.233875,0.043701,0.193763,0.230303,0.0433603,0.193783,0.230312,0.0433265,0.193703,0.233869,0.0436658,0.193684,0.233875,0.043701,0.193763,0.227317,0.0412824,0.19397,0.227338,0.0412569,0.193889,0.230312,0.0433265,0.193703,0.230303,0.0433603,0.193783,0.227338,0.0412569,0.193889,0.227317,0.0412824,0.19397,0.225717,0.038024,0.194273,0.225745,0.0380117,0.194192,0.225932,0.0344584,0.194613,0.225958,0.0344603,0.19453,0.225745,0.0380117,0.194192,0.225717,0.038024,0.194273,0.227904,0.0315409,0.194896,0.227922,0.0315546,0.194813,0.225958,0.0344603,0.19453,0.225932,0.0344584,0.194613,0.227978,0.0316164,0.194779,0.227922,0.0315546,0.194813,0.23111,0.0300729,0.194964,0.231127,0.0301526,0.194929,0.234642,0.030488,0.19491,0.231127,0.0301526,0.194929,0.23111,0.0300729,0.194964,0.234668,0.0304125,0.194945,0.234668,0.0304125,0.194945,0.237642,0.032482,0.194759,0.237579,0.0325326,0.194726,0.234642,0.030488,0.19491,0.239154,0.0357385,0.194427,0.237579,0.0325326,0.194726,0.237642,0.032482,0.194759,0.239235,0.0357272,0.194456,0.239235,0.0357272,0.194456,0.239021,0.0392784,0.194118,0.238942,0.0392466,0.194093,0.239154,0.0357385,0.194427,0.239021,0.0392784,0.194118,0.237057,0.0421842,0.193836,0.237002,0.0421173,0.193814,0.238942,0.0392466,0.194093,0.237002,0.0421173,0.193814,0.237057,0.0421842,0.193836,0.233869,0.0436658,0.193684,0.233853,0.0435809,0.193664,0.233853,0.0435809,0.193664,0.233869,0.0436658,0.193684,0.230312,0.0433265,0.193703,0.230338,0.0432456,0.193684,0.230312,0.0433265,0.193703,0.227338,0.0412569,0.193889,0.227401,0.041201,0.193867,0.230338,0.0432456,0.193684,0.225745,0.0380117,0.194192,0.225826,0.0379952,0.194166,0.227401,0.041201,0.193867,0.227338,0.0412569,0.193889,0.225958,0.0344603,0.19453,0.226038,0.0344869,0.1945,0.225826,0.0379952,0.194166,0.225745,0.0380117,0.194192,0.227978,0.0316164,0.194779,0.226038,0.0344869,0.1945,0.225958,0.0344603,0.19453,0.227922,0.0315546,0.194813,0.23103,0.0294415,0.192882,0.231011,0.029376,0.193164,0.227579,0.0309713,0.193001,0.227641,0.031017,0.192721,0.234841,0.0297415,0.193143,0.231011,0.029376,0.193164,0.23103,0.0294415,0.192882,0.234813,0.0298025,0.192861,0.237975,0.032003,0.192664,0.238043,0.03197,0.192943,0.234841,0.0297415,0.193143,0.234813,0.0298025,0.192861,0.238043,0.03197,0.192943,0.237975,0.032003,0.192664,0.239669,0.0354536,0.192342,0.239759,0.035464,0.192617,0.239442,0.0392294,0.191983,0.239529,0.0392877,0.192253,0.239759,0.035464,0.192617,0.239669,0.0354536,0.192342,0.237414,0.0424164,0.191949,0.239529,0.0392877,0.192253,0.239442,0.0392294,0.191983,0.237354,0.042319,0.191682,0.233964,0.0438943,0.191521,0.233982,0.0440116,0.191785,0.237414,0.0424164,0.191949,0.237354,0.042319,0.191682,0.233982,0.0440116,0.191785,0.233964,0.0438943,0.191521,0.230182,0.0435334,0.191541,0.230151,0.0436462,0.191806,0.226949,0.0414179,0.192007,0.230151,0.0436462,0.191806,0.230182,0.0435334,0.191541,0.22702,0.0413329,0.191739,0.225234,0.0379236,0.192332,0.226949,0.0414179,0.192007,0.22702,0.0413329,0.191739,0.225325,0.0378823,0.192061,0.225553,0.0341064,0.19242,0.225464,0.0341,0.192696,0.225234,0.0379236,0.192332,0.225325,0.0378823,0.192061,0.225464,0.0341,0.192696,0.225553,0.0341064,0.19242,0.227641,0.031017,0.192721,0.227579,0.0309713,0.193001,0.231087,0.0297073,0.192765,0.23103,0.0294415,0.192882,0.227641,0.031017,0.192721,0.227826,0.0312228,0.19261,0.234725,0.0300546,0.192745,0.234813,0.0298025,0.192861,0.23103,0.0294415,0.192882,0.231087,0.0297073,0.192765,0.234813,0.0298025,0.192861,0.234725,0.0300546,0.192745,0.237767,0.0321714,0.192555,0.237975,0.032003,0.192664,0.239397,0.035491,0.192246,0.239669,0.0354536,0.192342,0.237975,0.032003,0.192664,0.237767,0.0321714,0.192555,0.239178,0.0391234,0.1919,0.239442,0.0392294,0.191983,0.239669,0.0354536,0.192342,0.239397,0.035491,0.192246,0.237354,0.042319,0.191682,0.239442,0.0392294,0.191983,0.239178,0.0391234,0.1919,0.237169,0.0420956,0.191611,0.237354,0.042319,0.191682,0.237169,0.0420956,0.191611,0.233909,0.0436113,0.191455,0.233964,0.0438943,0.191521,0.230182,0.0435334,0.191541,0.233964,0.0438943,0.191521,0.233909,0.0436113,0.191455,0.23027,0.043264,0.191475,0.227228,0.041147,0.191666,0.22702,0.0413329,0.191739,0.230182,0.0435334,0.191541,0.23027,0.043264,0.191475,0.22702,0.0413329,0.191739,0.227228,0.041147,0.191666,0.225598,0.0378276,0.191975,0.225325,0.0378823,0.192061,0.225325,0.0378823,0.192061,0.225598,0.0378276,0.191975,0.225817,0.0341951,0.192321,0.225553,0.0341064,0.19242,0.227641,0.031017,0.192721,0.225553,0.0341064,0.19242,0.225817,0.0341951,0.192321,0.227826,0.0312228,0.19261],
                "itemSize":3,
                "type":"Float32Array"
            },
            "uv":{
                "array":[0.8154,0.2563,0.8154,0.2269,0.8762,0.2269,0.8762,0.2563,0.9371,0.2563,0.8762,0.2563,0.8762,0.2269,0.9371,0.2269,0.998,0.2269,0.998,0.2563,0.9371,0.2563,0.9371,0.2269,0.2675,0.2269,0.3284,0.2269,0.3284,0.2563,0.2675,0.2563,0.3892,0.2269,0.3892,0.2563,0.3284,0.2563,0.3284,0.2269,0.4501,0.2269,0.4501,0.2563,0.3892,0.2563,0.3892,0.2269,0.4501,0.2563,0.4501,0.2269,0.511,0.2269,0.511,0.2563,0.511,0.2563,0.511,0.2269,0.5719,0.2269,0.5719,0.2563,0.6327,0.2563,0.5719,0.2563,0.5719,0.2269,0.6327,0.2269,0.6327,0.2563,0.6327,0.2269,0.6936,0.2269,0.6936,0.2563,0.6936,0.2563,0.6936,0.2269,0.7545,0.2269,0.7545,0.2563,0.8154,0.2563,0.7545,0.2563,0.7545,0.2269,0.8154,0.2269,0.0902,0.4933,0.0955,0.4734,0.1432,0.4737,0.1484,0.4935,0.0396,0.4644,0.0541,0.4498,0.0106,0.4139,0.0305,0.4085,0.0107,0.3556,0.0306,0.361,0.0544,0.3198,0.0398,0.3052,0.0902,0.276,0.0955,0.2958,0.1485,0.2762,0.1431,0.2962,0.1845,0.3197,0.1991,0.3051,0.2082,0.361,0.2281,0.3557,0.228,0.4139,0.2081,0.4086,0.1989,0.4644,0.1843,0.4498,0.2514,0.1637,0.2562,0.165,0.222,0.2233,0.2185,0.2197,0.1632,0.2567,0.1619,0.2519,0.0956,0.2562,0.0969,0.2514,0.0373,0.222,0.0408,0.2185,0.0087,0.1619,0.0039,0.1632,0.0044,0.0956,0.0092,0.0969,0.0386,0.0373,0.0421,0.0408,0.0974,0.0039,0.0987,0.0087,0.165,0.0044,0.1637,0.0092,0.2233,0.0386,0.2197,0.0421,0.2567,0.0974,0.2519,0.0987,0.0563,0.4017,0.0878,0.3932,0.0962,0.4078,0.073,0.4309,0.0563,0.3679,0.0878,0.3763,0.0732,0.3386,0.0962,0.3617,0.1024,0.3217,0.1108,0.3533,0.1509,0.3763,0.1425,0.3617,0.1656,0.3386,0.1824,0.3679,0.1824,0.4017,0.1509,0.3932,0.1425,0.4078,0.1655,0.4309,0.1362,0.4479,0.1279,0.4162,0.3921,0.1737,0.3838,0.1419,0.3986,0.1334,0.4217,0.1569,0.358,0.1735,0.3667,0.1417,0.3286,0.1562,0.352,0.1331,0.3118,0.1266,0.3436,0.1183,0.3672,0.0782,0.3524,0.0866,0.3293,0.0631,0.3589,0.0463,0.3842,0.0783,0.393,0.0465,0.3989,0.0869,0.4224,0.0638,0.4392,0.0934,0.4073,0.1017,0.3988,0.1998,0.4406,0.1761,0.3508,0.1994,0.3094,0.1751,0.2857,0.1334,0.3104,0.0439,0.3521,0.0202,0.4001,0.0206,0.4415,0.0449,0.4652,0.0866,0.1109,0.4163,0.1193,0.3848,0.1277,0.3533,0.3755,0.11,0.4072,0.1187,0.3438,0.1013,0.5265,0.0023,0.5262,0.0317,0.5088,0.0315,0.509,0.0021,0.5088,0.0315,0.4924,0.0314,0.4926,0.002,0.509,0.0021,0.6097,0.003,0.6268,0.0031,0.6265,0.0325,0.6094,0.0324,0.5933,0.0322,0.5935,0.0028,0.6097,0.003,0.6094,0.0324,0.5772,0.0321,0.5774,0.0027,0.5935,0.0028,0.5933,0.0322,0.5774,0.0027,0.5772,0.0321,0.5601,0.032,0.5603,0.0026,0.5603,0.0026,0.5601,0.032,0.5437,0.0318,0.5439,0.0024,0.5262,0.0317,0.5265,0.0023,0.5439,0.0024,0.5437,0.0318,0.0355,0.5112,0.0352,0.5406,0.0191,0.5405,0.0193,0.5111,0.002,0.5403,0.0023,0.5109,0.0193,0.5111,0.0191,0.5405,0.12,0.512,0.1364,0.5122,0.1361,0.5416,0.1197,0.5414,0.1197,0.5414,0.1023,0.5413,0.1026,0.5119,0.12,0.512,0.0851,0.5117,0.1026,0.5119,0.1023,0.5413,0.0848,0.5411,0.0851,0.5117,0.0848,0.5411,0.0684,0.5409,0.0687,0.5115,0.0514,0.5408,0.0516,0.5114,0.0687,0.5115,0.0684,0.5409,0.0516,0.5114,0.0514,0.5408,0.0352,0.5406,0.0355,0.5112,0.4449,0.1482,0.4577,0.1327,0.4649,0.1346,0.4087,0.1191,0.4198,0.1046,0.3401,0.0827,0.3249,0.0697,0.2963,0.1072,0.3114,0.1187,0.1463,0.3496,0.1592,0.3343,0.1214,0.3061,0.1102,0.3212,0.0817,0.4539,0.0974,0.4663,0.1252,0.4286,0.1106,0.4176,0.1172,0.4635,0.1285,0.4483,0.0924,0.4199,0.0795,0.4352,0.1135,0.3409,0.4108,0.1373,0.4261,0.1503,0.3311,0.1154,0.4396,0.1013,0.157,0.3156,0.306,0.0718,0.3423,0.1009,0.2861,0.0854,0.2933,0.0873,0.4547,0.1128,0.1413,0.3032,0.1281,0.3519,0.098,0.4643,0.0985,0.4623,0.115,0.4599,0.1161,0.4617,0.4435,0.1456,0.4548,0.1319,0.4555,0.1321,0.4439,0.1462,0.1161,0.4617,0.115,0.4599,0.1243,0.4472,0.1264,0.4478,0.4269,0.1474,0.4435,0.1456,0.4439,0.1462,0.4267,0.1481,0.1243,0.4472,0.1218,0.4311,0.1236,0.4299,0.1264,0.4478,0.4129,0.1365,0.4136,0.1362,0.4269,0.1474,0.4267,0.1481,0.1236,0.4299,0.1218,0.4311,0.1095,0.4218,0.11,0.4197,0.4108,0.1197,0.4115,0.1199,0.4136,0.1362,0.4129,0.1365,0.11,0.4197,0.1095,0.4218,0.0942,0.4239,0.0932,0.4219,0.4212,0.1064,0.4217,0.107,0.4115,0.1199,0.4108,0.1197,0.0942,0.4239,0.0835,0.4363,0.0815,0.4357,0.0932,0.4219,0.439,0.1035,0.4388,0.1042,0.4217,0.107,0.4212,0.1064,0.0815,0.4357,0.0835,0.4363,0.0854,0.4519,0.0835,0.4529,0.4528,0.1139,0.4521,0.1143,0.4388,0.1042,0.439,0.1035,0.0835,0.4529,0.0854,0.4519,0.0985,0.4623,0.098,0.4643,0.4555,0.1321,0.4548,0.1319,0.4521,0.1143,0.4528,0.1139,0.1287,0.3498,0.1292,0.3478,0.1445,0.3457,0.1455,0.3476,0.3298,0.1136,0.3293,0.113,0.3394,0.1001,0.3401,0.1003,0.1445,0.3457,0.1551,0.3332,0.1572,0.3338,0.1455,0.3476,0.312,0.1165,0.3122,0.1158,0.3293,0.113,0.3298,0.1136,0.1572,0.3338,0.1551,0.3332,0.1533,0.3176,0.1551,0.3166,0.2988,0.1057,0.3122,0.1158,0.312,0.1165,0.2982,0.1061,0.1551,0.3166,0.1533,0.3176,0.1402,0.3073,0.1407,0.3052,0.2954,0.0879,0.2962,0.0881,0.2988,0.1057,0.2982,0.1061,0.1402,0.3073,0.1236,0.3096,0.1225,0.3078,0.1407,0.3052,0.3071,0.0738,0.3075,0.0744,0.2962,0.0881,0.2954,0.0879,0.1225,0.3078,0.1236,0.3096,0.1144,0.3223,0.1123,0.3218,0.3241,0.0726,0.3075,0.0744,0.3071,0.0738,0.3243,0.0719,0.1144,0.3223,0.1169,0.3385,0.1151,0.3396,0.1123,0.3218,0.3374,0.0838,0.3241,0.0726,0.3243,0.0719,0.3381,0.0835,0.1169,0.3385,0.1292,0.3478,0.1287,0.3498,0.1151,0.3396,0.3401,0.1003,0.3394,0.1001,0.3374,0.0838,0.3381,0.0835,0.0974,0.4663,0.098,0.4643,0.1161,0.4617,0.1172,0.4635,0.4449,0.1482,0.4439,0.1462,0.4555,0.1321,0.4577,0.1327,0.1264,0.4478,0.1285,0.4483,0.1172,0.4635,0.1161,0.4617,0.4449,0.1482,0.4261,0.1503,0.4267,0.1481,0.4439,0.1462,0.1264,0.4478,0.1236,0.4299,0.1252,0.4286,0.1285,0.4483,0.4108,0.1373,0.4129,0.1365,0.4267,0.1481,0.4261,0.1503,0.11,0.4197,0.1106,0.4176,0.1252,0.4286,0.1236,0.4299,0.4129,0.1365,0.4108,0.1373,0.4087,0.1191,0.4108,0.1197,0.11,0.4197,0.0932,0.4219,0.0924,0.4199,0.1106,0.4176,0.4198,0.1046,0.4212,0.1064,0.4108,0.1197,0.4087,0.1191,0.0932,0.4219,0.0815,0.4357,0.0795,0.4352,0.0924,0.4199,0.4198,0.1046,0.4396,0.1013,0.439,0.1035,0.4212,0.1064,0.0815,0.4357,0.0835,0.4529,0.0817,0.4539,0.0795,0.4352,0.4547,0.1128,0.4528,0.1139,0.439,0.1035,0.4396,0.1013,0.0835,0.4529,0.098,0.4643,0.0974,0.4663,0.0817,0.4539,0.4528,0.1139,0.4547,0.1128,0.4577,0.1327,0.4555,0.1321,0.1455,0.3476,0.1463,0.3496,0.1281,0.3519,0.1287,0.3498,0.3401,0.1003,0.3423,0.1009,0.3311,0.1154,0.3298,0.1136,0.1463,0.3496,0.1455,0.3476,0.1572,0.3338,0.1592,0.3343,0.312,0.1165,0.3298,0.1136,0.3311,0.1154,0.3114,0.1187,0.157,0.3156,0.1592,0.3343,0.1572,0.3338,0.1551,0.3166,0.2982,0.1061,0.312,0.1165,0.3114,0.1187,0.2963,0.1072,0.1551,0.3166,0.1407,0.3052,0.1413,0.3032,0.157,0.3156,0.2963,0.1072,0.2933,0.0873,0.2954,0.0879,0.2982,0.1061,0.1225,0.3078,0.1214,0.3061,0.1413,0.3032,0.1407,0.3052,0.3071,0.0738,0.2954,0.0879,0.2933,0.0873,0.306,0.0718,0.1123,0.3218,0.1102,0.3212,0.1214,0.3061,0.1225,0.3078,0.3249,0.0697,0.3243,0.0719,0.3071,0.0738,0.306,0.0718,0.1102,0.3212,0.1123,0.3218,0.1151,0.3396,0.1135,0.3409,0.3249,0.0697,0.3401,0.0827,0.3381,0.0835,0.3243,0.0719,0.1135,0.3409,0.1151,0.3396,0.1287,0.3498,0.1281,0.3519,0.3381,0.0835,0.3401,0.0827,0.3423,0.1009,0.3401,0.1003,0.4526,0.1882,0.4813,0.1392,0.4031,0.2163,0.3463,0.2159,0.2973,0.1871,0.2692,0.1377,0.2696,0.0808,0.2984,0.0318,0.3478,0.0037,0.4047,0.0041,0.4537,0.0329,0.4817,0.0823,0.2766,0.2798,0.2728,0.2797,0.2728,0.2797,0.2766,0.2798,0.2766,0.2798,0.28,0.2778,0.28,0.2778,0.2766,0.2798,0.282,0.2745,0.28,0.2778,0.28,0.2778,0.282,0.2745,0.282,0.2706,0.282,0.2745,0.282,0.2745,0.282,0.2706,0.282,0.2706,0.282,0.2706,0.2801,0.2672,0.2801,0.2672,0.2767,0.2652,0.2801,0.2672,0.2801,0.2672,0.2767,0.2652,0.2729,0.2652,0.2729,0.2652,0.2767,0.2652,0.2767,0.2652,0.2729,0.2652,0.2729,0.2652,0.2695,0.2671,0.2695,0.2671,0.2675,0.2705,0.2695,0.2671,0.2695,0.2671,0.2675,0.2705,0.2675,0.2705,0.2675,0.2744,0.2675,0.2744,0.2675,0.2705,0.2694,0.2778,0.2694,0.2778,0.2675,0.2744,0.2675,0.2744,0.2694,0.2778,0.2694,0.2778,0.2728,0.2797,0.2728,0.2797,0.0069,0.564,0.0105,0.564,0.0105,0.564,0.0069,0.564,0.0038,0.5622,0.0038,0.5622,0.0069,0.564,0.0069,0.564,0.0038,0.5622,0.0038,0.5622,0.002,0.559,0.002,0.559,0.002,0.559,0.002,0.559,0.002,0.5554,0.002,0.5554,0.002,0.5554,0.002,0.5554,0.0039,0.5523,0.0039,0.5523,0.007,0.5505,0.0039,0.5523,0.0039,0.5523,0.007,0.5505,0.007,0.5505,0.007,0.5505,0.0106,0.5505,0.0106,0.5505,0.0106,0.5505,0.0106,0.5505,0.0138,0.5523,0.0138,0.5523,0.0156,0.5555,0.0138,0.5523,0.0138,0.5523,0.0156,0.5555,0.0156,0.5555,0.0156,0.5555,0.0155,0.5591,0.0155,0.5591,0.0155,0.5591,0.0155,0.5591,0.0137,0.5622,0.0137,0.5622,0.0137,0.5622,0.0105,0.564,0.0105,0.564,0.0137,0.5622,0.223,0.2244,0.222,0.2233,0.2562,0.165,0.2576,0.1654,0.1632,0.2567,0.222,0.2233,0.223,0.2244,0.1636,0.2581,0.0952,0.2576,0.0956,0.2562,0.1632,0.2567,0.1636,0.2581,0.0373,0.222,0.0956,0.2562,0.0952,0.2576,0.0362,0.223,0.0025,0.1636,0.0039,0.1632,0.0373,0.222,0.0362,0.223,0.0039,0.1632,0.0025,0.1636,0.003,0.0952,0.0044,0.0956,0.0376,0.0362,0.0386,0.0373,0.0044,0.0956,0.003,0.0952,0.0974,0.0039,0.0386,0.0373,0.0376,0.0362,0.097,0.0025,0.1654,0.003,0.165,0.0044,0.0974,0.0039,0.097,0.0025,0.2233,0.0386,0.165,0.0044,0.1654,0.003,0.2244,0.0376,0.2581,0.097,0.2567,0.0974,0.2233,0.0386,0.2244,0.0376,0.2576,0.1654,0.2562,0.165,0.2567,0.0974,0.2581,0.097,0.25,0.1633,0.2514,0.1637,0.2185,0.2197,0.2174,0.2187,0.2519,0.0987,0.2514,0.1637,0.25,0.1633,0.2504,0.099,0.2197,0.0421,0.2519,0.0987,0.2504,0.099,0.2187,0.0432,0.1633,0.0106,0.1637,0.0092,0.2197,0.0421,0.2187,0.0432,0.099,0.0102,0.0987,0.0087,0.1637,0.0092,0.1633,0.0106,0.0432,0.0419,0.0421,0.0408,0.0987,0.0087,0.099,0.0102,0.0106,0.0973,0.0092,0.0969,0.0421,0.0408,0.0432,0.0419,0.0102,0.1616,0.0087,0.1619,0.0092,0.0969,0.0106,0.0973,0.0087,0.1619,0.0102,0.1616,0.0419,0.2174,0.0408,0.2185,0.0973,0.25,0.0969,0.2514,0.0408,0.2185,0.0419,0.2174,0.0969,0.2514,0.0973,0.25,0.1616,0.2504,0.1619,0.2519,0.2185,0.2197,0.1619,0.2519,0.1616,0.2504,0.2174,0.2187,0.2576,0.1654,0.2581,0.1655,0.2234,0.2247,0.223,0.2244,0.1636,0.2581,0.223,0.2244,0.2234,0.2247,0.1637,0.2586,0.1636,0.2581,0.1637,0.2586,0.0951,0.2581,0.0952,0.2576,0.0362,0.223,0.0952,0.2576,0.0951,0.2581,0.0359,0.2234,0.002,0.1637,0.0025,0.1636,0.0362,0.223,0.0359,0.2234,0.002,0.1637,0.0025,0.0951,0.003,0.0952,0.0025,0.1636,0.003,0.0952,0.0025,0.0951,0.0372,0.0359,0.0376,0.0362,0.097,0.0025,0.0376,0.0362,0.0372,0.0359,0.0969,0.002,0.097,0.0025,0.0969,0.002,0.1655,0.0025,0.1654,0.003,0.1654,0.003,0.1655,0.0025,0.2247,0.0372,0.2244,0.0376,0.2586,0.0969,0.2581,0.097,0.2244,0.0376,0.2247,0.0372,0.2581,0.097,0.2586,0.0969,0.2581,0.1655,0.2576,0.1654,0.2495,0.1631,0.25,0.1633,0.2174,0.2187,0.2171,0.2183,0.2504,0.099,0.25,0.1633,0.2495,0.1631,0.2499,0.0992,0.2499,0.0992,0.2183,0.0435,0.2187,0.0432,0.2504,0.099,0.1631,0.0111,0.1633,0.0106,0.2187,0.0432,0.2183,0.0435,0.1631,0.0111,0.0992,0.0107,0.099,0.0102,0.1633,0.0106,0.0432,0.0419,0.099,0.0102,0.0992,0.0107,0.0435,0.0423,0.0106,0.0973,0.0432,0.0419,0.0435,0.0423,0.0111,0.0974,0.0106,0.0973,0.0111,0.0974,0.0107,0.1614,0.0102,0.1616,0.0102,0.1616,0.0107,0.1614,0.0423,0.2171,0.0419,0.2174,0.0973,0.25,0.0419,0.2174,0.0423,0.2171,0.0974,0.2495,0.1614,0.2499,0.1616,0.2504,0.0973,0.25,0.0974,0.2495,0.2171,0.2183,0.2174,0.2187,0.1616,0.2504,0.1614,0.2499,0.4831,0.1397,0.4538,0.1895,0.4535,0.1892,0.4826,0.1395,0.4036,0.218,0.4035,0.2176,0.4535,0.1892,0.4538,0.1895,0.4035,0.2176,0.4036,0.218,0.3458,0.2176,0.3459,0.2172,0.3459,0.2172,0.3458,0.2176,0.296,0.1883,0.2963,0.188,0.296,0.1883,0.2675,0.1381,0.2679,0.138,0.2963,0.188,0.2683,0.0805,0.2679,0.138,0.2675,0.1381,0.2679,0.0803,0.2975,0.0308,0.2683,0.0805,0.2679,0.0803,0.2971,0.0305,0.3474,0.002,0.3475,0.0024,0.2975,0.0308,0.2971,0.0305,0.4051,0.0024,0.405,0.0028,0.3475,0.0024,0.3474,0.002,0.405,0.0028,0.4051,0.0024,0.455,0.0317,0.4546,0.032,0.4835,0.0819,0.483,0.082,0.4546,0.032,0.455,0.0317,0.4831,0.1397,0.4826,0.1395,0.483,0.082,0.4835,0.0819,0.4813,0.1392,0.4826,0.1395,0.4535,0.1892,0.4526,0.1882,0.4031,0.2163,0.4526,0.1882,0.4535,0.1892,0.4035,0.2176,0.4035,0.2176,0.3459,0.2172,0.3463,0.2159,0.4031,0.2163,0.2973,0.1871,0.3463,0.2159,0.3459,0.2172,0.2963,0.188,0.2963,0.188,0.2679,0.138,0.2692,0.1377,0.2973,0.1871,0.2679,0.138,0.2683,0.0805,0.2696,0.0808,0.2692,0.1377,0.2696,0.0808,0.2683,0.0805,0.2975,0.0308,0.2984,0.0318,0.2984,0.0318,0.2975,0.0308,0.3475,0.0024,0.3478,0.0037,0.3475,0.0024,0.405,0.0028,0.4047,0.0041,0.3478,0.0037,0.4546,0.032,0.4537,0.0329,0.4047,0.0041,0.405,0.0028,0.483,0.082,0.4817,0.0823,0.4537,0.0329,0.4546,0.032,0.4813,0.1392,0.4817,0.0823,0.483,0.082,0.4826,0.1395,0.1496,0.4978,0.1507,0.502,0.0879,0.502,0.089,0.4977,0.2052,0.4707,0.1507,0.502,0.1496,0.4978,0.202,0.4675,0.2323,0.4151,0.2366,0.4162,0.2052,0.4707,0.202,0.4675,0.2366,0.4162,0.2323,0.4151,0.2324,0.3545,0.2367,0.3533,0.2022,0.302,0.2053,0.2988,0.2367,0.3533,0.2324,0.3545,0.1508,0.2675,0.2053,0.2988,0.2022,0.302,0.1497,0.2719,0.0891,0.2718,0.0879,0.2675,0.1508,0.2675,0.1497,0.2719,0.0879,0.2675,0.0891,0.2718,0.0366,0.302,0.0335,0.2989,0.002,0.3533,0.0335,0.2989,0.0366,0.302,0.0064,0.3545,0.002,0.4162,0.002,0.3533,0.0064,0.3545,0.0063,0.415,0.0365,0.4675,0.0333,0.4707,0.002,0.4162,0.0063,0.415,0.0333,0.4707,0.0365,0.4675,0.089,0.4977,0.0879,0.502,0.1484,0.4935,0.1496,0.4978,0.089,0.4977,0.0902,0.4933,0.1989,0.4644,0.202,0.4675,0.1496,0.4978,0.1484,0.4935,0.202,0.4675,0.1989,0.4644,0.228,0.4139,0.2323,0.4151,0.2281,0.3557,0.2324,0.3545,0.2323,0.4151,0.228,0.4139,0.1991,0.3051,0.2022,0.302,0.2324,0.3545,0.2281,0.3557,0.1497,0.2719,0.2022,0.302,0.1991,0.3051,0.1485,0.2762,0.1497,0.2719,0.1485,0.2762,0.0902,0.276,0.0891,0.2718,0.0366,0.302,0.0891,0.2718,0.0902,0.276,0.0398,0.3052,0.0107,0.3556,0.0064,0.3545,0.0366,0.302,0.0398,0.3052,0.0064,0.3545,0.0107,0.3556,0.0106,0.4139,0.0063,0.415,0.0063,0.415,0.0106,0.4139,0.0396,0.4644,0.0365,0.4675,0.089,0.4977,0.0365,0.4675,0.0396,0.4644,0.0902,0.4933],
                "itemSize":2,
                "type":"Float32Array"
            }
        },
        "index":{
            "array":[0,1,2,2,3,0,4,5,6,6,7,4,8,9,10,10,11,8,12,13,14,14,15,12,16,17,18,18,19,16,20,21,22,22,23,20,24,25,26,26,27,24,28,29,30,30,31,28,32,33,34,34,35,32,36,37,38,38,39,36,40,41,42,42,43,40,44,45,46,46,47,44,48,49,50,50,51,48,48,52,53,53,49,48,54,55,53,53,52,54,56,57,55,55,54,56,58,57,56,56,59,58,58,59,60,60,61,58,60,62,63,63,61,60,64,63,62,62,65,64,66,64,65,65,67,66,66,67,68,68,69,66,69,68,70,70,71,69,70,51,50,50,71,70,72,73,74,74,75,72,75,74,76,76,77,75,78,79,77,77,76,78,79,78,80,80,81,79,82,81,80,80,83,82,84,85,82,82,83,84,86,87,85,85,84,86,87,86,88,88,89,87,89,88,90,90,91,89,90,92,93,93,91,90,93,92,94,94,95,93,73,72,95,95,94,73,96,97,98,98,99,96,97,96,100,100,101,97,102,103,101,101,100,102,104,105,103,103,102,104,106,107,108,108,109,106,109,110,111,111,106,109,112,111,110,110,113,112,114,115,112,112,113,114,116,117,118,118,119,116,117,116,120,120,121,117,121,120,122,122,123,121,124,125,123,123,122,124,126,127,128,128,129,126,130,126,129,129,131,130,132,130,131,131,133,132,134,135,132,132,133,134,99,53,55,55,96,99,96,55,57,57,100,96,100,57,58,58,102,100,102,58,61,61,104,102,64,66,109,109,108,64,110,109,66,66,69,110,110,69,71,71,113,110,50,114,113,113,71,50,136,116,119,119,137,136,116,136,138,138,120,116,139,122,120,120,138,139,139,140,124,124,122,139,128,141,142,142,129,128,143,131,129,129,142,143,143,144,133,133,131,143,133,144,145,145,134,133,146,147,115,98,147,146,97,147,98,101,147,97,103,147,101,105,147,103,148,147,105,107,147,148,106,147,107,111,147,106,112,147,111,115,147,112,118,149,150,117,149,118,121,149,117,123,149,121,125,149,123,151,149,125,127,149,151,126,149,127,130,149,126,132,149,130,135,149,132,150,149,135,152,153,154,154,155,152,156,157,158,158,159,156,160,161,162,162,163,160,164,165,166,166,167,164,168,169,170,170,171,168,172,173,174,174,175,172,176,177,178,178,179,176,180,181,182,182,183,180,184,185,186,186,187,184,188,189,190,190,191,188,192,193,194,194,195,192,196,197,198,198,199,196,200,201,202,202,203,200,204,205,206,206,207,204,208,209,210,210,211,208,212,213,214,214,215,212,216,217,218,218,137,216,219,150,135,135,220,219,127,221,222,222,128,127,223,224,124,124,140,223,108,107,225,225,226,108,227,228,104,104,61,227,49,53,229,229,230,49,231,232,146,146,115,231,233,234,114,114,50,233,98,235,236,236,99,98,237,105,104,104,228,237,119,118,238,238,239,119,240,125,124,124,224,240,220,135,134,134,241,220,242,64,108,108,226,242,243,141,128,128,222,243,244,221,127,127,151,244,125,240,244,244,151,125,140,245,246,246,223,140,246,245,141,141,243,246,216,137,119,119,239,216,218,217,247,247,145,218,145,247,241,241,134,145,118,150,219,219,238,118,234,231,115,115,114,234,49,230,233,233,50,49,53,99,236,236,229,53,146,232,235,235,98,146,248,63,64,64,242,248,227,61,63,63,248,227,237,249,148,148,105,237,107,148,249,249,225,107,250,251,252,252,253,250,254,255,256,256,257,254,258,259,260,260,261,258,262,263,264,264,265,262,266,267,268,268,269,266,270,271,272,272,273,270,274,275,276,276,277,274,278,279,280,280,281,278,282,283,284,284,285,282,286,287,288,288,289,286,290,291,292,292,293,290,294,295,296,296,297,294,298,299,300,300,301,298,302,303,304,304,305,302,306,307,308,308,309,306,310,311,312,312,313,310,314,315,316,316,317,314,318,319,320,320,321,318,322,323,324,324,325,322,326,327,328,328,329,326,330,331,332,332,333,330,334,335,336,336,337,334,338,339,340,340,341,338,342,343,344,344,345,342,346,347,348,348,349,346,350,351,352,352,353,350,354,355,356,356,357,354,358,359,360,360,361,358,362,363,364,364,365,362,366,367,368,368,369,366,370,371,372,372,373,370,374,375,376,376,377,374,378,379,380,380,381,378,382,383,384,384,385,382,386,387,388,388,389,386,390,391,392,392,393,390,394,395,396,396,397,394,398,399,400,400,401,398,402,403,404,404,405,402,406,407,408,408,409,406,410,411,412,412,413,410,414,415,416,416,417,414,418,419,420,420,421,418,422,423,424,424,425,422,426,427,428,428,429,426,430,431,432,432,433,430,434,435,436,436,437,434,438,439,440,440,441,438,442,443,444,444,445,442,446,447,448,448,449,446,450,451,452,452,453,450,454,455,456,456,457,454,458,459,460,460,461,458,462,463,464,464,465,462,466,467,468,468,469,466,470,471,472,472,473,470,474,475,476,476,477,474,478,479,480,480,481,478,482,483,484,484,485,482,486,487,488,488,489,486,490,491,492,492,493,490,494,495,496,496,497,494,498,499,500,500,501,498,502,503,504,504,505,502,506,137,218,218,507,506,506,508,136,136,137,506,138,136,508,508,509,138,509,510,139,139,138,509,511,140,139,139,510,511,245,140,511,511,512,245,513,141,245,245,512,513,141,513,514,514,142,141,514,515,143,143,142,514,515,516,144,144,143,515,144,516,517,517,145,144,145,517,507,507,218,145,518,519,520,520,521,518,522,523,524,524,525,522,526,527,528,528,529,526,530,531,532,532,533,530,534,535,536,536,537,534,538,539,540,540,541,538,542,543,544,544,545,542,546,547,548,548,549,546,550,551,552,552,553,550,554,555,556,556,557,554,558,559,560,560,561,558,562,563,564,564,565,562,566,567,568,568,569,566,570,571,572,572,573,570,574,575,576,576,577,574,578,579,580,580,581,578,582,583,584,584,585,582,586,587,588,588,589,586,590,591,592,592,593,590,594,595,596,596,597,594,598,599,600,600,601,598,602,603,604,604,605,602,606,607,608,608,609,606,610,611,612,612,613,610,614,615,616,616,617,614,618,619,620,620,621,618,622,623,624,624,625,622,626,627,628,628,629,626,630,631,632,632,633,630,634,635,636,636,637,634,638,639,640,640,641,638,642,643,644,644,645,642,646,647,648,648,649,646,650,651,652,652,653,650,654,655,656,656,657,654,658,659,660,660,661,658,662,663,664,664,665,662,666,667,668,668,669,666,670,671,672,672,673,670,674,675,676,676,677,674,678,679,680,680,681,678,682,683,684,684,685,682,686,687,688,688,689,686,690,691,692,692,693,690,694,695,696,696,697,694,698,699,700,700,701,698,702,703,704,704,705,702,706,707,708,708,709,706,710,711,712,712,713,710,714,715,716,716,717,714,718,719,720,720,721,718,722,723,724,724,725,722,726,727,728,728,729,726,730,731,732,732,733,730,734,735,736,736,737,734,738,739,740,740,741,738,742,743,744,744,745,742,746,747,748,748,749,746,750,751,752,752,753,750,754,755,756,756,757,754,758,759,760,760,761,758,762,763,764,764,765,762,766,767,768,768,769,766,770,771,772,772,773,770,774,775,776,776,777,774,778,779,780,780,781,778,782,783,784,784,785,782,786,787,788,788,789,786,790,791,792,792,793,790,794,795,796,796,797,794,798,799,800,800,801,798,802,803,804,804,805,802,806,807,808,808,809,806,810,811,812,812,813,810,814,815,816,816,817,814,818,819,820,820,821,818,822,823,824,824,825,822,826,827,828,828,829,826,830,831,832,832,833,830,834,835,836,836,837,834,838,839,840,840,841,838,842,843,844,844,845,842,846,847,848,848,849,846,850,851,852,852,853,850,854,855,856,856,857,854,858,859,860,860,861,858,862,863,864,864,865,862,866,867,868,868,869,866,870,871,872,872,873,870,874,875,876,876,877,874,878,879,880,880,881,878,882,883,884,884,885,882,886,887,888,888,889,886,890,891,892,892,893,890,894,895,896,896,897,894,898,899,900,900,901,898,902,903,904,904,905,902,906,907,908,908,909,906,910,911,912,912,913,910,914,915,916,916,917,914,918,919,920,920,921,918,922,923,924,924,925,922,926,927,928,928,929,926,930,931,932,932,933,930,934,935,936,936,937,934,938,939,940,940,941,938,942,943,944,944,945,942,946,947,948,948,949,946,950,951,952,952,953,950,954,955,956,956,957,954,958,959,960,960,961,958,962,963,964,964,965,962,966,967,968,968,969,966,970,971,972,972,973,970,974,975,976,976,977,974,978,979,980,980,981,978,982,983,984,984,985,982,986,987,988,988,989,986,990,991,992,992,993,990,994,995,996,996,997,994],
            "itemSize":1,
            "type":"Uint16Array"
        }
    }
}