{
    "data":{
        "attributes":{
            "uv":{
                "array":[0.8154,0.2563,0.8154,0.2269,0.8762,0.2269,0.8762,0.2563,0.9371,0.2563,0.8762,0.2563,0.8762,0.2269,0.9371,0.2269,0.998,0.2269,0.998,0.2563,0.9371,0.2563,0.9371,0.2269,0.2675,0.2269,0.3284,0.2269,0.3284,0.2563,0.2675,0.2563,0.3892,0.2269,0.3892,0.2563,0.3284,0.2563,0.3284,0.2269,0.4501,0.2269,0.4501,0.2563,0.3892,0.2563,0.3892,0.2269,0.4501,0.2563,0.4501,0.2269,0.511,0.2269,0.511,0.2563,0.511,0.2563,0.511,0.2269,0.5719,0.2269,0.5719,0.2563,0.6327,0.2563,0.5719,0.2563,0.5719,0.2269,0.6327,0.2269,0.6327,0.2563,0.6327,0.2269,0.6936,0.2269,0.6936,0.2563,0.6936,0.2563,0.6936,0.2269,0.7545,0.2269,0.7545,0.2563,0.8154,0.2563,0.7545,0.2563,0.7545,0.2269,0.8154,0.2269,0.0902,0.4933,0.0955,0.4734,0.1432,0.4737,0.1484,0.4935,0.0396,0.4644,0.0541,0.4498,0.0106,0.4139,0.0305,0.4085,0.0107,0.3556,0.0306,0.361,0.0544,0.3198,0.0398,0.3052,0.0902,0.276,0.0955,0.2958,0.1485,0.2762,0.1431,0.2962,0.1845,0.3197,0.1991,0.3051,0.2082,0.361,0.2281,0.3557,0.228,0.4139,0.2081,0.4086,0.1989,0.4644,0.1843,0.4498,0.2514,0.1637,0.2562,0.165,0.222,0.2233,0.2185,0.2197,0.1632,0.2567,0.1619,0.2519,0.0956,0.2562,0.0969,0.2514,0.0373,0.222,0.0408,0.2185,0.0087,0.1619,0.0039,0.1632,0.0044,0.0956,0.0092,0.0969,0.0386,0.0373,0.0421,0.0408,0.0974,0.0039,0.0987,0.0087,0.165,0.0044,0.1637,0.0092,0.2233,0.0386,0.2197,0.0421,0.2567,0.0974,0.2519,0.0987,0.0563,0.4017,0.0878,0.3932,0.0962,0.4078,0.073,0.4309,0.0563,0.3679,0.0878,0.3763,0.0732,0.3386,0.0962,0.3617,0.1024,0.3217,0.1108,0.3533,0.1509,0.3763,0.1425,0.3617,0.1656,0.3386,0.1824,0.3679,0.1824,0.4017,0.1509,0.3932,0.1425,0.4078,0.1655,0.4309,0.1362,0.4479,0.1279,0.4162,0.3921,0.1737,0.3838,0.1419,0.3986,0.1334,0.4217,0.1569,0.358,0.1735,0.3667,0.1417,0.3286,0.1562,0.352,0.1331,0.3118,0.1266,0.3436,0.1183,0.3672,0.0782,0.3524,0.0866,0.3293,0.0631,0.3589,0.0463,0.3842,0.0783,0.393,0.0465,0.3989,0.0869,0.4224,0.0638,0.4392,0.0934,0.4073,0.1017,0.3988,0.1998,0.4406,0.1761,0.3508,0.1994,0.3094,0.1751,0.2857,0.1334,0.3104,0.0439,0.3521,0.0202,0.4001,0.0206,0.4415,0.0449,0.4652,0.0866,0.1109,0.4163,0.1193,0.3848,0.1277,0.3533,0.3755,0.11,0.4072,0.1187,0.3438,0.1013,0.5265,0.0023,0.5262,0.0317,0.5088,0.0315,0.509,0.0021,0.4924,0.0314,0.4926,0.002,0.6097,0.003,0.6268,0.0031,0.6265,0.0325,0.6094,0.0324,0.5933,0.0322,0.5935,0.0028,0.6097,0.003,0.6094,0.0324,0.5772,0.0321,0.5774,0.0027,0.5774,0.0027,0.5772,0.0321,0.5601,0.032,0.5603,0.0026,0.5437,0.0318,0.5439,0.0024,0.5262,0.0317,0.5265,0.0023,0.0355,0.5112,0.0352,0.5406,0.0191,0.5405,0.0193,0.5111,0.002,0.5403,0.0023,0.5109,0.0193,0.5111,0.0191,0.5405,0.12,0.512,0.1364,0.5122,0.1361,0.5416,0.1197,0.5414,0.1023,0.5413,0.1026,0.5119,0.0851,0.5117,0.1026,0.5119,0.1023,0.5413,0.0848,0.5411,0.0684,0.5409,0.0687,0.5115,0.0514,0.5408,0.0516,0.5114,0.0516,0.5114,0.0514,0.5408,0.4449,0.1482,0.4577,0.1327,0.4649,0.1346,0.4087,0.1191,0.4198,0.1046,0.3401,0.0827,0.3249,0.0697,0.2963,0.1072,0.3114,0.1187,0.1463,0.3496,0.1592,0.3343,0.1214,0.3061,0.1102,0.3212,0.0817,0.4539,0.0974,0.4663,0.1252,0.4286,0.1106,0.4176,0.1172,0.4635,0.1285,0.4483,0.0924,0.4199,0.0795,0.4352,0.1135,0.3409,0.4108,0.1373,0.4261,0.1503,0.3311,0.1154,0.4396,0.1013,0.157,0.3156,0.306,0.0718,0.3423,0.1009,0.2861,0.0854,0.2933,0.0873,0.4547,0.1128,0.1413,0.3032,0.1281,0.3519,0.098,0.4643,0.0985,0.4623,0.115,0.4599,0.1161,0.4617,0.4435,0.1456,0.4548,0.1319,0.4555,0.1321,0.4439,0.1462,0.1161,0.4617,0.115,0.4599,0.1243,0.4472,0.1264,0.4478,0.4269,0.1474,0.4435,0.1456,0.4439,0.1462,0.4267,0.1481,0.1243,0.4472,0.1218,0.4311,0.1236,0.4299,0.1264,0.4478,0.4129,0.1365,0.4136,0.1362,0.4269,0.1474,0.4267,0.1481,0.1236,0.4299,0.1218,0.4311,0.1095,0.4218,0.11,0.4197,0.4108,0.1197,0.4115,0.1199,0.4136,0.1362,0.4129,0.1365,0.11,0.4197,0.1095,0.4218,0.0942,0.4239,0.0932,0.4219,0.4212,0.1064,0.4217,0.107,0.4115,0.1199,0.4108,0.1197,0.0942,0.4239,0.0835,0.4363,0.0815,0.4357,0.0932,0.4219,0.439,0.1035,0.4388,0.1042,0.4217,0.107,0.4212,0.1064,0.0815,0.4357,0.0835,0.4363,0.0854,0.4519,0.0835,0.4529,0.4528,0.1139,0.4521,0.1143,0.4388,0.1042,0.439,0.1035,0.0835,0.4529,0.0854,0.4519,0.0985,0.4623,0.098,0.4643,0.4555,0.1321,0.4548,0.1319,0.4521,0.1143,0.4528,0.1139,0.1287,0.3498,0.1292,0.3478,0.1445,0.3457,0.1455,0.3476,0.3298,0.1136,0.3293,0.113,0.3394,0.1001,0.3401,0.1003,0.1445,0.3457,0.1551,0.3332,0.1572,0.3338,0.1455,0.3476,0.312,0.1165,0.3122,0.1158,0.3293,0.113,0.3298,0.1136,0.1572,0.3338,0.1551,0.3332,0.1533,0.3176,0.1551,0.3166,0.2988,0.1057,0.3122,0.1158,0.312,0.1165,0.2982,0.1061,0.1551,0.3166,0.1533,0.3176,0.1402,0.3073,0.1407,0.3052,0.2954,0.0879,0.2962,0.0881,0.2988,0.1057,0.2982,0.1061,0.1402,0.3073,0.1236,0.3096,0.1225,0.3078,0.1407,0.3052,0.3071,0.0738,0.3075,0.0744,0.2962,0.0881,0.2954,0.0879,0.1225,0.3078,0.1236,0.3096,0.1144,0.3223,0.1123,0.3218,0.3241,0.0726,0.3075,0.0744,0.3071,0.0738,0.3243,0.0719,0.1144,0.3223,0.1169,0.3385,0.1151,0.3396,0.1123,0.3218,0.3374,0.0838,0.3241,0.0726,0.3243,0.0719,0.3381,0.0835,0.1169,0.3385,0.1292,0.3478,0.1287,0.3498,0.1151,0.3396,0.3401,0.1003,0.3394,0.1001,0.3374,0.0838,0.3381,0.0835,0.0974,0.4663,0.098,0.4643,0.1161,0.4617,0.1172,0.4635,0.4449,0.1482,0.4439,0.1462,0.4555,0.1321,0.4577,0.1327,0.1264,0.4478,0.1285,0.4483,0.1172,0.4635,0.1161,0.4617,0.4449,0.1482,0.4261,0.1503,0.4267,0.1481,0.4439,0.1462,0.1264,0.4478,0.1236,0.4299,0.1252,0.4286,0.1285,0.4483,0.4108,0.1373,0.4129,0.1365,0.4267,0.1481,0.4261,0.1503,0.11,0.4197,0.1106,0.4176,0.1252,0.4286,0.1236,0.4299,0.4129,0.1365,0.4108,0.1373,0.4087,0.1191,0.4108,0.1197,0.11,0.4197,0.0932,0.4219,0.0924,0.4199,0.1106,0.4176,0.4198,0.1046,0.4212,0.1064,0.4108,0.1197,0.4087,0.1191,0.0932,0.4219,0.0815,0.4357,0.0795,0.4352,0.0924,0.4199,0.4198,0.1046,0.4396,0.1013,0.439,0.1035,0.4212,0.1064,0.0815,0.4357,0.0835,0.4529,0.0817,0.4539,0.0795,0.4352,0.4547,0.1128,0.4528,0.1139,0.439,0.1035,0.4396,0.1013,0.0835,0.4529,0.098,0.4643,0.0974,0.4663,0.0817,0.4539,0.4528,0.1139,0.4547,0.1128,0.4577,0.1327,0.4555,0.1321,0.1455,0.3476,0.1463,0.3496,0.1281,0.3519,0.1287,0.3498,0.3401,0.1003,0.3423,0.1009,0.3311,0.1154,0.3298,0.1136,0.1463,0.3496,0.1455,0.3476,0.1572,0.3338,0.1592,0.3343,0.312,0.1165,0.3298,0.1136,0.3311,0.1154,0.3114,0.1187,0.157,0.3156,0.1592,0.3343,0.1572,0.3338,0.1551,0.3166,0.2982,0.1061,0.312,0.1165,0.3114,0.1187,0.2963,0.1072,0.1551,0.3166,0.1407,0.3052,0.1413,0.3032,0.157,0.3156,0.2963,0.1072,0.2933,0.0873,0.2954,0.0879,0.2982,0.1061,0.1225,0.3078,0.1214,0.3061,0.1413,0.3032,0.1407,0.3052,0.3071,0.0738,0.2954,0.0879,0.2933,0.0873,0.306,0.0718,0.1123,0.3218,0.1102,0.3212,0.1214,0.3061,0.1225,0.3078,0.3249,0.0697,0.3243,0.0719,0.3071,0.0738,0.306,0.0718,0.1102,0.3212,0.1123,0.3218,0.1151,0.3396,0.1135,0.3409,0.3249,0.0697,0.3401,0.0827,0.3381,0.0835,0.3243,0.0719,0.1135,0.3409,0.1151,0.3396,0.1287,0.3498,0.1281,0.3519,0.3381,0.0835,0.3401,0.0827,0.3423,0.1009,0.3401,0.1003,0.4526,0.1882,0.4813,0.1392,0.4031,0.2163,0.3463,0.2159,0.2973,0.1871,0.2692,0.1377,0.2696,0.0808,0.2984,0.0318,0.3478,0.0037,0.4047,0.0041,0.4537,0.0329,0.4817,0.0823,0.2766,0.2798,0.2728,0.2797,0.2728,0.2797,0.2766,0.2798,0.2766,0.2798,0.28,0.2778,0.28,0.2778,0.2766,0.2798,0.282,0.2745,0.28,0.2778,0.28,0.2778,0.282,0.2745,0.282,0.2706,0.282,0.2745,0.282,0.2745,0.282,0.2706,0.282,0.2706,0.282,0.2706,0.2801,0.2672,0.2801,0.2672,0.2767,0.2652,0.2801,0.2672,0.2801,0.2672,0.2767,0.2652,0.2729,0.2652,0.2729,0.2652,0.2767,0.2652,0.2767,0.2652,0.2729,0.2652,0.2729,0.2652,0.2695,0.2671,0.2695,0.2671,0.2675,0.2705,0.2695,0.2671,0.2695,0.2671,0.2675,0.2705,0.2675,0.2705,0.2675,0.2744,0.2675,0.2744,0.2675,0.2705,0.2694,0.2778,0.2694,0.2778,0.2675,0.2744,0.2675,0.2744,0.2694,0.2778,0.2694,0.2778,0.2728,0.2797,0.2728,0.2797,0.0069,0.564,0.0105,0.564,0.0105,0.564,0.0069,0.564,0.0038,0.5622,0.0038,0.5622,0.0069,0.564,0.0069,0.564,0.0038,0.5622,0.0038,0.5622,0.002,0.559,0.002,0.559,0.002,0.559,0.002,0.559,0.002,0.5554,0.002,0.5554,0.002,0.5554,0.002,0.5554,0.0039,0.5523,0.0039,0.5523,0.007,0.5505,0.0039,0.5523,0.0039,0.5523,0.007,0.5505,0.007,0.5505,0.007,0.5505,0.0106,0.5505,0.0106,0.5505,0.0106,0.5505,0.0106,0.5505,0.0138,0.5523,0.0138,0.5523,0.0156,0.5555,0.0138,0.5523,0.0138,0.5523,0.0156,0.5555,0.0156,0.5555,0.0156,0.5555,0.0155,0.5591,0.0155,0.5591,0.0155,0.5591,0.0155,0.5591,0.0137,0.5622,0.0137,0.5622,0.0137,0.5622,0.0105,0.564,0.0105,0.564,0.0137,0.5622,0.223,0.2244,0.222,0.2233,0.2562,0.165,0.2576,0.1654,0.1632,0.2567,0.222,0.2233,0.223,0.2244,0.1636,0.2581,0.0952,0.2576,0.0956,0.2562,0.1632,0.2567,0.1636,0.2581,0.0373,0.222,0.0956,0.2562,0.0952,0.2576,0.0362,0.223,0.0025,0.1636,0.0039,0.1632,0.0373,0.222,0.0362,0.223,0.0039,0.1632,0.0025,0.1636,0.003,0.0952,0.0044,0.0956,0.0376,0.0362,0.0386,0.0373,0.0044,0.0956,0.003,0.0952,0.0974,0.0039,0.0386,0.0373,0.0376,0.0362,0.097,0.0025,0.1654,0.003,0.165,0.0044,0.0974,0.0039,0.097,0.0025,0.2233,0.0386,0.165,0.0044,0.1654,0.003,0.2244,0.0376,0.2581,0.097,0.2567,0.0974,0.2233,0.0386,0.2244,0.0376,0.2576,0.1654,0.2562,0.165,0.2567,0.0974,0.2581,0.097,0.25,0.1633,0.2514,0.1637,0.2185,0.2197,0.2174,0.2187,0.2519,0.0987,0.2514,0.1637,0.25,0.1633,0.2504,0.099,0.2197,0.0421,0.2519,0.0987,0.2504,0.099,0.2187,0.0432,0.1633,0.0106,0.1637,0.0092,0.2197,0.0421,0.2187,0.0432,0.099,0.0102,0.0987,0.0087,0.1637,0.0092,0.1633,0.0106,0.0432,0.0419,0.0421,0.0408,0.0987,0.0087,0.099,0.0102,0.0106,0.0973,0.0092,0.0969,0.0421,0.0408,0.0432,0.0419,0.0102,0.1616,0.0087,0.1619,0.0092,0.0969,0.0106,0.0973,0.0087,0.1619,0.0102,0.1616,0.0419,0.2174,0.0408,0.2185,0.0973,0.25,0.0969,0.2514,0.0408,0.2185,0.0419,0.2174,0.0969,0.2514,0.0973,0.25,0.1616,0.2504,0.1619,0.2519,0.2185,0.2197,0.1619,0.2519,0.1616,0.2504,0.2174,0.2187,0.2576,0.1654,0.2581,0.1655,0.2234,0.2247,0.223,0.2244,0.1636,0.2581,0.223,0.2244,0.2234,0.2247,0.1637,0.2586,0.1636,0.2581,0.1637,0.2586,0.0951,0.2581,0.0952,0.2576,0.0362,0.223,0.0952,0.2576,0.0951,0.2581,0.0359,0.2234,0.002,0.1637,0.0025,0.1636,0.0362,0.223,0.0359,0.2234,0.002,0.1637,0.0025,0.0951,0.003,0.0952,0.0025,0.1636,0.003,0.0952,0.0025,0.0951,0.0372,0.0359,0.0376,0.0362,0.097,0.0025,0.0376,0.0362,0.0372,0.0359,0.0969,0.002,0.097,0.0025,0.0969,0.002,0.1655,0.0025,0.1654,0.003,0.1654,0.003,0.1655,0.0025,0.2247,0.0372,0.2244,0.0376,0.2586,0.0969,0.2581,0.097,0.2244,0.0376,0.2247,0.0372,0.2581,0.097,0.2586,0.0969,0.2581,0.1655,0.2576,0.1654,0.2495,0.1631,0.25,0.1633,0.2174,0.2187,0.2171,0.2183,0.2504,0.099,0.25,0.1633,0.2495,0.1631,0.2499,0.0992,0.2499,0.0992,0.2183,0.0435,0.2187,0.0432,0.2504,0.099,0.1631,0.0111,0.1633,0.0106,0.2187,0.0432,0.2183,0.0435,0.1631,0.0111,0.0992,0.0107,0.099,0.0102,0.1633,0.0106,0.0432,0.0419,0.099,0.0102,0.0992,0.0107,0.0435,0.0423,0.0106,0.0973,0.0432,0.0419,0.0435,0.0423,0.0111,0.0974,0.0106,0.0973,0.0111,0.0974,0.0107,0.1614,0.0102,0.1616,0.0102,0.1616,0.0107,0.1614,0.0423,0.2171,0.0419,0.2174,0.0973,0.25,0.0419,0.2174,0.0423,0.2171,0.0974,0.2495,0.1614,0.2499,0.1616,0.2504,0.0973,0.25,0.0974,0.2495,0.2171,0.2183,0.2174,0.2187,0.1616,0.2504,0.1614,0.2499,0.4831,0.1397,0.4538,0.1895,0.4535,0.1892,0.4826,0.1395,0.4036,0.218,0.4035,0.2176,0.4535,0.1892,0.4538,0.1895,0.4035,0.2176,0.4036,0.218,0.3458,0.2176,0.3459,0.2172,0.3459,0.2172,0.3458,0.2176,0.296,0.1883,0.2963,0.188,0.296,0.1883,0.2675,0.1381,0.2679,0.138,0.2963,0.188,0.2683,0.0805,0.2679,0.138,0.2675,0.1381,0.2679,0.0803,0.2975,0.0308,0.2683,0.0805,0.2679,0.0803,0.2971,0.0305,0.3474,0.002,0.3475,0.0024,0.2975,0.0308,0.2971,0.0305,0.4051,0.0024,0.405,0.0028,0.3475,0.0024,0.3474,0.002,0.405,0.0028,0.4051,0.0024,0.455,0.0317,0.4546,0.032,0.4835,0.0819,0.483,0.082,0.4546,0.032,0.455,0.0317,0.4831,0.1397,0.4826,0.1395,0.483,0.082,0.4835,0.0819,0.4813,0.1392,0.4826,0.1395,0.4535,0.1892,0.4526,0.1882,0.4031,0.2163,0.4526,0.1882,0.4535,0.1892,0.4035,0.2176,0.4035,0.2176,0.3459,0.2172,0.3463,0.2159,0.4031,0.2163,0.2973,0.1871,0.3463,0.2159,0.3459,0.2172,0.2963,0.188,0.2963,0.188,0.2679,0.138,0.2692,0.1377,0.2973,0.1871,0.2679,0.138,0.2683,0.0805,0.2696,0.0808,0.2692,0.1377,0.2696,0.0808,0.2683,0.0805,0.2975,0.0308,0.2984,0.0318,0.2984,0.0318,0.2975,0.0308,0.3475,0.0024,0.3478,0.0037,0.3475,0.0024,0.405,0.0028,0.4047,0.0041,0.3478,0.0037,0.4546,0.032,0.4537,0.0329,0.4047,0.0041,0.405,0.0028,0.483,0.082,0.4817,0.0823,0.4537,0.0329,0.4546,0.032,0.4813,0.1392,0.4817,0.0823,0.483,0.082,0.4826,0.1395,0.1496,0.4978,0.1507,0.502,0.0879,0.502,0.089,0.4977,0.2052,0.4707,0.1507,0.502,0.1496,0.4978,0.202,0.4675,0.2323,0.4151,0.2366,0.4162,0.2052,0.4707,0.202,0.4675,0.2366,0.4162,0.2323,0.4151,0.2324,0.3545,0.2367,0.3533,0.2022,0.302,0.2053,0.2988,0.2367,0.3533,0.2324,0.3545,0.1508,0.2675,0.2053,0.2988,0.2022,0.302,0.1497,0.2719,0.0891,0.2718,0.0879,0.2675,0.1508,0.2675,0.1497,0.2719,0.0879,0.2675,0.0891,0.2718,0.0366,0.302,0.0335,0.2989,0.002,0.3533,0.0335,0.2989,0.0366,0.302,0.0064,0.3545,0.002,0.4162,0.002,0.3533,0.0064,0.3545,0.0063,0.415,0.0365,0.4675,0.0333,0.4707,0.002,0.4162,0.0063,0.415,0.0333,0.4707,0.0365,0.4675,0.089,0.4977,0.0879,0.502,0.1484,0.4935,0.1496,0.4978,0.089,0.4977,0.0902,0.4933,0.1989,0.4644,0.202,0.4675,0.1496,0.4978,0.1484,0.4935,0.202,0.4675,0.1989,0.4644,0.228,0.4139,0.2323,0.4151,0.2281,0.3557,0.2324,0.3545,0.2323,0.4151,0.228,0.4139,0.1991,0.3051,0.2022,0.302,0.2324,0.3545,0.2281,0.3557,0.1497,0.2719,0.2022,0.302,0.1991,0.3051,0.1485,0.2762,0.1497,0.2719,0.1485,0.2762,0.0902,0.276,0.0891,0.2718,0.0366,0.302,0.0891,0.2718,0.0902,0.276,0.0398,0.3052,0.0107,0.3556,0.0064,0.3545,0.0366,0.302,0.0398,0.3052,0.0064,0.3545,0.0107,0.3556,0.0106,0.4139,0.0063,0.415,0.0063,0.415,0.0106,0.4139,0.0396,0.4644,0.0365,0.4675,0.089,0.4977,0.0365,0.4675,0.0396,0.4644,0.0902,0.4933],
                "type":"Float32Array",
                "itemSize":2
            },
            "normal":{
                "array":[0.341258,-0.21015,-0.916135,0.341197,-0.210364,-0.916135,0.341197,-0.210364,-0.916105,0.34135,-0.210181,-0.916105,-0.137486,-0.00552385,-0.990478,-0.137486,-0.0052797,-0.990478,-0.137486,-0.00537126,-0.990478,-0.137455,-0.00534074,-0.990478,-0.565508,0.19483,-0.801386,-0.565477,0.194891,-0.801386,-0.565569,0.194525,-0.801386,-0.565539,0.194922,-0.801324,-0.84405,0.342753,-0.412336,-0.84405,0.342814,-0.412366,-0.84402,0.342814,-0.412397,-0.843959,0.342936,-0.412427,-0.910031,0.40495,0.0884426,-0.910031,0.40495,0.0884426,-0.910062,0.404889,0.0884426,-0.910031,0.40492,0.0884121,-0.730644,0.358867,0.580798,-0.730613,0.358745,0.580889,-0.730613,0.358898,0.580828,-0.730644,0.358867,0.580828,-0.341166,0.210364,0.916135,-0.341227,0.210303,0.916135,-0.341258,0.210273,0.916135,-0.34135,0.210395,0.916074,0.137394,0.00518815,0.990478,0.137425,0.0052797,0.990478,0.137486,0.00534074,0.990478,0.137394,0.00515763,0.990478,0.56563,-0.194861,0.801294,0.565294,-0.194891,0.801508,0.565477,-0.1948,0.801386,0.565477,-0.1948,0.801416,0.84405,-0.342784,0.412336,0.84405,-0.342784,0.412336,0.84405,-0.342784,0.412366,0.84402,-0.342784,0.412397,0.910092,-0.404828,-0.0884121,0.910031,-0.40495,-0.0884426,0.910031,-0.40492,-0.0884426,0.910031,-0.40495,-0.0884426,0.730674,-0.358592,-0.58095,0.730766,-0.358898,-0.580615,0.730613,-0.358898,-0.580798,0.730613,-0.358898,-0.580798,-0.400861,-0.914121,0.0605487,-0.400861,-0.914121,0.0605182,-0.400861,-0.914121,0.0605182,-0.400861,-0.914121,0.0605182,-0.40083,-0.914121,0.0605487,-0.40083,-0.914121,0.0605792,-0.400861,-0.914121,0.0605487,-0.40083,-0.914121,0.0605487,-0.400861,-0.914121,0.0605182,-0.400861,-0.914121,0.0605182,-0.400861,-0.914121,0.0605487,-0.40083,-0.914121,0.0606098,-0.40083,-0.914121,0.0605487,-0.400861,-0.914121,0.0605487,-0.400861,-0.914121,0.0605792,-0.400861,-0.914121,0.0605792,-0.40083,-0.914121,0.0605487,-0.40083,-0.914121,0.0605487,-0.40083,-0.914121,0.0605487,-0.4008,-0.914121,0.0605487,-0.4008,-0.914121,0.0605792,-0.40083,-0.914121,0.0605792,-0.40083,-0.914121,0.0605182,-0.400861,-0.914121,0.0605487,0.401013,0.914029,-0.0610675,0.400983,0.914029,-0.0610675,0.400861,0.914121,-0.0602741,0.400861,0.914121,-0.0602435,0.4008,0.914151,-0.0604877,0.4008,0.914151,-0.0604877,0.401074,0.914029,-0.0603656,0.401074,0.914029,-0.0603656,0.400891,0.914121,-0.0604877,0.400861,0.914121,-0.0604877,0.400861,0.914121,-0.0605487,0.400861,0.914121,-0.0605487,0.400952,0.91406,-0.0605792,0.400952,0.91406,-0.0605792,0.4008,0.914151,-0.0603046,0.4008,0.914151,-0.0603046,0.400891,0.914121,-0.0604877,0.400891,0.914121,-0.0605182,0.4008,0.914121,-0.0605792,0.4008,0.914121,-0.0606098,0.400861,0.91409,-0.0606098,0.400861,0.91409,-0.0606098,0.400861,0.914121,-0.0605182,0.400891,0.914121,-0.0605487,-0.40083,-0.914121,0.0605487,-0.400861,-0.914121,0.0606098,-0.400861,-0.914121,0.0605182,-0.400861,-0.914121,0.0604572,-0.400861,-0.914121,0.0605792,-0.40083,-0.914121,0.0606098,-0.40083,-0.914121,0.0605487,-0.40083,-0.914121,0.0605487,-0.400861,-0.914121,0.0605487,-0.400891,-0.914121,0.0605182,-0.40083,-0.914121,0.0605182,-0.40083,-0.914121,0.0605487,-0.400861,-0.914121,0.0605182,-0.400861,-0.914121,0.0605182,-0.400861,-0.914121,0.0605487,-0.400861,-0.914121,0.0605792,-0.400861,-0.914121,0.0605792,-0.40083,-0.914121,0.0605487,-0.400861,-0.914121,0.0605487,-0.4008,-0.914121,0.0605487,0.40083,0.914121,-0.0605487,0.40083,0.914121,-0.0605182,0.400891,0.91409,-0.0605487,0.400861,0.914121,-0.0605182,0.400861,0.914121,-0.0605182,0.40083,0.914121,-0.0605182,0.40083,0.914121,-0.0605792,0.400861,0.914121,-0.0605792,0.40083,0.914121,-0.0605792,0.40083,0.914121,-0.0604877,0.400861,0.914121,-0.0605792,0.400861,0.914121,-0.0605792,0.40083,0.914121,-0.0605487,0.40083,0.914121,-0.0605487,0.400861,0.914121,-0.0605487,0.400861,0.914121,-0.0605792,0.40083,0.914121,-0.0605487,0.40083,0.914121,-0.0605487,0.40083,0.914121,-0.0604877,0.4008,0.914121,-0.0605487,0.40083,0.914121,-0.0605792,0.400861,0.914121,-0.0606098,0.40083,0.914121,-0.0605792,0.40083,0.914121,-0.0605487,0.40083,0.914121,-0.0605792,0.40083,0.914121,-0.0606403,0.40083,0.914121,-0.0605487,0.40083,0.914121,-0.0605792,0.40083,0.914121,-0.0605487,0.40083,0.914121,-0.0605487,-0.400922,-0.91406,0.0606708,-0.400861,-0.914121,0.0605487,-0.40083,-0.914121,0.0605487,0.400861,0.914121,-0.0605792,0.400861,0.914121,-0.0603351,0.400372,0.914365,-0.0599689,-0.198553,0.151219,0.968322,-0.198675,0.151219,0.968322,0.316111,0.0465407,0.947569,0.226539,-0.158361,0.961028,0.699973,-0.138218,0.700644,0.610279,-0.342601,0.714225,0.890683,-0.373363,0.259255,0.610279,-0.342601,0.714225,0.699973,-0.138218,0.700644,0.890713,-0.373363,0.259224,0.5562,-0.295419,-0.776727,0.5562,-0.295389,-0.776727,0.799219,-0.381298,-0.464553,0.799219,-0.381268,-0.464583,0.222022,-0.161077,-0.961608,0.221961,-0.160985,-0.961669,-0.44087,0.134526,-0.887387,-0.440931,0.134648,-0.887356,-0.737266,0.410016,-0.536912,-0.826899,0.205695,-0.523362,-0.86465,0.497513,-0.0696127,-0.95468,0.292245,-0.056093,-0.810755,0.384716,0.441145,-0.810724,0.384747,0.441176,-0.556261,0.295328,0.776727,-0.55623,0.295328,0.776757,-0.222083,0.161046,0.961608,-0.221961,0.161077,0.961638,0.826868,-0.205634,0.523392,0.737327,-0.409864,0.536943,0.440901,-0.134495,0.887387,0.44084,-0.134495,0.887417,0.864864,-0.497085,0.0697043,0.737327,-0.409864,0.536943,0.826868,-0.205634,0.523392,0.954711,-0.292062,0.0562151,0.810724,-0.384747,-0.441176,0.810724,-0.384777,-0.441206,-0.316355,-0.0462355,-0.947478,0.198645,-0.15128,-0.968291,0.198584,-0.15128,-0.968322,-0.226753,0.158361,-0.960967,-0.610279,0.34257,-0.714255,-0.69985,0.138157,-0.700766,-0.890652,0.373394,-0.259316,-0.890683,0.373424,-0.259255,-0.799249,0.381207,0.464614,-0.799127,0.381237,0.464766,0.40083,0.914121,-0.0605792,0.40083,0.914121,-0.0605487,0.40083,0.914121,-0.0605792,0.400861,0.914121,-0.0603656,0.40083,0.914121,-0.0606708,0.400891,0.91409,-0.0606403,0.40083,0.914121,-0.0605182,0.400891,0.91409,-0.0605487,0.40083,0.914121,-0.0605792,-0.400861,-0.914121,0.0606708,-0.400983,-0.91406,0.0605182,-0.400861,-0.914121,0.0606098,-0.400891,-0.91409,0.0606403,-0.400861,-0.914121,0.0605792,-0.400891,-0.91409,0.0605182,-0.400555,-0.914243,0.0605182,-0.401135,-0.913968,0.0610065,-0.40083,-0.914121,0.0604266,-0.400861,-0.914121,0.0605182,-0.400861,-0.914121,0.0605487,-0.400861,-0.914121,0.0604877,-0.400922,-0.91409,0.0605182,0.400983,0.91406,-0.0605792,0.400861,0.914121,-0.0604877,0.40083,0.914121,-0.0604877,0.40083,0.914121,-0.0604572,-0.4008,-0.914151,0.0604877,0.400922,0.91409,-0.0605182,0.400311,0.914396,-0.0599078,0.40083,0.914121,-0.0605487,0.400861,0.914121,-0.0605792,0.400861,0.914121,-0.0605487,-0.40083,-0.914121,0.0606098,-0.400861,-0.914121,0.0606708,-0.308969,-0.128086,0.942381,-0.308786,-0.12775,0.942503,-0.310709,-0.131199,0.941374,-0.310892,-0.131504,0.941282,-0.0689108,0.419355,0.905179,-0.0697958,0.417341,0.906034,-0.0697043,0.417524,0.905972,-0.0688498,0.419538,0.905118,0.338908,-0.416852,0.84341,0.226539,-0.158361,0.961028,0.610279,-0.342601,0.714225,0.338969,-0.416547,0.843532,0.699973,-0.138218,0.700644,0.316111,0.0465407,0.947569,0.575762,0.124393,0.808069,0.576495,0.124332,0.80755,0.736106,-0.623005,0.264443,0.741569,-0.616016,0.265664,0.74102,-0.616688,0.265542,0.735679,-0.623585,0.264351,0.967864,-0.0987579,0.231208,0.967742,-0.0994903,0.231391,0.968902,-0.0922575,0.22956,0.968993,-0.0916776,0.229408,0.633412,-0.648274,-0.422468,0.632679,-0.649251,-0.42204,0.639943,-0.639424,-0.426099,0.640584,-0.638539,-0.426466,0.883206,-0.0857265,-0.461074,0.883084,-0.0870388,-0.461013,0.883969,-0.0745262,-0.461501,0.88406,-0.0733665,-0.461562,0.0903043,-0.430189,-0.89819,0.090762,-0.428907,-0.89874,0.0865505,-0.44084,-0.893368,0.0861538,-0.441969,-0.89288,0.336528,0.133091,-0.932188,0.336772,0.134251,-0.931944,0.334361,0.122898,-0.934385,0.334147,0.121891,-0.934599,-0.535722,-0.130772,-0.834162,-0.538377,-0.13715,-0.831446,-0.538133,-0.13654,-0.83169,-0.535508,-0.130253,-0.834376,-0.305307,0.394086,-0.866848,-0.30491,0.394879,-0.866634,-0.308969,0.3867,-0.868892,-0.309275,0.386029,-0.869076,-0.958556,0.0786157,-0.273751,-0.826899,0.205695,-0.523362,-0.95468,0.292245,-0.056093,-0.958586,0.0782495,-0.273751,-0.720786,0.620228,-0.309427,-0.86465,0.497513,-0.0696127,-0.737266,0.410016,-0.536912,-0.721366,0.619343,-0.309854,-0.893979,0.0912503,0.438704,-0.89407,0.0908841,0.438581,-0.893063,0.0946379,0.439833,-0.892972,0.0949431,0.439955,-0.654073,0.640095,0.403027,-0.654317,0.63976,0.403088,-0.65157,0.643055,0.402356,-0.651326,0.64333,0.402295,-0.332682,-0.122593,0.935026,-0.332072,-0.121433,0.935392,-0.337779,-0.132481,0.931822,-0.338298,-0.133488,0.931486,-0.085696,0.439406,0.894162,-0.0850246,0.440291,0.893796,-0.0914335,0.431471,0.897458,-0.0920133,0.430677,0.897794,0.308451,-0.387555,0.868679,0.305155,-0.395032,0.866482,0.30546,-0.39433,0.866695,0.308695,-0.386944,0.868862,0.537828,0.136174,0.831965,0.538072,0.136845,0.83169,0.5356,0.129826,0.834407,0.535417,0.129276,0.83462,0.721488,-0.619221,0.309793,0.737327,-0.409864,0.536943,0.864864,-0.497085,0.0697043,0.721549,-0.619251,0.30961,0.954711,-0.292062,0.0562151,0.826868,-0.205634,0.523392,0.958586,-0.0783105,0.273751,0.958556,-0.0777001,0.274087,0.652272,-0.642201,-0.40257,0.652089,-0.642476,-0.402448,0.65392,-0.63976,-0.403821,0.654042,-0.639546,-0.403943,0.893399,-0.0938444,-0.439314,0.893338,-0.0942106,-0.439344,0.893857,-0.0903043,-0.4391,0.893918,-0.0899991,-0.43907,0.0701315,-0.417493,-0.905942,0.0687887,-0.41908,-0.905332,0.0689108,-0.418928,-0.905393,0.0702536,-0.417371,-0.906003,0.309793,0.13123,-0.941679,0.309793,0.131504,-0.941649,0.309854,0.128605,-0.942015,0.309854,0.128361,-0.942045,-0.576159,-0.12363,-0.807886,-0.316355,-0.0462355,-0.947478,-0.69985,0.138157,-0.700766,-0.575945,-0.124821,-0.807886,-0.610279,0.34257,-0.714255,-0.226753,0.158361,-0.960967,-0.339305,0.416791,-0.843287,-0.338694,0.416456,-0.843684,-0.968963,0.0917081,-0.22953,-0.967681,0.0994903,-0.231666,-0.967803,0.0987274,-0.231452,-0.969054,0.0910672,-0.229347,-0.740867,0.617237,-0.264718,-0.735557,0.623127,-0.265694,-0.736076,0.622578,-0.265603,-0.741295,0.616779,-0.264657,-0.883694,0.0755333,0.461898,-0.8829,0.0885342,0.461074,-0.882992,0.0871609,0.461165,-0.883755,0.0743126,0.461959,-0.639729,0.640706,0.424543,-0.640553,0.63979,0.424635,-0.632679,0.648305,0.423505,-0.631947,0.649098,0.423414,-0.44438,-0.810877,0.380749,-0.44438,-0.810755,0.381024,-0.444502,-0.811884,0.378399,-0.444502,-0.811975,0.378246,0.312265,0.912839,0.263039,0.312418,0.91287,0.262642,0.310892,0.91232,0.266396,0.3108,0.91229,0.26664,-0.215583,-0.911802,0.349437,-0.215583,-0.911771,0.349498,-0.215369,-0.912198,0.348491,-0.215339,-0.912259,0.348369,0.538835,0.808924,0.235084,0.539384,0.80874,0.234382,0.539354,0.808771,0.234443,0.538774,0.808924,0.235145,-0.0698874,-0.986999,0.144566,-0.0615253,-0.987091,0.147679,-0.0624104,-0.987091,0.147343,-0.0703757,-0.986999,0.144383,0.688284,0.724631,0.0337535,0.688864,0.724052,0.0340587,0.683401,0.729362,0.0312204,0.683065,0.729667,0.0310678,-0.116184,-0.988372,-0.0978729,-0.115421,-0.988403,-0.0984222,-0.125614,-0.987854,-0.0911893,-0.126713,-0.987793,-0.0904263,0.633747,0.745232,-0.207282,0.633045,0.745933,-0.206915,0.641835,0.737083,-0.211402,0.642933,0.735984,-0.211951,-0.303018,-0.916837,-0.259957,-0.308725,-0.918058,-0.248634,-0.308145,-0.917936,-0.249794,-0.302591,-0.916715,-0.260781,0.451369,0.814539,-0.364391,0.451094,0.815149,-0.363323,0.45378,0.808985,-0.373638,0.453963,0.808496,-0.374401,-0.52913,-0.808954,-0.256111,-0.527421,-0.812769,-0.247383,-0.527604,-0.812372,-0.248238,-0.529221,-0.80871,-0.2566,0.220679,0.902951,-0.368694,0.226478,0.904172,-0.362133,0.226112,0.90408,-0.362529,0.220008,0.902799,-0.369457,-0.674093,-0.737175,-0.046083,-0.673818,-0.737449,-0.0458998,-0.673849,-0.737419,-0.0459304,-0.674123,-0.737144,-0.0461135,0.0803552,0.983764,-0.160405,0.0802637,0.983764,-0.160466,0.0811487,0.983764,-0.160009,0.0812098,0.983764,-0.159978,-0.646718,-0.734947,0.203803,-0.648976,-0.732658,0.204962,-0.648732,-0.732902,0.20484,-0.646596,-0.735099,0.203742,0.10947,0.989929,0.0895718,0.109653,0.989929,0.0894803,0.106845,0.990112,0.090762,0.10654,0.990112,0.0908841,-0.452803,-0.814203,0.363292,-0.452834,-0.8146,0.362346,-0.452345,-0.809473,0.374279,-0.452284,-0.808832,0.375744,0.303323,0.91699,0.259011,0.302927,0.916898,0.259804,0.308298,0.917997,0.249336,0.308878,0.918119,0.248238,-0.220527,-0.902799,0.369152,-0.219977,-0.902676,0.369762,-0.225257,-0.903684,0.364116,-0.225562,-0.903745,0.363781,0.526994,0.812464,0.249245,0.530229,0.808161,0.256355,0.529862,0.808618,0.255562,0.526811,0.812708,0.248817,-0.0806604,-0.983825,0.159917,-0.0796228,-0.983795,0.160619,-0.0797143,-0.983795,0.160558,-0.0807825,-0.983825,0.159825,0.673971,0.737297,0.0459609,0.674367,0.73693,0.0459304,0.674337,0.736961,0.0459304,0.67394,0.737327,0.0459609,-0.109775,-0.989929,-0.0893582,-0.106082,-0.990234,-0.0903043,-0.106479,-0.990204,-0.0902127,-0.110019,-0.989898,-0.0892972,0.646931,0.734855,-0.203497,0.649434,0.731986,-0.205908,0.649251,0.73217,-0.205756,0.646687,0.73516,-0.203223,-0.311899,-0.912778,-0.263649,-0.31196,-0.912809,-0.263466,-0.311197,-0.91229,-0.266213,-0.311106,-0.912229,-0.266518,0.444502,0.811884,-0.37843,0.444319,0.810175,-0.382275,0.444349,0.810358,-0.381878,0.444502,0.812006,-0.378185,-0.539415,-0.808496,-0.235145,-0.539445,-0.808466,-0.235267,-0.538865,-0.809229,-0.233863,-0.538804,-0.80932,-0.233711,0.215735,0.912046,-0.348704,0.215705,0.912015,-0.348735,0.215857,0.912137,-0.348369,0.215888,0.912137,-0.348338,-0.68334,-0.729362,-0.0317087,-0.682791,-0.729911,-0.0315867,-0.688528,-0.724448,-0.0329905,-0.688833,-0.724113,-0.0330515,0.0703452,0.986847,-0.145512,0.0604877,0.987304,-0.146702,0.0610675,0.987274,-0.146611,0.0713523,0.986785,-0.14539,-0.63451,-0.744865,0.206183,-0.633778,-0.745689,0.205481,-0.64095,-0.737571,0.212439,-0.641469,-0.736961,0.212958,0.125309,0.987732,0.0928983,0.126164,0.987671,0.0925321,0.115482,0.988525,0.0970489,0.114139,0.988647,0.0975982,0.40083,0.914121,-0.0606098,0.40083,0.914121,-0.0605792,0.40083,0.914121,-0.0605792,0.400769,0.914151,-0.0606098,0.40083,0.914121,-0.0605487,0.4008,0.914121,-0.0605792,0.4008,0.914151,-0.0604877,0.40083,0.914121,-0.0606403,0.40083,0.914121,-0.0605792,0.40083,0.914121,-0.0605792,0.400861,0.914121,-0.0605487,0.4008,0.914151,-0.0605792,0.341472,-0.209998,-0.916105,0.34135,-0.209937,-0.916166,0.341258,-0.21015,-0.916135,0.34135,-0.210181,-0.916105,-0.137486,-0.0052797,-0.990478,-0.137486,-0.00552385,-0.990478,-0.137516,-0.00570696,-0.990478,-0.137486,-0.00518815,-0.990478,-0.565447,0.194952,-0.801386,-0.56563,0.194159,-0.801447,-0.565569,0.194525,-0.801386,-0.565477,0.194891,-0.801386,-0.843989,0.342845,-0.412427,-0.843837,0.34315,-0.412488,-0.843959,0.342936,-0.412427,-0.84402,0.342814,-0.412397,-0.910092,0.404828,0.0884732,-0.910062,0.404889,0.0884426,-0.910031,0.40495,0.0884426,-0.910031,0.404981,0.0884121,-0.730583,0.358654,0.580981,-0.730552,0.358959,0.580828,-0.730613,0.358898,0.580828,-0.730613,0.358745,0.580889,-0.34135,0.210395,0.916074,-0.341472,0.210517,0.915983,-0.341075,0.210456,0.916135,-0.341166,0.210364,0.916135,0.137303,0.00506607,0.990509,0.137394,0.00518815,0.990478,0.137394,0.00515763,0.990478,0.137303,0.004944,0.990509,0.565752,-0.194922,0.801172,0.565111,-0.194952,0.80163,0.565294,-0.194891,0.801508,0.56563,-0.194861,0.801294,0.84405,-0.342784,0.412336,0.84402,-0.342784,0.412397,0.84402,-0.342784,0.412427,0.844081,-0.342753,0.412305,0.910031,-0.40495,-0.0884426,0.910001,-0.405011,-0.0884426,0.910123,-0.404736,-0.0884121,0.910092,-0.404828,-0.0884121,0.730918,-0.358867,-0.580432,0.730766,-0.358898,-0.580615,0.730674,-0.358592,-0.58095,0.730705,-0.358257,-0.581103,-0.34138,0.211676,0.915769,-0.340342,0.211798,0.916105,-0.340342,0.211798,0.916105,-0.341411,0.211646,0.915738,-0.730491,0.359325,0.580676,-0.730522,0.359325,0.580676,-0.729606,0.360698,0.580981,-0.729606,0.360698,0.580981,-0.909207,0.406781,0.0885342,-0.909207,0.406781,0.0885342,-0.910092,0.404828,0.0883511,-0.910092,0.404828,0.0883511,-0.843898,0.342174,-0.41316,-0.843898,0.342174,-0.41316,-0.844417,0.342784,-0.411573,-0.844447,0.342784,-0.411573,-0.565355,0.194555,-0.801569,-0.565325,0.194555,-0.801569,-0.566027,0.193884,-0.801233,-0.566057,0.193884,-0.801233,-0.13599,-0.00265511,-0.990692,-0.13834,-0.00643941,-0.990356,-0.13831,-0.00640889,-0.990356,-0.13596,-0.00262459,-0.990692,0.342112,-0.208625,-0.916166,0.342143,-0.208655,-0.916166,0.341777,-0.208106,-0.91641,0.341777,-0.208106,-0.91644,0.731742,-0.356456,-0.580889,0.731742,-0.356456,-0.58092,0.732475,-0.356151,-0.580157,0.732475,-0.356151,-0.580157,0.910123,-0.404706,-0.0885952,0.911191,-0.402264,-0.0886563,0.911191,-0.402295,-0.0886563,0.910123,-0.404706,-0.0885952,0.844844,-0.341441,0.411847,0.844844,-0.341441,0.411817,0.844203,-0.341197,0.413373,0.844172,-0.341197,0.413373,0.566759,-0.194891,0.80047,0.56679,-0.194861,0.80047,0.563921,-0.197516,0.801813,0.563891,-0.197546,0.801843,0.136204,0.00234993,0.990661,0.138127,0.00671407,0.990387,0.138096,0.00668355,0.990387,0.136174,0.00231941,0.990661,0.488327,0.800134,-0.348216,0.488327,0.800134,-0.348216,0.48851,0.800226,-0.347728,0.48851,0.800226,-0.347728,0.335307,0.863918,-0.375713,0.335002,0.863063,-0.377941,0.335002,0.863094,-0.37788,0.335337,0.863918,-0.375683,0.194372,0.927519,-0.319224,0.194372,0.927519,-0.319224,0.194433,0.927824,-0.318278,0.194433,0.927824,-0.318278,0.102725,0.976043,-0.191778,0.10361,0.975768,-0.192572,0.10358,0.975768,-0.192572,0.102725,0.976043,-0.191778,0.0869472,0.995788,-0.02884,0.0869472,0.995788,-0.02884,0.085757,0.99588,-0.0288705,0.0857265,0.99588,-0.0288705,0.148289,0.980712,0.127079,0.14832,0.980712,0.127079,0.147404,0.980865,0.127049,0.147404,0.980865,0.127049,0.272256,0.933683,0.232521,0.272256,0.933683,0.232521,0.271401,0.933592,0.233863,0.271401,0.933592,0.233863,0.423658,0.866878,0.262642,0.423902,0.867733,0.259499,0.423872,0.867702,0.259529,0.423658,0.866878,0.262673,0.56325,0.800989,0.202857,0.56325,0.800989,0.202857,0.563768,0.80047,0.203314,0.563799,0.80047,0.203314,0.653981,0.752525,0.0772423,0.653737,0.752739,0.0770287,0.653737,0.752739,0.0770592,0.653981,0.752525,0.0772423,0.672781,0.734825,-0.0857265,0.672811,0.734825,-0.0857265,0.672262,0.735282,-0.0858791,0.672231,0.735282,-0.0859096,0.611957,0.752892,-0.242073,0.611957,0.752892,-0.242073,0.612049,0.752708,-0.242439,0.612049,0.752708,-0.242439,0.271676,0.933866,0.232521,0.271676,0.933866,0.232521,0.271828,0.933531,0.233619,0.271828,0.933531,0.23365,0.147313,0.980865,0.127018,0.148015,0.980712,0.127415,0.148015,0.980712,0.127415,0.147282,0.980895,0.127018,0.0863369,0.995819,-0.028779,0.0854213,0.995911,-0.0287484,0.0854518,0.995911,-0.0287484,0.0863369,0.995819,-0.028779,0.10416,0.975921,-0.191504,0.10416,0.975921,-0.191504,0.103183,0.976012,-0.191565,0.103153,0.976012,-0.191565,0.195196,0.927732,-0.318064,0.195196,0.927732,-0.318064,0.194891,0.927702,-0.318308,0.194861,0.927702,-0.318308,0.335154,0.863857,-0.375988,0.335154,0.863857,-0.375988,0.33549,0.863948,-0.375469,0.33549,0.863948,-0.375469,0.488723,0.800073,-0.34785,0.488723,0.800073,-0.347819,0.48851,0.799799,-0.348766,0.48851,0.799768,-0.348796,0.611774,0.753349,-0.241096,0.611774,0.75338,-0.241096,0.612445,0.752525,-0.241951,0.612476,0.752525,-0.241981,0.671865,0.735649,-0.0858791,0.671865,0.735649,-0.0858791,0.671651,0.735862,-0.0858486,0.671651,0.735862,-0.0858486,0.65453,0.752068,0.0771813,0.65453,0.752068,0.0771813,0.653829,0.752678,0.0771203,0.653798,0.752678,0.0771203,0.563585,0.800653,0.203223,0.563585,0.800653,0.203192,0.563524,0.800256,0.204993,0.563524,0.800226,0.204993,0.423597,0.866939,0.262612,0.423811,0.867183,0.261391,0.423811,0.867183,0.261422,0.423597,0.866909,0.262642,0.449843,0.0871914,-0.888821,0.449843,0.0871609,-0.888821,0.45027,0.0879238,-0.888516,0.450301,0.0879543,-0.888516,-0.0061037,0.27897,-0.960265,-0.00619526,0.278664,-0.960356,-0.00619526,0.278695,-0.960356,-0.0061037,0.279,-0.960265,-0.414624,0.465835,-0.781671,-0.414624,0.465835,-0.781701,-0.415265,0.465987,-0.781243,-0.415296,0.465987,-0.781243,-0.681356,0.605792,-0.410749,-0.680898,0.606037,-0.411145,-0.680898,0.606037,-0.411145,-0.681356,0.605792,-0.410749,-0.740837,0.668477,0.0654622,-0.740837,0.668447,0.0654622,-0.740684,0.668661,0.065157,-0.740684,0.668661,0.0651265,-0.567156,0.628712,0.531968,-0.567553,0.628559,0.531724,-0.567553,0.628559,0.531724,-0.567156,0.628712,0.531968,-0.198065,0.485672,0.851375,-0.198065,0.485611,0.851405,-0.197302,0.487899,0.850276,-0.197302,0.48793,0.850276,0.255135,0.288766,0.922758,0.255501,0.289682,0.922361,0.255501,0.289682,0.922361,0.255135,0.288766,0.922758,0.66039,0.0943022,0.744926,0.66039,0.0943022,0.744957,0.661489,0.0940275,0.744011,0.661489,0.0940275,0.744011,0.926084,-0.0467849,0.37434,0.926084,-0.0467849,0.37434,0.926206,-0.0466628,0.374065,0.926206,-0.0466628,0.374065,0.989563,-0.100864,-0.102756,0.989563,-0.100833,-0.102756,0.989441,-0.101901,-0.102969,0.989441,-0.101932,-0.102969,0.819697,-0.052736,-0.570299,0.819727,-0.0527055,-0.570299,0.819391,-0.0547502,-0.570605,0.819361,-0.0547807,-0.570605,-0.197943,0.486496,0.850948,-0.197943,0.486496,0.850948,-0.198035,0.486587,0.850856,-0.198035,0.486587,0.850856,-0.567644,0.627979,0.532334,-0.568041,0.627583,0.532365,-0.568041,0.627583,0.532365,-0.567614,0.627979,0.532334,-0.741081,0.668203,0.065157,-0.740562,0.668752,0.0654622,-0.740562,0.668752,0.0654622,-0.741111,0.668203,0.065157,-0.680807,0.606342,-0.41084,-0.680807,0.606342,-0.41084,-0.680319,0.606464,-0.411451,-0.680319,0.606464,-0.411451,-0.415723,0.465712,-0.781182,-0.415998,0.463912,-0.782098,-0.415998,0.463942,-0.782098,-0.415723,0.465743,-0.781182,-0.00637837,0.278298,-0.960448,-0.00671407,0.277627,-0.960631,-0.00671407,0.277657,-0.960631,-0.00637837,0.278298,-0.960448,0.449599,0.0858486,-0.889065,0.449751,0.0877407,-0.888821,0.449751,0.0877102,-0.888821,0.449599,0.0858181,-0.889065,0.818781,-0.0543229,-0.57149,0.818781,-0.0543229,-0.57149,0.819483,-0.0540788,-0.570513,0.819483,-0.0540788,-0.570482,0.989349,-0.102969,-0.102786,0.989349,-0.102969,-0.102786,0.98938,-0.102603,-0.102786,0.98938,-0.102603,-0.102786,0.926328,-0.0456862,0.373882,0.926298,-0.0472732,0.37373,0.926298,-0.0472427,0.37373,0.926328,-0.0456557,0.373882,0.661,0.0959502,0.744194,0.661,0.0959502,0.744194,0.660543,0.0951262,0.744713,0.660512,0.0950957,0.744713,0.255257,0.288614,0.922758,0.255257,0.288583,0.922788,0.255562,0.290048,0.922239,0.255562,0.290048,0.922239,-0.198126,0.48735,0.850398,-0.197668,0.486526,0.850978,-0.197668,0.486557,0.850978,-0.198126,0.487381,0.850398,0.256172,0.291269,0.92169,0.256203,0.291299,0.921659,0.254891,0.288614,0.92288,0.25486,0.288583,0.92288,0.661245,0.0966216,0.743889,0.661245,0.0966521,0.743889,0.661336,0.0939665,0.744133,0.661336,0.093936,0.744163,0.926206,-0.0469375,0.374004,0.926206,-0.0469375,0.374004,0.926237,-0.0474563,0.373913,0.926237,-0.0474563,0.373882,0.989502,-0.101505,-0.102756,0.989502,-0.101291,-0.102817,0.989502,-0.101291,-0.102817,0.989502,-0.101535,-0.102756,0.819514,-0.0535295,-0.570513,0.81988,-0.0534989,-0.569994,0.81988,-0.0534989,-0.569994,0.819514,-0.0535295,-0.570513,0.450087,0.0881985,-0.888607,0.449843,0.0884121,-0.888699,0.449843,0.0884121,-0.888699,0.450087,0.088168,-0.888607,-0.00643941,0.278359,-0.960448,-0.00643941,0.278359,-0.960448,-0.00613422,0.279122,-0.960204,-0.00613422,0.279153,-0.960204,-0.41496,0.464766,-0.782128,-0.41496,0.464766,-0.782159,-0.416242,0.465285,-0.781152,-0.416272,0.465285,-0.781152,-0.680868,0.605823,-0.411481,-0.680868,0.605823,-0.411512,-0.680654,0.606891,-0.410321,-0.680654,0.606922,-0.410291,-0.740165,0.66924,0.0652181,-0.740165,0.66924,0.0652181,-0.740257,0.669118,0.0651265,-0.740257,0.669118,0.0651265,-0.567553,0.627735,0.532701,-0.567553,0.627735,0.532701,-0.567217,0.628742,0.531877,-0.567217,0.628742,0.531877,0.271676,0.9335,0.233894,0.271676,0.9335,0.233894,0.271706,0.933531,0.233802,0.271706,0.933531,0.233802,0.423658,0.866634,0.263497,0.423872,0.867336,0.26075,0.423872,0.867336,0.260781,0.423658,0.866604,0.263527,0.563738,0.800012,0.205298,0.563585,0.800256,0.204749,0.563585,0.800256,0.204749,0.563738,0.800012,0.205329,0.654103,0.752464,0.0767235,0.654592,0.751976,0.0773644,0.654592,0.751976,0.0773339,0.654103,0.752464,0.0767235,0.67214,0.735405,-0.085696,0.672811,0.734733,-0.0861232,0.672811,0.734764,-0.0860927,0.67214,0.735435,-0.085696,0.612354,0.752525,-0.242286,0.612018,0.752892,-0.24189,0.612018,0.752892,-0.24189,0.612354,0.752495,-0.242286,0.488845,0.800195,-0.347392,0.488845,0.800195,-0.347392,0.48851,0.80047,-0.34724,0.488479,0.80047,-0.34724,0.335063,0.863247,-0.377483,0.335063,0.863216,-0.377544,0.335734,0.864528,-0.373943,0.335734,0.864559,-0.373882,0.194983,0.928037,-0.317301,0.194555,0.927976,-0.317759,0.194555,0.927976,-0.317728,0.195013,0.928037,-0.317301,0.103214,0.97589,-0.192145,0.103214,0.97589,-0.192145,0.103336,0.975951,-0.1919,0.103336,0.975951,-0.1919,0.0869167,0.995788,-0.0289926,0.0869167,0.995788,-0.0290231,0.0863063,0.995849,-0.0288095,0.0862758,0.995849,-0.0288095,0.147923,0.980804,0.126865,0.148564,0.980743,0.126621,0.148534,0.980743,0.126621,0.147923,0.980804,0.126865,0.197699,-0.48735,-0.85049,0.197699,-0.48735,-0.85049,0.197729,-0.487503,-0.850429,0.197729,-0.487503,-0.850398,-0.255287,-0.289041,-0.922605,-0.255013,-0.288644,-0.922819,-0.255043,-0.288675,-0.922819,-0.255318,-0.289071,-0.922605,-0.661,-0.0943327,-0.744377,-0.661,-0.0943327,-0.744407,-0.661184,-0.0945769,-0.744224,-0.661184,-0.0945769,-0.744194,-0.926237,0.0466323,-0.374004,-0.926237,0.0466628,-0.374004,-0.926237,0.046205,-0.374004,-0.926237,0.0461745,-0.374004,-0.989593,0.100589,0.102847,-0.989593,0.100558,0.102847,-0.989502,0.101138,0.102939,-0.989502,0.101199,0.102939,-0.819697,0.052797,0.57033,-0.819788,0.0524308,0.570208,-0.819788,0.0524308,0.570208,-0.819666,0.052797,0.57036,-0.449965,-0.0878628,0.888699,-0.449965,-0.0878628,0.888668,-0.449843,-0.0881069,0.88873,-0.449843,-0.0881069,0.88873,0.00628681,-0.27842,0.960418,0.00631733,-0.27842,0.960418,0.00619526,-0.278817,0.960295,0.00619526,-0.278817,0.960295,0.415693,-0.46556,0.781274,0.415387,-0.465529,0.781457,0.415387,-0.465529,0.781457,0.415723,-0.46556,0.781274,0.680807,-0.60625,0.411023,0.680837,-0.606128,0.411145,0.680837,-0.606128,0.411145,0.680776,-0.60625,0.411023,0.740623,-0.668722,-0.0652791,0.740593,-0.668722,-0.0652791,0.740715,-0.668599,-0.0652181,0.740745,-0.668599,-0.0652181,0.567217,-0.628376,-0.532334,0.567186,-0.628376,-0.532334,0.567431,-0.628407,-0.53206,0.567461,-0.628407,-0.532029,-0.271859,-0.933653,-0.2331,-0.271859,-0.933653,-0.2331,-0.271828,-0.933561,-0.233467,-0.271828,-0.933561,-0.233467,-0.42378,-0.867214,-0.26133,-0.42378,-0.867214,-0.26133,-0.423719,-0.867153,-0.261635,-0.423719,-0.867153,-0.261635,-0.563433,-0.800409,-0.204474,-0.563433,-0.800409,-0.204505,-0.563463,-0.800501,-0.204077,-0.563463,-0.800501,-0.204047,-0.654134,-0.752373,-0.0772729,-0.654134,-0.752373,-0.0772729,-0.654347,-0.75219,-0.0773644,-0.654378,-0.75219,-0.0773949,-0.672658,-0.734947,0.085757,-0.672689,-0.734916,0.085757,-0.672262,-0.735282,0.0858486,-0.672231,-0.735313,0.0858486,-0.611988,-0.752892,0.241981,-0.612232,-0.75277,0.241829,-0.612201,-0.75277,0.241859,-0.611988,-0.752922,0.241981,-0.488418,-0.800073,0.348277,-0.488418,-0.800043,0.348277,-0.48851,-0.800104,0.348064,-0.48851,-0.800104,0.348064,-0.335307,-0.863826,0.375927,-0.335215,-0.863704,0.376293,-0.335215,-0.863704,0.376263,-0.335307,-0.863857,0.375896,-0.194433,-0.927641,0.318796,-0.194433,-0.927641,0.318766,-0.194433,-0.927549,0.319071,-0.194433,-0.927549,0.319102,-0.10358,-0.975921,0.19187,-0.10361,-0.975921,0.19187,-0.103458,-0.975921,0.191931,-0.103458,-0.975921,0.191931,-0.0864895,-0.995819,0.02884,-0.0864895,-0.995819,0.02884,-0.0865505,-0.995819,0.0288705,-0.0865505,-0.995819,0.0288705,-0.148259,-0.980773,-0.126774,-0.148137,-0.980773,-0.126957,-0.148137,-0.980773,-0.126957,-0.148259,-0.980773,-0.126774],
                "type":"Float32Array",
                "itemSize":3
            },
            "position":{
                "array":[0.247408,0.875362,-0.0717586,0.246674,0.873689,-0.0716477,0.243453,0.875002,-0.0731489,0.244187,0.876675,-0.0732598,0.240702,0.878235,-0.0727845,0.244187,0.876675,-0.0732598,0.243453,0.875002,-0.0731489,0.239968,0.876562,-0.0726736,0.237152,0.877951,-0.0703491,0.237886,0.879624,-0.07046,0.240702,0.878235,-0.0727845,0.239968,0.876562,-0.0726736,0.237152,0.877951,-0.0703491,0.235761,0.878796,-0.0667983,0.236495,0.880469,-0.0669092,0.237886,0.879624,-0.07046,0.236166,0.878872,-0.0629727,0.2369,0.880545,-0.0630834,0.236495,0.880469,-0.0669092,0.235761,0.878796,-0.0667983,0.23826,0.878157,-0.0598972,0.238994,0.87983,-0.0600081,0.2369,0.880545,-0.0630834,0.236166,0.878872,-0.0629727,0.238994,0.87983,-0.0600081,0.23826,0.878157,-0.0598972,0.241481,0.876844,-0.0583961,0.242215,0.878517,-0.0585068,0.242215,0.878517,-0.0585068,0.241481,0.876844,-0.0583961,0.244967,0.875284,-0.0588713,0.2457,0.876958,-0.0589823,0.248516,0.875569,-0.0613066,0.2457,0.876958,-0.0589823,0.244967,0.875284,-0.0588713,0.247782,0.873896,-0.0611957,0.248516,0.875569,-0.0613066,0.247782,0.873896,-0.0611957,0.249174,0.87305,-0.0647466,0.249907,0.874723,-0.0648574,0.249907,0.874723,-0.0648574,0.249174,0.87305,-0.0647466,0.248768,0.872975,-0.0685722,0.249502,0.874648,-0.0686831,0.247408,0.875362,-0.0717586,0.249502,0.874648,-0.0686831,0.248768,0.872975,-0.0685722,0.246674,0.873689,-0.0716477,0.246317,0.873466,-0.0713318,0.245581,0.873857,-0.0703036,0.243085,0.874875,-0.0714671,0.243257,0.874714,-0.0727579,0.248306,0.872788,-0.0684101,0.247204,0.873303,-0.0679201,0.248692,0.872859,-0.0647757,0.247518,0.873362,-0.0649552,0.24737,0.873663,-0.0614024,0.24644,0.874017,-0.0622034,0.244258,0.875094,-0.0604018,0.244695,0.874982,-0.0591941,0.241384,0.876464,-0.0587426,0.241557,0.876302,-0.0600335,0.238324,0.877711,-0.0601688,0.23906,0.87732,-0.061197,0.237437,0.877874,-0.0635805,0.236335,0.87839,-0.0630905,0.237123,0.877815,-0.0665454,0.23595,0.878318,-0.0667248,0.237271,0.877515,-0.0700981,0.238202,0.87716,-0.0692972,0.239946,0.876195,-0.0723064,0.240384,0.876084,-0.0710986,0.247297,0.87573,-0.0714667,0.247455,0.875647,-0.0716871,0.244282,0.87694,-0.0731659,0.244245,0.876975,-0.0728892,0.240849,0.878476,-0.0726975,0.240943,0.878452,-0.0724387,0.238076,0.879844,-0.0704079,0.238275,0.879768,-0.0702363,0.236705,0.880677,-0.0669105,0.236957,0.880569,-0.066872,0.237341,0.880641,-0.0632472,0.237105,0.880752,-0.0631422,0.239167,0.880048,-0.0601128,0.239325,0.879964,-0.0603332,0.24234,0.878755,-0.0586342,0.242377,0.87872,-0.0589107,0.245773,0.877218,-0.0591024,0.245679,0.877242,-0.0593611,0.248546,0.87585,-0.0613919,0.248347,0.875926,-0.0615635,0.249917,0.875018,-0.0648894,0.249665,0.875125,-0.064928,0.249517,0.874943,-0.0686577,0.249281,0.875054,-0.0685528,0.246009,0.874008,-0.065186,0.244165,0.874799,-0.0654681,0.244053,0.874778,-0.0665201,0.245786,0.873967,-0.0672901,0.245244,0.874474,-0.0632332,0.243782,0.875031,-0.0644916,0.243695,0.875237,-0.0619546,0.243008,0.875413,-0.0638524,0.241778,0.876095,-0.0616932,0.242049,0.875842,-0.0637217,0.240476,0.876379,-0.0660324,0.240588,0.876399,-0.0649803,0.238855,0.87721,-0.0642105,0.238632,0.877169,-0.0663145,0.239397,0.876704,-0.0682674,0.240859,0.876146,-0.0670088,0.241633,0.875764,-0.0676482,0.240946,0.87594,-0.0695459,0.242863,0.875082,-0.0698074,0.242592,0.875335,-0.0677789,0.241826,0.877948,-0.0696789,0.242514,0.877772,-0.0677811,0.243472,0.877343,-0.0679119,0.243743,0.87709,-0.0699404,0.240278,0.878711,-0.0684005,0.241739,0.878154,-0.0671419,0.239513,0.879176,-0.0664475,0.241357,0.878386,-0.0661654,0.239736,0.879218,-0.0643434,0.241468,0.878407,-0.0651134,0.243888,0.877421,-0.0639856,0.24293,0.87785,-0.0638548,0.242659,0.878103,-0.0618263,0.244576,0.877245,-0.0620877,0.244663,0.877039,-0.0646247,0.246124,0.876481,-0.0633661,0.245045,0.876806,-0.0656011,0.24689,0.876016,-0.0653191,0.246667,0.875975,-0.0674232,0.244934,0.876785,-0.0666532,0.241264,0.878091,-0.0712317,0.243965,0.876882,-0.0716001,0.239082,0.879168,-0.0694303,0.238004,0.879823,-0.0666784,0.238318,0.879881,-0.0637135,0.242437,0.87831,-0.0601666,0.245138,0.877101,-0.0605349,0.24732,0.876025,-0.0623365,0.248398,0.87537,-0.0650882,0.248084,0.875311,-0.0680531,0.243478,0.874974,-0.067366,0.242321,0.875589,-0.0657503,0.241164,0.876203,-0.0641346,0.243201,0.877596,-0.0658833,0.244358,0.876982,-0.0674989,0.242044,0.878211,-0.0642675,0.245286,0.87422,-0.0698007,0.24602,0.875893,-0.0699114,0.245046,0.876303,-0.0701752,0.244312,0.87463,-0.0700643,0.244225,0.876697,-0.0696506,0.243491,0.875024,-0.0695396,0.243257,0.875197,-0.0684875,0.243491,0.875024,-0.0695396,0.244225,0.876697,-0.0696506,0.243991,0.87687,-0.0685984,0.244442,0.876731,-0.0677083,0.243709,0.875058,-0.0675974,0.243257,0.875197,-0.0684875,0.243991,0.87687,-0.0685984,0.245338,0.876356,-0.0674386,0.244604,0.874683,-0.0673279,0.244604,0.874683,-0.0673279,0.245338,0.876356,-0.0674386,0.246214,0.875939,-0.0679376,0.245481,0.874265,-0.0678267,0.246485,0.875754,-0.0689363,0.245751,0.874081,-0.0688256,0.24602,0.875893,-0.0699114,0.245286,0.87422,-0.0698007,0.241079,0.876454,-0.0639254,0.241813,0.878127,-0.0640362,0.240918,0.878502,-0.0643058,0.240184,0.876829,-0.0641949,0.240041,0.878919,-0.063807,0.239307,0.877246,-0.063696,0.240184,0.876829,-0.0641949,0.240918,0.878502,-0.0643058,0.239037,0.877431,-0.0626973,0.239307,0.877246,-0.063696,0.240041,0.878919,-0.063807,0.239771,0.879104,-0.0628081,0.240235,0.878965,-0.061833,0.239502,0.877292,-0.0617221,0.240476,0.876882,-0.0614583,0.239502,0.877292,-0.0617221,0.240235,0.878965,-0.061833,0.241209,0.878555,-0.0615693,0.24203,0.878161,-0.062094,0.241296,0.876488,-0.0619831,0.242264,0.877988,-0.0631462,0.24153,0.876315,-0.0630353,0.24153,0.876315,-0.0630353,0.242264,0.877988,-0.0631462,0.245096,0.876468,-0.0703705,0.246199,0.876004,-0.0700694,0.246461,0.875865,-0.0704366,0.244411,0.876954,-0.0675725,0.245408,0.876537,-0.0672636,0.242502,0.878081,-0.0632052,0.242237,0.878277,-0.0619911,0.239675,0.879347,-0.0628007,0.239982,0.879137,-0.0639328,0.240114,0.876648,-0.06437,0.239101,0.877129,-0.0637998,0.240426,0.876717,-0.0612631,0.241356,0.876269,-0.0618581,0.245846,0.873838,-0.0688328,0.245318,0.873997,-0.0699364,0.24302,0.875104,-0.0684284,0.24353,0.874946,-0.0674395,0.244215,0.87446,-0.0702374,0.243285,0.874908,-0.0696426,0.244527,0.874529,-0.0671306,0.24554,0.874048,-0.0677008,0.241621,0.876073,-0.063072,0.2439,0.877112,-0.0685615,0.244165,0.876916,-0.0697757,0.240994,0.878655,-0.0645029,0.24642,0.876055,-0.0678339,0.238795,0.877339,-0.0626677,0.241306,0.878724,-0.0613963,0.241991,0.878239,-0.0641942,0.239941,0.879328,-0.06133,0.240204,0.879188,-0.0616972,0.246727,0.875846,-0.0689659,0.239323,0.87718,-0.0615641,0.241111,0.876231,-0.0640611,0.245257,0.874081,-0.069829,0.245286,0.87422,-0.0698007,0.244312,0.87463,-0.0700643,0.244251,0.874504,-0.070102,0.245046,0.876303,-0.0701752,0.24602,0.875893,-0.0699114,0.246101,0.876005,-0.0699565,0.245095,0.876428,-0.0702295,0.244251,0.874504,-0.070102,0.244312,0.87463,-0.0700643,0.243491,0.875024,-0.0695396,0.243403,0.874911,-0.0695598,0.244225,0.876697,-0.0696506,0.245046,0.876303,-0.0701752,0.245095,0.876428,-0.0702295,0.244247,0.876836,-0.0696873,0.243491,0.875024,-0.0695396,0.243257,0.875197,-0.0684875,0.243162,0.87509,-0.0684671,0.243403,0.874911,-0.0695598,0.244005,0.877014,-0.0685946,0.243991,0.87687,-0.0685984,0.244225,0.876697,-0.0696506,0.244247,0.876836,-0.0696873,0.243162,0.87509,-0.0684671,0.243257,0.875197,-0.0684875,0.243709,0.875058,-0.0675974,0.243627,0.874946,-0.0675523,0.244471,0.87687,-0.0676798,0.244442,0.876731,-0.0677083,0.243991,0.87687,-0.0685984,0.244005,0.877014,-0.0685946,0.243627,0.874946,-0.0675523,0.243709,0.875058,-0.0675974,0.244604,0.874683,-0.0673279,0.244548,0.874561,-0.067273,0.245392,0.876485,-0.0674006,0.245338,0.876356,-0.0674386,0.244442,0.876731,-0.0677083,0.244471,0.87687,-0.0676798,0.244604,0.874683,-0.0673279,0.245481,0.874265,-0.0678267,0.245459,0.874127,-0.0677897,0.244548,0.874561,-0.067273,0.246303,0.876051,-0.0679172,0.246214,0.875939,-0.0679376,0.245338,0.876356,-0.0674386,0.245392,0.876485,-0.0674006,0.245459,0.874127,-0.0677897,0.245481,0.874265,-0.0678267,0.245751,0.874081,-0.0688256,0.245738,0.873937,-0.0688218,0.246582,0.875861,-0.0689492,0.246485,0.875754,-0.0689363,0.246214,0.875939,-0.0679376,0.246303,0.876051,-0.0679172,0.245738,0.873937,-0.0688218,0.245751,0.874081,-0.0688256,0.245286,0.87422,-0.0698007,0.245257,0.874081,-0.069829,0.246101,0.876005,-0.0699565,0.24602,0.875893,-0.0699114,0.246485,0.875754,-0.0689363,0.246582,0.875861,-0.0689492,0.241051,0.876315,-0.0639538,0.241079,0.876454,-0.0639254,0.240184,0.876829,-0.0641949,0.24013,0.8767,-0.0642331,0.240973,0.878624,-0.0643606,0.240918,0.878502,-0.0643058,0.241813,0.878127,-0.0640362,0.241894,0.878239,-0.0640813,0.240184,0.876829,-0.0641949,0.239307,0.877246,-0.063696,0.239219,0.877134,-0.0637164,0.24013,0.8767,-0.0642331,0.240063,0.879058,-0.0638439,0.240041,0.878919,-0.063807,0.240918,0.878502,-0.0643058,0.240973,0.878624,-0.0643606,0.239219,0.877134,-0.0637164,0.239307,0.877246,-0.063696,0.239037,0.877431,-0.0626973,0.23894,0.877324,-0.0626843,0.239771,0.879104,-0.0628081,0.240041,0.878919,-0.063807,0.240063,0.879058,-0.0638439,0.239783,0.879248,-0.0628118,0.23894,0.877324,-0.0626843,0.239037,0.877431,-0.0626973,0.239502,0.877292,-0.0617221,0.23942,0.87718,-0.0616771,0.240264,0.879104,-0.0618046,0.240235,0.878965,-0.061833,0.239771,0.879104,-0.0628081,0.239783,0.879248,-0.0628118,0.239502,0.877292,-0.0617221,0.240476,0.876882,-0.0614583,0.240427,0.876757,-0.0614041,0.23942,0.87718,-0.0616771,0.24127,0.878681,-0.0615316,0.241209,0.878555,-0.0615693,0.240235,0.878965,-0.061833,0.240264,0.879104,-0.0618046,0.240427,0.876757,-0.0614041,0.240476,0.876882,-0.0614583,0.241296,0.876488,-0.0619831,0.241275,0.876349,-0.0619462,0.24203,0.878161,-0.062094,0.241209,0.878555,-0.0615693,0.24127,0.878681,-0.0615316,0.242118,0.878273,-0.0620738,0.241296,0.876488,-0.0619831,0.24153,0.876315,-0.0630353,0.241516,0.876171,-0.0630389,0.241275,0.876349,-0.0619462,0.242264,0.877988,-0.0631462,0.24203,0.878161,-0.062094,0.242118,0.878273,-0.0620738,0.24236,0.878095,-0.0631664,0.24153,0.876315,-0.0630353,0.241079,0.876454,-0.0639254,0.241051,0.876315,-0.0639538,0.241516,0.876171,-0.0630389,0.241894,0.878239,-0.0640813,0.241813,0.878127,-0.0640362,0.242264,0.877988,-0.0631462,0.24236,0.878095,-0.0631664,0.245318,0.873997,-0.0699364,0.245257,0.874081,-0.069829,0.244251,0.874504,-0.070102,0.244215,0.87446,-0.0702374,0.245096,0.876468,-0.0703705,0.245095,0.876428,-0.0702295,0.246101,0.876005,-0.0699565,0.246199,0.876004,-0.0700694,0.243403,0.874911,-0.0695598,0.243285,0.874908,-0.0696426,0.244215,0.87446,-0.0702374,0.244251,0.874504,-0.070102,0.245096,0.876468,-0.0703705,0.244165,0.876916,-0.0697757,0.244247,0.876836,-0.0696873,0.245095,0.876428,-0.0702295,0.243403,0.874911,-0.0695598,0.243162,0.87509,-0.0684671,0.24302,0.875104,-0.0684284,0.243285,0.874908,-0.0696426,0.2439,0.877112,-0.0685615,0.244005,0.877014,-0.0685946,0.244247,0.876836,-0.0696873,0.244165,0.876916,-0.0697757,0.243627,0.874946,-0.0675523,0.24353,0.874946,-0.0674395,0.24302,0.875104,-0.0684284,0.243162,0.87509,-0.0684671,0.244005,0.877014,-0.0685946,0.2439,0.877112,-0.0685615,0.244411,0.876954,-0.0675725,0.244471,0.87687,-0.0676798,0.243627,0.874946,-0.0675523,0.244548,0.874561,-0.067273,0.244527,0.874529,-0.0671306,0.24353,0.874946,-0.0674395,0.245408,0.876537,-0.0672636,0.245392,0.876485,-0.0674006,0.244471,0.87687,-0.0676798,0.244411,0.876954,-0.0675725,0.244548,0.874561,-0.067273,0.245459,0.874127,-0.0677897,0.24554,0.874048,-0.0677008,0.244527,0.874529,-0.0671306,0.245408,0.876537,-0.0672636,0.24642,0.876055,-0.0678339,0.246303,0.876051,-0.0679172,0.245392,0.876485,-0.0674006,0.245459,0.874127,-0.0677897,0.245738,0.873937,-0.0688218,0.245846,0.873838,-0.0688328,0.24554,0.874048,-0.0677008,0.246727,0.875846,-0.0689659,0.246582,0.875861,-0.0689492,0.246303,0.876051,-0.0679172,0.24642,0.876055,-0.0678339,0.245738,0.873937,-0.0688218,0.245257,0.874081,-0.069829,0.245318,0.873997,-0.0699364,0.245846,0.873838,-0.0688328,0.246582,0.875861,-0.0689492,0.246727,0.875846,-0.0689659,0.246199,0.876004,-0.0700694,0.246101,0.876005,-0.0699565,0.24013,0.8767,-0.0642331,0.240114,0.876648,-0.06437,0.241111,0.876231,-0.0640611,0.241051,0.876315,-0.0639538,0.241894,0.878239,-0.0640813,0.241991,0.878239,-0.0641942,0.240994,0.878655,-0.0645029,0.240973,0.878624,-0.0643606,0.240114,0.876648,-0.06437,0.24013,0.8767,-0.0642331,0.239219,0.877134,-0.0637164,0.239101,0.877129,-0.0637998,0.240063,0.879058,-0.0638439,0.240973,0.878624,-0.0643606,0.240994,0.878655,-0.0645029,0.239982,0.879137,-0.0639328,0.238795,0.877339,-0.0626677,0.239101,0.877129,-0.0637998,0.239219,0.877134,-0.0637164,0.23894,0.877324,-0.0626843,0.239783,0.879248,-0.0628118,0.240063,0.879058,-0.0638439,0.239982,0.879137,-0.0639328,0.239675,0.879347,-0.0628007,0.23894,0.877324,-0.0626843,0.23942,0.87718,-0.0616771,0.239323,0.87718,-0.0615641,0.238795,0.877339,-0.0626677,0.239675,0.879347,-0.0628007,0.240204,0.879188,-0.0616972,0.240264,0.879104,-0.0618046,0.239783,0.879248,-0.0628118,0.240427,0.876757,-0.0614041,0.240426,0.876717,-0.0612631,0.239323,0.87718,-0.0615641,0.23942,0.87718,-0.0616771,0.24127,0.878681,-0.0615316,0.240264,0.879104,-0.0618046,0.240204,0.879188,-0.0616972,0.241306,0.878724,-0.0613963,0.241275,0.876349,-0.0619462,0.241356,0.876269,-0.0618581,0.240426,0.876717,-0.0612631,0.240427,0.876757,-0.0614041,0.242237,0.878277,-0.0619911,0.242118,0.878273,-0.0620738,0.24127,0.878681,-0.0615316,0.241306,0.878724,-0.0613963,0.241356,0.876269,-0.0618581,0.241275,0.876349,-0.0619462,0.241516,0.876171,-0.0630389,0.241621,0.876073,-0.063072,0.242237,0.878277,-0.0619911,0.242502,0.878081,-0.0632052,0.24236,0.878095,-0.0631664,0.242118,0.878273,-0.0620738,0.241621,0.876073,-0.063072,0.241516,0.876171,-0.0630389,0.241051,0.876315,-0.0639538,0.241111,0.876231,-0.0640611,0.24236,0.878095,-0.0631664,0.242502,0.878081,-0.0632052,0.241991,0.878239,-0.0641942,0.241894,0.878239,-0.0640813,0.244106,0.876751,-0.0726513,0.247061,0.875547,-0.0712738,0.240908,0.878182,-0.0722152,0.238325,0.879456,-0.0700825,0.237048,0.880232,-0.0668246,0.23742,0.880302,-0.0633145,0.239341,0.879646,-0.0604928,0.242297,0.878441,-0.0591154,0.245494,0.87701,-0.0595516,0.248077,0.875736,-0.0616843,0.249354,0.874961,-0.064942,0.248982,0.874891,-0.0684522,0.244253,0.876826,-0.0732698,0.247474,0.875513,-0.0717686,0.247408,0.875362,-0.0717586,0.244187,0.876675,-0.0732598,0.244187,0.876675,-0.0732598,0.240702,0.878235,-0.0727845,0.240768,0.878386,-0.0727945,0.244253,0.876826,-0.0732698,0.237952,0.879774,-0.07047,0.240768,0.878386,-0.0727945,0.240702,0.878235,-0.0727845,0.237886,0.879624,-0.07046,0.236561,0.88062,-0.0669191,0.237952,0.879774,-0.07047,0.237886,0.879624,-0.07046,0.236495,0.880469,-0.0669092,0.236561,0.88062,-0.0669191,0.236495,0.880469,-0.0669092,0.2369,0.880545,-0.0630834,0.236966,0.880695,-0.0630935,0.23906,0.879981,-0.0600181,0.236966,0.880695,-0.0630935,0.2369,0.880545,-0.0630834,0.238994,0.87983,-0.0600081,0.242215,0.878517,-0.0585068,0.242281,0.878668,-0.0585168,0.23906,0.879981,-0.0600181,0.238994,0.87983,-0.0600081,0.242281,0.878668,-0.0585168,0.242215,0.878517,-0.0585068,0.2457,0.876958,-0.0589823,0.245766,0.877108,-0.0589922,0.248582,0.875719,-0.0613166,0.245766,0.877108,-0.0589922,0.2457,0.876958,-0.0589823,0.248516,0.875569,-0.0613066,0.248516,0.875569,-0.0613066,0.249907,0.874723,-0.0648574,0.249973,0.874874,-0.0648673,0.248582,0.875719,-0.0613166,0.249502,0.874648,-0.0686831,0.249568,0.874798,-0.0686931,0.249973,0.874874,-0.0648673,0.249907,0.874723,-0.0648574,0.249568,0.874798,-0.0686931,0.249502,0.874648,-0.0686831,0.247408,0.875362,-0.0717586,0.247474,0.875513,-0.0717686,0.24719,0.875664,-0.071372,0.244186,0.876888,-0.0727719,0.244164,0.876838,-0.0727685,0.247168,0.875613,-0.0713686,0.249121,0.874947,-0.0685008,0.249143,0.874997,-0.0685041,0.24719,0.875664,-0.071372,0.247168,0.875613,-0.0713686,0.249143,0.874997,-0.0685041,0.249121,0.874947,-0.0685008,0.249499,0.875018,-0.0649333,0.249521,0.875068,-0.0649367,0.249521,0.875068,-0.0649367,0.249499,0.875018,-0.0649333,0.248201,0.875806,-0.0616221,0.248223,0.875856,-0.0616254,0.248223,0.875856,-0.0616254,0.248201,0.875806,-0.0616221,0.245576,0.877101,-0.0594546,0.245598,0.877151,-0.059458,0.242348,0.878606,-0.0590147,0.245598,0.877151,-0.059458,0.245576,0.877101,-0.0594546,0.242326,0.878556,-0.0590115,0.242348,0.878606,-0.0590147,0.242326,0.878556,-0.0590115,0.239322,0.87978,-0.0604112,0.239344,0.87983,-0.0604145,0.239344,0.87983,-0.0604145,0.239322,0.87978,-0.0604112,0.23737,0.880446,-0.0632792,0.237391,0.880496,-0.0632824,0.237013,0.880426,-0.06685,0.237391,0.880496,-0.0632824,0.23737,0.880446,-0.0632792,0.236991,0.880376,-0.0668465,0.237013,0.880426,-0.06685,0.236991,0.880376,-0.0668465,0.238289,0.879587,-0.0701577,0.238311,0.879637,-0.0701611,0.238311,0.879637,-0.0701611,0.238289,0.879587,-0.0701577,0.240914,0.878292,-0.0723254,0.240936,0.878343,-0.0723286,0.240914,0.878292,-0.0723254,0.244164,0.876838,-0.0727685,0.244186,0.876888,-0.0727719,0.240936,0.878343,-0.0723286,0.244282,0.876905,-0.0732471,0.244282,0.87694,-0.0731659,0.247455,0.875647,-0.0716871,0.247491,0.875596,-0.0717516,0.240849,0.878476,-0.0726975,0.244282,0.87694,-0.0731659,0.244282,0.876905,-0.0732471,0.24081,0.878458,-0.0727736,0.238005,0.879842,-0.0704577,0.238076,0.879844,-0.0704079,0.240849,0.878476,-0.0726975,0.24081,0.878458,-0.0727736,0.236705,0.880677,-0.0669105,0.238076,0.879844,-0.0704079,0.238005,0.879842,-0.0704577,0.236619,0.880684,-0.0669204,0.237023,0.88076,-0.0631091,0.237105,0.880752,-0.0631422,0.236705,0.880677,-0.0669105,0.236619,0.880684,-0.0669204,0.237105,0.880752,-0.0631422,0.237023,0.88076,-0.0631091,0.239109,0.880048,-0.060045,0.239167,0.880048,-0.0601128,0.242318,0.87874,-0.0585495,0.24234,0.878755,-0.0586342,0.239167,0.880048,-0.0601128,0.239109,0.880048,-0.060045,0.245773,0.877218,-0.0591024,0.24234,0.878755,-0.0586342,0.242318,0.87874,-0.0585495,0.24579,0.877186,-0.059023,0.248595,0.875802,-0.0613387,0.248546,0.87585,-0.0613919,0.245773,0.877218,-0.0591024,0.24579,0.877186,-0.059023,0.249917,0.875018,-0.0648894,0.248546,0.87585,-0.0613919,0.248595,0.875802,-0.0613387,0.249981,0.87496,-0.0648762,0.249577,0.874885,-0.0686876,0.249517,0.874943,-0.0686577,0.249917,0.875018,-0.0648894,0.249981,0.87496,-0.0648762,0.247491,0.875596,-0.0717516,0.247455,0.875647,-0.0716871,0.249517,0.874943,-0.0686577,0.249577,0.874885,-0.0686876,0.247239,0.875731,-0.071399,0.247297,0.87573,-0.0714667,0.244245,0.876975,-0.0728892,0.244223,0.87696,-0.0728045,0.249281,0.875054,-0.0685528,0.247297,0.87573,-0.0714667,0.247239,0.875731,-0.071399,0.249199,0.875062,-0.0685196,0.249665,0.875125,-0.064928,0.249281,0.875054,-0.0685528,0.249199,0.875062,-0.0685196,0.249579,0.875133,-0.0649378,0.248276,0.875924,-0.0616133,0.248347,0.875926,-0.0615635,0.249665,0.875125,-0.064928,0.249579,0.875133,-0.0649378,0.24564,0.877224,-0.0594372,0.245679,0.877242,-0.0593611,0.248347,0.875926,-0.0615635,0.248276,0.875924,-0.0616133,0.242377,0.878685,-0.0589921,0.242377,0.87872,-0.0589107,0.245679,0.877242,-0.0593611,0.24564,0.877224,-0.0594372,0.239361,0.879914,-0.0603977,0.239325,0.879964,-0.0603332,0.242377,0.87872,-0.0589107,0.242377,0.878685,-0.0589921,0.237401,0.880583,-0.0632769,0.237341,0.880641,-0.0632472,0.239325,0.879964,-0.0603332,0.239361,0.879914,-0.0603977,0.237341,0.880641,-0.0632472,0.237401,0.880583,-0.0632769,0.237021,0.880512,-0.0668587,0.236957,0.880569,-0.066872,0.238324,0.87972,-0.0701832,0.238275,0.879768,-0.0702363,0.236957,0.880569,-0.066872,0.237021,0.880512,-0.0668587,0.238275,0.879768,-0.0702363,0.238324,0.87972,-0.0701832,0.24096,0.87842,-0.0723595,0.240943,0.878452,-0.0724387,0.244245,0.876975,-0.0728892,0.240943,0.878452,-0.0724387,0.24096,0.87842,-0.0723595,0.244223,0.87696,-0.0728045,0.247491,0.875596,-0.0717516,0.247474,0.875513,-0.0717686,0.244253,0.876826,-0.0732698,0.244282,0.876905,-0.0732471,0.24081,0.878458,-0.0727736,0.244282,0.876905,-0.0732471,0.244253,0.876826,-0.0732698,0.240768,0.878386,-0.0727945,0.24081,0.878458,-0.0727736,0.240768,0.878386,-0.0727945,0.237952,0.879774,-0.07047,0.238005,0.879842,-0.0704577,0.236619,0.880684,-0.0669204,0.238005,0.879842,-0.0704577,0.237952,0.879774,-0.07047,0.236561,0.88062,-0.0669191,0.236966,0.880695,-0.0630935,0.237023,0.88076,-0.0631091,0.236619,0.880684,-0.0669204,0.236561,0.88062,-0.0669191,0.236966,0.880695,-0.0630935,0.23906,0.879981,-0.0600181,0.239109,0.880048,-0.060045,0.237023,0.88076,-0.0631091,0.239109,0.880048,-0.060045,0.23906,0.879981,-0.0600181,0.242281,0.878668,-0.0585168,0.242318,0.87874,-0.0585495,0.24579,0.877186,-0.059023,0.242318,0.87874,-0.0585495,0.242281,0.878668,-0.0585168,0.245766,0.877108,-0.0589922,0.24579,0.877186,-0.059023,0.245766,0.877108,-0.0589922,0.248582,0.875719,-0.0613166,0.248595,0.875802,-0.0613387,0.248595,0.875802,-0.0613387,0.248582,0.875719,-0.0613166,0.249973,0.874874,-0.0648673,0.249981,0.87496,-0.0648762,0.249568,0.874798,-0.0686931,0.249577,0.874885,-0.0686876,0.249981,0.87496,-0.0648762,0.249973,0.874874,-0.0648673,0.249577,0.874885,-0.0686876,0.249568,0.874798,-0.0686931,0.247474,0.875513,-0.0717686,0.247491,0.875596,-0.0717516,0.24719,0.875664,-0.071372,0.247239,0.875731,-0.071399,0.244223,0.87696,-0.0728045,0.244186,0.876888,-0.0727719,0.249199,0.875062,-0.0685196,0.247239,0.875731,-0.071399,0.24719,0.875664,-0.071372,0.249143,0.874997,-0.0685041,0.249143,0.874997,-0.0685041,0.249521,0.875068,-0.0649367,0.249579,0.875133,-0.0649378,0.249199,0.875062,-0.0685196,0.248223,0.875856,-0.0616254,0.248276,0.875924,-0.0616133,0.249579,0.875133,-0.0649378,0.249521,0.875068,-0.0649367,0.248223,0.875856,-0.0616254,0.245598,0.877151,-0.059458,0.24564,0.877224,-0.0594372,0.248276,0.875924,-0.0616133,0.242377,0.878685,-0.0589921,0.24564,0.877224,-0.0594372,0.245598,0.877151,-0.059458,0.242348,0.878606,-0.0590147,0.239361,0.879914,-0.0603977,0.242377,0.878685,-0.0589921,0.242348,0.878606,-0.0590147,0.239344,0.87983,-0.0604145,0.239361,0.879914,-0.0603977,0.239344,0.87983,-0.0604145,0.237391,0.880496,-0.0632824,0.237401,0.880583,-0.0632769,0.237401,0.880583,-0.0632769,0.237391,0.880496,-0.0632824,0.237013,0.880426,-0.06685,0.237021,0.880512,-0.0668587,0.238324,0.87972,-0.0701832,0.237021,0.880512,-0.0668587,0.237013,0.880426,-0.06685,0.238311,0.879637,-0.0701611,0.240936,0.878343,-0.0723286,0.24096,0.87842,-0.0723595,0.238324,0.87972,-0.0701832,0.238311,0.879637,-0.0701611,0.244186,0.876888,-0.0727719,0.244223,0.87696,-0.0728045,0.24096,0.87842,-0.0723595,0.240936,0.878343,-0.0723286,0.247168,0.875613,-0.0713686,0.244164,0.876838,-0.0727685,0.244128,0.876766,-0.0727359,0.247119,0.875547,-0.0713417,0.240914,0.878292,-0.0723254,0.240891,0.878215,-0.0722943,0.244128,0.876766,-0.0727359,0.244164,0.876838,-0.0727685,0.240891,0.878215,-0.0722943,0.240914,0.878292,-0.0723254,0.238289,0.879587,-0.0701577,0.238276,0.879504,-0.0701357,0.238276,0.879504,-0.0701357,0.238289,0.879587,-0.0701577,0.236991,0.880376,-0.0668465,0.236983,0.88029,-0.0668378,0.236991,0.880376,-0.0668465,0.23737,0.880446,-0.0632792,0.23736,0.88036,-0.0632847,0.236983,0.88029,-0.0668378,0.239305,0.879696,-0.0604283,0.23736,0.88036,-0.0632847,0.23737,0.880446,-0.0632792,0.239322,0.87978,-0.0604112,0.242296,0.878477,-0.0590342,0.239305,0.879696,-0.0604283,0.239322,0.87978,-0.0604112,0.242326,0.878556,-0.0590115,0.245576,0.877101,-0.0594546,0.245533,0.877028,-0.0594754,0.242296,0.878477,-0.0590342,0.242326,0.878556,-0.0590115,0.248201,0.875806,-0.0616221,0.248148,0.875739,-0.0616343,0.245533,0.877028,-0.0594754,0.245576,0.877101,-0.0594546,0.248148,0.875739,-0.0616343,0.248201,0.875806,-0.0616221,0.249499,0.875018,-0.0649333,0.249441,0.874953,-0.0649322,0.249121,0.874947,-0.0685008,0.249064,0.874883,-0.0684853,0.249441,0.874953,-0.0649322,0.249499,0.875018,-0.0649333,0.247168,0.875613,-0.0713686,0.247119,0.875547,-0.0713417,0.249064,0.874883,-0.0684853,0.249121,0.874947,-0.0685008,0.247061,0.875547,-0.0712738,0.247119,0.875547,-0.0713417,0.244128,0.876766,-0.0727359,0.244106,0.876751,-0.0726513,0.240908,0.878182,-0.0722152,0.244106,0.876751,-0.0726513,0.244128,0.876766,-0.0727359,0.240891,0.878215,-0.0722943,0.240891,0.878215,-0.0722943,0.238276,0.879504,-0.0701357,0.238325,0.879456,-0.0700825,0.240908,0.878182,-0.0722152,0.237048,0.880232,-0.0668246,0.238325,0.879456,-0.0700825,0.238276,0.879504,-0.0701357,0.236983,0.88029,-0.0668378,0.236983,0.88029,-0.0668378,0.23736,0.88036,-0.0632847,0.23742,0.880302,-0.0633145,0.237048,0.880232,-0.0668246,0.23736,0.88036,-0.0632847,0.239305,0.879696,-0.0604283,0.239341,0.879646,-0.0604928,0.23742,0.880302,-0.0633145,0.239341,0.879646,-0.0604928,0.239305,0.879696,-0.0604283,0.242296,0.878477,-0.0590342,0.242297,0.878441,-0.0591154,0.242297,0.878441,-0.0591154,0.242296,0.878477,-0.0590342,0.245533,0.877028,-0.0594754,0.245494,0.87701,-0.0595516,0.245533,0.877028,-0.0594754,0.248148,0.875739,-0.0616343,0.248077,0.875736,-0.0616843,0.245494,0.87701,-0.0595516,0.249441,0.874953,-0.0649322,0.249354,0.874961,-0.064942,0.248077,0.875736,-0.0616843,0.248148,0.875739,-0.0616343,0.249064,0.874883,-0.0684853,0.248982,0.874891,-0.0684522,0.249354,0.874961,-0.064942,0.249441,0.874953,-0.0649322,0.247061,0.875547,-0.0712738,0.248982,0.874891,-0.0684522,0.249064,0.874883,-0.0684853,0.247119,0.875547,-0.0713417,0.243331,0.874763,-0.0730402,0.243453,0.875002,-0.0731489,0.246674,0.873689,-0.0716477,0.246512,0.873466,-0.0715576,0.239968,0.876562,-0.0726736,0.243453,0.875002,-0.0731489,0.243331,0.874763,-0.0730402,0.239889,0.876303,-0.0725707,0.237109,0.877674,-0.0702752,0.237152,0.877951,-0.0703491,0.239968,0.876562,-0.0726736,0.239889,0.876303,-0.0725707,0.237152,0.877951,-0.0703491,0.237109,0.877674,-0.0702752,0.235735,0.878509,-0.0667688,0.235761,0.878796,-0.0667983,0.236135,0.878584,-0.0629911,0.236166,0.878872,-0.0629727,0.235761,0.878796,-0.0667983,0.235735,0.878509,-0.0667688,0.23826,0.878157,-0.0598972,0.236166,0.878872,-0.0629727,0.236135,0.878584,-0.0629911,0.238203,0.877878,-0.059954,0.241384,0.876582,-0.0584716,0.241481,0.876844,-0.0583961,0.23826,0.878157,-0.0598972,0.238203,0.877878,-0.059954,0.241481,0.876844,-0.0583961,0.241384,0.876582,-0.0584716,0.244825,0.875042,-0.0589409,0.244967,0.875284,-0.0588713,0.247782,0.873896,-0.0611957,0.244967,0.875284,-0.0588713,0.244825,0.875042,-0.0589409,0.247606,0.87367,-0.0612363,0.249174,0.87305,-0.0647466,0.247782,0.873896,-0.0611957,0.247606,0.87367,-0.0612363,0.24898,0.872835,-0.0647428,0.248579,0.872761,-0.0685206,0.248768,0.872975,-0.0685722,0.249174,0.87305,-0.0647466,0.24898,0.872835,-0.0647428,0.248768,0.872975,-0.0685722,0.248579,0.872761,-0.0685206,0.246512,0.873466,-0.0715576,0.246674,0.873689,-0.0716477,0.243257,0.874714,-0.0727579,0.243331,0.874763,-0.0730402,0.246512,0.873466,-0.0715576,0.246317,0.873466,-0.0713318,0.239946,0.876195,-0.0723064,0.239889,0.876303,-0.0725707,0.243331,0.874763,-0.0730402,0.243257,0.874714,-0.0727579,0.239889,0.876303,-0.0725707,0.239946,0.876195,-0.0723064,0.237271,0.877515,-0.0700981,0.237109,0.877674,-0.0702752,0.23595,0.878318,-0.0667248,0.235735,0.878509,-0.0667688,0.237109,0.877674,-0.0702752,0.237271,0.877515,-0.0700981,0.236335,0.87839,-0.0630905,0.236135,0.878584,-0.0629911,0.235735,0.878509,-0.0667688,0.23595,0.878318,-0.0667248,0.238203,0.877878,-0.059954,0.236135,0.878584,-0.0629911,0.236335,0.87839,-0.0630905,0.238324,0.877711,-0.0601688,0.238203,0.877878,-0.059954,0.238324,0.877711,-0.0601688,0.241384,0.876464,-0.0587426,0.241384,0.876582,-0.0584716,0.244825,0.875042,-0.0589409,0.241384,0.876582,-0.0584716,0.241384,0.876464,-0.0587426,0.244695,0.874982,-0.0591941,0.24737,0.873663,-0.0614024,0.247606,0.87367,-0.0612363,0.244825,0.875042,-0.0589409,0.244695,0.874982,-0.0591941,0.247606,0.87367,-0.0612363,0.24737,0.873663,-0.0614024,0.248692,0.872859,-0.0647757,0.24898,0.872835,-0.0647428,0.24898,0.872835,-0.0647428,0.248692,0.872859,-0.0647757,0.248306,0.872788,-0.0684101,0.248579,0.872761,-0.0685206,0.246512,0.873466,-0.0715576,0.248579,0.872761,-0.0685206,0.248306,0.872788,-0.0684101,0.246317,0.873466,-0.0713318],
                "type":"Float32Array",
                "itemSize":3
            }
        },
        "index":{
            "array":[0,1,2,2,3,0,4,5,6,6,7,4,8,9,10,10,11,8,12,13,14,14,15,12,16,17,18,18,19,16,20,21,22,22,23,20,24,25,26,26,27,24,28,29,30,30,31,28,32,33,34,34,35,32,36,37,38,38,39,36,40,41,42,42,43,40,44,45,46,46,47,44,48,49,50,50,51,48,48,52,53,53,49,48,54,55,53,53,52,54,56,57,55,55,54,56,58,57,56,56,59,58,58,59,60,60,61,58,60,62,63,63,61,60,64,63,62,62,65,64,66,64,65,65,67,66,66,67,68,68,69,66,69,68,70,70,71,69,70,51,50,50,71,70,72,73,74,74,75,72,75,74,76,76,77,75,78,79,77,77,76,78,79,78,80,80,81,79,82,81,80,80,83,82,84,85,82,82,83,84,86,87,85,85,84,86,87,86,88,88,89,87,89,88,90,90,91,89,90,92,93,93,91,90,93,92,94,94,95,93,73,72,95,95,94,73,96,97,98,98,99,96,97,96,100,100,101,97,102,103,101,101,100,102,104,105,103,103,102,104,106,107,108,108,109,106,109,110,111,111,106,109,112,111,110,110,113,112,114,115,112,112,113,114,116,117,118,118,119,116,117,116,120,120,121,117,121,120,122,122,123,121,124,125,123,123,122,124,126,127,128,128,129,126,130,126,129,129,131,130,132,130,131,131,133,132,134,135,132,132,133,134,99,53,55,55,96,99,96,55,57,57,100,96,100,57,58,58,102,100,102,58,61,61,104,102,64,66,109,109,108,64,110,109,66,66,69,110,110,69,71,71,113,110,50,114,113,113,71,50,136,116,119,119,137,136,116,136,138,138,120,116,139,122,120,120,138,139,139,140,124,124,122,139,128,141,142,142,129,128,143,131,129,129,142,143,143,144,133,133,131,143,133,144,145,145,134,133,146,147,115,98,147,146,97,147,98,101,147,97,103,147,101,105,147,103,148,147,105,107,147,148,106,147,107,111,147,106,112,147,111,115,147,112,118,149,150,117,149,118,121,149,117,123,149,121,125,149,123,151,149,125,127,149,151,126,149,127,130,149,126,132,149,130,135,149,132,150,149,135,152,153,154,154,155,152,154,156,157,157,155,154,158,159,160,160,161,158,162,163,164,164,165,162,166,167,163,163,162,166,168,169,170,170,171,168,171,170,172,172,173,171,174,175,173,173,172,174,176,177,178,178,179,176,180,181,182,182,183,180,184,185,186,186,187,184,187,188,189,189,184,187,190,191,192,192,193,190,190,193,194,194,195,190,196,197,195,195,194,196,198,199,177,177,176,198,200,201,202,202,137,200,203,150,135,135,204,203,127,205,206,206,128,127,207,208,124,124,140,207,108,107,209,209,210,108,211,212,104,104,61,211,49,53,213,213,214,49,215,216,146,146,115,215,217,218,114,114,50,217,98,219,220,220,99,98,221,105,104,104,212,221,119,118,222,222,223,119,224,125,124,124,208,224,204,135,134,134,225,204,226,64,108,108,210,226,227,141,128,128,206,227,228,205,127,127,151,228,125,224,228,228,151,125,140,229,230,230,207,140,230,229,141,141,227,230,200,137,119,119,223,200,202,201,231,231,145,202,145,231,225,225,134,145,118,150,203,203,222,118,218,215,115,115,114,218,49,214,217,217,50,49,53,99,220,220,213,53,146,216,219,219,98,146,232,63,64,64,226,232,211,61,63,63,232,211,221,233,148,148,105,221,107,148,233,233,209,107,234,235,236,236,237,234,238,239,240,240,241,238,242,243,244,244,245,242,246,247,248,248,249,246,250,251,252,252,253,250,254,255,256,256,257,254,258,259,260,260,261,258,262,263,264,264,265,262,266,267,268,268,269,266,270,271,272,272,273,270,274,275,276,276,277,274,278,279,280,280,281,278,282,283,284,284,285,282,286,287,288,288,289,286,290,291,292,292,293,290,294,295,296,296,297,294,298,299,300,300,301,298,302,303,304,304,305,302,306,307,308,308,309,306,310,311,312,312,313,310,314,315,316,316,317,314,318,319,320,320,321,318,322,323,324,324,325,322,326,327,328,328,329,326,330,331,332,332,333,330,334,335,336,336,337,334,338,339,340,340,341,338,342,343,344,344,345,342,346,347,348,348,349,346,350,351,352,352,353,350,354,355,356,356,357,354,358,359,360,360,361,358,362,363,364,364,365,362,366,367,368,368,369,366,370,371,372,372,373,370,374,375,376,376,377,374,378,379,380,380,381,378,382,383,384,384,385,382,386,387,388,388,389,386,390,391,392,392,393,390,394,395,396,396,397,394,398,399,400,400,401,398,402,403,404,404,405,402,406,407,408,408,409,406,410,411,412,412,413,410,414,415,416,416,417,414,418,419,420,420,421,418,422,423,424,424,425,422,426,427,428,428,429,426,430,431,432,432,433,430,434,435,436,436,437,434,438,439,440,440,441,438,442,443,444,444,445,442,446,447,448,448,449,446,450,451,452,452,453,450,454,455,456,456,457,454,458,459,460,460,461,458,462,463,464,464,465,462,466,467,468,468,469,466,470,471,472,472,473,470,474,475,476,476,477,474,478,479,480,480,481,478,482,483,484,484,485,482,486,487,488,488,489,486,490,137,202,202,491,490,490,492,136,136,137,490,138,136,492,492,493,138,493,494,139,139,138,493,495,140,139,139,494,495,229,140,495,495,496,229,497,141,229,229,496,497,141,497,498,498,142,141,498,499,143,143,142,498,499,500,144,144,143,499,144,500,501,501,145,144,145,501,491,491,202,145,502,503,504,504,505,502,506,507,508,508,509,506,510,511,512,512,513,510,514,515,516,516,517,514,518,519,520,520,521,518,522,523,524,524,525,522,526,527,528,528,529,526,530,531,532,532,533,530,534,535,536,536,537,534,538,539,540,540,541,538,542,543,544,544,545,542,546,547,548,548,549,546,550,551,552,552,553,550,554,555,556,556,557,554,558,559,560,560,561,558,562,563,564,564,565,562,566,567,568,568,569,566,570,571,572,572,573,570,574,575,576,576,577,574,578,579,580,580,581,578,582,583,584,584,585,582,586,587,588,588,589,586,590,591,592,592,593,590,594,595,596,596,597,594,598,599,600,600,601,598,602,603,604,604,605,602,606,607,608,608,609,606,610,611,612,612,613,610,614,615,616,616,617,614,618,619,620,620,621,618,622,623,624,624,625,622,626,627,628,628,629,626,630,631,632,632,633,630,634,635,636,636,637,634,638,639,640,640,641,638,642,643,644,644,645,642,646,647,648,648,649,646,650,651,652,652,653,650,654,655,656,656,657,654,658,659,660,660,661,658,662,663,664,664,665,662,666,667,668,668,669,666,670,671,672,672,673,670,674,675,676,676,677,674,678,679,680,680,681,678,682,683,684,684,685,682,686,687,688,688,689,686,690,691,692,692,693,690,694,695,696,696,697,694,698,699,700,700,701,698,702,703,704,704,705,702,706,707,708,708,709,706,710,711,712,712,713,710,714,715,716,716,717,714,718,719,720,720,721,718,722,723,724,724,725,722,726,727,728,728,729,726,730,731,732,732,733,730,734,735,736,736,737,734,738,739,740,740,741,738,742,743,744,744,745,742,746,747,748,748,749,746,750,751,752,752,753,750,754,755,756,756,757,754,758,759,760,760,761,758,762,763,764,764,765,762,766,767,768,768,769,766,770,771,772,772,773,770,774,775,776,776,777,774,778,779,780,780,781,778,782,783,784,784,785,782,786,787,788,788,789,786,790,791,792,792,793,790,794,795,796,796,797,794,798,799,800,800,801,798,802,803,804,804,805,802,806,807,808,808,809,806,810,811,812,812,813,810,814,815,816,816,817,814,818,819,820,820,821,818,822,823,824,824,825,822,826,827,828,828,829,826,830,831,832,832,833,830,834,835,836,836,837,834,838,839,840,840,841,838,842,843,844,844,845,842,846,847,848,848,849,846,850,851,852,852,853,850,854,855,856,856,857,854,858,859,860,860,861,858,862,863,864,864,865,862,866,867,868,868,869,866,870,871,872,872,873,870,874,875,876,876,877,874,878,879,880,880,881,878,882,883,884,884,885,882,886,887,888,888,889,886,890,891,892,892,893,890,894,895,896,896,897,894,898,899,900,900,901,898,902,903,904,904,905,902,906,907,908,908,909,906,910,911,912,912,913,910,914,915,916,916,917,914,918,919,920,920,921,918,922,923,924,924,925,922,926,927,928,928,929,926,930,931,932,932,933,930,934,935,936,936,937,934,938,939,940,940,941,938,942,943,944,944,945,942,946,947,948,948,949,946,950,951,952,952,953,950,954,955,956,956,957,954,958,959,960,960,961,958,962,963,964,964,965,962,966,967,968,968,969,966,970,971,972,972,973,970,974,975,976,976,977,974,978,979,980,980,981,978],
            "type":"Uint16Array",
            "itemSize":1
        }
    },
    "metadata":{
        "version":3,
        "normal":982,
        "position":982,
        "generator":"io_three",
        "uv":982,
        "type":"BufferGeometry"
    }
}