{
    "metadata":{
        "uv":662,
        "normal":662,
        "version":3,
        "generator":"io_three",
        "type":"BufferGeometry",
        "position":662
    },
    "data":{
        "index":{
            "array":[0,1,2,3,4,5,6,7,3,8,9,6,10,11,8,12,13,14,15,0,2,4,16,17,18,5,19,20,4,7,21,3,18,22,7,9,23,6,21,24,9,11,23,10,8,24,25,26,14,27,28,29,30,31,32,33,34,35,36,37,38,39,40,41,42,43,44,45,46,47,48,49,50,51,52,53,54,55,56,57,58,59,60,61,62,63,64,65,66,67,68,69,70,71,72,73,74,75,76,77,74,78,79,78,80,81,80,82,83,84,85,71,86,87,76,88,89,90,75,91,76,92,74,93,91,77,74,94,78,95,77,79,78,96,80,81,95,79,96,82,80,83,97,98,99,100,101,102,103,104,105,106,107,108,109,110,111,112,113,114,115,116,117,118,119,120,121,122,123,124,125,126,127,128,100,129,101,130,131,129,132,85,84,133,134,135,136,137,138,139,140,141,142,143,144,145,146,147,148,149,150,151,152,153,154,155,156,157,158,159,160,161,162,163,164,165,166,167,168,169,170,171,172,173,174,175,176,177,178,179,180,181,182,183,184,185,186,187,188,189,190,191,192,193,194,195,196,197,198,199,200,201,202,203,204,205,206,207,208,209,210,211,212,213,214,215,216,217,218,219,220,221,222,223,224,225,226,227,228,229,230,231,232,233,234,235,236,237,238,239,240,241,242,243,244,245,246,247,248,249,250,251,252,253,254,255,4,0,5,256,19,257,258,16,259,260,261,262,263,264,265,75,73,76,75,266,71,73,267,88,268,269,270,271,272,273,274,275,276,277,278,279,280,257,15,281,259,16,282,18,19,283,281,20,284,18,285,283,22,286,287,21,284,286,24,288,289,23,287,288,26,290,28,291,292,293,31,294,295,296,297,298,299,300,301,302,303,266,304,86,305,89,88,306,90,307,308,89,309,310,90,93,311,92,308,310,95,312,313,94,311,312,314,315,316,96,313,317,318,319,320,99,321,322,323,324,117,325,120,12,326,327,328,329,330,331,132,332,333,334,335,336,337,338,339,340,341,342,343,344,345,346,347,348,349,350,351,352,353,354,355,356,5,257,19,357,17,16,358,359,266,360,88,267,119,12,14,10,327,25,119,28,325,361,13,10,362,363,364,365,366,367,129,85,101,82,98,81,129,318,83,314,98,97,290,326,123,293,124,29,368,84,82,101,369,99,370,371,372,373,374,375,376,377,378,379,380,381,382,383,384,385,386,387,388,389,390,391,392,393,394,395,396,397,398,399,121,28,292,289,27,361,315,97,317,131,319,318,118,124,12,26,327,326,321,369,331,316,132,368,0,17,1,3,7,4,6,9,7,8,11,9,10,25,11,12,327,13,15,257,0,4,281,16,18,3,5,20,281,4,21,6,3,22,20,7,23,8,6,24,22,9,23,361,10,24,11,25,14,13,27,29,118,30,32,400,33,401,402,403,404,405,406,407,408,409,410,411,412,413,414,415,416,417,418,419,420,421,422,423,424,425,426,427,428,429,430,431,432,433,434,435,436,71,87,72,74,91,75,77,91,74,79,77,78,81,79,80,83,98,84,71,266,86,76,73,88,90,358,75,76,89,92,93,90,91,74,92,94,95,93,77,78,94,96,81,314,95,96,368,82,83,318,97,99,437,100,438,439,440,441,442,443,444,445,446,447,448,449,450,451,452,117,30,118,120,325,121,123,326,124,453,454,455,100,130,129,130,329,131,132,369,85,456,457,458,459,460,461,462,463,464,465,466,467,145,468,146,148,469,149,470,471,472,473,474,475,476,477,478,479,480,481,482,483,484,485,486,487,488,489,490,491,492,493,494,495,496,497,498,499,500,501,502,503,504,505,506,507,508,509,510,511,512,513,514,515,516,517,518,519,520,521,522,523,524,525,526,527,528,529,530,531,532,533,534,535,536,537,538,539,540,541,542,543,544,545,546,547,548,549,550,232,551,233,552,553,554,555,556,557,558,559,560,561,562,563,564,565,566,567,568,569,570,571,572,4,17,0,256,282,19,258,357,16,573,574,575,576,577,578,75,71,73,75,358,266,73,72,267,579,580,581,582,583,584,585,586,587,277,588,278,280,256,257,281,589,259,282,285,18,283,589,281,284,21,18,283,20,22,287,23,21,286,22,24,289,361,23,288,24,26,28,27,291,293,29,31,590,591,592,593,594,595,596,597,598,266,359,304,305,309,89,306,358,90,308,92,89,310,307,90,311,94,92,310,93,95,313,96,94,312,95,314,316,368,96,317,97,318,320,437,99,599,600,601,117,119,325,12,124,326,328,131,329,331,369,132,602,603,604,605,606,607,608,609,610,611,612,613,614,615,616,617,618,619,620,621,622,623,624,625,5,0,257,357,1,17,358,306,359,360,305,88,119,118,12,10,13,327,119,14,28,361,27,13,626,627,628,629,630,631,129,83,85,82,84,98,129,131,318,314,81,98,290,26,326,293,125,124,368,132,84,101,85,369,632,633,634,635,636,637,638,639,640,641,642,643,644,645,646,647,648,649,650,651,652,653,654,655,656,657,658,659,660,661,121,325,28,289,291,27,315,314,97,131,328,319,118,29,124,26,25,327,321,99,369,316,332,132],
            "itemSize":1,
            "type":"Uint16Array"
        },
        "attributes":{
            "uv":{
                "array":[0.932738,0.946228,0.932377,0.946834,0.932377,0.946228,0.94939,0.946228,0.940883,0.946834,0.940883,0.946228,0.957896,0.946228,0.94939,0.946834,0.966403,0.946228,0.957896,0.946834,0.97491,0.946228,0.966403,0.946834,0.981904,0.946834,0.979446,0.946228,0.981904,0.946228,0.936771,0.938739,0.937161,0.954323,0.932738,0.946834,0.94939,0.938739,0.940883,0.938739,0.94939,0.954323,0.957896,0.938739,0.957896,0.954323,0.966403,0.938739,0.966403,0.954323,0.97491,0.946834,0.97491,0.954323,0.979446,0.938739,0.981904,0.938739,0.98413,0.954323,0.983921,0.946834,0.983921,0.954323,0.936214,0.955008,0.936554,0.95445,0.936711,0.954717,0.937319,0.955416,0.940883,0.954841,0.940883,0.955416,0.937319,0.937646,0.936927,0.938221,0.936927,0.937646,0.94939,0.955416,0.940883,0.954841,0.94939,0.954841,0.94939,0.937646,0.940883,0.938221,0.940883,0.937646,0.957896,0.955416,0.94939,0.954841,0.957896,0.954841,0.966403,0.955416,0.957896,0.954841,0.966403,0.954841,0.966403,0.937646,0.957896,0.938221,0.957896,0.937646,0.966403,0.955416,0.97491,0.954841,0.97491,0.955416,0.966403,0.937646,0.97491,0.938221,0.966403,0.938221,0.979446,0.955416,0.981904,0.954841,0.981904,0.955416,0.984242,0.938739,0.983667,0.938472,0.984242,0.938472,0.984242,0.946834,0.983667,0.954323,0.983667,0.946834,0.932137,0.975408,0.931775,0.976013,0.932137,0.976013,0.948788,0.976013,0.940282,0.975408,0.940282,0.976013,0.957295,0.975408,0.957295,0.976013,0.965801,0.975408,0.965801,0.976013,0.974308,0.975408,0.974308,0.976013,0.981303,0.975408,0.978845,0.976013,0.981303,0.976013,0.936169,0.967919,0.931775,0.975408,0.936559,0.983503,0.940282,0.983503,0.948788,0.967919,0.948788,0.975408,0.948788,0.983503,0.957295,0.967919,0.957295,0.983503,0.965801,0.967919,0.965801,0.983503,0.978845,0.967919,0.978845,0.975408,0.983529,0.983503,0.983825,0.976013,0.983529,0.976013,0.94939,0.938221,0.957896,0.937646,0.957896,0.938221,0.984426,0.938221,0.98413,0.937646,0.984426,0.937646,0.932126,0.946228,0.93155,0.946834,0.93155,0.946228,0.936711,0.938345,0.936058,0.938321,0.936214,0.938054,0.983667,0.946834,0.984242,0.946228,0.984242,0.946834,0.983921,0.946228,0.98413,0.946834,0.98413,0.946228,0.983921,0.938739,0.98413,0.938472,0.984089,0.938472,0.979446,0.95459,0.981904,0.954323,0.981904,0.95459,0.98413,0.955416,0.984426,0.954841,0.984426,0.955416,0.983529,0.975408,0.983825,0.975408,0.983529,0.967919,0.978845,0.983503,0.981904,0.938221,0.979446,0.937646,0.981904,0.937646,0.935841,0.954868,0.936214,0.955008,0.935998,0.955135,0.932377,0.946834,0.936554,0.95445,0.93216,0.946961,0.937319,0.955667,0.940883,0.955416,0.940883,0.955667,0.937319,0.95459,0.936927,0.954841,0.936927,0.95459,0.937319,0.937395,0.936927,0.937646,0.936927,0.937395,0.937319,0.938472,0.940883,0.938221,0.940883,0.938472,0.94939,0.955667,0.940883,0.955416,0.94939,0.955416,0.940883,0.95459,0.94939,0.954841,0.940883,0.954841,0.94939,0.937395,0.940883,0.937646,0.940883,0.937395,0.940883,0.938472,0.94939,0.938221,0.94939,0.938472,0.957896,0.955667,0.94939,0.955416,0.957896,0.955416,0.94939,0.95459,0.957896,0.954841,0.94939,0.954841,0.966403,0.955667,0.957896,0.955416,0.966403,0.955416,0.957896,0.95459,0.966403,0.954841,0.957896,0.954841,0.966403,0.937395,0.957896,0.937646,0.957896,0.937395,0.957896,0.938472,0.966403,0.938221,0.966403,0.938472,0.966403,0.955667,0.97491,0.955416,0.97491,0.955667,0.97491,0.95459,0.966403,0.954841,0.966403,0.95459,0.966403,0.937395,0.97491,0.937646,0.966403,0.937646,0.97491,0.938472,0.966403,0.938221,0.97491,0.938221,0.979446,0.955416,0.981904,0.955667,0.979446,0.955667,0.981904,0.95459,0.979446,0.954841,0.979446,0.95459,0.984493,0.938739,0.984242,0.938472,0.984493,0.938472,0.983921,0.938739,0.983667,0.946228,0.983921,0.946228,0.984493,0.946834,0.984242,0.954323,0.984242,0.946834,0.983921,0.954323,0.983667,0.95459,0.984089,0.95459,0.94939,0.938472,0.957896,0.938221,0.957896,0.938472,0.957896,0.937395,0.94939,0.937646,0.94939,0.937395,0.984089,0.938472,0.98413,0.938221,0.984426,0.938221,0.984426,0.937395,0.98413,0.937646,0.98413,0.937395,0.932377,0.946228,0.932126,0.946834,0.932126,0.946228,0.931299,0.946228,0.93155,0.946834,0.931299,0.946834,0.936771,0.938739,0.936711,0.938345,0.936927,0.938472,0.931448,0.945683,0.936058,0.938321,0.931664,0.94581,0.983921,0.946228,0.983667,0.946834,0.983921,0.946834,0.984493,0.946228,0.984242,0.946834,0.984242,0.946228,0.98413,0.955667,0.984426,0.955416,0.984426,0.955667,0.984089,0.95459,0.98413,0.954841,0.98413,0.95459,0.981904,0.937646,0.979446,0.937395,0.981904,0.937395,0.979446,0.938221,0.981904,0.938472,0.979446,0.938472,0.937319,0.938472,0.937161,0.938739,0.936927,0.95459,0.937319,0.95459,0.936927,0.954841,0.937319,0.955416,0.936927,0.955416,0.940883,0.937646,0.937319,0.938221,0.937319,0.937646,0.936559,0.967919,0.936169,0.983503,0.936927,0.955416,0.937319,0.955667,0.936927,0.955667,0.940883,0.95459,0.937319,0.954841,0.937319,0.95459,0.940883,0.937395,0.937319,0.937646,0.937319,0.937395,0.936927,0.938221,0.937319,0.938472,0.936927,0.938472,0.936927,0.938472,0.940883,0.954323,0.940883,0.938472,0.94939,0.95459,0.957896,0.938472,0.94939,0.938472,0.957896,0.95459,0.966403,0.938472,0.966403,0.95459,0.97491,0.938472,0.97491,0.95459,0.979446,0.938472,0.981904,0.938472,0.98413,0.95459,0.984089,0.95459,0.93216,0.946961,0.936058,0.954741,0.931664,0.947252,0.984242,0.946228,0.983667,0.938739,0.984242,0.938739,0.983667,0.95459,0.984242,0.954323,0.984242,0.95459,0.936326,0.967652,0.936717,0.98377,0.940282,0.967652,0.948788,0.967652,0.948788,0.98377,0.940282,0.98377,0.957295,0.967652,0.957295,0.98377,0.965801,0.967652,0.965801,0.98377,0.974308,0.967919,0.974308,0.967652,0.974308,0.98377,0.978845,0.967652,0.981303,0.967919,0.981303,0.967652,0.983825,0.98377,0.983529,0.98377,0.931664,0.94581,0.936554,0.938612,0.93216,0.946101,0.98413,0.938739,0.979446,0.954323,0.979446,0.946834,0.983529,0.967652,0.983825,0.967919,0.983825,0.967652,0.981303,0.98377,0.978845,0.98377,0.931664,0.947252,0.935841,0.954868,0.931448,0.947379,0.936927,0.95459,0.936554,0.95445,0.936771,0.954323,0.984493,0.946228,0.984242,0.938739,0.984493,0.938739,0.984089,0.938472,0.983667,0.938739,0.983921,0.938739,0.984242,0.95459,0.984493,0.954323,0.984493,0.95459,0.983667,0.946834,0.983921,0.954323,0.983921,0.946834,0.93216,0.946101,0.936771,0.938739,0.932377,0.946228,0.935998,0.937927,0.936058,0.938321,0.935841,0.938194,0.936771,0.954323,0.940282,0.967919,0.936717,0.967652,0.936326,0.98377,0.97491,0.938739,0.97491,0.955416,0.979446,0.954841,0.979446,0.955416,0.98413,0.954841,0.981904,0.955416,0.981904,0.954841,0.974308,0.983503,0.981303,0.983503,0.98413,0.938221,0.981904,0.937646,0.98413,0.937646,0.97491,0.937646,0.979446,0.938221,0.97491,0.938221,0.97491,0.955667,0.979446,0.955416,0.979446,0.955667,0.98413,0.955667,0.981904,0.955416,0.98413,0.955416,0.98413,0.95459,0.981904,0.954841,0.981904,0.95459,0.97491,0.954841,0.979446,0.95459,0.979446,0.954841,0.98413,0.937646,0.981904,0.937395,0.98413,0.937395,0.97491,0.937395,0.979446,0.937646,0.97491,0.937646,0.97491,0.938221,0.979446,0.938472,0.97491,0.938472,0.98413,0.938472,0.981904,0.938221,0.98413,0.938221,0.936058,0.954741,0.937319,0.955416,0.937319,0.954841,0.940883,0.954841,0.937319,0.937646,0.937319,0.938221,0.936927,0.938221,0.94939,0.955416,0.940883,0.955416,0.940883,0.954841,0.94939,0.937646,0.94939,0.938221,0.940883,0.938221,0.957896,0.955416,0.94939,0.955416,0.94939,0.954841,0.966403,0.955416,0.957896,0.955416,0.957896,0.954841,0.966403,0.937646,0.966403,0.938221,0.957896,0.938221,0.966403,0.955416,0.966403,0.954841,0.97491,0.954841,0.966403,0.937646,0.97491,0.937646,0.97491,0.938221,0.979446,0.955416,0.979446,0.954841,0.981904,0.954841,0.984242,0.938739,0.983667,0.938739,0.983667,0.938472,0.984242,0.946834,0.984242,0.954323,0.983667,0.954323,0.983825,0.983503,0.94939,0.938221,0.94939,0.937646,0.957896,0.937646,0.984426,0.938221,0.98413,0.938221,0.98413,0.937646,0.932126,0.946228,0.932126,0.946834,0.93155,0.946834,0.936711,0.938345,0.936554,0.938612,0.936058,0.938321,0.983667,0.946834,0.983667,0.946228,0.984242,0.946228,0.98413,0.955416,0.98413,0.954841,0.984426,0.954841,0.981904,0.938221,0.979446,0.938221,0.979446,0.937646,0.935841,0.954868,0.936058,0.954741,0.936214,0.955008,0.932377,0.946834,0.936771,0.954323,0.936554,0.95445,0.937319,0.955667,0.937319,0.955416,0.940883,0.955416,0.937319,0.954841,0.937319,0.937646,0.937319,0.938472,0.937319,0.938221,0.940883,0.938221,0.94939,0.955667,0.940883,0.955667,0.940883,0.955416,0.940883,0.95459,0.94939,0.95459,0.94939,0.954841,0.94939,0.937395,0.94939,0.937646,0.940883,0.937646,0.940883,0.938472,0.940883,0.938221,0.94939,0.938221,0.957896,0.955667,0.94939,0.955667,0.94939,0.955416,0.94939,0.95459,0.957896,0.95459,0.957896,0.954841,0.966403,0.955667,0.957896,0.955667,0.957896,0.955416,0.957896,0.95459,0.966403,0.95459,0.966403,0.954841,0.966403,0.937395,0.966403,0.937646,0.957896,0.937646,0.957896,0.938472,0.957896,0.938221,0.966403,0.938221,0.966403,0.955667,0.966403,0.955416,0.97491,0.955416,0.97491,0.95459,0.97491,0.954841,0.966403,0.954841,0.966403,0.937395,0.97491,0.937395,0.97491,0.937646,0.97491,0.938472,0.966403,0.938472,0.966403,0.938221,0.979446,0.955416,0.981904,0.955416,0.981904,0.955667,0.981904,0.95459,0.981904,0.954841,0.979446,0.954841,0.984493,0.938739,0.984242,0.938739,0.984242,0.938472,0.983921,0.938739,0.983667,0.938739,0.983667,0.946228,0.984493,0.946834,0.984493,0.954323,0.984242,0.954323,0.983921,0.954323,0.983667,0.954323,0.983667,0.95459,0.94939,0.938472,0.94939,0.938221,0.957896,0.938221,0.957896,0.937395,0.957896,0.937646,0.94939,0.937646,0.984089,0.938472,0.98413,0.938472,0.98413,0.938221,0.984426,0.937395,0.984426,0.937646,0.98413,0.937646,0.932377,0.946228,0.932377,0.946834,0.932126,0.946834,0.931299,0.946228,0.93155,0.946228,0.93155,0.946834,0.936554,0.938612,0.931448,0.945683,0.935841,0.938194,0.936058,0.938321,0.983921,0.946228,0.983667,0.946228,0.983667,0.946834,0.984493,0.946228,0.984493,0.946834,0.984242,0.946834,0.98413,0.955667,0.98413,0.955416,0.984426,0.955416,0.984089,0.95459,0.984426,0.954841,0.98413,0.954841,0.981904,0.937646,0.979446,0.937646,0.979446,0.937395,0.979446,0.938221,0.981904,0.938221,0.981904,0.938472,0.936927,0.954841,0.937319,0.954841,0.937319,0.955416,0.940883,0.937646,0.940883,0.938221,0.937319,0.938221,0.936927,0.955416,0.937319,0.955416,0.937319,0.955667,0.940883,0.95459,0.940883,0.954841,0.937319,0.954841,0.940883,0.937395,0.940883,0.937646,0.937319,0.937646,0.937319,0.938221,0.940883,0.95459,0.93216,0.946961,0.936554,0.95445,0.936058,0.954741,0.984242,0.946228,0.983667,0.946228,0.983667,0.938739,0.983667,0.95459,0.983667,0.954323,0.984242,0.954323,0.931664,0.94581,0.936058,0.938321,0.936554,0.938612,0.931664,0.947252,0.936058,0.954741,0.935841,0.954868,0.936927,0.95459,0.936711,0.954717,0.936554,0.95445,0.984493,0.946228,0.984242,0.946228,0.984242,0.938739,0.984089,0.938472,0.983667,0.938472,0.983667,0.938739,0.984242,0.95459,0.984242,0.954323,0.984493,0.954323,0.983667,0.946834,0.983667,0.954323,0.983921,0.954323,0.93216,0.946101,0.936554,0.938612,0.936771,0.938739,0.935998,0.937927,0.936214,0.938054,0.936058,0.938321,0.97491,0.955416,0.97491,0.954841,0.979446,0.954841,0.98413,0.954841,0.98413,0.955416,0.981904,0.955416,0.98413,0.938221,0.981904,0.938221,0.981904,0.937646,0.97491,0.937646,0.979446,0.937646,0.979446,0.938221,0.97491,0.955667,0.97491,0.955416,0.979446,0.955416,0.98413,0.955667,0.981904,0.955667,0.981904,0.955416,0.98413,0.95459,0.98413,0.954841,0.981904,0.954841,0.97491,0.954841,0.97491,0.95459,0.979446,0.95459,0.98413,0.937646,0.981904,0.937646,0.981904,0.937395,0.97491,0.937395,0.979446,0.937395,0.979446,0.937646,0.97491,0.938221,0.979446,0.938221,0.979446,0.938472,0.98413,0.938472,0.981904,0.938472,0.981904,0.938221],
                "itemSize":2,
                "type":"Float32Array"
            },
            "normal":{
                "array":[0.42555,-0.900632,-0.0879238,-0.35786,-0.920774,0.155095,-0.33961,-0.905972,-0.252663,0.366527,-0.92581,-0.0921354,0.380322,-0.924833,-0.00259407,0.36726,-0.924741,-0.0996429,0.378918,-0.922605,-0.0719626,0.36137,-0.932401,0.00442518,0.447249,-0.891659,-0.0699484,0.387066,-0.92172,-0.0238044,0.586657,-0.808466,-0.0464797,0.446822,-0.894589,0.00570696,0.963012,-0.262215,0.0615864,0.719077,-0.694113,-0.0329295,0.968139,-0.250008,-0.0126347,-0.226203,-0.870998,-0.436079,0.460341,-0.887356,-0.025483,0.425977,-0.903775,-0.0412,0.352153,-0.930784,-0.0979339,0.353069,-0.93054,-0.0968963,0.338054,-0.941008,0.0127262,0.362896,-0.928495,-0.0784326,0.380169,-0.92465,-0.0211493,0.432417,-0.899319,-0.0646687,0.481429,-0.876461,0.00393689,0.594562,-0.803552,0.0278024,0.6292,-0.776116,0.0415967,0.722709,-0.690298,-0.0338755,0.977752,-0.20896,-0.0174871,0.972472,0.230384,0.0343333,0.42732,0.90408,-0.00158696,0.380535,0.924741,-0.00534074,-0.769982,-0.413129,0.486264,-0.769982,-0.413129,0.486264,-0.769982,-0.413129,0.486264,-0.0055795,-0.0392856,0.999212,-0.0055795,-0.0392856,0.999212,-0.0055795,-0.0392856,0.999212,0.00558352,0.0392827,-0.999213,0.00558352,0.0392827,-0.999213,0.00558352,0.0392827,-0.999213,-0.00558046,-0.0392859,0.999212,-0.00558046,-0.0392859,0.999212,-0.00558046,-0.0392859,0.999212,0.00558197,0.0392819,-0.999213,0.00558197,0.0392819,-0.999213,0.00558197,0.0392819,-0.999213,-0.00558051,-0.0392861,0.999212,-0.00558051,-0.0392861,0.999212,-0.00558051,-0.0392861,0.999212,-0.00558042,-0.0392858,0.999212,-0.00558042,-0.0392858,0.999212,-0.00558042,-0.0392858,0.999212,0.00558044,0.0392859,-0.999212,0.00558044,0.0392859,-0.999212,0.00558044,0.0392859,-0.999212,-0.00558455,-0.0392785,0.999213,-0.00558455,-0.0392785,0.999213,-0.00558455,-0.0392785,0.999213,0.00558202,0.039282,-0.999213,0.00558202,0.039282,-0.999213,0.00558202,0.039282,-0.999213,-0.005586,-0.0392835,0.999213,-0.005586,-0.0392835,0.999213,-0.005586,-0.0392835,0.999213,-0.205317,0.977982,0.0373652,-0.205317,0.977982,0.0373652,-0.205317,0.977982,0.0373652,-0.202858,0.974416,-0.0967623,-0.202858,0.974416,-0.0967623,-0.202858,0.974416,-0.0967623,-0.425581,0.900601,0.0879849,-0.947539,0.242164,0.208594,-0.426008,0.903745,0.0413221,-0.36137,0.932401,-0.00442518,-0.36726,0.924741,0.0996124,-0.380322,0.924833,0.00256355,-0.378918,0.922605,0.0719932,-0.387066,0.92172,0.0238044,-0.447249,0.891659,0.0699179,-0.446822,0.894589,-0.005768,-0.590686,0.805536,0.0463271,-0.598498,0.800623,-0.0278939,-0.975677,0.218848,0.0108036,-0.72216,0.689932,-0.0492874,-0.970672,0.232582,-0.0607013,-0.874233,0.378552,-0.303934,-0.953398,0.243049,-0.178655,-0.460311,0.887356,0.0253914,-0.437849,0.898984,-0.00787378,-0.352153,0.930784,0.0978423,-0.366527,0.92581,0.0921659,-0.338054,0.941008,-0.0127567,-0.362896,0.928495,0.0784631,-0.380169,0.92465,0.0212714,-0.432417,0.899319,0.0647298,-0.481429,0.876461,-0.00399792,-0.724906,0.687979,0.033845,-0.720481,0.692648,0.0329295,-0.967132,-0.252022,-0.0336924,-0.921751,0.38493,-0.0467238,-0.953978,-0.29722,-0.0393384,0.00558079,0.039286,-0.999212,0.00558079,0.039286,-0.999212,0.00558079,0.039286,-0.999212,0.00559826,0.039291,-0.999212,0.00559826,0.039291,-0.999212,0.00559826,0.039291,-0.999212,-0.889661,-0.456047,-0.0228773,-0.889661,-0.456047,-0.0228773,-0.889661,-0.456047,-0.0228773,-0.764319,-0.373336,-0.525772,-0.764319,-0.373336,-0.525772,-0.764319,-0.373336,-0.525772,-0.205454,0.977955,0.0373103,-0.205454,0.977955,0.0373103,-0.205454,0.977955,0.0373103,0.42317,0.90286,0.0758995,0.964354,0.261299,0.0409864,0.96234,0.271645,0.00921659,0.383312,0.920194,0.0791345,0.692038,0.243385,-0.679556,0.331797,0.769463,-0.545732,0.546434,-0.497147,0.67394,0.965941,-0.251808,0.0594195,0.739372,-0.232612,0.631794,-0.00554951,-0.0392766,0.999213,-0.00554951,-0.0392766,0.999213,-0.00554951,-0.0392766,0.999213,-0.951994,-0.305856,-0.0117191,-0.922208,0.382305,0.0578936,-0.942778,-0.333232,-0.0101627,-0.743797,0.666799,-0.046144,0.00557316,0.0392874,-0.999212,0.00557316,0.0392874,-0.999212,0.00557316,0.0392874,-0.999212,-0.769988,-0.413117,0.486265,-0.769988,-0.413117,0.486265,-0.769988,-0.413117,0.486265,-0.770192,-0.413183,0.485885,-0.770192,-0.413183,0.485885,-0.770192,-0.413183,0.485885,-0.00558091,-0.0392839,0.999212,-0.00558091,-0.0392839,0.999212,-0.00558091,-0.0392839,0.999212,-0.00558534,-0.0392791,0.999213,-0.00558534,-0.0392791,0.999213,-0.00558534,-0.0392791,0.999213,0.0055808,0.039288,-0.999212,0.0055808,0.039288,-0.999212,0.0055808,0.039288,-0.999212,0.00558378,0.0392783,-0.999213,0.00558378,0.0392783,-0.999213,0.00558378,0.0392783,-0.999213,-0.00558351,-0.0392782,0.999213,-0.00558351,-0.0392782,0.999213,-0.00558351,-0.0392782,0.999213,-0.00558351,-0.0392782,0.999213,-0.00558351,-0.0392782,0.999213,-0.00558351,-0.0392782,0.999213,0.00557973,0.0392874,-0.999212,0.00557973,0.0392874,-0.999212,0.00557973,0.0392874,-0.999212,0.0055832,0.039278,-0.999213,0.0055832,0.039278,-0.999213,0.0055832,0.039278,-0.999213,-0.00558314,-0.039278,0.999213,-0.00558314,-0.039278,0.999213,-0.00558314,-0.039278,0.999213,-0.00558313,-0.039278,0.999213,-0.00558313,-0.039278,0.999213,-0.00558313,-0.039278,0.999213,-0.00558394,-0.0392784,0.999213,-0.00558394,-0.0392784,0.999213,-0.00558394,-0.0392784,0.999213,-0.00558394,-0.0392784,0.999213,-0.00558394,-0.0392784,0.999213,-0.00558394,-0.0392784,0.999213,0.00558125,0.0392841,-0.999213,0.00558125,0.0392841,-0.999213,0.00558125,0.0392841,-0.999213,0.00558369,0.0392783,-0.999213,0.00558369,0.0392783,-0.999213,0.00558369,0.0392783,-0.999213,-0.00558441,-0.0392787,0.999213,-0.00558441,-0.0392787,0.999213,-0.00558441,-0.0392787,0.999213,-0.0055844,-0.0392787,0.999213,-0.0055844,-0.0392787,0.999213,-0.0055844,-0.0392787,0.999213,0.00557918,0.0392871,-0.999212,0.00557918,0.0392871,-0.999212,0.00557918,0.0392871,-0.999212,0.00558397,0.0392785,-0.999213,0.00558397,0.0392785,-0.999213,0.00558397,0.0392785,-0.999213,-0.00557816,-0.0392891,0.999212,-0.00557816,-0.0392891,0.999212,-0.00557816,-0.0392891,0.999212,-0.00558336,-0.0392851,0.999212,-0.00558336,-0.0392851,0.999212,-0.00558336,-0.0392851,0.999212,-0.362675,0.931271,0.0346473,-0.362675,0.931271,0.0346473,-0.362675,0.931271,0.0346473,-0.36057,0.919226,0.158158,-0.36057,0.919226,0.158158,-0.36057,0.919226,0.158158,-0.358374,0.927686,-0.104721,-0.358374,0.927686,-0.104721,-0.358374,0.927686,-0.104721,-0.362675,0.931271,0.0346471,-0.362675,0.931271,0.0346471,-0.362675,0.931271,0.0346471,0.00558365,0.0392783,-0.999213,0.00558365,0.0392783,-0.999213,0.00558365,0.0392783,-0.999213,0.00558147,0.0392842,-0.999213,0.00558147,0.0392842,-0.999213,0.00558147,0.0392842,-0.999213,0.00557751,0.0392875,-0.999212,0.00557751,0.0392875,-0.999212,0.00557751,0.0392875,-0.999212,0.00558372,0.0392854,-0.999212,0.00558372,0.0392854,-0.999212,0.00558372,0.0392854,-0.999212,-0.889657,-0.456057,-0.0228775,-0.889657,-0.456057,-0.0228775,-0.889657,-0.456057,-0.0228775,-0.88964,-0.456087,-0.0229029,-0.88964,-0.456087,-0.0229029,-0.88964,-0.456087,-0.0229029,-0.764323,-0.373329,-0.525772,-0.764323,-0.373329,-0.525772,-0.764323,-0.373329,-0.525772,-0.764531,-0.37345,-0.525383,-0.764531,-0.37345,-0.525383,-0.764531,-0.37345,-0.525383,-0.362675,0.931273,0.0345964,-0.362675,0.931273,0.0345964,-0.362675,0.931273,0.0345964,-0.362675,0.931273,0.0345967,-0.362675,0.931273,0.0345967,-0.362675,0.931273,0.0345967,-0.00559148,-0.0392884,0.999212,-0.00559148,-0.0392884,0.999212,-0.00559148,-0.0392884,0.999212,-0.00558493,-0.0392904,0.999212,-0.00558493,-0.0392904,0.999212,-0.00558493,-0.0392904,0.999212,0.005578,0.0392831,-0.999213,0.005578,0.0392831,-0.999213,0.005578,0.0392831,-0.999213,0.00558106,0.03928,-0.999213,0.00558106,0.03928,-0.999213,0.00558106,0.03928,-0.999213,0.264138,-0.594958,-0.759087,0.40791,-0.90701,-0.104434,-0.0751061,-0.74926,0.657979,0.346324,-0.65569,0.670888,-0.00558154,-0.0392865,0.999212,-0.00558154,-0.0392865,0.999212,-0.00558154,-0.0392865,0.999212,0.0055824,0.0392821,-0.999213,0.0055824,0.0392821,-0.999213,0.0055824,0.0392821,-0.999213,-0.40788,0.90701,0.104434,-0.863674,0.329814,0.381115,-0.00558534,-0.0392791,0.999213,-0.00558534,-0.0392791,0.999213,-0.00558534,-0.0392791,0.999213,-0.00558373,-0.0392783,0.999213,-0.00558373,-0.0392783,0.999213,-0.00558373,-0.0392783,0.999213,0.00558034,0.0392877,-0.999212,0.00558034,0.0392877,-0.999212,0.00558034,0.0392877,-0.999212,0.00558534,0.0392791,-0.999213,0.00558534,0.0392791,-0.999213,0.00558534,0.0392791,-0.999213,-0.0674154,-0.695212,-0.715598,0.437849,-0.898984,0.00790429,0.253731,-0.635701,-0.728996,0.23423,-0.685049,0.689779,0.257546,-0.63506,-0.728233,0.252846,-0.631367,-0.733055,0.262703,-0.696768,0.667409,0.311594,-0.624073,-0.716514,0.353679,-0.655049,0.667684,0.418867,-0.571642,-0.705496,0.458357,-0.588672,0.665822,0.530961,-0.475417,-0.701407,0.769738,-0.139836,-0.622822,0.713858,0.139348,0.686239,0.325358,0.724021,0.608173,-0.770172,-0.413223,0.485883,-0.770172,-0.413223,0.485883,-0.770172,-0.413223,0.485883,-0.204637,0.966133,0.1572,-0.204637,0.966133,0.1572,-0.204637,0.966133,0.1572,-0.205438,0.977957,0.0373509,-0.205438,0.977957,0.0373509,-0.205438,0.977957,0.0373509,-0.624928,0.390393,-0.676015,-0.341746,0.577746,0.741203,-0.244301,0.687185,-0.684133,-0.246315,0.690603,-0.679952,-0.247353,0.64391,0.723991,-0.321085,0.621815,0.714286,-0.247566,0.68511,-0.685049,-0.259743,0.614002,0.745293,-0.291604,0.654012,-0.697989,-0.345195,0.570666,0.745079,-0.574511,0.817499,0.0401013,-0.386731,0.586413,-0.711692,-0.440138,0.496109,0.748405,-0.492965,0.499191,-0.712546,-0.984222,0.176275,0.0146489,-0.546373,0.132267,-0.826991,-0.750633,0.305856,0.58562,-0.660421,-0.198828,0.724082,-0.764522,-0.373467,-0.525385,-0.764522,-0.373467,-0.525385,-0.764522,-0.373467,-0.525385,0.953124,0.302469,0.00708029,0.755181,-0.652486,0.0624104,0.720695,-0.691458,0.0493179,-0.655873,-0.204016,-0.726737,-0.907926,0.414747,0.0599384,-0.744194,0.351207,-0.568133,-0.889584,0.349345,-0.294168,-0.516495,0.450819,0.727989,-0.770152,-0.413261,0.485882,-0.770152,-0.413261,0.485882,-0.770152,-0.413261,0.485882,-0.769993,-0.413086,0.486283,-0.769993,-0.413086,0.486283,-0.769993,-0.413086,0.486283,-0.360571,0.919225,0.158157,-0.360571,0.919225,0.158157,-0.360571,0.919225,0.158157,-0.362675,0.931271,0.0346471,-0.362675,0.931271,0.0346471,-0.362675,0.931271,0.0346471,-0.362696,0.931267,0.034535,-0.362696,0.931267,0.034535,-0.362696,0.931267,0.034535,-0.358373,0.927687,-0.104721,-0.358373,0.927687,-0.104721,-0.358373,0.927687,-0.104721,-0.764517,-0.373475,-0.525385,-0.764517,-0.373475,-0.525385,-0.764517,-0.373475,-0.525385,-0.764325,-0.373325,-0.525772,-0.764325,-0.373325,-0.525772,-0.764325,-0.373325,-0.525772,-0.219153,-0.926572,0.305582,-0.353069,0.93054,0.0969878,-0.279214,0.705557,-0.651295,-0.632649,0.336406,0.697531,0.570391,-0.820338,-0.0402539,-0.00558349,-0.0392819,0.999213,-0.00558349,-0.0392819,0.999213,-0.00558349,-0.0392819,0.999213,-0.00558395,-0.0392809,0.999213,-0.00558395,-0.0392809,0.999213,-0.00558395,-0.0392809,0.999213,-0.632954,0.773034,-0.0416578,-0.96646,0.0927763,0.239448,0.0055938,0.039285,-0.999212,0.0055938,0.039285,-0.999212,0.0055938,0.039285,-0.999212,0.00558209,0.0392821,-0.999213,0.00558209,0.0392821,-0.999213,0.00558209,0.0392821,-0.999213,-0.00557739,-0.0392887,0.999212,-0.00557739,-0.0392887,0.999212,-0.00557739,-0.0392887,0.999212,-0.00558755,-0.0392847,0.999213,-0.00558755,-0.0392847,0.999213,-0.00558755,-0.0392847,0.999213,-0.00557735,-0.0392814,0.999213,-0.00557735,-0.0392814,0.999213,-0.00557735,-0.0392814,0.999213,-0.00558103,-0.0392839,0.999213,-0.00558103,-0.0392839,0.999213,-0.00558103,-0.0392839,0.999213,0.00558504,0.039282,-0.999213,0.00558504,0.039282,-0.999213,0.00558504,0.039282,-0.999213,0.0055743,0.0392912,-0.999212,0.0055743,0.0392912,-0.999212,0.0055743,0.0392912,-0.999212,0.00558471,0.0392788,-0.999213,0.00558471,0.0392788,-0.999213,0.00558471,0.0392788,-0.999213,0.00558418,0.0392842,-0.999212,0.00558418,0.0392842,-0.999212,0.00558418,0.0392842,-0.999212,-0.769982,-0.413129,0.486264,-0.00557953,-0.0392855,0.999213,-0.00557953,-0.0392855,0.999213,-0.00557953,-0.0392855,0.999213,0.00558352,0.0392827,-0.999213,0.00558352,0.0392827,-0.999213,0.00558352,0.0392827,-0.999213,-0.00558038,-0.0392861,0.999212,-0.00558038,-0.0392861,0.999212,-0.00558038,-0.0392861,0.999212,0.00558014,0.0392859,-0.999212,0.00558014,0.0392859,-0.999212,0.00558014,0.0392859,-0.999212,-0.00558058,-0.0392859,0.999212,-0.00558058,-0.0392859,0.999212,-0.00558058,-0.0392859,0.999212,-0.00558031,-0.039286,0.999212,-0.00558031,-0.039286,0.999212,-0.00558031,-0.039286,0.999212,0.00558217,0.0392821,-0.999213,0.00558217,0.0392821,-0.999213,0.00558217,0.0392821,-0.999213,-0.0055802,-0.0392857,0.999212,-0.0055802,-0.0392857,0.999212,-0.0055802,-0.0392857,0.999212,0.00558202,0.039282,-0.999213,0.00558202,0.039282,-0.999213,0.00558202,0.039282,-0.999213,-0.00558619,-0.0392833,0.999213,-0.00558619,-0.0392833,0.999213,-0.00558619,-0.0392833,0.999213,-0.205454,0.977958,0.0372458,-0.205454,0.977958,0.0372458,-0.205454,0.977958,0.0372458,-0.202725,0.974444,-0.0967586,-0.202725,0.974444,-0.0967586,-0.202725,0.974444,-0.0967586,-0.906705,0.419294,-0.0454726,0.00558072,0.0392862,-0.999212,0.00558072,0.0392862,-0.999212,0.00558072,0.0392862,-0.999212,0.00559206,0.0392932,-0.999212,0.00559206,0.0392932,-0.999212,0.00559206,0.0392932,-0.999212,-0.889661,-0.456048,-0.0228772,-0.889661,-0.456048,-0.0228772,-0.889661,-0.456048,-0.0228772,-0.764319,-0.373336,-0.525772,-0.764319,-0.373336,-0.525772,-0.764319,-0.373336,-0.525772,-0.205454,0.977955,0.0373103,-0.205454,0.977955,0.0373103,-0.205454,0.977955,0.0373103,-0.0055557,-0.0392745,0.999213,-0.0055557,-0.0392745,0.999213,-0.0055557,-0.0392745,0.999213,0.00557937,0.0392815,-0.999213,0.00557937,0.0392815,-0.999213,0.00557937,0.0392815,-0.999213,-0.769988,-0.413117,0.486265,-0.769988,-0.413117,0.486265,-0.769988,-0.413117,0.486265,-0.770196,-0.413175,0.485885,-0.770196,-0.413175,0.485885,-0.770196,-0.413175,0.485885,-0.00558374,-0.0392783,0.999213,-0.00558374,-0.0392783,0.999213,-0.00558374,-0.0392783,0.999213,-0.00558534,-0.0392791,0.999213,0.0055808,0.039288,-0.999212,0.00558378,0.0392783,-0.999213,0.00558378,0.0392783,-0.999213,0.00558378,0.0392783,-0.999213,-0.00558106,-0.039284,0.999213,-0.00558106,-0.039284,0.999213,-0.00558106,-0.039284,0.999213,-0.00558354,-0.0392782,0.999213,-0.00558354,-0.0392782,0.999213,-0.00558354,-0.0392782,0.999213,0.00558115,0.039284,-0.999213,0.00558115,0.039284,-0.999213,0.00558115,0.039284,-0.999213,0.0055832,0.039278,-0.999213,0.0055832,0.039278,-0.999213,0.0055832,0.039278,-0.999213,-0.00558315,-0.039278,0.999213,-0.00558315,-0.039278,0.999213,-0.00558315,-0.039278,0.999213,-0.00558314,-0.039278,0.999213,-0.00558314,-0.039278,0.999213,-0.00558314,-0.039278,0.999213,-0.00558393,-0.0392784,0.999213,-0.00558393,-0.0392784,0.999213,-0.00558393,-0.0392784,0.999213,-0.00558394,-0.0392784,0.999213,-0.00558394,-0.0392784,0.999213,-0.00558394,-0.0392784,0.999213,0.0055798,0.0392875,-0.999212,0.0055798,0.0392875,-0.999212,0.0055798,0.0392875,-0.999212,0.00558369,0.0392783,-0.999213,0.00558369,0.0392783,-0.999213,0.00558369,0.0392783,-0.999213,-0.00558441,-0.0392787,0.999213,-0.00558441,-0.0392787,0.999213,-0.00558441,-0.0392787,0.999213,-0.00557367,-0.0392955,0.999212,-0.00557367,-0.0392955,0.999212,-0.00557367,-0.0392955,0.999212,0.00557651,0.0392923,-0.999212,0.00557651,0.0392923,-0.999212,0.00557651,0.0392923,-0.999212,0.00558399,0.0392784,-0.999213,0.00558399,0.0392784,-0.999213,0.00558399,0.0392784,-0.999213,0.00557007,0.0392955,-0.999212,0.00557007,0.0392955,-0.999212,0.00557007,0.0392955,-0.999212,-0.00558095,-0.039287,0.999212,-0.00558095,-0.039287,0.999212,-0.00558095,-0.039287,0.999212,-0.362675,0.931271,0.0346473,-0.362675,0.931271,0.0346473,-0.362675,0.931271,0.0346473,-0.360571,0.919225,0.158158,-0.360571,0.919225,0.158158,-0.360571,0.919225,0.158158,-0.358483,0.927644,-0.104722,-0.358483,0.927644,-0.104722,-0.358483,0.927644,-0.104722,-0.362786,0.931233,0.0345331,-0.362786,0.931233,0.0345331,-0.362786,0.931233,0.0345331,0.00558365,0.0392783,-0.999213,0.00558365,0.0392783,-0.999213,0.00558365,0.0392783,-0.999213,0.00558147,0.0392842,-0.999213,0.00558147,0.0392842,-0.999213,0.00558147,0.0392842,-0.999213,0.00558372,0.0392854,-0.999212,0.00558372,0.0392854,-0.999212,0.00558372,0.0392854,-0.999212,0.00558372,0.0392854,-0.999212,0.00558372,0.0392854,-0.999212,0.00558372,0.0392854,-0.999212,-0.88969,-0.455991,-0.0228994,-0.88969,-0.455991,-0.0228994,-0.88969,-0.455991,-0.0228994,-0.889674,-0.456024,-0.0228764,-0.889674,-0.456024,-0.0228764,-0.889674,-0.456024,-0.0228764,-0.764323,-0.373329,-0.525772,-0.764533,-0.373446,-0.525383,-0.764533,-0.373446,-0.525383,-0.764533,-0.373446,-0.525383,-0.362675,0.931273,0.0345967,-0.362675,0.931273,0.0345967,-0.362675,0.931273,0.0345967,-0.362675,0.931273,0.0345967,-0.362675,0.931273,0.0345967,-0.362675,0.931273,0.0345967,-0.00558526,-0.0392905,0.999212,-0.00558526,-0.0392905,0.999212,-0.00558526,-0.0392905,0.999212,-0.00559114,-0.0392883,0.999212,-0.00559114,-0.0392883,0.999212,-0.00559114,-0.0392883,0.999212,0.00557386,0.0392869,-0.999212,0.00557386,0.0392869,-0.999212,0.00557386,0.0392869,-0.999212,0.00557805,0.0392825,-0.999213,0.00557805,0.0392825,-0.999213,0.00557805,0.0392825,-0.999213,-0.00558154,-0.0392865,0.999212,-0.00558154,-0.0392865,0.999212,-0.00558154,-0.0392865,0.999212,0.0055824,0.0392821,-0.999213,0.0055824,0.0392821,-0.999213,0.0055824,0.0392821,-0.999213,-0.00558534,-0.0392791,0.999213,-0.00558534,-0.0392791,0.999213,-0.00558534,-0.0392791,0.999213,-0.00558373,-0.0392783,0.999213,-0.00558373,-0.0392783,0.999213,-0.00558373,-0.0392783,0.999213,0.00558034,0.0392877,-0.999212,0.00558034,0.0392877,-0.999212,0.00558034,0.0392877,-0.999212,0.00558534,0.0392791,-0.999213,0.298776,-0.647908,0.700613,-0.770176,-0.413215,0.485883,-0.770176,-0.413215,0.485883,-0.770176,-0.413215,0.485883,-0.204634,0.966133,0.1572,-0.204634,0.966133,0.1572,-0.204634,0.966133,0.1572,-0.205315,0.977987,0.0372477,-0.205315,0.977987,0.0372477,-0.205315,0.977987,0.0372477,-0.764527,-0.373457,-0.525384,-0.764527,-0.373457,-0.525384,-0.764527,-0.373457,-0.525384,-0.770182,-0.413202,0.485884,-0.770182,-0.413202,0.485884,-0.770182,-0.413202,0.485884,-0.769988,-0.413117,0.486265,-0.769988,-0.413117,0.486265,-0.769988,-0.413117,0.486265,-0.36057,0.919226,0.158157,-0.36057,0.919226,0.158157,-0.36057,0.919226,0.158157,-0.362785,0.931233,0.0345331,-0.362785,0.931233,0.0345331,-0.362785,0.931233,0.0345331,-0.362786,0.931229,0.034623,-0.362786,0.931229,0.034623,-0.362786,0.931229,0.034623,-0.358483,0.927644,-0.104722,-0.358483,0.927644,-0.104722,-0.358483,0.927644,-0.104722,-0.764531,-0.37345,-0.525383,-0.764531,-0.37345,-0.525383,-0.764531,-0.37345,-0.525383,-0.764325,-0.373325,-0.525771,-0.764325,-0.373325,-0.525771,-0.764325,-0.373325,-0.525771,-0.00558583,-0.0392791,0.999213,-0.00558583,-0.0392791,0.999213,-0.00558583,-0.0392791,0.999213,-0.00555428,-0.0392812,0.999213,-0.00555428,-0.0392812,0.999213,-0.00555428,-0.0392812,0.999213,0.00556683,0.0392796,-0.999213,0.00556683,0.0392796,-0.999213,0.00556683,0.0392796,-0.999213,0.00558165,0.0392827,-0.999213,0.00558165,0.0392827,-0.999213,0.00558165,0.0392827,-0.999213,-0.00558599,-0.0392795,0.999213,-0.00558599,-0.0392795,0.999213,-0.00558599,-0.0392795,0.999213,-0.00560752,-0.0392894,0.999212,-0.00560752,-0.0392894,0.999212,-0.00560752,-0.0392894,0.999212,-0.00558844,-0.0392814,0.999213,-0.00558844,-0.0392814,0.999213,-0.00558844,-0.0392814,0.999213,-0.00557142,-0.0392943,0.999212,-0.00557142,-0.0392943,0.999212,-0.00557142,-0.0392943,0.999212,0.00557598,0.03928,-0.999213,0.00557598,0.03928,-0.999213,0.00557598,0.03928,-0.999213,0.0055766,0.0392883,-0.999212,0.0055766,0.0392883,-0.999212,0.0055766,0.0392883,-0.999212,0.00558303,0.039281,-0.999213,0.00558303,0.039281,-0.999213,0.00558303,0.039281,-0.999213,0.00557846,0.0392832,-0.999213,0.00557846,0.0392832,-0.999213,0.00557846,0.0392832,-0.999213],
                "itemSize":3,
                "type":"Float32Array"
            },
            "position":{
                "array":[-0.230851,0.86613,-0.0658367,-0.230246,0.866481,-0.0669474,-0.230252,0.866437,-0.0658212,-0.259785,0.854643,-0.0664499,-0.244902,0.860371,-0.0672695,-0.244909,0.860326,-0.0661433,-0.274421,0.848494,-0.0667734,-0.259778,0.854688,-0.0675761,-0.289194,0.842609,-0.0670872,-0.274415,0.848538,-0.0678996,-0.302745,0.834346,-0.0674878,-0.289187,0.842654,-0.0682134,-0.314159,0.82268,-0.0691382,-0.309298,0.828627,-0.0677492,-0.314166,0.822635,-0.068012,-0.237007,0.860993,-0.0521224,-0.238296,0.863368,-0.0810654,-0.230845,0.866175,-0.0669628,-0.259041,0.852495,-0.0525796,-0.244194,0.858236,-0.0522709,-0.259056,0.853979,-0.0815505,-0.274014,0.847001,-0.0528792,-0.274313,0.849039,-0.0818299,-0.288794,0.841131,-0.0531925,-0.288619,0.842246,-0.0821769,-0.302738,0.83439,-0.068614,-0.301857,0.833374,-0.0825996,-0.309259,0.827852,-0.0538289,-0.314044,0.821699,-0.0540975,-0.312193,0.816528,-0.0833197,-0.31306,0.817182,-0.0693482,-0.311994,0.816015,-0.0833387,-0.237343,0.862489,-0.0815919,-0.237479,0.863366,-0.0810609,-0.237735,0.863253,-0.081564,-0.237991,0.862157,-0.0816085,-0.244126,0.859582,-0.081744,-0.243734,0.858819,-0.0817719,-0.237354,0.859412,-0.0516892,-0.237098,0.860507,-0.0516447,-0.236706,0.859744,-0.0516726,-0.25849,0.852902,-0.0820869,-0.244126,0.859582,-0.081744,-0.258882,0.853666,-0.0820591,-0.25848,0.851379,-0.0521231,-0.244026,0.857883,-0.0517866,-0.243634,0.85712,-0.0518144,-0.273747,0.847962,-0.0823663,-0.258882,0.853666,-0.0820591,-0.274139,0.848726,-0.0823385,-0.288053,0.841169,-0.0827133,-0.274139,0.848726,-0.0823385,-0.288445,0.841933,-0.0826855,-0.288233,0.840015,-0.052736,-0.273845,0.846649,-0.0523949,-0.273453,0.845885,-0.0524227,-0.288053,0.841169,-0.0827133,-0.301684,0.833061,-0.0831082,-0.301291,0.832297,-0.0831361,-0.288233,0.840015,-0.052736,-0.302497,0.833141,-0.053086,-0.288625,0.840779,-0.0527082,-0.307493,0.826008,-0.0834179,-0.312174,0.820762,-0.0836504,-0.31172,0.820397,-0.0836622,-0.311505,0.815288,-0.0543354,-0.311915,0.815183,-0.0538446,-0.311507,0.815268,-0.0538389,-0.312217,0.817437,-0.0693334,-0.311558,0.816184,-0.0833296,-0.312625,0.817352,-0.0693391,-0.230117,0.864701,-0.0658888,-0.229512,0.865052,-0.0669995,-0.23011,0.864745,-0.0670149,-0.259044,0.853258,-0.0676282,-0.244175,0.858897,-0.0661955,-0.244168,0.858941,-0.0673216,-0.273687,0.847064,-0.0668255,-0.273681,0.847109,-0.0679517,-0.28846,0.84118,-0.0671393,-0.288453,0.841224,-0.0682655,-0.30201,0.832917,-0.0675399,-0.302004,0.832961,-0.0686661,-0.312927,0.821763,-0.0680394,-0.308517,0.827163,-0.0689304,-0.31292,0.821807,-0.0691656,-0.236273,0.859563,-0.0521745,-0.229518,0.865007,-0.0658733,-0.237562,0.861938,-0.0811175,-0.243565,0.858466,-0.0812875,-0.258306,0.851066,-0.0526317,-0.259051,0.853214,-0.066502,-0.258321,0.85255,-0.0816026,-0.273279,0.845572,-0.0529313,-0.273579,0.84761,-0.081882,-0.288059,0.839702,-0.0532446,-0.287885,0.840817,-0.082229,-0.308484,0.826343,-0.0538839,-0.308523,0.827118,-0.0678042,-0.310915,0.816952,-0.0832959,-0.311781,0.817606,-0.0693244,-0.311981,0.818119,-0.0693053,-0.258872,0.852143,-0.0520952,-0.273453,0.845885,-0.0524227,-0.273845,0.846649,-0.0523949,-0.311915,0.815183,-0.0538446,-0.311707,0.815781,-0.0538199,-0.311507,0.815268,-0.0538389,-0.230081,0.866104,-0.0658334,-0.229683,0.865385,-0.0669874,-0.229689,0.865341,-0.0658612,-0.237098,0.860507,-0.0516447,-0.236444,0.859896,-0.0521624,-0.236706,0.859744,-0.0516726,-0.312625,0.817352,-0.0693391,-0.312223,0.817393,-0.0682073,-0.312217,0.817437,-0.0693334,-0.313066,0.817138,-0.068222,-0.31326,0.817695,-0.0693291,-0.313266,0.817651,-0.0682029,-0.312348,0.815033,-0.0543501,-0.31255,0.815526,-0.0538346,-0.312351,0.815014,-0.0538536,-0.308088,0.827166,-0.0833758,-0.312569,0.820996,-0.0831461,-0.312567,0.821016,-0.0836426,-0.311347,0.816802,-0.0838014,-0.311555,0.816204,-0.0838261,-0.311148,0.816289,-0.0838205,-0.311987,0.818075,-0.0681791,-0.311788,0.817562,-0.0681982,-0.311269,0.81597,-0.0543073,-0.307316,0.825637,-0.0829343,-0.313655,0.821426,-0.0536088,-0.308667,0.826675,-0.0533746,-0.3132,0.821061,-0.0536206,-0.236915,0.86227,-0.0811009,-0.237343,0.862489,-0.0815919,-0.237172,0.862156,-0.081604,-0.230246,0.866481,-0.0669474,-0.237479,0.863366,-0.0810609,-0.230075,0.866148,-0.0669596,-0.23782,0.861824,-0.0816207,-0.243734,0.858819,-0.0817719,-0.243563,0.858486,-0.081784,-0.238554,0.863254,-0.0815686,-0.237735,0.863253,-0.081564,-0.237906,0.863586,-0.0815519,-0.237183,0.859079,-0.0517014,-0.236706,0.859744,-0.0516726,-0.236535,0.859411,-0.0516847,-0.237917,0.860508,-0.0516493,-0.244026,0.857883,-0.0517866,-0.244197,0.858217,-0.0517745,-0.258319,0.852569,-0.082099,-0.243734,0.858819,-0.0817719,-0.25849,0.852902,-0.0820869,-0.244297,0.859915,-0.0817319,-0.258882,0.853666,-0.0820591,-0.244126,0.859582,-0.081744,-0.258309,0.851046,-0.0521352,-0.243634,0.85712,-0.0518144,-0.243463,0.856787,-0.0518266,-0.244197,0.858217,-0.0517745,-0.258872,0.852143,-0.0520952,-0.259043,0.852476,-0.0520831,-0.273576,0.847629,-0.0823785,-0.25849,0.852902,-0.0820869,-0.273747,0.847962,-0.0823663,-0.259053,0.853999,-0.0820469,-0.274139,0.848726,-0.0823385,-0.258882,0.853666,-0.0820591,-0.287882,0.840836,-0.0827254,-0.273747,0.847962,-0.0823663,-0.288053,0.841169,-0.0827133,-0.27431,0.849059,-0.0823264,-0.288445,0.841933,-0.0826855,-0.274139,0.848726,-0.0823385,-0.288062,0.839682,-0.0527482,-0.273453,0.845885,-0.0524227,-0.273282,0.845552,-0.0524348,-0.274016,0.846982,-0.0523827,-0.288625,0.840779,-0.0527082,-0.288796,0.841112,-0.0526961,-0.287882,0.840836,-0.0827254,-0.301291,0.832297,-0.0831361,-0.30112,0.831964,-0.0831482,-0.301855,0.833394,-0.0830961,-0.288445,0.841933,-0.0826855,-0.288616,0.842266,-0.0826733,-0.288062,0.839682,-0.0527482,-0.302105,0.832377,-0.0531138,-0.288233,0.840015,-0.052736,-0.302668,0.833474,-0.0530738,-0.288625,0.840779,-0.0527082,-0.302497,0.833141,-0.053086,-0.307493,0.826008,-0.0834179,-0.311657,0.820784,-0.0836466,-0.307313,0.825657,-0.0834308,-0.312567,0.821016,-0.0836426,-0.307907,0.826814,-0.0833886,-0.308088,0.827166,-0.0833758,-0.311069,0.815457,-0.0543263,-0.311507,0.815268,-0.0538389,-0.311072,0.815437,-0.0538298,-0.312348,0.815033,-0.0543501,-0.312631,0.817307,-0.0682129,-0.313066,0.817138,-0.068222,-0.311781,0.817606,-0.0693244,-0.31115,0.81627,-0.083324,-0.312217,0.817437,-0.0693334,-0.311994,0.816015,-0.0833387,-0.311555,0.816204,-0.0838261,-0.311991,0.816034,-0.0838352,-0.259043,0.852476,-0.0520831,-0.273845,0.846649,-0.0523949,-0.274016,0.846982,-0.0523827,-0.273282,0.845552,-0.0524348,-0.25848,0.851379,-0.0521231,-0.258309,0.851046,-0.0521352,-0.312351,0.815014,-0.0538536,-0.312115,0.815696,-0.0538255,-0.311915,0.815183,-0.0538446,-0.311072,0.815437,-0.0538298,-0.311707,0.815781,-0.0538199,-0.311272,0.81595,-0.0538108,-0.230252,0.866437,-0.0658212,-0.230075,0.866148,-0.0669596,-0.230081,0.866104,-0.0658334,-0.229518,0.865007,-0.0658733,-0.229683,0.865385,-0.0669874,-0.229512,0.865052,-0.0669995,-0.237007,0.860993,-0.0521224,-0.237098,0.860507,-0.0516447,-0.237269,0.86084,-0.0516326,-0.229518,0.865007,-0.0658733,-0.236444,0.859896,-0.0521624,-0.229689,0.865341,-0.0658612,-0.313066,0.817138,-0.068222,-0.312625,0.817352,-0.0693391,-0.31306,0.817182,-0.0693482,-0.311788,0.817562,-0.0681982,-0.312217,0.817437,-0.0693334,-0.312223,0.817393,-0.0682073,-0.310912,0.816971,-0.0837923,-0.311148,0.816289,-0.0838205,-0.310712,0.816458,-0.0838114,-0.311991,0.816034,-0.0838352,-0.311755,0.816717,-0.0838071,-0.312191,0.816547,-0.0838161,-0.3132,0.821061,-0.0536206,-0.308486,0.826324,-0.0533874,-0.312808,0.820807,-0.0536284,-0.309081,0.827481,-0.0533452,-0.314047,0.82168,-0.053601,-0.309261,0.827833,-0.0533324,-0.237917,0.860508,-0.0516493,-0.237653,0.860662,-0.052139,-0.237906,0.863586,-0.0815519,-0.238554,0.863254,-0.0815686,-0.237735,0.863253,-0.081564,-0.237991,0.862157,-0.0816085,-0.237343,0.862489,-0.0815919,-0.243634,0.85712,-0.0518144,-0.237746,0.860175,-0.0516614,-0.237354,0.859412,-0.0516892,-0.236919,0.859232,-0.0521911,-0.236915,0.86227,-0.0811009,-0.237343,0.862489,-0.0815919,-0.23782,0.861824,-0.0816207,-0.237172,0.862156,-0.081604,-0.244297,0.859915,-0.0817319,-0.238383,0.862921,-0.0815807,-0.238554,0.863254,-0.0815686,-0.243463,0.856787,-0.0518266,-0.237354,0.859412,-0.0516892,-0.237183,0.859079,-0.0517014,-0.237098,0.860507,-0.0516447,-0.237917,0.860508,-0.0516493,-0.237269,0.86084,-0.0516326,-0.237269,0.86084,-0.0516326,-0.244299,0.859896,-0.0812354,-0.244197,0.858217,-0.0517745,-0.259053,0.853999,-0.0820469,-0.274016,0.846982,-0.0523827,-0.259043,0.852476,-0.0520831,-0.27431,0.849059,-0.0823264,-0.288796,0.841112,-0.0526961,-0.288616,0.842266,-0.0826733,-0.302668,0.833474,-0.0530738,-0.301855,0.833394,-0.0830961,-0.309261,0.827833,-0.0533324,-0.314047,0.82168,-0.053601,-0.312191,0.816547,-0.0838161,-0.311991,0.816034,-0.0838352,-0.230075,0.866148,-0.0669596,-0.237086,0.862603,-0.0810887,-0.229683,0.865385,-0.0669874,-0.312223,0.817393,-0.0682073,-0.311912,0.815202,-0.054341,-0.311505,0.815288,-0.0543354,-0.311555,0.816204,-0.0838261,-0.31115,0.81627,-0.083324,-0.311148,0.816289,-0.0838205,-0.236535,0.859411,-0.0516847,-0.23782,0.861824,-0.0816207,-0.243463,0.856787,-0.0518266,-0.258309,0.851046,-0.0521352,-0.258319,0.852569,-0.082099,-0.243563,0.858486,-0.081784,-0.273282,0.845552,-0.0524348,-0.273576,0.847629,-0.0823785,-0.288062,0.839682,-0.0527482,-0.287882,0.840836,-0.0827254,-0.301931,0.832064,-0.0536224,-0.301934,0.832044,-0.0531259,-0.30112,0.831964,-0.0831482,-0.308486,0.826324,-0.0533874,-0.312805,0.820827,-0.0541249,-0.312808,0.820807,-0.0536284,-0.310712,0.816458,-0.0838114,-0.310912,0.816971,-0.0837923,-0.229689,0.865341,-0.0658612,-0.236836,0.86066,-0.0521345,-0.230081,0.866104,-0.0658334,-0.312548,0.815546,-0.0543311,-0.308091,0.827146,-0.0828793,-0.309292,0.828672,-0.0688754,-0.311272,0.81595,-0.0538108,-0.311069,0.815457,-0.0543263,-0.311072,0.815437,-0.0538298,-0.311657,0.820784,-0.0836466,-0.307313,0.825657,-0.0834308,-0.229683,0.865385,-0.0669874,-0.236915,0.86227,-0.0811009,-0.229512,0.865052,-0.0669995,-0.237906,0.863586,-0.0815519,-0.237479,0.863366,-0.0810609,-0.23765,0.863699,-0.0810487,-0.311788,0.817562,-0.0681982,-0.311505,0.815288,-0.0543354,-0.311069,0.815457,-0.0543263,-0.312351,0.815014,-0.0538536,-0.311912,0.815202,-0.054341,-0.312348,0.815033,-0.0543501,-0.311148,0.816289,-0.0838205,-0.310715,0.816439,-0.0833149,-0.310712,0.816458,-0.0838114,-0.312625,0.817352,-0.0693391,-0.311994,0.816015,-0.0833387,-0.31306,0.817182,-0.0693482,-0.230081,0.866104,-0.0658334,-0.237007,0.860993,-0.0521224,-0.230252,0.866437,-0.0658212,-0.236535,0.859411,-0.0516847,-0.236444,0.859896,-0.0521624,-0.236273,0.859563,-0.0521745,-0.23765,0.863699,-0.0810487,-0.24346,0.856806,-0.052323,-0.237183,0.859079,-0.0517014,-0.237172,0.862156,-0.081604,-0.302666,0.833493,-0.0535703,-0.301291,0.832297,-0.0831361,-0.307907,0.826814,-0.0833886,-0.307493,0.826008,-0.0834179,-0.311755,0.816717,-0.0838071,-0.31172,0.820397,-0.0836622,-0.312174,0.820762,-0.0836504,-0.301123,0.831945,-0.0826517,-0.311331,0.820123,-0.0831735,-0.312115,0.815696,-0.0538255,-0.3132,0.821061,-0.0536206,-0.311707,0.815781,-0.0538199,-0.302105,0.832377,-0.0531138,-0.309081,0.827481,-0.0533452,-0.302497,0.833141,-0.053086,-0.30112,0.831964,-0.0831482,-0.307493,0.826008,-0.0834179,-0.307313,0.825657,-0.0834308,-0.310912,0.816971,-0.0837923,-0.31172,0.820397,-0.0836622,-0.311347,0.816802,-0.0838014,-0.312191,0.816547,-0.0838161,-0.312174,0.820762,-0.0836504,-0.312567,0.821016,-0.0836426,-0.301684,0.833061,-0.0831082,-0.308088,0.827166,-0.0833758,-0.307907,0.826814,-0.0833886,-0.311707,0.815781,-0.0538199,-0.312808,0.820807,-0.0536284,-0.311272,0.81595,-0.0538108,-0.301934,0.832044,-0.0531259,-0.308667,0.826675,-0.0533746,-0.302105,0.832377,-0.0531138,-0.302497,0.833141,-0.053086,-0.309261,0.827833,-0.0533324,-0.302668,0.833474,-0.0530738,-0.31255,0.815526,-0.0538346,-0.313655,0.821426,-0.0536088,-0.312115,0.815696,-0.0538255,-0.237086,0.862603,-0.0810887,-0.237991,0.862157,-0.0816085,-0.238383,0.862921,-0.0815807,-0.244126,0.859582,-0.081744,-0.237354,0.859412,-0.0516892,-0.237746,0.860175,-0.0516614,-0.237098,0.860507,-0.0516447,-0.25849,0.852902,-0.0820869,-0.243734,0.858819,-0.0817719,-0.244126,0.859582,-0.081744,-0.25848,0.851379,-0.0521231,-0.258872,0.852143,-0.0520952,-0.244026,0.857883,-0.0517866,-0.273747,0.847962,-0.0823663,-0.25849,0.852902,-0.0820869,-0.258882,0.853666,-0.0820591,-0.288053,0.841169,-0.0827133,-0.273747,0.847962,-0.0823663,-0.274139,0.848726,-0.0823385,-0.288233,0.840015,-0.052736,-0.288625,0.840779,-0.0527082,-0.273845,0.846649,-0.0523949,-0.288053,0.841169,-0.0827133,-0.288445,0.841933,-0.0826855,-0.301684,0.833061,-0.0831082,-0.288233,0.840015,-0.052736,-0.302105,0.832377,-0.0531138,-0.302497,0.833141,-0.053086,-0.307493,0.826008,-0.0834179,-0.307907,0.826814,-0.0833886,-0.312174,0.820762,-0.0836504,-0.311505,0.815288,-0.0543354,-0.311912,0.815202,-0.054341,-0.311915,0.815183,-0.0538446,-0.312217,0.817437,-0.0693334,-0.31115,0.81627,-0.083324,-0.311558,0.816184,-0.0833296,-0.310715,0.816439,-0.0833149,-0.258872,0.852143,-0.0520952,-0.25848,0.851379,-0.0521231,-0.273453,0.845885,-0.0524227,-0.311915,0.815183,-0.0538446,-0.312115,0.815696,-0.0538255,-0.311707,0.815781,-0.0538199,-0.230081,0.866104,-0.0658334,-0.230075,0.866148,-0.0669596,-0.229683,0.865385,-0.0669874,-0.237098,0.860507,-0.0516447,-0.236836,0.86066,-0.0521345,-0.236444,0.859896,-0.0521624,-0.312625,0.817352,-0.0693391,-0.312631,0.817307,-0.0682129,-0.312223,0.817393,-0.0682073,-0.311347,0.816802,-0.0838014,-0.311755,0.816717,-0.0838071,-0.311555,0.816204,-0.0838261,-0.313655,0.821426,-0.0536088,-0.309081,0.827481,-0.0533452,-0.308667,0.826675,-0.0533746,-0.236915,0.86227,-0.0811009,-0.237086,0.862603,-0.0810887,-0.237343,0.862489,-0.0815919,-0.230246,0.866481,-0.0669474,-0.23765,0.863699,-0.0810487,-0.237479,0.863366,-0.0810609,-0.23782,0.861824,-0.0816207,-0.237991,0.862157,-0.0816085,-0.243734,0.858819,-0.0817719,-0.238383,0.862921,-0.0815807,-0.237354,0.859412,-0.0516892,-0.237917,0.860508,-0.0516493,-0.237746,0.860175,-0.0516614,-0.244026,0.857883,-0.0517866,-0.258319,0.852569,-0.082099,-0.243563,0.858486,-0.081784,-0.243734,0.858819,-0.0817719,-0.244297,0.859915,-0.0817319,-0.259053,0.853999,-0.0820469,-0.258882,0.853666,-0.0820591,-0.258309,0.851046,-0.0521352,-0.25848,0.851379,-0.0521231,-0.243634,0.85712,-0.0518144,-0.244197,0.858217,-0.0517745,-0.244026,0.857883,-0.0517866,-0.258872,0.852143,-0.0520952,-0.273576,0.847629,-0.0823785,-0.258319,0.852569,-0.082099,-0.25849,0.852902,-0.0820869,-0.259053,0.853999,-0.0820469,-0.27431,0.849059,-0.0823264,-0.274139,0.848726,-0.0823385,-0.287882,0.840836,-0.0827254,-0.273576,0.847629,-0.0823785,-0.273747,0.847962,-0.0823663,-0.27431,0.849059,-0.0823264,-0.288616,0.842266,-0.0826733,-0.288445,0.841933,-0.0826855,-0.288062,0.839682,-0.0527482,-0.288233,0.840015,-0.052736,-0.273453,0.845885,-0.0524227,-0.274016,0.846982,-0.0523827,-0.273845,0.846649,-0.0523949,-0.288625,0.840779,-0.0527082,-0.287882,0.840836,-0.0827254,-0.288053,0.841169,-0.0827133,-0.301291,0.832297,-0.0831361,-0.301855,0.833394,-0.0830961,-0.301684,0.833061,-0.0831082,-0.288445,0.841933,-0.0826855,-0.288062,0.839682,-0.0527482,-0.301934,0.832044,-0.0531259,-0.302105,0.832377,-0.0531138,-0.302668,0.833474,-0.0530738,-0.288796,0.841112,-0.0526961,-0.288625,0.840779,-0.0527082,-0.307493,0.826008,-0.0834179,-0.31172,0.820397,-0.0836622,-0.311657,0.820784,-0.0836466,-0.312567,0.821016,-0.0836426,-0.312174,0.820762,-0.0836504,-0.307907,0.826814,-0.0833886,-0.311069,0.815457,-0.0543263,-0.311505,0.815288,-0.0543354,-0.311507,0.815268,-0.0538389,-0.312348,0.815033,-0.0543501,-0.311912,0.815202,-0.054341,-0.312631,0.817307,-0.0682129,-0.311781,0.817606,-0.0693244,-0.310715,0.816439,-0.0833149,-0.31115,0.81627,-0.083324,-0.311994,0.816015,-0.0833387,-0.311558,0.816184,-0.0833296,-0.311555,0.816204,-0.0838261,-0.259043,0.852476,-0.0520831,-0.258872,0.852143,-0.0520952,-0.273845,0.846649,-0.0523949,-0.273282,0.845552,-0.0524348,-0.273453,0.845885,-0.0524227,-0.25848,0.851379,-0.0521231,-0.312351,0.815014,-0.0538536,-0.31255,0.815526,-0.0538346,-0.312115,0.815696,-0.0538255,-0.311072,0.815437,-0.0538298,-0.311507,0.815268,-0.0538389,-0.311707,0.815781,-0.0538199,-0.230252,0.866437,-0.0658212,-0.230246,0.866481,-0.0669474,-0.230075,0.866148,-0.0669596,-0.229518,0.865007,-0.0658733,-0.229689,0.865341,-0.0658612,-0.229683,0.865385,-0.0669874,-0.236836,0.86066,-0.0521345,-0.229518,0.865007,-0.0658733,-0.236273,0.859563,-0.0521745,-0.236444,0.859896,-0.0521624,-0.313066,0.817138,-0.068222,-0.312631,0.817307,-0.0682129,-0.312625,0.817352,-0.0693391,-0.311788,0.817562,-0.0681982,-0.311781,0.817606,-0.0693244,-0.312217,0.817437,-0.0693334,-0.310912,0.816971,-0.0837923,-0.311347,0.816802,-0.0838014,-0.311148,0.816289,-0.0838205,-0.311991,0.816034,-0.0838352,-0.311555,0.816204,-0.0838261,-0.311755,0.816717,-0.0838071,-0.3132,0.821061,-0.0536206,-0.308667,0.826675,-0.0533746,-0.308486,0.826324,-0.0533874,-0.309081,0.827481,-0.0533452,-0.313655,0.821426,-0.0536088,-0.314047,0.82168,-0.053601,-0.237735,0.863253,-0.081564,-0.238383,0.862921,-0.0815807,-0.237991,0.862157,-0.0816085,-0.243634,0.85712,-0.0518144,-0.244026,0.857883,-0.0517866,-0.237746,0.860175,-0.0516614,-0.237343,0.862489,-0.0815919,-0.237991,0.862157,-0.0816085,-0.23782,0.861824,-0.0816207,-0.244297,0.859915,-0.0817319,-0.244126,0.859582,-0.081744,-0.238383,0.862921,-0.0815807,-0.243463,0.856787,-0.0518266,-0.243634,0.85712,-0.0518144,-0.237354,0.859412,-0.0516892,-0.237746,0.860175,-0.0516614,-0.244297,0.859915,-0.0817319,-0.230075,0.866148,-0.0669596,-0.237479,0.863366,-0.0810609,-0.237086,0.862603,-0.0810887,-0.312223,0.817393,-0.0682073,-0.312631,0.817307,-0.0682129,-0.311912,0.815202,-0.054341,-0.311555,0.816204,-0.0838261,-0.311558,0.816184,-0.0833296,-0.31115,0.81627,-0.083324,-0.229689,0.865341,-0.0658612,-0.236444,0.859896,-0.0521624,-0.236836,0.86066,-0.0521345,-0.229683,0.865385,-0.0669874,-0.237086,0.862603,-0.0810887,-0.236915,0.86227,-0.0811009,-0.237906,0.863586,-0.0815519,-0.237735,0.863253,-0.081564,-0.237479,0.863366,-0.0810609,-0.311788,0.817562,-0.0681982,-0.312223,0.817393,-0.0682073,-0.311505,0.815288,-0.0543354,-0.312351,0.815014,-0.0538536,-0.311915,0.815183,-0.0538446,-0.311912,0.815202,-0.054341,-0.311148,0.816289,-0.0838205,-0.31115,0.81627,-0.083324,-0.310715,0.816439,-0.0833149,-0.312625,0.817352,-0.0693391,-0.311558,0.816184,-0.0833296,-0.311994,0.816015,-0.0833387,-0.230081,0.866104,-0.0658334,-0.236836,0.86066,-0.0521345,-0.237007,0.860993,-0.0521224,-0.236535,0.859411,-0.0516847,-0.236706,0.859744,-0.0516726,-0.236444,0.859896,-0.0521624,-0.301291,0.832297,-0.0831361,-0.301684,0.833061,-0.0831082,-0.307907,0.826814,-0.0833886,-0.311755,0.816717,-0.0838071,-0.311347,0.816802,-0.0838014,-0.31172,0.820397,-0.0836622,-0.312115,0.815696,-0.0538255,-0.313655,0.821426,-0.0536088,-0.3132,0.821061,-0.0536206,-0.302105,0.832377,-0.0531138,-0.308667,0.826675,-0.0533746,-0.309081,0.827481,-0.0533452,-0.30112,0.831964,-0.0831482,-0.301291,0.832297,-0.0831361,-0.307493,0.826008,-0.0834179,-0.310912,0.816971,-0.0837923,-0.311657,0.820784,-0.0836466,-0.31172,0.820397,-0.0836622,-0.312191,0.816547,-0.0838161,-0.311755,0.816717,-0.0838071,-0.312174,0.820762,-0.0836504,-0.301684,0.833061,-0.0831082,-0.301855,0.833394,-0.0830961,-0.308088,0.827166,-0.0833758,-0.311707,0.815781,-0.0538199,-0.3132,0.821061,-0.0536206,-0.312808,0.820807,-0.0536284,-0.301934,0.832044,-0.0531259,-0.308486,0.826324,-0.0533874,-0.308667,0.826675,-0.0533746,-0.302497,0.833141,-0.053086,-0.309081,0.827481,-0.0533452,-0.309261,0.827833,-0.0533324,-0.31255,0.815526,-0.0538346,-0.314047,0.82168,-0.053601,-0.313655,0.821426,-0.0536088],
                "itemSize":3,
                "type":"Float32Array"
            }
        }
    }
}