{
    "metadata":{
        "version":3,
        "generator":"io_three",
        "position":108,
        "normal":108,
        "type":"BufferGeometry",
        "uv":108
    },
    "data":{
        "attributes":{
            "normal":{
                "type":"Float32Array",
                "itemSize":3,
                "array":[0,1,0,0.358501,0.9335,0,0.110782,0.9335,-0.340953,0.674215,0.738517,0,0.484054,0.801202,-0.351695,0.20835,0.738517,-0.641194,0.894406,0.447188,0,0.783288,0.517014,-0.345134,0.570299,0.517014,-0.638264,0.276376,0.447218,-0.850612,0,1,0,-0.290017,0.9335,-0.2107,-0.184881,0.801202,-0.569048,-0.545457,0.738517,-0.396283,-0.0861843,0.517045,-0.851588,-0.430799,0.517045,-0.739616,-0.723594,0.447188,-0.525712,0,1,0,-0.290017,0.9335,-0.2107,-0.290017,0.9335,0.2107,-0.545457,0.738517,-0.396283,-0.598346,0.801233,0,-0.545457,0.738517,0.396283,-0.836543,0.517014,-0.181158,-0.836543,0.517014,-0.181158,-0.836543,0.517014,0.181158,-0.723594,0.447188,0.525712,0,1,0,0.110782,0.9335,0.340953,-0.184881,0.801233,0.569048,0.20835,0.738517,0.641194,-0.43083,0.517045,0.739616,-0.0862148,0.517045,0.851588,0.276376,0.447218,0.850612,0,1,0,0.484054,0.801233,0.351695,0.570299,0.517014,0.638264,0.783288,0.517014,0.345134,0.963897,0.159337,0.213202,0.963897,0.159337,-0.213202,0.905148,-0.159337,0.394086,0.984222,-0.176824,0,0.905148,-0.159337,-0.394055,0.723594,-0.447188,0.525712,0.836543,-0.517014,0.181158,0.836543,-0.517014,-0.181158,0.723594,-0.447188,-0.525681,0.500626,0.159337,-0.850856,0.0950652,0.159337,-0.982604,0.654469,-0.159337,-0.739067,0.304117,-0.176824,-0.936064,-0.0950652,-0.159337,-0.982604,0.43083,-0.517014,-0.739616,0.0861843,-0.517014,-0.851588,-0.276376,-0.447188,-0.850642,-0.654469,0.159337,-0.739067,-0.905148,0.159337,-0.394086,-0.500626,-0.159337,-0.850826,-0.796258,-0.176824,-0.578509,-0.963897,-0.159337,-0.213202,-0.570299,-0.517014,-0.638295,-0.783288,-0.517014,-0.345134,-0.963897,-0.159337,-0.213202,-0.783288,-0.517014,-0.345134,-0.894406,-0.447188,0,-0.905148,0.159337,0.394086,-0.6545,0.159337,0.739067,-0.963897,-0.159337,0.213202,-0.796258,-0.176824,0.578509,-0.500656,-0.159337,0.850826,-0.783288,-0.517014,0.345134,-0.570299,-0.517014,0.638295,-0.276376,-0.447188,0.850642,0.0950652,0.159337,0.982604,0.500626,0.159337,0.850856,-0.0950652,-0.159337,0.982604,0.304117,-0.176824,0.936064,0.654469,-0.159337,0.739067,0.0861843,-0.517014,0.851588,0.43083,-0.517014,0.739616,0.796258,0.176824,-0.578509,-0.304117,0.176824,-0.936064,-0.984222,0.176824,0,-0.905148,0.159337,-0.394086,-0.304147,0.176824,0.936064,0.796258,0.176824,0.578509,0,-1,0,-0.110782,-0.9335,-0.340953,0.290017,-0.9335,-0.2107,-0.208319,-0.738487,-0.641224,0.184881,-0.801202,-0.569079,0.545457,-0.738517,-0.396283,0,-1,0,-0.358501,-0.9335,0,-0.110782,-0.9335,-0.340953,-0.674215,-0.738517,0,-0.484054,-0.801233,-0.351695,-0.484054,-0.801233,-0.351695,0,-1,0,-0.110782,-0.9335,0.340953,-0.208319,-0.738487,0.641224,-0.484054,-0.801233,0.351695,0,-1,0,0.290017,-0.9335,0.2107,0.545457,-0.738517,0.396283,0.184881,-0.801202,0.569079,0,-1,0,0.598346,-0.801233,0]
            },
            "uv":{
                "type":"Float32Array",
                "itemSize":2,
                "array":[0.6,1,0.5,0.882528,0.7,0.882528,0.5,0.765056,0.6,0.798061,0.7,0.765056,0.5,0.647584,0.565623,0.672879,0.634377,0.672879,0.7,0.647584,0.8,1,0.9,0.882528,0.8,0.798061,0.9,0.765056,0.765623,0.672879,0.834377,0.672879,0.9,0.647584,1.49012e-08,1,-0.1,0.882528,0.1,0.882528,-0.1,0.765056,2.98023e-08,0.798061,0.1,0.765056,0.965623,0.672879,-0.0343767,0.672879,0.0343767,0.672879,0.1,0.647584,0.2,1,0.3,0.882528,0.2,0.798061,0.3,0.765056,0.165623,0.672879,0.234377,0.672879,0.3,0.647584,0.4,1,0.4,0.798061,0.365623,0.672879,0.434377,0.672879,0.465567,0.549885,0.534432,0.549885,0.434432,0.450115,0.5,0.445645,0.565567,0.450115,0.4,0.352416,0.465623,0.327121,0.534377,0.327121,0.6,0.352416,0.665568,0.549885,0.734432,0.549885,0.634432,0.450115,0.7,0.445645,0.765567,0.450115,0.665623,0.327121,0.734377,0.327121,0.8,0.352416,0.865568,0.549885,0.934433,0.549885,0.834432,0.450115,0.9,0.445645,0.965567,0.450115,0.865623,0.327121,0.934377,0.327121,-0.0344325,0.450115,-0.0656233,0.327121,2.98023e-08,0.352416,0.0655676,0.549885,0.134433,0.549885,0.0344325,0.450115,0.1,0.445645,0.165568,0.450115,0.0656234,0.327121,0.134377,0.327121,0.2,0.352416,0.265568,0.549885,0.334432,0.549885,0.234433,0.450115,0.3,0.445645,0.365568,0.450115,0.265623,0.327121,0.334377,0.327121,0.6,0.554355,0.8,0.554355,2.98023e-08,0.554355,-0.0655675,0.549885,0.2,0.554355,0.4,0.554355,0.7,0,0.8,0.117472,0.6,0.117472,0.8,0.234944,0.7,0.201939,0.6,0.234944,-0.1,0,2.98023e-08,0.117472,-0.2,0.117472,2.98023e-08,0.234944,-0.1,0.201939,0.9,0.201939,0.1,0,0.2,0.117472,0.2,0.234944,0.1,0.201939,0.3,0,0.4,0.117472,0.4,0.234944,0.3,0.201939,0.5,0,0.5,0.201939]
            },
            "position":{
                "type":"Float32Array",
                "itemSize":3,
                "array":[-0.0308061,0.897835,0.0654619,-0.0292974,0.897553,0.0654619,-0.0303399,0.897553,0.064027,-0.0279918,0.896746,0.0654619,-0.0288006,0.897021,0.0640048,-0.0299364,0.896746,0.0627853,-0.0270652,0.895522,0.0654619,-0.0275255,0.895814,0.064027,-0.0284277,0.895814,0.0627853,-0.0296501,0.895522,0.061904,-0.0308061,0.897835,0.0654619,-0.0320267,0.897553,0.0645751,-0.0315722,0.897021,0.0631042,-0.033083,0.896746,0.0638077,-0.0311571,0.895814,0.0618985,-0.0326168,0.895814,0.0623727,-0.0338326,0.895522,0.063263,-0.0308061,0.897835,0.0654619,-0.0320267,0.897553,0.0645751,-0.0320267,0.897553,0.0663487,-0.033083,0.896746,0.0638077,-0.0332851,0.897021,0.0654619,-0.033083,0.896746,0.0671161,-0.0343036,0.895814,0.0646945,-0.0343036,0.895814,0.0646945,-0.0343036,0.895814,0.0662293,-0.0338326,0.895522,0.0676608,-0.0308061,0.897835,0.0654619,-0.0303399,0.897553,0.0668968,-0.0315722,0.897021,0.0678195,-0.0299364,0.896746,0.0681385,-0.0326168,0.895814,0.068551,-0.0311571,0.895814,0.0690253,-0.0296501,0.895522,0.0690197,-0.0308061,0.897835,0.0654619,-0.0288006,0.897021,0.066919,-0.0284277,0.895814,0.0681385,-0.0275255,0.895814,0.0668968,-0.0267712,0.894305,0.0663487,-0.0267712,0.894305,0.0645751,-0.0270205,0.892999,0.0671161,-0.0266844,0.892941,0.0654619,-0.0270205,0.892999,0.0638077,-0.0277796,0.891782,0.0676608,-0.0273087,0.89149,0.0662293,-0.0273087,0.89149,0.0646945,-0.0277796,0.891782,0.063263,-0.0287158,0.894305,0.0618985,-0.0304027,0.894305,0.0613504,-0.028063,0.892999,0.0623727,-0.0295325,0.892941,0.0615419,-0.0312096,0.892999,0.0613504,-0.0289955,0.89149,0.0623727,-0.0304552,0.89149,0.0618985,-0.0319622,0.891782,0.061904,-0.0335492,0.894305,0.0623727,-0.0345917,0.894305,0.0638077,-0.0328964,0.892999,0.0618985,-0.0341407,0.892941,0.0630392,-0.0348411,0.892999,0.0645751,-0.0331846,0.89149,0.0627853,-0.0340867,0.89149,0.064027,-0.0348411,0.892999,0.0645751,-0.0340867,0.89149,0.064027,-0.0345471,0.891782,0.0654619,-0.0345917,0.894305,0.0671161,-0.0335492,0.894305,0.068551,-0.0348411,0.892999,0.0663487,-0.0341406,0.892941,0.0678845,-0.0328964,0.892999,0.0690253,-0.0340867,0.89149,0.0668968,-0.0331846,0.89149,0.0681385,-0.0319621,0.891782,0.0690197,-0.0304027,0.894305,0.0695734,-0.0287158,0.894305,0.0690253,-0.0312096,0.892999,0.0695734,-0.0295325,0.892941,0.0693818,-0.028063,0.892999,0.068551,-0.0304552,0.89149,0.0690253,-0.0289955,0.89149,0.068551,-0.0274716,0.894363,0.0630392,-0.0320798,0.894363,0.0615419,-0.0349278,0.894363,0.0654619,-0.0345917,0.894305,0.0638077,-0.0320798,0.894363,0.0693818,-0.0274716,0.894363,0.0678845,-0.0308061,0.88947,0.0654619,-0.0312724,0.889751,0.064027,-0.0295855,0.889751,0.0645751,-0.0316758,0.890558,0.0627853,-0.0300401,0.890283,0.0631042,-0.0285293,0.890558,0.0638077,-0.0308061,0.88947,0.0654619,-0.0323149,0.889751,0.0654619,-0.0312724,0.889751,0.064027,-0.0336205,0.890558,0.0654619,-0.0328117,0.890283,0.0640048,-0.0328117,0.890283,0.0640048,-0.0308061,0.88947,0.0654619,-0.0312724,0.889751,0.0668968,-0.0316758,0.890558,0.0681385,-0.0328117,0.890283,0.066919,-0.0308061,0.88947,0.0654619,-0.0295855,0.889751,0.0663487,-0.0285293,0.890558,0.0671161,-0.0300401,0.890283,0.0678195,-0.0308061,0.88947,0.0654619,-0.0283271,0.890283,0.0654619]
            }
        },
        "index":{
            "type":"Uint16Array",
            "itemSize":1,
            "array":[0,1,2,1,3,4,1,4,2,2,4,5,3,6,7,3,7,4,4,7,8,4,8,5,5,8,9,10,2,11,2,5,12,2,12,11,11,12,13,5,9,14,5,14,12,12,14,15,12,15,13,13,15,16,17,18,19,18,20,21,18,21,19,19,21,22,13,16,23,20,24,21,21,24,25,21,25,22,22,25,26,27,19,28,19,22,29,19,29,28,28,29,30,22,26,31,22,31,29,29,31,32,29,32,30,30,32,33,34,28,1,28,30,35,28,35,1,1,35,3,30,33,36,30,36,35,35,36,37,35,37,3,3,37,6,6,38,39,38,40,41,38,41,39,39,41,42,40,43,44,40,44,41,41,44,45,41,45,42,42,45,46,9,47,48,47,49,50,47,50,48,48,50,51,49,46,52,49,52,50,50,52,53,50,53,51,51,53,54,16,55,56,55,57,58,55,58,56,56,58,59,57,54,60,57,60,58,58,60,61,58,61,59,62,63,64,26,65,66,65,67,68,65,68,66,66,68,69,67,64,70,67,70,68,68,70,71,68,71,69,69,71,72,33,73,74,73,75,76,73,76,74,74,76,77,75,72,78,75,78,76,76,78,79,76,79,77,77,79,43,46,49,42,49,47,80,49,80,42,42,80,39,47,9,8,47,8,80,80,8,7,80,7,39,39,7,6,54,57,51,57,55,81,57,81,51,51,81,48,55,16,15,55,15,81,81,15,14,81,14,48,48,14,9,64,67,62,67,65,82,67,82,62,62,82,83,65,26,25,65,25,82,82,25,24,82,24,83,56,23,16,72,75,69,75,73,84,75,84,69,69,84,66,73,33,32,73,32,84,84,32,31,84,31,66,66,31,26,43,40,77,40,38,85,40,85,77,77,85,74,38,6,37,38,37,85,85,37,36,85,36,74,74,36,33,86,87,88,87,89,90,87,90,88,88,90,91,89,54,53,89,53,90,90,53,52,90,52,91,91,52,46,92,93,94,93,95,96,93,96,94,87,97,89,95,64,63,95,63,96,97,61,60,97,60,89,89,60,54,98,99,93,99,100,101,99,101,93,93,101,95,100,72,71,100,71,101,101,71,70,101,70,95,95,70,64,102,103,99,103,104,105,103,105,99,99,105,100,104,43,79,104,79,105,105,79,78,105,78,100,100,78,72,106,88,103,88,91,107,88,107,103,103,107,104,91,46,45,91,45,107,107,45,44,107,44,104,104,44,43]
        }
    }
}