{
    "metadata":{
        "version":3,
        "generator":"io_three",
        "position":66,
        "normal":66,
        "type":"BufferGeometry",
        "uv":66
    },
    "data":{
        "attributes":{
            "normal":{
                "type":"Float32Array",
                "itemSize":3,
                "array":[-1,0,0,-1,0,0,-1,0,0,-1,0,0,-1,0,0,-1,0,0,-0.999969,0,0,-1,0,0,-1,0,0,-1,0,0,-1,0,0,-1,0,0,-1,0,0,-1,0,0,-0.999969,0,0,-1,0,0,0,-0.999969,0,0,-0.923887,-0.382641,0,-0.923887,-0.382611,0,-0.999969,0,0,-0.707083,-0.707114,0,-0.707114,-0.707083,0,-0.382641,-0.923887,0,-0.382672,-0.923856,0,-0.382641,-0.923887,0,0,-1,0,0,-1,0,-0.382672,-0.923856,0,0.382672,-0.923856,0,0.382641,-0.923887,0,0.707083,-0.707083,0,0.707083,-0.707114,0,0.923887,-0.382611,0,0.923887,-0.382641,0,1,0,0,0.999969,0,0,0.923887,0.382641,0,0.923887,0.382611,0,0.707083,0.707114,0,0.707083,0.707083,0,0.382641,0.923887,0,0.382672,0.923856,0,0,1,0,0,1,0,-0.382672,0.923856,0,-0.382641,0.923856,0,-0.707083,0.707083,0,-0.707083,0.707114,0,-0.923887,0.382611,0,-0.923887,0.382641,0.999969,0,0,1,0,0,1,0,0,1,0,0,1,0,0,1,0,0,1,0,0,1,0,0,0.999969,0,0,1,0,0,1,0,0,1,0,0,1,0,0,1,0,0,1,0,0,1,0,0]
            },
            "uv":{
                "type":"Float32Array",
                "itemSize":2,
                "array":[0.262088,0,0.136691,0,0.0666053,0,0.0624998,0,0.125,0,0.24459,0,0.403064,0,0.576296,0,0.737912,0,0.863309,0,0.933395,0,0.9375,0,0.875,0,0.8125,0,0.75,0,0.423704,0,0.75,0,0.8125,0,0.8125,1,0.75,1,0.875,0,0.875,1,0.9375,0,0.9375,1,-0.0625,0,2.98023e-08,0,2.98023e-08,1,-0.0625,1,0.0625,0,0.0625,1,0.125,0,0.125,1,0.1875,0,0.1875,1,0.25,0,0.25,1,0.3125,0,0.3125,1,0.375,0,0.375,1,0.4375,0,0.4375,1,0.5,0,0.5,1,0.5625,0,0.5625,1,0.625,0,0.625,1,0.6875,0,0.6875,1,0.75,1,0.8125,1,0.875,1,0.9375,1,0.933395,1,0.863309,1,0.737913,1,0.576296,1,0.403065,1,0.244591,1,0.125,1,0.0625,1,0.0666053,1,0.136691,1,0.262087,1,0.6875,1]
            },
            "position":{
                "type":"Float32Array",
                "itemSize":3,
                "array":[-0.0272083,0.891351,0.067763,-0.0272083,0.892407,0.0684685,-0.0272083,0.893652,0.0687162,-0.0272083,0.894897,0.0684685,-0.0272083,0.895953,0.067763,-0.0272083,0.896659,0.0667072,-0.0272083,0.896906,0.0654619,-0.0272083,0.896659,0.0642165,-0.0272083,0.895953,0.0631607,-0.0272083,0.894897,0.0624553,-0.0272083,0.893652,0.0622076,-0.0272083,0.892407,0.0624553,-0.0272083,0.891351,0.0631607,-0.0272083,0.890645,0.0642165,-0.0272083,0.890398,0.0654619,-0.0272083,0.890645,0.0667072,-0.0272083,0.890398,0.0654619,-0.0272083,0.890645,0.0642165,-0.0266118,0.890645,0.0642165,-0.0266118,0.890398,0.0654619,-0.0272083,0.891351,0.0631607,-0.0266118,0.891351,0.0631607,-0.0272083,0.892407,0.0624553,-0.0266118,0.892407,0.0624553,-0.0272083,0.892407,0.0624553,-0.0272083,0.893652,0.0622076,-0.0266118,0.893652,0.0622076,-0.0266118,0.892407,0.0624553,-0.0272083,0.894897,0.0624553,-0.0266118,0.894897,0.0624553,-0.0272083,0.895953,0.0631607,-0.0266118,0.895953,0.0631607,-0.0272083,0.896659,0.0642165,-0.0266118,0.896659,0.0642165,-0.0272083,0.896906,0.0654619,-0.0266118,0.896906,0.0654619,-0.0272083,0.896659,0.0667072,-0.0266118,0.896659,0.0667072,-0.0272083,0.895953,0.067763,-0.0266118,0.895953,0.067763,-0.0272083,0.894897,0.0684685,-0.0266118,0.894897,0.0684685,-0.0272083,0.893652,0.0687162,-0.0266118,0.893652,0.0687162,-0.0272083,0.892407,0.0684685,-0.0266118,0.892407,0.0684685,-0.0272083,0.891351,0.067763,-0.0266118,0.891351,0.067763,-0.0272083,0.890645,0.0667072,-0.0266118,0.890645,0.0667072,-0.0266118,0.890398,0.0654619,-0.0266118,0.890645,0.0642165,-0.0266118,0.891351,0.0631607,-0.0266118,0.892407,0.0624553,-0.0266118,0.893652,0.0622076,-0.0266118,0.894897,0.0624553,-0.0266118,0.895953,0.0631607,-0.0266118,0.896659,0.0642165,-0.0266118,0.896906,0.0654619,-0.0266118,0.896659,0.0667072,-0.0266118,0.895953,0.067763,-0.0266118,0.894897,0.0684685,-0.0266118,0.893652,0.0687162,-0.0266118,0.892407,0.0684685,-0.0266118,0.891351,0.067763,-0.0266118,0.890645,0.0667072]
            }
        },
        "index":{
            "type":"Uint16Array",
            "itemSize":1,
            "array":[0,1,2,2,3,4,4,5,6,2,4,6,6,7,8,8,9,10,6,8,10,10,11,12,12,13,14,10,12,14,6,10,14,2,6,14,0,2,14,15,0,14,16,17,18,18,19,16,17,20,21,21,18,17,20,22,23,23,21,20,24,25,26,26,27,24,25,28,29,29,26,25,28,30,31,31,29,28,30,32,33,33,31,30,32,34,35,35,33,32,34,36,37,37,35,34,36,38,39,39,37,36,38,40,41,41,39,38,40,42,43,43,41,40,42,44,45,45,43,42,44,46,47,47,45,44,46,48,49,49,47,46,48,16,19,19,49,48,50,51,52,52,53,54,54,55,56,52,54,56,56,57,58,58,59,60,56,58,60,60,61,62,62,63,64,60,62,64,56,60,64,52,56,64,50,52,64,65,50,64]
        }
    }
}