{
    "metadata":{
        "uv":658,
        "normal":658,
        "version":3,
        "generator":"io_three",
        "type":"BufferGeometry",
        "position":658
    },
    "data":{
        "index":{
            "array":[0,1,2,3,4,5,6,7,3,8,9,6,10,11,8,12,13,14,15,0,2,4,16,17,18,5,19,20,4,7,21,3,18,22,7,9,21,8,6,23,9,11,24,10,8,23,25,26,14,27,28,29,30,31,32,33,34,35,36,37,38,39,40,41,42,43,44,45,46,47,48,49,50,51,52,53,54,55,56,57,58,59,60,61,62,63,64,65,66,67,68,69,70,71,72,73,74,75,76,77,76,78,79,78,80,81,80,82,83,84,85,71,86,87,75,88,89,90,91,74,75,92,76,93,74,77,76,94,78,79,93,77,78,95,80,81,96,79,95,82,80,83,97,98,99,100,101,102,103,104,105,106,107,108,109,110,111,112,113,114,115,116,117,30,118,119,120,121,122,123,124,125,126,127,128,99,101,128,129,130,84,131,85,132,133,134,135,136,137,138,139,140,141,142,143,144,145,146,147,148,149,150,151,152,153,154,155,156,157,158,159,160,161,162,163,164,165,166,167,168,169,170,171,172,173,174,175,176,177,178,179,180,181,182,183,184,185,186,187,188,189,190,191,192,193,194,195,196,197,198,199,200,201,202,203,204,205,206,207,208,209,210,211,212,213,214,215,216,217,218,219,220,221,222,223,224,225,226,227,228,229,230,231,232,233,234,235,236,237,238,239,240,241,242,243,244,245,246,247,248,249,250,251,252,253,254,4,0,5,255,19,256,257,16,258,259,260,261,262,263,264,91,73,75,91,265,71,73,266,88,267,268,269,270,271,272,273,274,275,276,277,278,279,256,15,280,258,16,281,18,19,282,280,20,283,18,284,282,22,285,286,21,283,285,23,287,288,24,286,287,26,289,28,290,291,292,29,293,294,295,296,297,298,299,300,301,302,265,303,86,304,89,88,305,90,306,307,89,308,309,90,93,310,92,307,309,96,311,312,94,310,311,313,314,315,95,312,316,317,318,319,320,321,322,323,324,117,325,119,123,326,12,327,328,329,131,330,331,332,333,334,335,336,337,338,339,340,341,342,343,344,345,346,347,348,349,350,351,352,353,354,355,5,256,19,356,17,16,357,358,265,359,88,266,118,12,14,10,326,25,118,28,325,360,13,10,361,362,363,364,365,366,130,85,99,82,98,81,130,317,83,313,98,97,289,367,122,292,123,368,82,369,84,320,85,131,370,371,372,373,374,375,376,377,378,379,380,381,382,383,384,385,386,387,388,389,390,391,392,393,394,395,396,397,398,399,120,28,291,288,27,360,314,97,316,129,318,317,368,12,30,25,367,26,320,331,321,315,369,400,0,17,1,3,7,4,6,9,7,8,11,9,10,25,11,12,326,13,15,256,0,4,280,16,18,3,5,20,280,4,21,6,3,22,20,7,21,24,8,23,22,9,24,360,10,23,11,25,14,13,27,29,368,30,401,402,403,404,405,406,407,408,409,410,411,412,413,414,415,416,417,418,419,420,421,422,423,424,56,425,57,426,427,428,429,430,431,432,433,434,435,436,437,71,87,72,74,91,75,77,74,76,79,77,78,81,79,80,83,98,84,71,265,86,75,73,88,90,357,91,75,89,92,93,90,74,76,92,94,79,96,93,78,94,95,81,313,96,95,400,82,83,317,97,99,320,100,102,438,103,439,440,441,442,443,444,445,446,447,448,449,450,117,31,30,119,325,120,122,367,123,451,452,453,128,130,99,128,328,129,84,369,131,454,455,456,457,458,459,460,461,462,141,463,142,464,465,466,467,468,469,470,471,472,473,474,475,476,477,478,479,480,481,482,483,484,485,486,487,488,489,490,491,492,493,494,495,496,497,498,499,500,501,502,503,504,505,506,507,508,509,510,511,512,513,514,515,516,517,518,519,520,521,522,523,524,525,526,527,528,529,530,531,532,533,534,535,536,537,538,539,540,541,542,543,544,545,546,547,548,549,550,551,552,553,554,555,556,557,558,559,560,561,562,243,563,244,246,564,247,565,566,567,568,569,570,4,17,0,255,281,19,257,356,16,571,572,573,574,575,576,91,71,73,91,357,265,73,72,266,577,578,579,580,581,582,583,584,585,586,587,588,279,255,256,280,589,258,281,284,18,282,589,280,283,21,18,282,20,22,286,24,21,285,22,23,288,360,24,287,23,26,28,27,290,292,368,29,590,591,592,593,594,595,300,596,301,265,358,303,304,308,89,305,357,90,307,92,89,309,306,90,310,94,92,309,93,96,312,95,94,311,96,313,315,400,95,316,97,317,319,100,320,597,598,599,117,118,325,123,367,326,327,129,328,131,369,330,600,601,602,603,604,605,606,607,608,609,610,611,344,612,345,613,614,615,616,617,618,619,620,621,5,0,256,356,1,17,357,305,358,359,304,88,118,30,12,10,13,326,118,14,28,360,27,13,622,623,624,625,626,627,130,83,85,82,84,98,130,129,317,313,81,98,289,26,367,292,124,123,82,400,369,320,99,85,628,629,630,631,632,633,634,635,636,637,638,639,640,641,642,643,644,645,646,647,648,649,650,651,652,653,654,655,656,657,120,325,28,288,290,27,314,313,97,129,327,318,368,123,12,25,326,367,320,131,331,315,330,369],
            "itemSize":1,
            "type":"Uint16Array"
        },
        "attributes":{
            "uv":{
                "array":[0.932738,0.946228,0.932377,0.946834,0.932377,0.946228,0.94939,0.946228,0.940883,0.946834,0.940883,0.946228,0.957896,0.946228,0.94939,0.946834,0.966403,0.946228,0.957896,0.946834,0.97491,0.946228,0.966403,0.946834,0.981904,0.946834,0.979446,0.946228,0.981904,0.946228,0.936771,0.938739,0.937161,0.954323,0.932738,0.946834,0.94939,0.938739,0.940883,0.938739,0.94939,0.954323,0.957896,0.938739,0.957896,0.954323,0.966403,0.954323,0.966403,0.938739,0.97491,0.946834,0.97491,0.954323,0.979446,0.938739,0.981904,0.938739,0.983921,0.954323,0.98413,0.946834,0.983921,0.946834,0.936214,0.955008,0.936554,0.95445,0.936711,0.954717,0.937319,0.955416,0.940883,0.954841,0.940883,0.955416,0.937319,0.937646,0.936927,0.938221,0.936927,0.937646,0.94939,0.955416,0.940883,0.954841,0.94939,0.954841,0.94939,0.937646,0.940883,0.938221,0.940883,0.937646,0.957896,0.955416,0.94939,0.954841,0.957896,0.954841,0.966403,0.955416,0.957896,0.954841,0.966403,0.954841,0.957896,0.937646,0.966403,0.938221,0.957896,0.938221,0.966403,0.955416,0.97491,0.954841,0.97491,0.955416,0.966403,0.937646,0.97491,0.938221,0.966403,0.938221,0.979446,0.954841,0.981904,0.955416,0.979446,0.955416,0.984242,0.938739,0.983667,0.938472,0.984242,0.938472,0.984242,0.946834,0.983667,0.954323,0.983667,0.946834,0.932137,0.975408,0.931775,0.976013,0.932137,0.976013,0.948788,0.975408,0.940282,0.976013,0.948788,0.976013,0.957295,0.975408,0.957295,0.976013,0.965801,0.975408,0.965801,0.976013,0.974308,0.975408,0.974308,0.976013,0.981303,0.975408,0.978845,0.976013,0.981303,0.976013,0.936169,0.967919,0.931775,0.975408,0.936559,0.983503,0.940282,0.983503,0.948788,0.967919,0.940282,0.975408,0.948788,0.983503,0.957295,0.967919,0.957295,0.983503,0.965801,0.983503,0.965801,0.967919,0.978845,0.967919,0.978845,0.975408,0.983529,0.976013,0.983825,0.983503,0.983825,0.976013,0.94939,0.938221,0.957896,0.937646,0.957896,0.938221,0.984426,0.938221,0.98413,0.937646,0.984426,0.937646,0.932126,0.946834,0.93155,0.946228,0.932126,0.946228,0.936711,0.938345,0.936058,0.938321,0.936214,0.938054,0.983667,0.946834,0.984242,0.946228,0.984242,0.946834,0.983921,0.946228,0.98413,0.946228,0.983921,0.938739,0.98413,0.938472,0.984089,0.938472,0.979446,0.95459,0.981904,0.954323,0.981904,0.95459,0.98413,0.955416,0.984426,0.954841,0.984426,0.955416,0.983825,0.975408,0.983529,0.967919,0.983529,0.975408,0.981303,0.983503,0.981904,0.937646,0.979446,0.938221,0.979446,0.937646,0.935841,0.954868,0.936214,0.955008,0.935998,0.955135,0.936771,0.954323,0.93216,0.946961,0.932377,0.946834,0.937319,0.955667,0.940883,0.955416,0.940883,0.955667,0.937319,0.95459,0.936927,0.954841,0.936927,0.95459,0.937319,0.937395,0.936927,0.937646,0.936927,0.937395,0.937319,0.938472,0.940883,0.938221,0.940883,0.938472,0.94939,0.955667,0.940883,0.955416,0.94939,0.955416,0.940883,0.95459,0.94939,0.954841,0.940883,0.954841,0.94939,0.937395,0.940883,0.937646,0.940883,0.937395,0.940883,0.938472,0.94939,0.938221,0.94939,0.938472,0.957896,0.955667,0.94939,0.955416,0.957896,0.955416,0.94939,0.95459,0.957896,0.954841,0.94939,0.954841,0.966403,0.955667,0.957896,0.955416,0.966403,0.955416,0.957896,0.95459,0.966403,0.954841,0.957896,0.954841,0.957896,0.937395,0.966403,0.937646,0.957896,0.937646,0.966403,0.938472,0.957896,0.938221,0.966403,0.938221,0.966403,0.955667,0.97491,0.955416,0.97491,0.955667,0.97491,0.95459,0.966403,0.954841,0.966403,0.95459,0.966403,0.937395,0.97491,0.937646,0.966403,0.937646,0.97491,0.938472,0.966403,0.938221,0.97491,0.938221,0.979446,0.955416,0.981904,0.955667,0.979446,0.955667,0.981904,0.954841,0.979446,0.95459,0.981904,0.95459,0.984493,0.938739,0.984242,0.938472,0.984493,0.938472,0.983921,0.938739,0.983667,0.946228,0.983921,0.946228,0.984493,0.946834,0.984242,0.954323,0.984242,0.946834,0.983921,0.954323,0.983667,0.95459,0.984089,0.95459,0.94939,0.938472,0.957896,0.938221,0.957896,0.938472,0.957896,0.937395,0.94939,0.937646,0.94939,0.937395,0.984089,0.938472,0.98413,0.938221,0.984426,0.938221,0.98413,0.937395,0.984426,0.937646,0.98413,0.937646,0.932377,0.946228,0.932126,0.946834,0.932126,0.946228,0.931299,0.946228,0.93155,0.946834,0.931299,0.946834,0.936771,0.938739,0.936711,0.938345,0.936927,0.938472,0.931448,0.945683,0.936058,0.938321,0.931664,0.94581,0.983921,0.946228,0.983667,0.946834,0.983921,0.946834,0.984493,0.946228,0.984242,0.946834,0.984242,0.946228,0.98413,0.955667,0.984426,0.955416,0.984426,0.955667,0.984089,0.95459,0.98413,0.954841,0.98413,0.95459,0.981904,0.937395,0.979446,0.937646,0.979446,0.937395,0.979446,0.938472,0.981904,0.938221,0.981904,0.938472,0.937319,0.938472,0.937161,0.938739,0.936927,0.95459,0.937319,0.95459,0.936927,0.954841,0.937319,0.955416,0.936927,0.955416,0.940883,0.937646,0.937319,0.938221,0.937319,0.937646,0.936559,0.967919,0.936169,0.983503,0.936927,0.955416,0.937319,0.955667,0.936927,0.955667,0.940883,0.95459,0.937319,0.954841,0.937319,0.95459,0.940883,0.937395,0.937319,0.937646,0.937319,0.937395,0.936927,0.938221,0.937319,0.938472,0.936927,0.938472,0.936927,0.938472,0.940883,0.954323,0.940883,0.938472,0.94939,0.95459,0.957896,0.938472,0.94939,0.938472,0.957896,0.95459,0.966403,0.938472,0.966403,0.95459,0.97491,0.938472,0.97491,0.95459,0.979446,0.938472,0.981904,0.938472,0.98413,0.95459,0.984089,0.95459,0.931664,0.947252,0.936554,0.95445,0.936058,0.954741,0.984242,0.946228,0.983667,0.938739,0.984242,0.938739,0.983667,0.95459,0.984242,0.954323,0.984242,0.95459,0.936326,0.967652,0.936717,0.98377,0.940282,0.967652,0.948788,0.967652,0.948788,0.98377,0.940282,0.98377,0.957295,0.967652,0.957295,0.98377,0.965801,0.967652,0.965801,0.98377,0.974308,0.967919,0.974308,0.967652,0.974308,0.98377,0.978845,0.967652,0.981303,0.967919,0.981303,0.967652,0.983825,0.98377,0.983529,0.983503,0.983529,0.98377,0.931664,0.94581,0.936554,0.938612,0.93216,0.946101,0.98413,0.938739,0.979446,0.946834,0.983529,0.967652,0.983825,0.967919,0.983825,0.967652,0.978845,0.98377,0.981303,0.98377,0.931448,0.947379,0.936058,0.954741,0.935841,0.954868,0.936927,0.95459,0.936554,0.95445,0.936771,0.954323,0.984493,0.946228,0.984242,0.938739,0.984493,0.938739,0.984089,0.938472,0.983667,0.938739,0.983921,0.938739,0.984242,0.95459,0.984493,0.954323,0.984493,0.95459,0.983667,0.946834,0.983921,0.954323,0.983921,0.946834,0.93216,0.946101,0.936771,0.938739,0.932377,0.946228,0.935998,0.937927,0.936058,0.938321,0.935841,0.938194,0.936771,0.954323,0.940282,0.967919,0.936717,0.967652,0.936326,0.98377,0.97491,0.938739,0.97491,0.955416,0.979446,0.954841,0.979446,0.955416,0.98413,0.954841,0.981904,0.955416,0.981904,0.954841,0.979446,0.954323,0.98413,0.954323,0.978845,0.983503,0.98413,0.938221,0.981904,0.937646,0.98413,0.937646,0.97491,0.937646,0.979446,0.938221,0.97491,0.938221,0.97491,0.955667,0.979446,0.955416,0.979446,0.955667,0.98413,0.955416,0.981904,0.955667,0.981904,0.955416,0.98413,0.95459,0.981904,0.954841,0.981904,0.95459,0.97491,0.954841,0.979446,0.95459,0.979446,0.954841,0.98413,0.937646,0.981904,0.937395,0.98413,0.937395,0.97491,0.937395,0.979446,0.937646,0.97491,0.937646,0.97491,0.938221,0.979446,0.938472,0.97491,0.938472,0.98413,0.938472,0.981904,0.938221,0.98413,0.938221,0.974308,0.983503,0.936214,0.955008,0.936058,0.954741,0.936554,0.95445,0.937319,0.955416,0.937319,0.954841,0.940883,0.954841,0.937319,0.937646,0.937319,0.938221,0.936927,0.938221,0.94939,0.955416,0.940883,0.955416,0.940883,0.954841,0.94939,0.937646,0.94939,0.938221,0.940883,0.938221,0.957896,0.955416,0.94939,0.955416,0.94939,0.954841,0.966403,0.955416,0.957896,0.955416,0.957896,0.954841,0.957896,0.937646,0.966403,0.937646,0.966403,0.938221,0.966403,0.954841,0.966403,0.937646,0.97491,0.937646,0.97491,0.938221,0.979446,0.954841,0.981904,0.954841,0.981904,0.955416,0.984242,0.938739,0.983667,0.938739,0.983667,0.938472,0.984242,0.946834,0.984242,0.954323,0.983667,0.954323,0.94939,0.937646,0.984426,0.938221,0.98413,0.938221,0.98413,0.937646,0.932126,0.946834,0.93155,0.946834,0.93155,0.946228,0.936711,0.938345,0.936554,0.938612,0.936058,0.938321,0.983667,0.946834,0.983667,0.946228,0.984242,0.946228,0.98413,0.955416,0.98413,0.954841,0.984426,0.954841,0.981904,0.937646,0.981904,0.938221,0.979446,0.938221,0.935841,0.954868,0.936058,0.954741,0.936214,0.955008,0.936771,0.954323,0.936554,0.95445,0.93216,0.946961,0.937319,0.955416,0.937319,0.95459,0.937319,0.954841,0.936927,0.954841,0.937319,0.937395,0.937319,0.937646,0.936927,0.937646,0.937319,0.938472,0.937319,0.938221,0.940883,0.938221,0.94939,0.955667,0.940883,0.955667,0.940883,0.955416,0.940883,0.95459,0.94939,0.95459,0.94939,0.954841,0.94939,0.937395,0.94939,0.937646,0.940883,0.937646,0.940883,0.938472,0.940883,0.938221,0.94939,0.938221,0.957896,0.955667,0.94939,0.955667,0.94939,0.955416,0.94939,0.95459,0.957896,0.95459,0.957896,0.954841,0.966403,0.955667,0.957896,0.955667,0.957896,0.955416,0.957896,0.95459,0.966403,0.95459,0.966403,0.954841,0.957896,0.937395,0.966403,0.937395,0.966403,0.937646,0.966403,0.938472,0.957896,0.938472,0.957896,0.938221,0.966403,0.955667,0.966403,0.955416,0.97491,0.955416,0.97491,0.95459,0.97491,0.954841,0.966403,0.954841,0.966403,0.937395,0.97491,0.937395,0.97491,0.937646,0.97491,0.938472,0.966403,0.938472,0.966403,0.938221,0.979446,0.955416,0.981904,0.955416,0.981904,0.955667,0.981904,0.954841,0.979446,0.954841,0.979446,0.95459,0.984493,0.938739,0.984242,0.938739,0.984242,0.938472,0.983921,0.938739,0.983667,0.938739,0.983667,0.946228,0.984493,0.946834,0.984493,0.954323,0.984242,0.954323,0.983921,0.954323,0.983667,0.954323,0.983667,0.95459,0.94939,0.938472,0.94939,0.938221,0.957896,0.938221,0.957896,0.937395,0.957896,0.937646,0.94939,0.937646,0.984089,0.938472,0.98413,0.938472,0.98413,0.938221,0.98413,0.937395,0.984426,0.937395,0.984426,0.937646,0.932377,0.946228,0.932377,0.946834,0.932126,0.946834,0.931299,0.946228,0.93155,0.946228,0.93155,0.946834,0.936771,0.938739,0.936554,0.938612,0.936711,0.938345,0.931448,0.945683,0.935841,0.938194,0.936058,0.938321,0.983921,0.946228,0.983667,0.946228,0.983667,0.946834,0.984493,0.946228,0.984493,0.946834,0.984242,0.946834,0.98413,0.955416,0.984426,0.954841,0.981904,0.937395,0.981904,0.937646,0.979446,0.937646,0.979446,0.938472,0.979446,0.938221,0.981904,0.938221,0.936927,0.954841,0.937319,0.954841,0.937319,0.955416,0.940883,0.937646,0.940883,0.938221,0.937319,0.938221,0.936927,0.955416,0.937319,0.955416,0.937319,0.955667,0.940883,0.95459,0.940883,0.954841,0.937319,0.954841,0.940883,0.937395,0.940883,0.937646,0.937319,0.937646,0.936927,0.938221,0.937319,0.938221,0.937319,0.938472,0.940883,0.95459,0.931664,0.947252,0.93216,0.946961,0.936554,0.95445,0.984242,0.946228,0.983667,0.946228,0.983667,0.938739,0.983667,0.954323,0.931664,0.94581,0.936058,0.938321,0.936554,0.938612,0.931448,0.947379,0.931664,0.947252,0.936058,0.954741,0.936927,0.95459,0.936711,0.954717,0.936554,0.95445,0.984493,0.946228,0.984242,0.946228,0.984242,0.938739,0.984089,0.938472,0.983667,0.938472,0.983667,0.938739,0.984242,0.954323,0.983667,0.946834,0.983667,0.954323,0.983921,0.954323,0.93216,0.946101,0.936554,0.938612,0.936771,0.938739,0.935998,0.937927,0.936214,0.938054,0.936058,0.938321,0.97491,0.955416,0.97491,0.954841,0.979446,0.954841,0.98413,0.954841,0.98413,0.955416,0.981904,0.955416,0.98413,0.938221,0.981904,0.938221,0.981904,0.937646,0.97491,0.937646,0.979446,0.937646,0.979446,0.938221,0.97491,0.955667,0.97491,0.955416,0.979446,0.955416,0.98413,0.955416,0.98413,0.955667,0.981904,0.955667,0.98413,0.95459,0.98413,0.954841,0.981904,0.954841,0.97491,0.954841,0.97491,0.95459,0.979446,0.95459,0.98413,0.937646,0.981904,0.937646,0.981904,0.937395,0.97491,0.937395,0.979446,0.937395,0.979446,0.937646,0.97491,0.938221,0.979446,0.938221,0.979446,0.938472,0.98413,0.938472,0.981904,0.938472,0.981904,0.938221],
                "itemSize":2,
                "type":"Float32Array"
            },
            "normal":{
                "array":[0.409528,0.911985,-0.023133,-0.399731,0.890286,-0.218055,-0.363018,0.911496,0.193274,0.405286,0.91348,-0.0358287,0.389935,0.91644,-0.0896329,0.385479,0.922483,-0.0203253,0.422224,0.905728,-0.0366222,0.398419,0.912198,-0.0954314,0.424604,0.904874,-0.0294504,0.416578,0.905423,-0.0815455,0.470748,0.881985,-0.021363,0.42027,0.904599,-0.0710166,0.897549,0.435621,-0.0679647,0.502029,0.864315,-0.0299387,0.891079,0.451827,-0.0422987,-0.236915,0.898251,0.370067,0.415082,0.905972,-0.0827967,0.406629,0.910428,-0.0758385,0.394574,0.918332,-0.0309458,0.372143,0.928037,-0.0159307,0.39375,0.91406,-0.0969268,0.427686,0.903226,-0.034669,0.399304,0.912625,-0.0874966,0.411939,0.90817,-0.0739158,0.436384,0.89938,-0.0253304,0.462752,0.883816,-0.0682394,0.445723,0.892239,-0.0720847,0.507797,0.860958,-0.0293588,0.921964,0.385968,-0.0310068,0.434339,-0.900693,0.00878933,0.971648,-0.228553,-0.0602741,0.439283,-0.898282,0.00833155,-0.812718,0.340424,-0.472864,-0.812718,0.340424,-0.472864,-0.812718,0.340424,-0.472864,-0.0635336,-0.0487468,-0.996788,-0.0635336,-0.0487468,-0.996788,-0.0635336,-0.0487468,-0.996788,0.0635371,0.0487499,0.996788,0.0635371,0.0487499,0.996788,0.0635371,0.0487499,0.996788,-0.0635341,-0.0487466,-0.996788,-0.0635341,-0.0487466,-0.996788,-0.0635341,-0.0487466,-0.996788,0.0635347,0.0487487,0.996788,0.0635347,0.0487487,0.996788,0.0635347,0.0487487,0.996788,-0.0635338,-0.0487467,-0.996788,-0.0635338,-0.0487467,-0.996788,-0.0635338,-0.0487467,-0.996788,-0.0635325,-0.0487436,-0.996789,-0.0635325,-0.0487436,-0.996789,-0.0635325,-0.0487436,-0.996789,0.063534,0.0487466,0.996788,0.063534,0.0487466,0.996788,0.063534,0.0487466,0.996788,-0.0635326,-0.0487435,-0.996789,-0.0635326,-0.0487435,-0.996789,-0.0635326,-0.0487435,-0.996789,0.063534,0.0487465,0.996789,0.063534,0.0487465,0.996789,0.063534,0.0487465,0.996789,-0.063535,-0.0487441,-0.996788,-0.063535,-0.0487441,-0.996788,-0.063535,-0.0487441,-0.996788,-0.16628,-0.98433,0.0586916,-0.16628,-0.98433,0.0586916,-0.16628,-0.98433,0.0586916,-0.166601,-0.984565,0.0536222,-0.166601,-0.984565,0.0536222,-0.166601,-0.984565,0.0536222,-0.409528,-0.911985,0.0231941,-0.948973,-0.289926,-0.123997,-0.406629,-0.910398,0.0758385,-0.405286,-0.91348,0.0357677,-0.389935,-0.91644,0.0896329,-0.398419,-0.912198,0.0953703,-0.422224,-0.905728,0.0367138,-0.416578,-0.905423,0.081637,-0.424604,-0.904874,0.0294504,-0.42027,-0.904599,0.0709861,-0.475326,-0.879513,0.021485,-0.467391,-0.881375,0.0683615,-0.891201,-0.451552,0.0428175,-0.486312,-0.871944,0.0564898,-0.898038,-0.434523,0.0682089,-0.838435,-0.381054,0.389569,-0.930387,-0.261818,0.256478,-0.415082,-0.905972,0.0827357,-0.408612,-0.908017,0.0921659,-0.394574,-0.918332,0.0309458,-0.385479,-0.922483,0.0203253,-0.393719,-0.91406,0.0970183,-0.427686,-0.903256,0.034547,-0.399304,-0.912625,0.0874966,-0.411939,-0.90817,0.0738853,-0.436384,-0.89938,0.0253609,-0.495346,-0.868191,0.0286874,-0.486343,-0.873257,0.0293588,-0.96588,0.252113,0.0588092,-0.898068,-0.431623,0.0845058,-0.895108,-0.437727,0.0845058,0.0635342,0.0487465,0.996789,0.0635342,0.0487465,0.996789,0.0635342,0.0487465,0.996789,0.0635449,0.0487392,0.996788,0.0635449,0.0487392,0.996788,0.0635449,0.0487392,0.996788,-0.905157,0.423464,0.036996,-0.905157,0.423464,0.036996,-0.905157,0.423464,0.036996,-0.748348,0.389842,0.536655,-0.748348,0.389842,0.536655,-0.748348,0.389842,0.536655,-0.166277,-0.984328,0.0587454,-0.166277,-0.984328,0.0587454,-0.166277,-0.984328,0.0587454,0.454878,-0.89053,-0.00238044,0.973266,-0.227393,-0.0318003,0.418409,-0.908231,-0.00259407,0.743828,-0.148686,0.651601,0.393811,-0.705985,0.58861,0.285592,0.587634,-0.757012,0.898679,0.43376,-0.0646992,0.685171,0.31724,-0.655629,-0.0635202,-0.0487534,-0.996789,-0.0635202,-0.0487534,-0.996789,-0.0635202,-0.0487534,-0.996789,-0.90289,-0.428571,0.0328074,-0.958647,0.283303,0.0264595,-0.967193,0.251961,0.0318613,-0.900204,-0.430555,0.0648824,0.063531,0.048746,0.996789,0.063531,0.048746,0.996789,0.063531,0.048746,0.996789,-0.812676,0.340474,-0.4729,-0.812676,0.340474,-0.4729,-0.812676,0.340474,-0.4729,-0.812856,0.340588,-0.472509,-0.812856,0.340588,-0.472509,-0.812856,0.340588,-0.472509,-0.0635331,-0.0487456,-0.996789,-0.0635331,-0.0487456,-0.996789,-0.0635331,-0.0487456,-0.996789,-0.0635334,-0.0487455,-0.996789,-0.0635334,-0.0487455,-0.996789,-0.0635334,-0.0487455,-0.996789,0.0635255,0.0487406,0.996789,0.0635255,0.0487406,0.996789,0.0635255,0.0487406,0.996789,0.0635379,0.0487543,0.996788,0.0635379,0.0487543,0.996788,0.0635379,0.0487543,0.996788,-0.0635404,-0.0487612,-0.996787,-0.0635404,-0.0487612,-0.996787,-0.0635404,-0.0487612,-0.996787,-0.0635384,-0.0487566,-0.996788,-0.0635384,-0.0487566,-0.996788,-0.0635384,-0.0487566,-0.996788,0.0635343,0.0487474,0.996788,0.0635343,0.0487474,0.996788,0.0635343,0.0487474,0.996788,0.0635331,0.0487456,0.996789,0.0635331,0.0487456,0.996789,0.0635331,0.0487456,0.996789,-0.0635302,-0.0487383,-0.996789,-0.0635302,-0.0487383,-0.996789,-0.0635302,-0.0487383,-0.996789,-0.0635332,-0.0487455,-0.996789,-0.0635332,-0.0487455,-0.996789,-0.0635332,-0.0487455,-0.996789,-0.0635335,-0.0487455,-0.996789,-0.0635335,-0.0487455,-0.996789,-0.0635335,-0.0487455,-0.996789,-0.0635333,-0.0487455,-0.996789,-0.0635333,-0.0487455,-0.996789,-0.0635333,-0.0487455,-0.996789,0.0635343,0.0487474,0.996788,0.0635343,0.0487474,0.996788,0.0635343,0.0487474,0.996788,0.0635335,0.0487454,0.996789,0.0635335,0.0487454,0.996789,0.0635335,0.0487454,0.996789,-0.0635335,-0.0487454,-0.996789,-0.0635335,-0.0487454,-0.996789,-0.0635335,-0.0487454,-0.996789,-0.063536,-0.0487498,-0.996788,-0.063536,-0.0487498,-0.996788,-0.063536,-0.0487498,-0.996788,0.063532,0.048743,0.996789,0.063532,0.048743,0.996789,0.063532,0.048743,0.996789,0.0635322,0.048743,0.996789,0.0635322,0.048743,0.996789,0.0635322,0.048743,0.996789,-0.0635355,-0.0487451,-0.996788,-0.0635355,-0.0487451,-0.996788,-0.0635355,-0.0487451,-0.996788,-0.0635336,-0.0487407,-0.996789,-0.0635336,-0.0487407,-0.996789,-0.0635336,-0.0487407,-0.996789,-0.325055,-0.943332,0.0668062,-0.325055,-0.943332,0.0668062,-0.325055,-0.943332,0.0668062,-0.329329,-0.943937,-0.0229052,-0.329329,-0.943937,-0.0229052,-0.329329,-0.943937,-0.0229052,-0.325179,-0.943426,0.0648625,-0.325179,-0.943426,0.0648625,-0.325179,-0.943426,0.0648625,-0.325055,-0.943332,0.0668062,-0.325055,-0.943332,0.0668062,-0.325055,-0.943332,0.0668062,0.0635336,0.0487454,0.996789,0.0635336,0.0487454,0.996789,0.0635336,0.0487454,0.996789,0.0635324,0.048743,0.996789,0.0635324,0.048743,0.996789,0.0635324,0.048743,0.996789,0.0635343,0.04875,0.996788,0.0635343,0.04875,0.996788,0.0635343,0.04875,0.996788,0.063538,0.0487416,0.996788,0.063538,0.0487416,0.996788,0.063538,0.0487416,0.996788,-0.905179,0.423417,0.0369997,-0.905179,0.423417,0.0369997,-0.905179,0.423417,0.0369997,-0.905167,0.423444,0.0369752,-0.905167,0.423444,0.0369752,-0.905167,0.423444,0.0369752,-0.748322,0.389843,0.536691,-0.748322,0.389843,0.536691,-0.748322,0.389843,0.536691,-0.748569,0.389894,0.536309,-0.748569,0.389894,0.536309,-0.748569,0.389894,0.536309,-0.325052,-0.94333,0.0668565,-0.325052,-0.94333,0.0668565,-0.325052,-0.94333,0.0668565,-0.324938,-0.94337,0.0668517,-0.324938,-0.94337,0.0668517,-0.324938,-0.94337,0.0668517,-0.0635397,-0.0487466,-0.996788,-0.0635397,-0.0487466,-0.996788,-0.0635397,-0.0487466,-0.996788,-0.0635397,-0.0487466,-0.996788,-0.0635397,-0.0487466,-0.996788,-0.0635397,-0.0487466,-0.996788,0.0635317,0.0487468,0.996789,0.0635317,0.0487468,0.996789,0.0635317,0.0487468,0.996789,0.0635325,0.0487493,0.996788,0.0635325,0.0487493,0.996788,0.0635325,0.0487493,0.996788,0.320811,0.672994,0.666402,0.405286,0.914029,-0.0160222,-0.143162,0.685415,-0.71392,0.253456,0.605243,-0.754601,-0.0635358,-0.0487444,-0.996788,-0.0635358,-0.0487444,-0.996788,-0.0635358,-0.0487444,-0.996788,0.0635343,0.0487475,0.996788,0.0635343,0.0487475,0.996788,0.0635343,0.0487475,0.996788,-0.405286,-0.914029,0.0160222,-0.872189,-0.399487,-0.282205,-0.0635358,-0.0487444,-0.996788,-0.0635358,-0.0487444,-0.996788,-0.0635358,-0.0487444,-0.996788,-0.0635308,-0.0487382,-0.996789,-0.0635308,-0.0487382,-0.996789,-0.0635308,-0.0487382,-0.996789,0.0635356,0.04875,0.996788,0.0635356,0.04875,0.996788,0.0635356,0.04875,0.996788,0.0635311,0.0487465,0.996789,0.0635311,0.0487465,0.996789,0.0635311,0.0487465,0.996789,-0.0558489,0.752464,0.65624,0.408612,0.908017,-0.0920743,0.304819,0.687307,0.659291,0.235847,0.612415,-0.754509,0.348003,0.67333,0.652272,0.322031,0.690725,0.64742,0.236,0.61269,-0.754234,0.353374,0.668874,0.653981,0.245643,0.611377,-0.75222,0.366314,0.666219,0.649525,0.273446,0.602283,-0.749962,0.409711,0.649068,0.640919,0.769616,0.343394,0.538255,0.652913,-0.221412,-0.724326,0.320444,-0.762291,-0.562304,-0.812864,0.340572,-0.472507,-0.812864,0.340572,-0.472507,-0.812864,0.340572,-0.472507,-0.170954,-0.984993,-0.0237238,-0.170954,-0.984993,-0.0237238,-0.170954,-0.984993,-0.0237238,-0.166281,-0.98433,0.0586917,-0.166281,-0.98433,0.0586917,-0.166281,-0.98433,0.0586917,-0.569018,-0.352153,0.743065,-0.342845,-0.673177,-0.655171,-0.217139,-0.623829,0.750755,-0.226173,-0.607624,0.761315,-0.325816,-0.681692,-0.655049,-0.335978,-0.680044,-0.651631,-0.256508,-0.600909,0.757012,-0.325785,-0.681356,-0.655416,-0.263375,-0.599628,0.755669,-0.333262,-0.675344,-0.657888,-0.463485,-0.885769,0.0234382,-0.275552,-0.58742,0.760888,-0.360424,-0.657216,-0.661885,-0.303629,-0.5721,0.761895,-0.927305,-0.372997,0.0303659,-0.404462,-0.147954,0.902463,-0.769158,-0.383282,-0.511338,-0.957427,0.284036,0.0513627,-0.712516,0.165838,-0.681753,-0.748561,0.389911,0.536307,-0.748561,0.389911,0.536307,-0.748561,0.389911,0.536307,0.967162,-0.252663,-0.027131,0.502091,0.862911,-0.0571306,-0.621204,0.232063,0.748466,-0.895566,-0.443525,0.0342723,-0.695608,-0.326914,0.639699,-0.366131,-0.670156,-0.645619,-0.480636,-0.244301,-0.842189,-0.812879,0.340539,-0.472504,-0.812879,0.340539,-0.472504,-0.812879,0.340539,-0.472504,-0.812689,0.340493,-0.472864,-0.812689,0.340493,-0.472864,-0.812689,0.340493,-0.472864,-0.329443,-0.943898,-0.0229003,-0.329443,-0.943898,-0.0229003,-0.329443,-0.943898,-0.0229003,-0.325048,-0.943327,0.0669185,-0.325048,-0.943327,0.0669185,-0.325048,-0.943327,0.0669185,-0.325055,-0.943333,0.0668062,-0.325055,-0.943333,0.0668062,-0.325055,-0.943333,0.0668062,-0.325178,-0.943426,0.0648624,-0.325178,-0.943426,0.0648624,-0.325178,-0.943426,0.0648624,-0.748584,0.389865,0.536309,-0.748584,0.389865,0.536309,-0.748584,0.389865,0.536309,-0.748323,0.389843,0.536688,-0.748323,0.389843,0.536688,-0.748323,0.389843,0.536688,-0.277963,0.879513,-0.386181,-0.372143,-0.928037,0.0159001,-0.239204,-0.623127,0.744621,-0.656362,-0.419141,-0.627277,0.458815,0.888211,-0.023133,-0.0635338,-0.0487446,-0.996789,-0.0635338,-0.0487446,-0.996789,-0.0635338,-0.0487446,-0.996789,-0.0635511,-0.048744,-0.996787,-0.0635511,-0.048744,-0.996787,-0.0635511,-0.048744,-0.996787,0.47203,0.879269,-0.0636311,0.9653,-0.255593,-0.0530717,-0.454207,-0.888638,0.0630818,0.0635546,0.0487431,0.996787,0.0635546,0.0487431,0.996787,0.0635546,0.0487431,0.996787,0.0635355,0.0487506,0.996788,0.0635355,0.0487506,0.996788,0.0635355,0.0487506,0.996788,-0.0635343,-0.0487456,-0.996789,-0.0635343,-0.0487456,-0.996789,-0.0635343,-0.0487456,-0.996789,-0.0635353,-0.0487453,-0.996788,-0.0635353,-0.0487453,-0.996788,-0.0635353,-0.0487453,-0.996788,-0.0635284,-0.048748,-0.996789,-0.0635284,-0.048748,-0.996789,-0.0635284,-0.048748,-0.996789,-0.063538,-0.048752,-0.996788,-0.063538,-0.048752,-0.996788,-0.063538,-0.048752,-0.996788,0.0635399,0.0487471,0.996788,0.0635399,0.0487471,0.996788,0.0635399,0.0487471,0.996788,0.0635334,0.0487455,0.996789,0.0635334,0.0487455,0.996789,0.0635334,0.0487455,0.996789,0.063532,0.0487431,0.996789,0.063532,0.0487431,0.996789,0.063532,0.0487431,0.996789,0.0635311,0.0487457,0.996789,0.0635311,0.0487457,0.996789,0.0635311,0.0487457,0.996789,-0.450423,-0.889859,0.0722678,-0.81267,0.340449,-0.47293,-0.81267,0.340449,-0.47293,-0.81267,0.340449,-0.47293,-0.0635336,-0.0487468,-0.996788,-0.0635336,-0.0487468,-0.996788,-0.0635336,-0.0487468,-0.996788,0.0635321,0.0487485,0.996789,0.0635321,0.0487485,0.996789,0.0635321,0.0487485,0.996789,-0.0635341,-0.0487465,-0.996788,-0.0635341,-0.0487465,-0.996788,-0.0635341,-0.0487465,-0.996788,0.0635338,0.0487467,0.996788,0.0635338,0.0487467,0.996788,0.0635338,0.0487467,0.996788,-0.0635338,-0.0487467,-0.996788,-0.0635338,-0.0487467,-0.996788,-0.0635338,-0.0487467,-0.996788,-0.063534,-0.0487466,-0.996788,-0.063534,-0.0487466,-0.996788,-0.063534,-0.0487466,-0.996788,0.063534,0.0487466,0.996788,0.063534,0.0487466,0.996788,0.063534,0.0487466,0.996788,-0.0635326,-0.0487435,-0.996789,0.0635357,0.0487505,0.996788,0.0635357,0.0487505,0.996788,0.0635357,0.0487505,0.996788,-0.0635418,-0.0487547,-0.996788,-0.0635418,-0.0487547,-0.996788,-0.0635418,-0.0487547,-0.996788,-0.166279,-0.984331,0.0586912,-0.166279,-0.984331,0.0586912,-0.166279,-0.984331,0.0586912,-0.166602,-0.984565,0.0536222,-0.166602,-0.984565,0.0536222,-0.166602,-0.984565,0.0536222,0.0635342,0.0487465,0.996789,0.0635546,0.048743,0.996787,0.0635546,0.048743,0.996787,0.0635546,0.048743,0.996787,-0.905171,0.423436,0.0369758,-0.905171,0.423436,0.0369758,-0.905171,0.423436,0.0369758,-0.748338,0.389807,0.536694,-0.748338,0.389807,0.536694,-0.748338,0.389807,0.536694,-0.166419,-0.984306,0.0587012,-0.166419,-0.984306,0.0587012,-0.166419,-0.984306,0.0587012,-0.0635202,-0.0487534,-0.996789,-0.0635202,-0.0487534,-0.996789,-0.0635202,-0.0487534,-0.996789,0.0635286,0.0487429,0.996789,0.0635286,0.0487429,0.996789,0.0635286,0.0487429,0.996789,-0.812685,0.340416,-0.472927,-0.812685,0.340416,-0.472927,-0.812685,0.340416,-0.472927,-0.812852,0.340597,-0.47251,-0.812852,0.340597,-0.47251,-0.812852,0.340597,-0.47251,-0.0635331,-0.0487456,-0.996789,-0.0635338,-0.0487368,-0.996789,-0.0635338,-0.0487368,-0.996789,-0.0635338,-0.0487368,-0.996789,0.0635369,0.0487494,0.996788,0.0635369,0.0487494,0.996788,0.0635369,0.0487494,0.996788,0.0635336,0.0487454,0.996788,0.0635336,0.0487454,0.996788,0.0635336,0.0487454,0.996788,-0.0635332,-0.0487456,-0.996789,-0.0635332,-0.0487456,-0.996789,-0.0635332,-0.0487456,-0.996789,-0.0635333,-0.0487455,-0.996788,-0.0635333,-0.0487455,-0.996788,-0.0635333,-0.0487455,-0.996788,0.0635325,0.0487429,0.996789,0.0635325,0.0487429,0.996789,0.0635325,0.0487429,0.996789,0.0635369,0.0487548,0.996788,0.0635369,0.0487548,0.996788,0.0635369,0.0487548,0.996788,-0.0635406,-0.048761,-0.996787,-0.0635406,-0.048761,-0.996787,-0.0635406,-0.048761,-0.996787,-0.0635333,-0.0487455,-0.996789,-0.0635333,-0.0487455,-0.996789,-0.0635333,-0.0487455,-0.996789,-0.0635302,-0.0487384,-0.996789,-0.0635302,-0.0487384,-0.996789,-0.0635302,-0.0487384,-0.996789,-0.0635354,-0.0487501,-0.996788,-0.0635354,-0.0487501,-0.996788,-0.0635354,-0.0487501,-0.996788,0.0635324,0.048743,0.996789,0.0635324,0.048743,0.996789,0.0635324,0.048743,0.996789,0.0635334,0.0487454,0.996789,0.0635334,0.0487454,0.996789,0.0635334,0.0487454,0.996789,-0.0635335,-0.0487454,-0.996788,-0.0635335,-0.0487454,-0.996788,-0.0635335,-0.0487454,-0.996788,-0.0635419,-0.0487633,-0.996787,-0.0635419,-0.0487633,-0.996787,-0.0635419,-0.0487633,-0.996787,0.0635332,0.0487456,0.996789,0.0635332,0.0487456,0.996789,0.0635332,0.0487456,0.996789,0.0635334,0.0487455,0.996789,0.0635334,0.0487455,0.996789,0.0635334,0.0487455,0.996789,-0.0635354,-0.048745,-0.996788,-0.0635354,-0.048745,-0.996788,-0.0635354,-0.048745,-0.996788,-0.0635399,-0.0487511,-0.996788,-0.0635399,-0.0487511,-0.996788,-0.0635399,-0.0487511,-0.996788,-0.325055,-0.943333,0.0668062,-0.325055,-0.943333,0.0668062,-0.325055,-0.943333,0.0668062,-0.329443,-0.943898,-0.0229003,-0.329443,-0.943898,-0.0229003,-0.329443,-0.943898,-0.0229003,-0.325178,-0.943426,0.0648624,-0.325178,-0.943426,0.0648624,-0.325178,-0.943426,0.0648624,-0.325055,-0.943333,0.0668062,-0.325055,-0.943333,0.0668062,-0.325055,-0.943333,0.0668062,0.0635336,0.0487454,0.996789,0.0635336,0.0487454,0.996789,0.0635336,0.0487454,0.996789,0.0635345,0.0487473,0.996788,0.0635345,0.0487473,0.996788,0.0635345,0.0487473,0.996788,0.0635322,0.0487492,0.996788,0.0635322,0.0487492,0.996788,0.0635322,0.0487492,0.996788,0.063538,0.0487416,0.996788,0.063538,0.0487416,0.996788,0.063538,0.0487416,0.996788,-0.905152,0.423476,0.0369726,-0.905152,0.423476,0.0369726,-0.905152,0.423476,0.0369726,-0.905168,0.423444,0.0369752,-0.905168,0.423444,0.0369752,-0.905168,0.423444,0.0369752,-0.748322,0.389843,0.536691,-0.748322,0.389843,0.536691,-0.748322,0.389843,0.536691,-0.748555,0.389922,0.536308,-0.748555,0.389922,0.536308,-0.748555,0.389922,0.536308,-0.324942,-0.943372,0.066802,-0.324942,-0.943372,0.066802,-0.324942,-0.943372,0.066802,-0.325056,-0.943332,0.0668069,-0.325056,-0.943332,0.0668069,-0.325056,-0.943332,0.0668069,-0.0635397,-0.0487466,-0.996788,-0.0635397,-0.0487466,-0.996788,0.0635305,0.0487451,0.996789,0.0635305,0.0487451,0.996789,0.0635305,0.0487451,0.996789,0.0635354,0.0487532,0.996788,0.0635354,0.0487532,0.996788,0.0635354,0.0487532,0.996788,-0.0635375,-0.0487449,-0.996788,-0.0635375,-0.0487449,-0.996788,-0.0635375,-0.0487449,-0.996788,0.063535,0.0487486,0.996788,0.063535,0.0487486,0.996788,0.063535,0.0487486,0.996788,-0.0635358,-0.0487444,-0.996789,-0.0635358,-0.0487444,-0.996789,-0.0635358,-0.0487444,-0.996789,-0.0635381,-0.0487565,-0.996788,-0.0635381,-0.0487565,-0.996788,-0.0635381,-0.0487565,-0.996788,0.0635343,0.0487474,0.996788,0.0635343,0.0487474,0.996788,0.0635343,0.0487474,0.996788,0.0635311,0.0487465,0.996789,0.0635311,0.0487465,0.996789,0.0635311,0.0487465,0.996789,0.243629,0.605609,-0.75753,-0.812872,0.340555,-0.472506,-0.812872,0.340555,-0.472506,-0.812872,0.340555,-0.472506,-0.171092,-0.984969,-0.0237192,-0.171092,-0.984969,-0.0237192,-0.171092,-0.984969,-0.0237192,-0.166281,-0.98433,0.0586917,-0.748573,0.389886,0.536309,-0.748573,0.389886,0.536309,-0.748573,0.389886,0.536309,-0.81287,0.340559,-0.472506,-0.81287,0.340559,-0.472506,-0.81287,0.340559,-0.472506,-0.812691,0.340483,-0.472868,-0.812691,0.340483,-0.472868,-0.812691,0.340483,-0.472868,-0.32933,-0.943937,-0.0229051,-0.32933,-0.943937,-0.0229051,-0.32933,-0.943937,-0.0229051,-0.324941,-0.943372,0.0668004,-0.324941,-0.943372,0.0668004,-0.324941,-0.943372,0.0668004,-0.325055,-0.943333,0.0668062,-0.325178,-0.943426,0.0648624,-0.325178,-0.943426,0.0648624,-0.325178,-0.943426,0.0648624,-0.748556,0.389922,0.536307,-0.748556,0.389922,0.536307,-0.748556,0.389922,0.536307,-0.74837,0.389794,0.536659,-0.74837,0.389794,0.536659,-0.74837,0.389794,0.536659,-0.0635332,-0.0487432,-0.996789,-0.0635332,-0.0487432,-0.996789,-0.0635332,-0.0487432,-0.996789,-0.0635195,-0.0487489,-0.996789,-0.0635195,-0.0487489,-0.996789,-0.0635195,-0.0487489,-0.996789,0.0635251,0.0487469,0.996789,0.0635251,0.0487469,0.996789,0.0635251,0.0487469,0.996789,0.0635331,0.0487449,0.996789,0.0635331,0.0487449,0.996789,0.0635331,0.0487449,0.996789,-0.0635341,-0.0487451,-0.996789,-0.0635341,-0.0487451,-0.996789,-0.0635341,-0.0487451,-0.996789,-0.0635391,-0.0487447,-0.996788,-0.0635391,-0.0487447,-0.996788,-0.0635391,-0.0487447,-0.996788,-0.0635397,-0.0487464,-0.996788,-0.0635397,-0.0487464,-0.996788,-0.0635397,-0.0487464,-0.996788,-0.0635431,-0.0487628,-0.996787,-0.0635431,-0.0487628,-0.996787,-0.0635431,-0.0487628,-0.996787,0.0635279,0.0487488,0.996789,0.0635279,0.0487488,0.996789,0.0635279,0.0487488,0.996789,0.0635336,0.0487459,0.996788,0.0635336,0.0487459,0.996788,0.0635336,0.0487459,0.996788,0.0635365,0.0487527,0.996788,0.0635365,0.0487527,0.996788,0.0635365,0.0487527,0.996788,0.0635353,0.0487452,0.996788,0.0635353,0.0487452,0.996788,0.0635353,0.0487452,0.996788],
                "itemSize":3,
                "type":"Float32Array"
            },
            "position":{
                "array":[0.246128,0.873962,-0.0646392,0.245447,0.874192,-0.0657378,0.245519,0.874247,-0.0646143,0.274654,0.861854,-0.0658654,0.260004,0.867971,-0.0663614,0.260075,0.868026,-0.0652379,0.288986,0.855149,-0.066451,0.274583,0.861799,-0.0669888,0.303318,0.848445,-0.0670366,0.288915,0.855094,-0.0675744,0.31765,0.84174,-0.0676222,0.303246,0.84839,-0.06816,0.330924,0.833827,-0.069212,0.324929,0.837381,-0.0678729,0.330996,0.833882,-0.0680886,0.25329,0.87035,-0.0509346,0.252599,0.869693,-0.0799581,0.246056,0.873907,-0.0657627,0.275133,0.861657,-0.0519017,0.260339,0.867367,-0.051238,0.27336,0.860395,-0.0808267,0.289468,0.854959,-0.0524879,0.287866,0.854064,-0.0814417,0.302361,0.84771,-0.0820549,0.303688,0.848015,-0.0530546,0.317578,0.841685,-0.0687456,0.316693,0.841006,-0.0826405,0.325351,0.837063,-0.0538998,0.331231,0.833161,-0.0540837,0.328838,0.826433,-0.082702,0.330147,0.827518,-0.0688539,0.329968,0.826998,-0.0688171,0.251656,0.868737,-0.0803497,0.251784,0.869662,-0.0799047,0.252017,0.869514,-0.0804107,0.252315,0.868429,-0.0803767,0.258675,0.866382,-0.080682,0.258314,0.865605,-0.080621,0.253726,0.868827,-0.0503895,0.253428,0.869912,-0.0504235,0.253067,0.869135,-0.0503625,0.27281,0.859255,-0.0812344,0.258675,0.866382,-0.080682,0.273171,0.860031,-0.0812954,0.274646,0.860565,-0.0513188,0.260213,0.867053,-0.0507161,0.259852,0.866276,-0.0506551,0.287316,0.852924,-0.0818493,0.273171,0.860031,-0.0812954,0.287677,0.8537,-0.0819103,0.301811,0.84657,-0.0824625,0.287677,0.8537,-0.0819103,0.302172,0.847347,-0.0825235,0.288981,0.853868,-0.051905,0.303562,0.8477,-0.0525327,0.289342,0.854645,-0.051966,0.301811,0.84657,-0.0824625,0.316503,0.840643,-0.0831091,0.316143,0.839866,-0.0830481,0.303201,0.846923,-0.0524717,0.317771,0.840731,-0.0530976,0.303562,0.8477,-0.0525327,0.323937,0.836615,-0.083386,0.329455,0.833051,-0.0835634,0.323556,0.835795,-0.0833216,0.329175,0.826942,-0.0536485,0.329616,0.826896,-0.053176,0.329206,0.826966,-0.0531533,0.329117,0.827222,-0.0687738,0.328397,0.826587,-0.0826814,0.329527,0.827151,-0.0687965,0.245452,0.872507,-0.064525,0.244771,0.872737,-0.0656236,0.24538,0.872452,-0.0656485,0.273979,0.860399,-0.0657512,0.259328,0.866516,-0.0662472,0.273907,0.860344,-0.0668746,0.28831,0.853695,-0.0663368,0.288239,0.85364,-0.0674602,0.302642,0.84699,-0.0669224,0.302571,0.846935,-0.0680458,0.316974,0.840286,-0.067508,0.316902,0.840231,-0.0686314,0.329795,0.832966,-0.0679672,0.324144,0.83579,-0.0688758,0.329723,0.832911,-0.0690906,0.252614,0.868896,-0.0508204,0.244843,0.872792,-0.0645001,0.251923,0.868239,-0.0798439,0.258188,0.865291,-0.0800991,0.274457,0.860202,-0.0517875,0.259399,0.866571,-0.0651237,0.272685,0.85894,-0.0807125,0.288792,0.853505,-0.0523736,0.28719,0.852609,-0.0813275,0.301685,0.846256,-0.0819407,0.303012,0.84656,-0.0529404,0.324638,0.835528,-0.0537793,0.324216,0.835845,-0.0677524,0.328856,0.827895,-0.06879,0.327546,0.826811,-0.0826381,0.328677,0.827375,-0.0687532,0.275007,0.861342,-0.0513798,0.288981,0.853868,-0.051905,0.289342,0.854645,-0.051966,0.329616,0.826896,-0.053176,0.329385,0.827486,-0.0531901,0.329206,0.826966,-0.0531533,0.24529,0.873853,-0.0657112,0.245,0.873131,-0.0645267,0.245361,0.873908,-0.0645877,0.253428,0.869912,-0.0504235,0.252772,0.869235,-0.050847,0.253067,0.869135,-0.0503625,0.329527,0.827151,-0.0687965,0.329189,0.827277,-0.0676504,0.329117,0.827222,-0.0687738,0.33004,0.827053,-0.0676937,0.330219,0.827573,-0.0677305,0.330025,0.826718,-0.0536918,0.330236,0.827262,-0.0532334,0.330057,0.826743,-0.0531966,0.324103,0.836973,-0.083414,0.330307,0.833724,-0.0831521,0.330275,0.8337,-0.0836474,0.328134,0.827153,-0.0831908,0.328365,0.826562,-0.0831766,0.327955,0.826633,-0.0831539,0.328748,0.82743,-0.0676298,0.328913,0.827615,-0.0536648,0.328927,0.82795,-0.0676666,0.329105,0.832808,-0.0830308,0.330442,0.832536,-0.0535045,0.325217,0.83673,-0.0533765,0.324836,0.83591,-0.0533121,0.251266,0.868546,-0.0798171,0.251656,0.868737,-0.0803497,0.251498,0.868398,-0.0803231,0.251942,0.870001,-0.0799313,0.24529,0.873853,-0.0657112,0.245447,0.874192,-0.0657378,0.252157,0.86809,-0.0803501,0.258314,0.865605,-0.080621,0.258157,0.865266,-0.0805944,0.252833,0.869544,-0.0804643,0.252017,0.869514,-0.0804107,0.252174,0.869853,-0.0804373,0.253569,0.868488,-0.0503629,0.253067,0.869135,-0.0503625,0.25291,0.868797,-0.0503359,0.254245,0.869943,-0.0504771,0.260213,0.867053,-0.0507161,0.260371,0.867391,-0.0507427,0.272653,0.858916,-0.0812078,0.258314,0.865605,-0.080621,0.27281,0.859255,-0.0812344,0.258833,0.866721,-0.0807086,0.273171,0.860031,-0.0812954,0.258675,0.866382,-0.080682,0.274489,0.860226,-0.0512922,0.259852,0.866276,-0.0506551,0.259695,0.865937,-0.0506285,0.260371,0.867391,-0.0507427,0.275007,0.861342,-0.0513798,0.275164,0.861681,-0.0514064,0.287158,0.852585,-0.0818227,0.27281,0.859255,-0.0812344,0.287316,0.852924,-0.0818493,0.273329,0.86037,-0.081322,0.287677,0.8537,-0.0819103,0.273171,0.860031,-0.0812954,0.301653,0.846232,-0.0824359,0.287316,0.852924,-0.0818493,0.301811,0.84657,-0.0824625,0.287834,0.854039,-0.0819369,0.302172,0.847347,-0.0825235,0.287677,0.8537,-0.0819103,0.288824,0.853529,-0.0518784,0.303201,0.846923,-0.0524717,0.288981,0.853868,-0.051905,0.30372,0.848039,-0.0525593,0.289342,0.854645,-0.051966,0.303562,0.8477,-0.0525327,0.301653,0.846232,-0.0824359,0.316143,0.839866,-0.0830481,0.315985,0.839527,-0.0830215,0.316661,0.840981,-0.0831357,0.302172,0.847347,-0.0825235,0.302329,0.847686,-0.0825501,0.303044,0.846584,-0.0524451,0.31741,0.839954,-0.0530366,0.303201,0.846923,-0.0524717,0.317929,0.84107,-0.0531242,0.303562,0.8477,-0.0525327,0.317771,0.840731,-0.0530976,0.323556,0.835795,-0.0833216,0.329074,0.832783,-0.083526,0.32339,0.835437,-0.0832935,0.329894,0.833432,-0.08361,0.324103,0.836973,-0.083414,0.330275,0.8337,-0.0836474,0.328734,0.827096,-0.0536279,0.329206,0.826966,-0.0531533,0.328765,0.82712,-0.0531327,0.330025,0.826718,-0.0536918,0.329599,0.827206,-0.0676731,0.33004,0.827053,-0.0676937,0.328677,0.827375,-0.0687532,0.327987,0.826657,-0.0826587,0.329117,0.827222,-0.0687738,0.328838,0.826433,-0.082702,0.328365,0.826562,-0.0831766,0.328806,0.826409,-0.0831972,0.275164,0.861681,-0.0514064,0.289342,0.854645,-0.051966,0.289499,0.854984,-0.0519926,0.288824,0.853529,-0.0518784,0.274646,0.860565,-0.0513188,0.274489,0.860226,-0.0512922,0.330057,0.826743,-0.0531966,0.329795,0.827415,-0.0532128,0.329616,0.826896,-0.053176,0.328944,0.827639,-0.0531695,0.329206,0.826966,-0.0531533,0.329385,0.827486,-0.0531901,0.245519,0.874247,-0.0646143,0.24529,0.873853,-0.0657112,0.245361,0.873908,-0.0645877,0.244843,0.872792,-0.0645001,0.244929,0.873076,-0.0656502,0.244771,0.872737,-0.0656236,0.25329,0.87035,-0.0509346,0.253428,0.869912,-0.0504235,0.253586,0.870251,-0.0504501,0.244843,0.872792,-0.0645001,0.252772,0.869235,-0.050847,0.245,0.873131,-0.0645267,0.33004,0.827053,-0.0676937,0.329527,0.827151,-0.0687965,0.329968,0.826998,-0.0688171,0.328748,0.82743,-0.0676298,0.329117,0.827222,-0.0687738,0.329189,0.827277,-0.0676504,0.327693,0.827306,-0.0831702,0.327955,0.826633,-0.0831539,0.327514,0.826786,-0.0831333,0.328806,0.826409,-0.0831972,0.328544,0.827082,-0.0832134,0.328985,0.826929,-0.083234,0.330061,0.832269,-0.0534671,0.324836,0.83591,-0.0533121,0.32467,0.835552,-0.053284,0.325383,0.837088,-0.0534046,0.330881,0.832918,-0.0535511,0.331262,0.833185,-0.0535885,0.254245,0.869943,-0.0504771,0.253947,0.870043,-0.0509615,0.252174,0.869853,-0.0804373,0.252833,0.869544,-0.0804643,0.252017,0.869514,-0.0804107,0.252315,0.868429,-0.0803767,0.251656,0.868737,-0.0803497,0.259852,0.866276,-0.0506551,0.254087,0.869604,-0.0504505,0.253726,0.868827,-0.0503895,0.253272,0.868588,-0.0508473,0.251266,0.868546,-0.0798171,0.251656,0.868737,-0.0803497,0.252157,0.86809,-0.0803501,0.251498,0.868398,-0.0803231,0.258833,0.866721,-0.0807086,0.252676,0.869206,-0.0804377,0.252833,0.869544,-0.0804643,0.259695,0.865937,-0.0506285,0.253726,0.868827,-0.0503895,0.253569,0.868488,-0.0503629,0.253428,0.869912,-0.0504235,0.254245,0.869943,-0.0504771,0.253586,0.870251,-0.0504501,0.253586,0.870251,-0.0504501,0.258864,0.866745,-0.0802133,0.260371,0.867391,-0.0507427,0.273329,0.86037,-0.081322,0.289499,0.854984,-0.0519926,0.275164,0.861681,-0.0514064,0.287834,0.854039,-0.0819369,0.30372,0.848039,-0.0525593,0.302329,0.847686,-0.0825501,0.317929,0.84107,-0.0531242,0.316661,0.840981,-0.0831357,0.325383,0.837088,-0.0534046,0.331262,0.833185,-0.0535885,0.328985,0.826929,-0.083234,0.328806,0.826409,-0.0831972,0.244929,0.873076,-0.0656502,0.251784,0.869662,-0.0799047,0.251423,0.868885,-0.0798437,0.329189,0.827277,-0.0676504,0.329585,0.826872,-0.0536712,0.329175,0.826942,-0.0536485,0.328365,0.826562,-0.0831766,0.327987,0.826657,-0.0826587,0.327955,0.826633,-0.0831539,0.25291,0.868797,-0.0503359,0.252157,0.86809,-0.0803501,0.259695,0.865937,-0.0506285,0.274489,0.860226,-0.0512922,0.272653,0.858916,-0.0812078,0.258157,0.865266,-0.0805944,0.288824,0.853529,-0.0518784,0.287158,0.852585,-0.0818227,0.303044,0.846584,-0.0524451,0.301653,0.846232,-0.0824359,0.317221,0.839591,-0.0535053,0.317253,0.839615,-0.05301,0.315985,0.839527,-0.0830215,0.32467,0.835552,-0.053284,0.33003,0.832245,-0.0539624,0.330061,0.832269,-0.0534671,0.327514,0.826786,-0.0831333,0.327725,0.82733,-0.0826749,0.327693,0.827306,-0.0831702,0.245,0.873131,-0.0645267,0.253133,0.870012,-0.050908,0.245361,0.873908,-0.0645877,0.330205,0.827238,-0.0537287,0.324857,0.837326,-0.0689964,0.328944,0.827639,-0.0531695,0.328734,0.827096,-0.0536279,0.328765,0.82712,-0.0531327,0.32339,0.835437,-0.0832935,0.329074,0.832783,-0.083526,0.244771,0.872737,-0.0656236,0.251423,0.868885,-0.0798437,0.251266,0.868546,-0.0798171,0.252174,0.869853,-0.0804373,0.251784,0.869662,-0.0799047,0.251942,0.870001,-0.0799313,0.328748,0.82743,-0.0676298,0.329175,0.826942,-0.0536485,0.328734,0.827096,-0.0536279,0.330057,0.826743,-0.0531966,0.329585,0.826872,-0.0536712,0.330025,0.826718,-0.0536918,0.327955,0.826633,-0.0831539,0.327546,0.826811,-0.0826381,0.327514,0.826786,-0.0831333,0.329527,0.827151,-0.0687965,0.328838,0.826433,-0.082702,0.329968,0.826998,-0.0688171,0.245361,0.873908,-0.0645877,0.25329,0.87035,-0.0509346,0.245519,0.874247,-0.0646143,0.25291,0.868797,-0.0503359,0.252772,0.869235,-0.050847,0.252614,0.868896,-0.0508204,0.251942,0.870001,-0.0799313,0.259663,0.865913,-0.0511238,0.253569,0.868488,-0.0503629,0.251498,0.868398,-0.0803231,0.317897,0.841046,-0.0536195,0.316143,0.839866,-0.0830481,0.323937,0.836615,-0.083386,0.323556,0.835795,-0.0833216,0.328544,0.827082,-0.0832134,0.329455,0.833051,-0.0835634,0.329894,0.833432,-0.08361,0.324135,0.836997,-0.0829188,0.329017,0.826953,-0.0827388,0.323421,0.835461,-0.0827982,0.329795,0.827415,-0.0532128,0.330442,0.832536,-0.0535045,0.329385,0.827486,-0.0531901,0.31741,0.839954,-0.0530366,0.325217,0.83673,-0.0533765,0.317771,0.840731,-0.0530976,0.315985,0.839527,-0.0830215,0.323556,0.835795,-0.0833216,0.32339,0.835437,-0.0832935,0.328134,0.827153,-0.0831908,0.329074,0.832783,-0.083526,0.329455,0.833051,-0.0835634,0.328985,0.826929,-0.083234,0.329894,0.833432,-0.08361,0.330275,0.8337,-0.0836474,0.316503,0.840643,-0.0831091,0.324103,0.836973,-0.083414,0.323937,0.836615,-0.083386,0.329385,0.827486,-0.0531901,0.330061,0.832269,-0.0534671,0.328944,0.827639,-0.0531695,0.317253,0.839615,-0.05301,0.324836,0.83591,-0.0533121,0.31741,0.839954,-0.0530366,0.317771,0.840731,-0.0530976,0.325383,0.837088,-0.0534046,0.317929,0.84107,-0.0531242,0.330236,0.827262,-0.0532334,0.330881,0.832918,-0.0535511,0.329795,0.827415,-0.0532128,0.316017,0.839551,-0.0825263,0.251656,0.868737,-0.0803497,0.251423,0.868885,-0.0798437,0.251784,0.869662,-0.0799047,0.252315,0.868429,-0.0803767,0.252676,0.869206,-0.0804377,0.258675,0.866382,-0.080682,0.253726,0.868827,-0.0503895,0.254087,0.869604,-0.0504505,0.253428,0.869912,-0.0504235,0.27281,0.859255,-0.0812344,0.258314,0.865605,-0.080621,0.258675,0.866382,-0.080682,0.274646,0.860565,-0.0513188,0.275007,0.861342,-0.0513798,0.260213,0.867053,-0.0507161,0.287316,0.852924,-0.0818493,0.27281,0.859255,-0.0812344,0.273171,0.860031,-0.0812954,0.301811,0.84657,-0.0824625,0.287316,0.852924,-0.0818493,0.287677,0.8537,-0.0819103,0.288981,0.853868,-0.051905,0.303201,0.846923,-0.0524717,0.303562,0.8477,-0.0525327,0.302172,0.847347,-0.0825235,0.303201,0.846923,-0.0524717,0.31741,0.839954,-0.0530366,0.317771,0.840731,-0.0530976,0.323937,0.836615,-0.083386,0.329894,0.833432,-0.08361,0.329455,0.833051,-0.0835634,0.329175,0.826942,-0.0536485,0.329585,0.826872,-0.0536712,0.329616,0.826896,-0.053176,0.329117,0.827222,-0.0687738,0.327987,0.826657,-0.0826587,0.328397,0.826587,-0.0826814,0.274646,0.860565,-0.0513188,0.329616,0.826896,-0.053176,0.329795,0.827415,-0.0532128,0.329385,0.827486,-0.0531901,0.24529,0.873853,-0.0657112,0.244929,0.873076,-0.0656502,0.245,0.873131,-0.0645267,0.253428,0.869912,-0.0504235,0.253133,0.870012,-0.050908,0.252772,0.869235,-0.050847,0.329527,0.827151,-0.0687965,0.329599,0.827206,-0.0676731,0.329189,0.827277,-0.0676504,0.328134,0.827153,-0.0831908,0.328544,0.827082,-0.0832134,0.328365,0.826562,-0.0831766,0.330442,0.832536,-0.0535045,0.330881,0.832918,-0.0535511,0.325217,0.83673,-0.0533765,0.251266,0.868546,-0.0798171,0.251423,0.868885,-0.0798437,0.251656,0.868737,-0.0803497,0.251942,0.870001,-0.0799313,0.251784,0.869662,-0.0799047,0.24529,0.873853,-0.0657112,0.252315,0.868429,-0.0803767,0.252833,0.869544,-0.0804643,0.252676,0.869206,-0.0804377,0.252017,0.869514,-0.0804107,0.253569,0.868488,-0.0503629,0.253726,0.868827,-0.0503895,0.253067,0.869135,-0.0503625,0.254245,0.869943,-0.0504771,0.254087,0.869604,-0.0504505,0.260213,0.867053,-0.0507161,0.272653,0.858916,-0.0812078,0.258157,0.865266,-0.0805944,0.258314,0.865605,-0.080621,0.258833,0.866721,-0.0807086,0.273329,0.86037,-0.081322,0.273171,0.860031,-0.0812954,0.274489,0.860226,-0.0512922,0.274646,0.860565,-0.0513188,0.259852,0.866276,-0.0506551,0.260371,0.867391,-0.0507427,0.260213,0.867053,-0.0507161,0.275007,0.861342,-0.0513798,0.287158,0.852585,-0.0818227,0.272653,0.858916,-0.0812078,0.27281,0.859255,-0.0812344,0.273329,0.86037,-0.081322,0.287834,0.854039,-0.0819369,0.287677,0.8537,-0.0819103,0.301653,0.846232,-0.0824359,0.287158,0.852585,-0.0818227,0.287316,0.852924,-0.0818493,0.287834,0.854039,-0.0819369,0.302329,0.847686,-0.0825501,0.302172,0.847347,-0.0825235,0.288824,0.853529,-0.0518784,0.303044,0.846584,-0.0524451,0.303201,0.846923,-0.0524717,0.30372,0.848039,-0.0525593,0.289499,0.854984,-0.0519926,0.289342,0.854645,-0.051966,0.301653,0.846232,-0.0824359,0.301811,0.84657,-0.0824625,0.316143,0.839866,-0.0830481,0.316661,0.840981,-0.0831357,0.316503,0.840643,-0.0831091,0.302172,0.847347,-0.0825235,0.303044,0.846584,-0.0524451,0.317253,0.839615,-0.05301,0.31741,0.839954,-0.0530366,0.317929,0.84107,-0.0531242,0.30372,0.848039,-0.0525593,0.303562,0.8477,-0.0525327,0.323556,0.835795,-0.0833216,0.329455,0.833051,-0.0835634,0.329074,0.832783,-0.083526,0.329894,0.833432,-0.08361,0.323937,0.836615,-0.083386,0.324103,0.836973,-0.083414,0.328734,0.827096,-0.0536279,0.329175,0.826942,-0.0536485,0.329206,0.826966,-0.0531533,0.330025,0.826718,-0.0536918,0.329585,0.826872,-0.0536712,0.329599,0.827206,-0.0676731,0.328677,0.827375,-0.0687532,0.327546,0.826811,-0.0826381,0.327987,0.826657,-0.0826587,0.328838,0.826433,-0.082702,0.328397,0.826587,-0.0826814,0.328365,0.826562,-0.0831766,0.275164,0.861681,-0.0514064,0.275007,0.861342,-0.0513798,0.289342,0.854645,-0.051966,0.288824,0.853529,-0.0518784,0.288981,0.853868,-0.051905,0.274646,0.860565,-0.0513188,0.330057,0.826743,-0.0531966,0.330236,0.827262,-0.0532334,0.329795,0.827415,-0.0532128,0.328944,0.827639,-0.0531695,0.328765,0.82712,-0.0531327,0.329206,0.826966,-0.0531533,0.245519,0.874247,-0.0646143,0.245447,0.874192,-0.0657378,0.24529,0.873853,-0.0657112,0.244843,0.872792,-0.0645001,0.245,0.873131,-0.0645267,0.244929,0.873076,-0.0656502,0.25329,0.87035,-0.0509346,0.253133,0.870012,-0.050908,0.253428,0.869912,-0.0504235,0.244843,0.872792,-0.0645001,0.252614,0.868896,-0.0508204,0.252772,0.869235,-0.050847,0.33004,0.827053,-0.0676937,0.329599,0.827206,-0.0676731,0.329527,0.827151,-0.0687965,0.328748,0.82743,-0.0676298,0.328677,0.827375,-0.0687532,0.329117,0.827222,-0.0687738,0.328134,0.827153,-0.0831908,0.328365,0.826562,-0.0831766,0.330061,0.832269,-0.0534671,0.330442,0.832536,-0.0535045,0.324836,0.83591,-0.0533121,0.325383,0.837088,-0.0534046,0.325217,0.83673,-0.0533765,0.330881,0.832918,-0.0535511,0.252017,0.869514,-0.0804107,0.252676,0.869206,-0.0804377,0.252315,0.868429,-0.0803767,0.259852,0.866276,-0.0506551,0.260213,0.867053,-0.0507161,0.254087,0.869604,-0.0504505,0.251656,0.868737,-0.0803497,0.252315,0.868429,-0.0803767,0.252157,0.86809,-0.0803501,0.258833,0.866721,-0.0807086,0.258675,0.866382,-0.080682,0.252676,0.869206,-0.0804377,0.259695,0.865937,-0.0506285,0.259852,0.866276,-0.0506551,0.253726,0.868827,-0.0503895,0.253428,0.869912,-0.0504235,0.254087,0.869604,-0.0504505,0.254245,0.869943,-0.0504771,0.258833,0.866721,-0.0807086,0.244929,0.873076,-0.0656502,0.24529,0.873853,-0.0657112,0.251784,0.869662,-0.0799047,0.329189,0.827277,-0.0676504,0.329599,0.827206,-0.0676731,0.329585,0.826872,-0.0536712,0.328397,0.826587,-0.0826814,0.245,0.873131,-0.0645267,0.252772,0.869235,-0.050847,0.253133,0.870012,-0.050908,0.244771,0.872737,-0.0656236,0.244929,0.873076,-0.0656502,0.251423,0.868885,-0.0798437,0.252174,0.869853,-0.0804373,0.252017,0.869514,-0.0804107,0.251784,0.869662,-0.0799047,0.328748,0.82743,-0.0676298,0.329189,0.827277,-0.0676504,0.329175,0.826942,-0.0536485,0.330057,0.826743,-0.0531966,0.329616,0.826896,-0.053176,0.329585,0.826872,-0.0536712,0.327987,0.826657,-0.0826587,0.329527,0.827151,-0.0687965,0.328397,0.826587,-0.0826814,0.328838,0.826433,-0.082702,0.245361,0.873908,-0.0645877,0.253133,0.870012,-0.050908,0.25329,0.87035,-0.0509346,0.25291,0.868797,-0.0503359,0.253067,0.869135,-0.0503625,0.252772,0.869235,-0.050847,0.316143,0.839866,-0.0830481,0.316503,0.840643,-0.0831091,0.323937,0.836615,-0.083386,0.328544,0.827082,-0.0832134,0.328134,0.827153,-0.0831908,0.329455,0.833051,-0.0835634,0.329795,0.827415,-0.0532128,0.330881,0.832918,-0.0535511,0.330442,0.832536,-0.0535045,0.31741,0.839954,-0.0530366,0.324836,0.83591,-0.0533121,0.325217,0.83673,-0.0533765,0.315985,0.839527,-0.0830215,0.316143,0.839866,-0.0830481,0.323556,0.835795,-0.0833216,0.328134,0.827153,-0.0831908,0.327693,0.827306,-0.0831702,0.329074,0.832783,-0.083526,0.328985,0.826929,-0.083234,0.328544,0.827082,-0.0832134,0.329894,0.833432,-0.08361,0.316503,0.840643,-0.0831091,0.316661,0.840981,-0.0831357,0.324103,0.836973,-0.083414,0.329385,0.827486,-0.0531901,0.330442,0.832536,-0.0535045,0.330061,0.832269,-0.0534671,0.317253,0.839615,-0.05301,0.32467,0.835552,-0.053284,0.324836,0.83591,-0.0533121,0.317771,0.840731,-0.0530976,0.325217,0.83673,-0.0533765,0.325383,0.837088,-0.0534046,0.330236,0.827262,-0.0532334,0.331262,0.833185,-0.0535885,0.330881,0.832918,-0.0535511],
                "itemSize":3,
                "type":"Float32Array"
            }
        }
    }
}