{
    "data":{
        "index":{
            "array":[0,1,2,2,3,0,4,5,6,6,7,4,8,9,10,10,11,8,12,13,14,14,15,12,16,17,18,18,19,16,20,21,22,22,23,20,24,25,26,26,27,24,28,29,30,30,31,28,32,33,34,34,35,32,36,37,38,38,39,36,40,41,42,42,43,40,44,45,46,46,47,44,48,49,50,50,51,48,48,52,53,53,49,48,54,55,53,53,52,54,56,57,55,55,54,56,58,57,56,56,59,58,58,59,60,60,61,58,60,62,63,63,61,60,64,63,62,62,65,64,66,64,65,65,67,66,66,67,68,68,69,66,69,68,70,70,71,69,70,51,50,50,71,70,72,73,74,74,75,72,75,74,76,76,77,75,78,79,77,77,76,78,79,78,80,80,81,79,82,81,80,80,83,82,84,85,82,82,83,84,86,87,85,85,84,86,87,86,88,88,89,87,89,88,90,90,91,89,90,92,93,93,91,90,93,92,94,94,95,93,73,72,95,95,94,73,96,97,98,98,99,96,97,96,100,100,101,97,102,103,101,101,100,102,104,105,103,103,102,104,106,107,108,108,109,106,109,110,111,111,106,109,112,111,110,110,113,112,114,115,112,112,113,114,116,117,118,118,119,116,117,116,120,120,121,117,121,120,122,122,123,121,124,125,123,123,122,124,126,127,128,128,129,126,130,126,129,129,131,130,132,130,131,131,133,132,134,135,132,132,133,134,99,53,55,55,96,99,96,55,57,57,100,96,100,57,58,58,102,100,102,58,61,61,104,102,64,66,109,109,108,64,110,109,66,66,69,110,110,69,71,71,113,110,50,114,113,113,71,50,136,116,119,119,137,136,116,136,138,138,120,116,139,122,120,120,138,139,139,140,124,124,122,139,128,141,142,142,129,128,143,131,129,129,142,143,143,144,133,133,131,143,133,144,145,145,134,133,146,147,115,98,147,146,97,147,98,101,147,97,103,147,101,105,147,103,148,147,105,107,147,148,106,147,107,111,147,106,112,147,111,115,147,112,118,149,150,117,149,118,121,149,117,123,149,121,125,149,123,151,149,125,127,149,151,126,149,127,130,149,126,132,149,130,135,149,132,150,149,135,152,153,154,154,155,152,154,156,157,157,155,154,158,159,160,160,161,158,162,163,164,164,165,162,166,167,163,163,162,166,168,169,170,170,171,168,171,170,172,172,173,171,174,175,173,173,172,174,176,177,178,178,179,176,180,181,182,182,183,180,184,185,186,186,187,184,187,188,189,189,184,187,190,191,192,192,193,190,190,193,194,194,195,190,196,197,195,195,194,196,198,199,177,177,176,198,200,201,202,202,137,200,203,150,135,135,204,203,127,205,206,206,128,127,207,208,124,124,140,207,108,107,209,209,210,108,211,212,104,104,61,211,49,53,213,213,214,49,215,216,146,146,115,215,217,218,114,114,50,217,98,219,220,220,99,98,221,105,104,104,212,221,119,118,222,222,223,119,224,125,124,124,208,224,204,135,134,134,225,204,226,64,108,108,210,226,227,141,128,128,206,227,228,205,127,127,151,228,125,224,228,228,151,125,140,229,230,230,207,140,230,229,141,141,227,230,200,137,119,119,223,200,202,201,231,231,145,202,145,231,225,225,134,145,118,150,203,203,222,118,218,215,115,115,114,218,49,214,217,217,50,49,53,99,220,220,213,53,146,216,219,219,98,146,232,63,64,64,226,232,211,61,63,63,232,211,221,233,148,148,105,221,107,148,233,233,209,107,234,235,236,236,237,234,238,239,240,240,241,238,242,243,244,244,245,242,246,247,248,248,249,246,250,251,252,252,253,250,254,255,256,256,257,254,258,259,260,260,261,258,262,263,264,264,265,262,266,267,268,268,269,266,270,271,272,272,273,270,274,275,276,276,277,274,278,279,280,280,281,278,282,283,284,284,285,282,286,287,288,288,289,286,290,291,292,292,293,290,294,295,296,296,297,294,298,299,300,300,301,298,302,303,304,304,305,302,306,307,308,308,309,306,310,311,312,312,313,310,314,315,316,316,317,314,318,319,320,320,321,318,322,323,324,324,325,322,326,327,328,328,329,326,330,331,332,332,333,330,334,335,336,336,337,334,338,339,340,340,341,338,342,343,344,344,345,342,346,347,348,348,349,346,350,351,352,352,353,350,354,355,356,356,357,354,358,359,360,360,361,358,362,363,364,364,365,362,366,367,368,368,369,366,370,371,372,372,373,370,374,375,376,376,377,374,378,379,380,380,381,378,382,383,384,384,385,382,386,387,388,388,389,386,390,391,392,392,393,390,394,395,396,396,397,394,398,399,400,400,401,398,402,403,404,404,405,402,406,407,408,408,409,406,410,411,412,412,413,410,414,415,416,416,417,414,418,419,420,420,421,418,422,423,424,424,425,422,426,427,428,428,429,426,430,431,432,432,433,430,434,435,436,436,437,434,438,439,440,440,441,438,442,443,444,444,445,442,446,447,448,448,449,446,450,451,452,452,453,450,454,455,456,456,457,454,458,459,460,460,461,458,462,463,464,464,465,462,466,467,468,468,469,466,470,471,472,472,473,470,474,475,476,476,477,474,478,479,480,480,481,478,482,483,484,484,485,482,486,487,488,488,489,486,490,137,202,202,491,490,490,492,136,136,137,490,138,136,492,492,493,138,493,494,139,139,138,493,495,140,139,139,494,495,229,140,495,495,496,229,497,141,229,229,496,497,141,497,498,498,142,141,498,499,143,143,142,498,499,500,144,144,143,499,144,500,501,501,145,144,145,501,491,491,202,145,502,503,504,504,505,502,506,507,508,508,509,506,510,511,512,512,513,510,514,515,516,516,517,514,518,519,520,520,521,518,522,523,524,524,525,522,526,527,528,528,529,526,530,531,532,532,533,530,534,535,536,536,537,534,538,539,540,540,541,538,542,543,544,544,545,542,546,547,548,548,549,546,550,551,552,552,553,550,554,555,556,556,557,554,558,559,560,560,561,558,562,563,564,564,565,562,566,567,568,568,569,566,570,571,572,572,573,570,574,575,576,576,577,574,578,579,580,580,581,578,582,583,584,584,585,582,586,587,588,588,589,586,590,591,592,592,593,590,594,595,596,596,597,594,598,599,600,600,601,598,602,603,604,604,605,602,606,607,608,608,609,606,610,611,612,612,613,610,614,615,616,616,617,614,618,619,620,620,621,618,622,623,624,624,625,622,626,627,628,628,629,626,630,631,632,632,633,630,634,635,636,636,637,634,638,639,640,640,641,638,642,643,644,644,645,642,646,647,648,648,649,646,650,651,652,652,653,650,654,655,656,656,657,654,658,659,660,660,661,658,662,663,664,664,665,662,666,667,668,668,669,666,670,671,672,672,673,670,674,675,676,676,677,674,678,679,680,680,681,678,682,683,684,684,685,682,686,687,688,688,689,686,690,691,692,692,693,690,694,695,696,696,697,694,698,699,700,700,701,698,702,703,704,704,705,702,706,707,708,708,709,706,710,711,712,712,713,710,714,715,716,716,717,714,718,719,720,720,721,718,722,723,724,724,725,722,726,727,728,728,729,726,730,731,732,732,733,730,734,735,736,736,737,734,738,739,740,740,741,738,742,743,744,744,745,742,746,747,748,748,749,746,750,751,752,752,753,750,754,755,756,756,757,754,758,759,760,760,761,758,762,763,764,764,765,762,766,767,768,768,769,766,770,771,772,772,773,770,774,775,776,776,777,774,778,779,780,780,781,778,782,783,784,784,785,782,786,787,788,788,789,786,790,791,792,792,793,790,794,795,796,796,797,794,798,799,800,800,801,798,802,803,804,804,805,802,806,807,808,808,809,806,810,811,812,812,813,810,814,815,816,816,817,814,818,819,820,820,821,818,822,823,824,824,825,822,826,827,828,828,829,826,830,831,832,832,833,830,834,835,836,836,837,834,838,839,840,840,841,838,842,843,844,844,845,842,846,847,848,848,849,846,850,851,852,852,853,850,854,855,856,856,857,854,858,859,860,860,861,858,862,863,864,864,865,862,866,867,868,868,869,866,870,871,872,872,873,870,874,875,876,876,877,874,878,879,880,880,881,878,882,883,884,884,885,882,886,887,888,888,889,886,890,891,892,892,893,890,894,895,896,896,897,894,898,899,900,900,901,898,902,903,904,904,905,902,906,907,908,908,909,906,910,911,912,912,913,910,914,915,916,916,917,914,918,919,920,920,921,918,922,923,924,924,925,922,926,927,928,928,929,926,930,931,932,932,933,930,934,935,936,936,937,934,938,939,940,940,941,938,942,943,944,944,945,942,946,947,948,948,949,946,950,951,952,952,953,950,954,955,956,956,957,954,958,959,960,960,961,958,962,963,964,964,965,962,966,967,968,968,969,966,970,971,972,972,973,970,974,975,976,976,977,974,978,979,980,980,981,978],
            "type":"Uint16Array",
            "itemSize":1
        },
        "attributes":{
            "normal":{
                "array":[0.324381,-0.185888,-0.927458,0.32429,-0.186041,-0.927458,0.32429,-0.186071,-0.927458,0.324351,-0.185827,-0.927488,-0.157292,0.0169683,-0.987396,-0.15714,0.017243,-0.987396,-0.157201,0.0171514,-0.987396,-0.15717,0.0171514,-0.987396,-0.58269,0.209693,-0.78515,-0.582629,0.209906,-0.785119,-0.58272,0.209296,-0.785241,-0.58272,0.209784,-0.785119,-0.854427,0.346294,-0.387249,-0.854396,0.346355,-0.38728,-0.854427,0.346355,-0.387188,-0.854366,0.346477,-0.38728,-0.910825,0.3961,0.116092,-0.910764,0.396222,0.116092,-0.910855,0.395978,0.116062,-0.910825,0.3961,0.116092,-0.721335,0.33964,0.603565,-0.721366,0.339488,0.603595,-0.721305,0.339702,0.603565,-0.721335,0.339579,0.603595,-0.324229,0.186041,0.927488,-0.32429,0.18598,0.927458,-0.32432,0.185949,0.927488,-0.32432,0.186041,0.927458,0.157109,-0.0173345,0.987396,0.157109,-0.017243,0.987426,0.157201,-0.0171819,0.987396,0.157109,-0.017365,0.987426,0.58269,-0.209662,0.78515,0.582568,-0.209906,0.78518,0.58269,-0.209693,0.78515,0.58269,-0.209723,0.785119,0.854518,-0.346171,0.387219,0.854427,-0.346324,0.38728,0.854427,-0.346355,0.387249,0.854457,-0.346202,0.38731,0.910916,-0.395856,-0.116092,0.910825,-0.396069,-0.116092,0.910825,-0.396069,-0.116092,0.910855,-0.396008,-0.116153,0.721397,-0.339396,-0.603595,0.721274,-0.33961,-0.603656,0.721335,-0.339671,-0.603534,0.721305,-0.339671,-0.603565,-0.393353,-0.91818,0.0466628,-0.393353,-0.91818,0.0466018,-0.393323,-0.91821,0.0466018,-0.393323,-0.91818,0.0466628,-0.393323,-0.91818,0.0466323,-0.393323,-0.91818,0.0466323,-0.393262,-0.91821,0.0465712,-0.393292,-0.91821,0.0466018,-0.393353,-0.91818,0.0466018,-0.393353,-0.91818,0.0466018,-0.393323,-0.91821,0.0466018,-0.393292,-0.91821,0.0466323,-0.393323,-0.91821,0.0465712,-0.393323,-0.91818,0.0465712,-0.393323,-0.91818,0.0466018,-0.393323,-0.91821,0.0466323,-0.393323,-0.91818,0.0466323,-0.393353,-0.91818,0.0466323,-0.393323,-0.91818,0.0466018,-0.393292,-0.91821,0.0466323,-0.393292,-0.91821,0.0466323,-0.393323,-0.91821,0.0466323,-0.393323,-0.91821,0.0465712,-0.393323,-0.91821,0.0465712,0.393384,0.91818,-0.0467544,0.393384,0.91818,-0.0467544,0.393323,0.91821,-0.0462966,0.393323,0.91821,-0.0462966,0.393262,0.91821,-0.0467544,0.393262,0.91821,-0.0467544,0.393536,0.918119,-0.0461745,0.393536,0.918119,-0.0461745,0.393323,0.91821,-0.0466323,0.393323,0.91821,-0.0466628,0.393384,0.91818,-0.0466018,0.393384,0.91818,-0.0466018,0.393384,0.91818,-0.0466323,0.393384,0.91818,-0.0466323,0.393292,0.918241,-0.0463271,0.393292,0.918241,-0.0463271,0.393384,0.91818,-0.0465407,0.393384,0.91818,-0.0465407,0.393262,0.918241,-0.0465712,0.393231,0.918241,-0.0465407,0.393292,0.91821,-0.0466323,0.393292,0.91821,-0.0466323,0.393445,0.918149,-0.0466018,0.393445,0.918149,-0.0466018,-0.393323,-0.91821,0.0466018,-0.393353,-0.91818,0.0466933,-0.393353,-0.91818,0.0465712,-0.393323,-0.91821,0.0466323,-0.393323,-0.91818,0.0466018,-0.393292,-0.91821,0.0466323,-0.393323,-0.91821,0.0465712,-0.393292,-0.91821,0.0466018,-0.393292,-0.91821,0.0466323,-0.393353,-0.91818,0.0466323,-0.393323,-0.91821,0.0465712,-0.393292,-0.91821,0.0465712,-0.393323,-0.91818,0.0466628,-0.393353,-0.91818,0.0465712,-0.393323,-0.91818,0.0466018,-0.393323,-0.91818,0.0466018,-0.393353,-0.91818,0.0466018,-0.393323,-0.91821,0.0465712,-0.393353,-0.91818,0.0465712,-0.393262,-0.91821,0.0466018,0.393323,0.91821,-0.0466018,0.393323,0.91821,-0.0466018,0.393353,0.91818,-0.0466018,0.393323,0.91821,-0.0466018,0.393353,0.91818,-0.0466018,0.393323,0.91821,-0.0466018,0.393323,0.91821,-0.0466018,0.393323,0.91818,-0.0466628,0.393292,0.91821,-0.0465712,0.393323,0.91821,-0.0466323,0.393323,0.91818,-0.0466323,0.393323,0.91818,-0.0465712,0.393323,0.91821,-0.0466323,0.393323,0.91821,-0.0466018,0.393292,0.91821,-0.0466018,0.393353,0.91818,-0.0465712,0.393292,0.91821,-0.0466018,0.393323,0.91818,-0.0466018,0.393353,0.91818,-0.0465712,0.393292,0.91821,-0.0465407,0.393323,0.91821,-0.0466323,0.393323,0.91821,-0.0465712,0.393292,0.91821,-0.0466018,0.393323,0.91818,-0.0466018,0.393323,0.91821,-0.0466018,0.393323,0.91818,-0.0466628,0.393323,0.91821,-0.0466628,0.393292,0.91821,-0.0466018,0.393323,0.91821,-0.0466018,0.393292,0.91821,-0.0466018,-0.393384,-0.91818,0.0466323,-0.393323,-0.91821,0.0466018,-0.393262,-0.918241,0.0464187,0.393323,0.91818,-0.0466018,0.393323,0.91821,-0.0463881,0.392956,0.918393,-0.0459304,-0.180212,0.126713,0.975402,-0.180303,0.126713,0.975402,0.334788,0.026368,0.941923,0.246681,-0.17954,0.9523,0.714713,-0.149785,0.683157,0.626667,-0.355022,0.693686,0.898221,-0.372936,0.232551,0.626667,-0.355022,0.693686,0.714713,-0.149785,0.683157,0.898221,-0.372967,0.232551,0.542589,-0.272805,-0.794427,0.542589,-0.272774,-0.794427,0.792383,-0.36433,-0.489242,0.792352,-0.364299,-0.489303,0.203864,-0.13654,-0.96942,0.203772,-0.136418,-0.969451,-0.459395,0.152379,-0.875027,-0.459487,0.152501,-0.874966,-0.750633,0.41728,-0.512223,-0.838527,0.212073,-0.501846,-0.869198,0.492752,-0.0406507,-0.957549,0.286599,-0.0301523,-0.804407,0.368236,0.46614,-0.804376,0.368206,0.466201,-0.54265,0.272744,0.794427,-0.542619,0.272713,0.794427,-0.203955,0.136509,0.96939,-0.203803,0.13654,0.96942,0.838557,-0.212012,0.501816,0.750755,-0.417066,0.512223,0.459456,-0.152318,0.875027,0.459395,-0.152348,0.875027,0.869442,-0.492325,0.0406507,0.750755,-0.417066,0.512223,0.838557,-0.212012,0.501816,0.95764,-0.286294,0.0302744,0.804346,-0.368267,-0.466231,0.804346,-0.368236,-0.466231,-0.334788,-0.0260018,-0.941923,0.180303,-0.126774,-0.975402,0.180242,-0.126774,-0.975402,-0.246834,0.179235,-0.95233,-0.626759,0.355052,-0.693594,-0.714774,0.149663,-0.683126,-0.89819,0.372967,-0.232612,-0.89816,0.372967,-0.232643,-0.792383,0.364238,0.489273,-0.792291,0.364269,0.489456,0.393353,0.91818,-0.0466323,0.393292,0.91821,-0.0467544,0.393323,0.91818,-0.0466323,0.393323,0.91821,-0.0463576,0.393323,0.91821,-0.0465712,0.393323,0.91821,-0.0465407,0.393323,0.91818,-0.0467544,0.393384,0.91818,-0.0466628,0.393231,0.918241,-0.0465712,-0.393323,-0.91821,0.0466018,-0.393414,-0.918149,0.0466933,-0.393323,-0.91821,0.0464797,-0.393262,-0.91821,0.0467849,-0.393323,-0.91818,0.0466628,-0.393323,-0.91821,0.0464797,-0.392987,-0.918332,0.0467238,-0.393475,-0.918119,0.0468459,-0.393292,-0.91821,0.0463881,-0.393414,-0.918149,0.0466018,-0.393292,-0.91821,0.0464797,-0.393323,-0.91818,0.0466628,-0.393323,-0.91821,0.0465102,0.393414,0.918149,-0.0465407,0.393323,0.91821,-0.0465407,0.393292,0.91821,-0.0466018,0.393323,0.91818,-0.0465712,-0.393262,-0.918241,0.0465407,0.393353,0.91818,-0.0467849,0.392926,0.918393,-0.0458998,0.393323,0.91821,-0.0465712,0.393353,0.91818,-0.0466628,0.393353,0.91818,-0.0466628,-0.393292,-0.91821,0.0466933,-0.393231,-0.918241,0.0461745,-0.289163,-0.152593,0.945036,-0.288949,-0.152226,0.945128,-0.290994,-0.15595,0.943907,-0.291147,-0.156255,0.943815,-0.0537736,0.397412,0.916044,-0.0545976,0.395337,0.916898,-0.0545061,0.39555,0.916807,-0.0537126,0.397595,0.915952,0.358257,-0.434339,0.826411,0.246681,-0.17954,0.9523,0.626667,-0.355022,0.693686,0.358318,-0.433973,0.826594,0.714713,-0.149785,0.683157,0.334788,0.026368,0.941923,0.591174,0.109439,0.799066,0.591571,0.109134,0.798822,0.745445,-0.623798,0.23487,0.750786,-0.616779,0.236305,0.750267,-0.617481,0.236152,0.744987,-0.624378,0.234748,0.9729,-0.0972015,0.209693,0.972777,-0.0979644,0.209906,0.973968,-0.0901517,0.207892,0.974059,-0.0895108,0.207709,0.629261,-0.633534,-0.450117,0.628529,-0.634571,-0.44969,0.635609,-0.6245,-0.45381,0.636219,-0.623585,-0.454207,0.874447,-0.0680258,-0.4803,0.874386,-0.0693991,-0.480209,0.874844,-0.0566424,-0.481033,0.874874,-0.0554826,-0.481094,0.0752281,-0.408216,-0.909757,0.0756554,-0.406995,-0.910276,0.0716269,-0.418409,-0.905393,0.0712607,-0.419477,-0.904935,0.316721,0.157384,-0.935362,0.316904,0.158513,-0.935087,0.315104,0.14771,-0.937468,0.31492,0.146733,-0.937681,-0.551286,-0.114628,-0.82638,-0.554003,-0.121616,-0.823542,-0.553758,-0.120945,-0.823817,-0.551073,-0.114078,-0.826594,-0.325327,0.412549,-0.850826,-0.324931,0.413404,-0.850581,-0.328776,0.404645,-0.853298,-0.329081,0.403943,-0.853511,-0.964324,0.0782189,-0.252876,-0.838527,0.212073,-0.501846,-0.957549,0.286599,-0.0301523,-0.964385,0.0778832,-0.252724,-0.730888,0.622211,-0.280343,-0.869198,0.492752,-0.0406507,-0.750633,0.41728,-0.512223,-0.731651,0.621235,-0.280587,-0.885617,0.0742515,0.458388,-0.885708,0.0738243,0.458296,-0.884854,0.0780663,0.459243,-0.884762,0.078402,0.459334,-0.650441,0.625233,0.431227,-0.650746,0.624866,0.431318,-0.647633,0.628681,0.430433,-0.647389,0.628986,0.430342,-0.313334,-0.147374,0.938108,-0.312723,-0.146214,0.938505,-0.3184,-0.15714,0.934812,-0.318918,-0.158147,0.934477,-0.0708029,0.417035,0.906095,-0.0701621,0.41792,0.905759,-0.0764794,0.409253,0.909177,-0.0770592,0.40846,0.909482,0.328501,-0.406293,0.852626,0.32487,-0.413099,0.850734,0.325236,-0.412458,0.850917,0.328776,-0.405774,0.852779,0.553606,0.120396,0.824,0.553911,0.121097,0.823695,0.550768,0.113742,0.826838,0.550523,0.113132,0.827082,0.731895,-0.621021,0.280404,0.750755,-0.417066,0.512223,0.869442,-0.492325,0.0406507,0.731742,-0.621204,0.280374,0.95764,-0.286294,0.0302744,0.838557,-0.212012,0.501816,0.964385,-0.0778832,0.252724,0.964385,-0.0769372,0.252937,0.648335,-0.627949,-0.430403,0.648152,-0.628224,-0.430311,0.650105,-0.625538,-0.431318,0.650258,-0.625324,-0.431379,0.885128,-0.0769372,-0.458907,0.885067,-0.0772729,-0.458937,0.885586,-0.0736106,-0.458571,0.885617,-0.0733055,-0.458541,0.0548418,-0.395001,-0.91702,0.05356,-0.397504,-0.916013,0.0536821,-0.397259,-0.916105,0.0549333,-0.394818,-0.917081,0.290597,0.156041,-0.943999,0.290689,0.156346,-0.943937,0.289926,0.153142,-0.9447,0.289865,0.152898,-0.944762,-0.591083,-0.108585,-0.799249,-0.334788,-0.0260018,-0.941923,-0.714774,0.149663,-0.683126,-0.591571,-0.109806,-0.7987,-0.626759,0.355052,-0.693594,-0.246834,0.179235,-0.95233,-0.358592,0.433637,-0.826624,-0.358348,0.434156,-0.826472,-0.973968,0.0899991,-0.207892,-0.972808,0.0980255,-0.209784,-0.97293,0.097232,-0.209601,-0.97409,0.0893582,-0.207739,-0.749931,0.618275,-0.235145,-0.745048,0.623707,-0.236366,-0.745506,0.623188,-0.236244,-0.750328,0.617817,-0.235054,-0.874874,0.0578936,0.480819,-0.873989,0.070864,0.480697,-0.874081,0.0694906,0.480728,-0.874966,0.0566729,0.480819,-0.635609,0.62566,0.452223,-0.636494,0.624714,0.452284,-0.628193,0.633503,0.451674,-0.62743,0.634297,0.451582,-0.431196,-0.823084,0.369488,-0.431196,-0.822993,0.369732,-0.431318,-0.823939,0.367504,-0.431318,-0.824,0.367351,0.311197,0.908536,0.278726,0.311319,0.908597,0.278359,0.309946,0.907865,0.282235,0.309854,0.907834,0.282479,-0.202307,-0.92169,0.330943,-0.202338,-0.92169,0.330943,-0.202185,-0.92169,0.330973,-0.202185,-0.92169,0.330973,0.537919,0.80694,0.243751,0.538224,0.806818,0.243538,0.538194,0.806818,0.243568,0.537889,0.80697,0.243782,-0.0600604,-0.990631,0.122501,-0.0517594,-0.990814,0.12479,-0.0526444,-0.990814,0.124546,-0.0605182,-0.990631,0.122379,0.68392,0.728568,0.0375378,0.68453,0.727958,0.037843,0.678854,0.733421,0.0350352,0.678518,0.733726,0.0348827,-0.111332,-0.986541,-0.119541,-0.110569,-0.986572,-0.120182,-0.12064,-0.986328,-0.111972,-0.121677,-0.986297,-0.111118,0.624226,0.754601,-0.202155,0.623493,0.755272,-0.20188,0.632557,0.746727,-0.205481,0.633686,0.745659,-0.205939,-0.301981,-0.912809,-0.274789,-0.307474,-0.914182,-0.264016,-0.306894,-0.914029,-0.265114,-0.301584,-0.912717,-0.275582,0.438643,0.826411,-0.353008,0.438398,0.827052,-0.351787,0.440596,0.820673,-0.36372,0.440779,0.820215,-0.364605,-0.528459,-0.80636,-0.265481,-0.526658,-0.810663,-0.255776,-0.526841,-0.810236,-0.256722,-0.52855,-0.806085,-0.26603,0.207129,0.912931,-0.351573,0.212958,0.914396,-0.344218,0.212622,0.914304,-0.344646,0.206458,0.912748,-0.352428,-0.669912,-0.740684,-0.0505081,-0.669393,-0.741203,-0.0499893,-0.669454,-0.741142,-0.0500198,-0.669942,-0.740654,-0.0505387,0.0701926,0.987915,-0.138066,0.0701315,0.987915,-0.138096,0.070864,0.987915,-0.1377,0.070925,0.987915,-0.137669,-0.637501,-0.744316,0.198889,-0.639363,-0.742424,0.200018,-0.639149,-0.742607,0.199896,-0.637379,-0.744438,0.198798,0.104343,0.988342,0.110813,0.104495,0.988342,0.11066,0.102206,0.988342,0.112613,0.101932,0.988342,0.112827,-0.439772,-0.825739,0.35316,-0.439833,-0.826106,0.352184,-0.439192,-0.821131,0.364391,-0.439131,-0.820521,0.365886,0.302194,0.912778,0.274728,0.301798,0.912656,0.275521,0.306955,0.91406,0.264962,0.307505,0.914212,0.263833,-0.206946,-0.912656,0.352367,-0.206336,-0.912503,0.35313,-0.211951,-0.913877,0.346233,-0.212256,-0.913938,0.345836,0.526444,0.810144,0.257851,0.52971,0.805444,0.265755,0.529374,0.805933,0.264901,0.526231,0.810419,0.257393,-0.070925,-0.987854,0.138096,-0.0697653,-0.987915,0.138249,-0.0698569,-0.987915,0.138218,-0.0710471,-0.987854,0.138066,0.669881,0.740745,0.0504471,0.670431,0.740226,0.0501724,0.67037,0.740287,0.0502029,0.66982,0.740776,0.0504776,-0.104923,-0.988281,-0.110752,-0.101108,-0.988464,-0.112644,-0.101505,-0.988433,-0.11243,-0.105167,-0.98825,-0.11063,0.637471,0.744285,-0.198981,0.640217,0.741478,-0.200629,0.640065,0.741661,-0.200537,0.637196,0.744591,-0.198828,-0.310953,-0.90875,-0.278237,-0.311014,-0.908841,-0.277932,-0.310129,-0.907712,-0.282571,-0.310038,-0.90759,-0.28309,0.431501,0.824396,-0.366283,0.430982,0.822169,-0.371807,0.431013,0.822413,-0.371227,0.431532,0.824519,-0.365917,-0.53856,-0.806696,-0.243141,-0.538621,-0.806665,-0.243202,-0.53798,-0.807306,-0.24247,-0.537889,-0.807367,-0.242409,0.20249,0.921781,-0.330607,0.20246,0.921751,-0.330638,0.202734,0.921812,-0.330363,0.202765,0.921812,-0.330332,-0.678823,-0.73339,-0.0359203,-0.678213,-0.73397,-0.0358287,-0.684408,-0.728141,-0.0369274,-0.684774,-0.727805,-0.0369884,0.0605182,0.990478,-0.123417,0.0507218,0.990936,-0.124302,0.0513016,0.990905,-0.124241,0.0614948,0.990448,-0.123325,-0.625446,-0.75396,0.200842,-0.624714,-0.754753,0.200049,-0.631672,-0.746818,0.207862,-0.63216,-0.746239,0.208441,0.120396,0.986175,0.113773,0.12122,0.986114,0.113437,0.11066,0.986816,0.117832,0.109348,0.986908,0.118381,0.393323,0.91821,-0.0465407,0.393323,0.91821,-0.0465712,0.393292,0.91821,-0.0466628,0.393262,0.91821,-0.0466323,0.393353,0.91818,-0.0466323,0.393292,0.91821,-0.0466018,0.393292,0.91821,-0.0465102,0.393323,0.91818,-0.0466628,0.393292,0.91821,-0.0466933,0.393292,0.91821,-0.0466018,0.393353,0.91818,-0.0466018,0.393262,0.91821,-0.0465712,0.324412,-0.185583,-0.927488,0.324503,-0.185736,-0.927458,0.324381,-0.185888,-0.927458,0.324351,-0.185827,-0.927488,-0.15714,0.017243,-0.987396,-0.157292,0.0169683,-0.987396,-0.157384,0.0168157,-0.987365,-0.157079,0.017365,-0.987426,-0.582598,0.21015,-0.785089,-0.58272,0.208808,-0.785363,-0.58272,0.209296,-0.785241,-0.582629,0.209906,-0.785119,-0.854457,0.346385,-0.387127,-0.854244,0.34666,-0.38731,-0.854366,0.346477,-0.38728,-0.854427,0.346355,-0.387188,-0.910916,0.395886,0.116062,-0.910855,0.395978,0.116062,-0.910764,0.396222,0.116092,-0.910703,0.396344,0.116123,-0.721397,0.339366,0.603626,-0.721274,0.339793,0.603534,-0.721305,0.339702,0.603565,-0.721366,0.339488,0.603595,-0.32432,0.186041,0.927458,-0.32429,0.186132,0.927427,-0.324168,0.186132,0.927488,-0.324229,0.186041,0.927488,0.157079,-0.0174261,0.987426,0.157109,-0.0173345,0.987396,0.157109,-0.017365,0.987426,0.156957,-0.0175481,0.987426,0.58269,-0.209601,0.78515,0.582415,-0.21012,0.785211,0.582568,-0.209906,0.78518,0.58269,-0.209662,0.78515,0.854518,-0.346171,0.387219,0.854457,-0.346202,0.38731,0.854488,-0.346049,0.387371,0.85461,-0.345988,0.387158,0.910855,-0.396008,-0.116153,0.910886,-0.395917,-0.116245,0.911008,-0.395642,-0.116062,0.910916,-0.395856,-0.116092,0.721183,-0.339549,-0.603778,0.721274,-0.33961,-0.603656,0.721397,-0.339396,-0.603595,0.721519,-0.339122,-0.603626,-0.323038,0.186621,0.927793,-0.324229,0.18833,0.92703,-0.324198,0.18833,0.92703,-0.323008,0.18659,0.927793,-0.721122,0.340587,0.603259,-0.721122,0.340587,0.603259,-0.720145,0.340129,0.604694,-0.720145,0.340129,0.604694,-0.910306,0.39732,0.116001,-0.910276,0.397351,0.116001,-0.91113,0.395367,0.116123,-0.91113,0.395367,0.116123,-0.854366,0.346202,-0.387494,-0.854366,0.346202,-0.387524,-0.854671,0.34611,-0.386914,-0.854671,0.34611,-0.386914,-0.583728,0.210059,-0.784265,-0.583758,0.210059,-0.784265,-0.582934,0.209082,-0.785119,-0.582934,0.209082,-0.785119,-0.156285,0.0198065,-0.987487,-0.157598,0.0160527,-0.987365,-0.157598,0.0160833,-0.987365,-0.156255,0.0198676,-0.987487,0.324381,-0.184118,-0.927824,0.324381,-0.184118,-0.927824,0.325114,-0.184393,-0.927488,0.325114,-0.184393,-0.927488,0.722556,-0.337626,-0.603198,0.722556,-0.337626,-0.603198,0.721641,-0.337107,-0.604602,0.721641,-0.337107,-0.604633,0.911039,-0.395581,-0.116062,0.911344,-0.394757,-0.116459,0.911344,-0.394757,-0.116459,0.911039,-0.395581,-0.116062,0.855068,-0.344798,0.387219,0.855068,-0.344768,0.387219,0.854335,-0.346233,0.387555,0.854335,-0.346233,0.387555,0.582995,-0.209113,0.785089,0.582995,-0.209082,0.785089,0.582354,-0.212958,0.784509,0.582354,-0.212989,0.784509,0.156041,-0.0200507,0.987518,0.157231,-0.0158086,0.987426,0.157231,-0.0158696,0.987426,0.156011,-0.0201117,0.987518,0.476058,0.811762,-0.338145,0.476058,0.811762,-0.338145,0.475936,0.811457,-0.339091,0.475936,0.811457,-0.339091,0.322001,0.874996,-0.361461,0.321787,0.874783,-0.362133,0.321787,0.874783,-0.362133,0.322001,0.874996,-0.361431,0.181646,0.936308,-0.300455,0.181646,0.936308,-0.300485,0.182195,0.936369,-0.299936,0.182195,0.936369,-0.299905,0.0919523,0.980956,-0.170995,0.0930815,0.981017,-0.170049,0.0930509,0.981017,-0.170049,0.0919217,0.980956,-0.171026,0.0797143,0.996765,-0.00683615,0.0797449,0.996765,-0.00683615,0.0780969,0.996918,-0.006592,0.0780969,0.996918,-0.00656148,0.144322,0.978515,0.14716,0.144353,0.978515,0.14716,0.143895,0.978545,0.147252,0.143864,0.978545,0.147252,0.270638,0.930021,0.248512,0.270638,0.930052,0.248421,0.269936,0.929197,0.252327,0.269936,0.929197,0.252388,0.4232,0.864254,0.271889,0.422651,0.863796,0.274209,0.422651,0.863796,0.274178,0.4232,0.864254,0.271889,0.561693,0.799829,0.211432,0.561693,0.799829,0.211463,0.56148,0.800287,0.210364,0.56148,0.800287,0.210364,0.650777,0.754784,0.0821863,0.649953,0.755486,0.0821253,0.649983,0.755486,0.0821253,0.650777,0.754784,0.0821863,0.665853,0.7416,-0.0814234,0.665853,0.7416,-0.0814234,0.6657,0.741722,-0.0814234,0.6657,0.741722,-0.0814234,0.60155,0.762902,-0.236763,0.60155,0.762902,-0.236793,0.602435,0.762566,-0.235633,0.602466,0.762566,-0.235603,0.269906,0.929716,0.250435,0.269906,0.929716,0.250465,0.270119,0.930052,0.249031,0.270119,0.930052,0.249001,0.143315,0.978545,0.147893,0.143986,0.978668,0.146397,0.143956,0.978668,0.146397,0.143284,0.978545,0.147923,0.0794092,0.996796,-0.00695822,0.0782495,0.996887,-0.00671407,0.07828,0.996887,-0.00671407,0.0794397,0.996796,-0.00695822,0.0936308,0.980956,-0.169988,0.0936308,0.980956,-0.169958,0.093112,0.980834,-0.171087,0.093112,0.980834,-0.171087,0.182165,0.936308,-0.30018,0.182165,0.936308,-0.30015,0.182043,0.935881,-0.301553,0.182043,0.935881,-0.301584,0.321482,0.874264,-0.363689,0.321482,0.874233,-0.36372,0.322092,0.875362,-0.360546,0.322092,0.875362,-0.360485,0.475967,0.811579,-0.338786,0.475967,0.811579,-0.338786,0.476211,0.811609,-0.338359,0.476211,0.811609,-0.338359,0.601428,0.763512,-0.235084,0.601428,0.763543,-0.235084,0.602313,0.76278,-0.235267,0.602344,0.762749,-0.235267,0.664937,0.742424,-0.0813623,0.664937,0.742424,-0.0813623,0.665273,0.742088,-0.0816065,0.665273,0.742088,-0.0816065,0.650624,0.754875,0.0824,0.650655,0.754875,0.0824,0.649739,0.75573,0.0816065,0.649739,0.75576,0.0816065,0.561693,0.79928,0.213599,0.561663,0.79928,0.21363,0.562395,0.799402,0.211188,0.562395,0.799432,0.211158,0.423017,0.863765,0.273721,0.42317,0.863887,0.273141,0.42317,0.863887,0.273141,0.423017,0.863765,0.273751,0.431684,0.111698,-0.895047,0.431684,0.111698,-0.895047,0.431532,0.112217,-0.895047,0.431532,0.112217,-0.895047,-0.027131,0.301401,-0.953093,-0.0273751,0.301187,-0.953154,-0.0273751,0.301218,-0.953154,-0.027131,0.301401,-0.953093,-0.43379,0.481582,-0.761467,-0.43379,0.481582,-0.761467,-0.434553,0.481552,-0.761071,-0.434584,0.481552,-0.761071,-0.693228,0.610462,-0.383038,-0.693381,0.61034,-0.382977,-0.693381,0.61034,-0.382977,-0.693228,0.610462,-0.383038,-0.743889,0.661336,0.0959197,-0.743889,0.661336,0.0959197,-0.74395,0.661306,0.0959197,-0.74395,0.661306,0.0959197,-0.560686,0.611652,0.558061,-0.5609,0.611011,0.55858,-0.5609,0.611011,0.55858,-0.560686,0.611652,0.558061,-0.184729,0.464125,0.866268,-0.184759,0.464095,0.866268,-0.18363,0.466903,0.865017,-0.183599,0.466933,0.864986,0.271401,0.26841,0.924253,0.271859,0.269692,0.923734,0.271859,0.269662,0.923765,0.271401,0.26838,0.924253,0.675283,0.0819422,0.732963,0.675283,0.0819727,0.732933,0.674642,0.0808435,0.733665,0.674642,0.080813,0.733665,0.933439,-0.0495621,0.355235,0.933439,-0.0495621,0.355266,0.933836,-0.0491043,0.354259,0.933836,-0.0491043,0.354228,0.988037,-0.0903958,-0.124882,0.988037,-0.0903653,-0.124882,0.987823,-0.0928678,-0.124699,0.987823,-0.0928983,-0.124699,0.808527,-0.0329295,-0.587512,0.808527,-0.032899,-0.587512,0.807978,-0.0347911,-0.588153,0.807947,-0.0348216,-0.588183,-0.184423,0.465346,0.865688,-0.184423,0.465377,0.865658,-0.184057,0.464125,0.86639,-0.184057,0.464125,0.866421,-0.5609,0.611286,0.558275,-0.561693,0.610279,0.55855,-0.561693,0.610309,0.55855,-0.560869,0.611316,0.558275,-0.744407,0.660726,0.0960417,-0.743706,0.66155,0.0958586,-0.743706,0.66155,0.0958586,-0.744438,0.660726,0.0960417,-0.692831,0.611469,-0.382183,-0.692831,0.611469,-0.382153,-0.692465,0.610859,-0.383831,-0.692465,0.610828,-0.383831,-0.434187,0.481094,-0.761559,-0.434858,0.480209,-0.761742,-0.434858,0.480239,-0.761742,-0.434187,0.481124,-0.761559,-0.0274667,0.300729,-0.953307,-0.0277413,0.300729,-0.953276,-0.0277108,0.300729,-0.953276,-0.0274667,0.300729,-0.953307,0.431074,0.110385,-0.895505,0.431257,0.112094,-0.895199,0.431257,0.112064,-0.895199,0.431074,0.110355,-0.895505,0.80874,-0.0345775,-0.587115,0.80874,-0.0345775,-0.587115,0.808313,-0.0347606,-0.587695,0.808313,-0.0347911,-0.587695,0.987793,-0.093173,-0.124668,0.987793,-0.0932035,-0.124668,0.987976,-0.0914335,-0.124638,0.987976,-0.0914029,-0.124638,0.934233,-0.0469985,0.353526,0.933622,-0.0499283,0.354717,0.933622,-0.0498978,0.354686,0.934233,-0.0469375,0.353526,0.676107,0.0831935,0.732078,0.676107,0.0831935,0.732047,0.674886,0.0819117,0.733329,0.674886,0.0818812,0.73336,0.271279,0.268075,0.924406,0.271279,0.268044,0.924406,0.271889,0.269814,0.923704,0.271889,0.269845,0.923704,-0.184057,0.464797,0.866054,-0.184576,0.465529,0.865535,-0.184576,0.465529,0.865535,-0.184057,0.464797,0.866054,0.272103,0.270669,0.923399,0.272134,0.270699,0.923368,0.271798,0.268807,0.924039,0.271767,0.268777,0.924039,0.675619,0.0837428,0.732444,0.675619,0.0837733,0.732444,0.675588,0.0810266,0.73278,0.675558,0.0809961,0.73281,0.933836,-0.0491958,0.354289,0.933836,-0.0491653,0.354289,0.933683,-0.0500504,0.354564,0.933683,-0.0500504,0.354564,0.987854,-0.0924406,-0.124821,0.987915,-0.0916471,-0.12479,0.987915,-0.0916471,-0.12479,0.987854,-0.0924711,-0.124821,0.808283,-0.0334483,-0.587817,0.808557,-0.0339366,-0.58739,0.808557,-0.0339366,-0.58739,0.808283,-0.0334178,-0.587817,0.432203,0.112857,-0.89465,0.431532,0.113071,-0.894955,0.431532,0.113071,-0.894955,0.432234,0.112857,-0.89465,-0.0274667,0.300729,-0.953307,-0.0274667,0.300729,-0.953307,-0.0271615,0.301553,-0.953032,-0.027131,0.301553,-0.953032,-0.434248,0.481521,-0.761254,-0.434217,0.481521,-0.761254,-0.435072,0.479995,-0.761742,-0.435102,0.479965,-0.761742,-0.693045,0.61037,-0.383496,-0.693045,0.61037,-0.383496,-0.692679,0.611682,-0.382092,-0.692679,0.611682,-0.382061,-0.742973,0.662404,0.0957976,-0.742943,0.662404,0.0957976,-0.743431,0.661855,0.0958586,-0.743461,0.661855,0.0958892,-0.560381,0.611164,0.558916,-0.560381,0.611164,0.558916,-0.56093,0.611713,0.557787,-0.56093,0.611713,0.557756,0.269845,0.930052,0.249275,0.269845,0.930052,0.249275,0.270089,0.92996,0.249367,0.270089,0.92996,0.249367,0.422956,0.863308,0.275277,0.423109,0.864254,0.272073,0.423109,0.864223,0.272134,0.422956,0.863277,0.275307,0.562548,0.799036,0.212226,0.562304,0.798853,0.213477,0.562304,0.798883,0.213446,0.562548,0.799036,0.212195,0.649861,0.755577,0.0820032,0.651265,0.754265,0.0830714,0.651234,0.754295,0.0830409,0.649861,0.755577,0.0820032,0.665059,0.742302,-0.0814234,0.665639,0.741783,-0.0814539,0.665609,0.741813,-0.0814539,0.665059,0.742332,-0.0814234,0.602161,0.762658,-0.236061,0.602344,0.762474,-0.236152,0.602344,0.762474,-0.236152,0.602161,0.762658,-0.236061,0.476028,0.811243,-0.339457,0.476058,0.811243,-0.339457,0.475661,0.811518,-0.339305,0.475661,0.811518,-0.339305,0.32194,0.875179,-0.361034,0.32194,0.875179,-0.361034,0.322001,0.875057,-0.361278,0.322001,0.875057,-0.361278,0.182257,0.936308,-0.30015,0.182165,0.936338,-0.300027,0.182165,0.936338,-0.300027,0.182257,0.936308,-0.30015,0.0925321,0.980987,-0.170507,0.0925321,0.980987,-0.170507,0.0934172,0.980865,-0.17069,0.0934172,0.980865,-0.17069,0.0797449,0.996765,-0.00695822,0.0797449,0.996765,-0.00695822,0.0787072,0.996857,-0.00646992,0.0787072,0.996857,-0.00646992,0.143376,0.978668,0.147038,0.144536,0.978576,0.146519,0.144536,0.978576,0.146519,0.143376,0.978668,0.147038,0.184027,-0.46559,-0.865627,0.184027,-0.46559,-0.865627,0.183966,-0.465407,-0.865749,0.183966,-0.465407,-0.865749,-0.271493,-0.268685,-0.924161,-0.271462,-0.268563,-0.924192,-0.271462,-0.268563,-0.924192,-0.271493,-0.268685,-0.924161,-0.675039,-0.0815149,-0.733238,-0.675039,-0.0815149,-0.733238,-0.675161,-0.081576,-0.733116,-0.675161,-0.081576,-0.733116,-0.933805,0.0487381,-0.354381,-0.933805,0.0487686,-0.354381,-0.933775,0.0483413,-0.354534,-0.933775,0.0483413,-0.354534,-0.988006,0.0908536,0.12479,-0.988006,0.0907926,0.12479,-0.987915,0.091586,0.124882,-0.987915,0.0916166,0.124882,-0.808466,0.0332957,0.587573,-0.808496,0.03296,0.587512,-0.808496,0.0329905,0.587542,-0.808466,0.0333262,0.587573,-0.431684,-0.112339,0.894986,-0.431684,-0.112339,0.894986,-0.431593,-0.1124,0.895016,-0.431593,-0.1124,0.895016,0.0273446,-0.301218,0.953154,0.0273446,-0.301218,0.953154,0.027253,-0.30137,0.953093,0.027253,-0.301401,0.953093,0.434217,-0.480697,0.761803,0.434065,-0.480941,0.761742,0.434065,-0.480941,0.761742,0.434217,-0.480667,0.761803,0.692923,-0.610889,0.382916,0.692953,-0.61095,0.382763,0.692953,-0.61095,0.382763,0.692923,-0.610889,0.382916,0.743584,-0.661702,-0.0958281,0.743584,-0.661702,-0.0958281,0.743797,-0.661458,-0.0958892,0.743797,-0.661458,-0.0959197,0.560717,-0.611347,-0.558397,0.560717,-0.611347,-0.558428,0.561052,-0.611347,-0.558031,0.561083,-0.611347,-0.558,-0.270089,-0.929899,-0.24958,-0.270089,-0.929899,-0.24955,-0.270028,-0.929685,-0.250435,-0.270028,-0.929655,-0.250496,-0.422987,-0.863857,-0.273446,-0.422987,-0.863887,-0.273415,-0.422926,-0.863674,-0.274117,-0.422926,-0.863674,-0.274178,-0.561907,-0.799615,-0.211737,-0.561907,-0.799615,-0.211707,-0.561998,-0.799432,-0.212195,-0.561998,-0.799432,-0.212226,-0.650349,-0.75515,-0.0822169,-0.650349,-0.75515,-0.0822169,-0.650655,-0.754875,-0.0823084,-0.650655,-0.754845,-0.0823084,-0.665639,-0.741783,0.0815455,-0.66567,-0.741752,0.0815455,-0.665365,-0.742027,0.0814539,-0.665334,-0.742058,0.0814539,-0.601886,-0.763024,0.235603,-0.601978,-0.762871,0.235817,-0.601978,-0.762871,0.235817,-0.601856,-0.763024,0.235572,-0.475906,-0.811701,0.338481,-0.475906,-0.811731,0.33845,-0.475875,-0.811548,0.338908,-0.475875,-0.811548,0.338939,-0.321787,-0.874874,0.36195,-0.321757,-0.874783,0.362163,-0.321757,-0.874783,0.362163,-0.321787,-0.874874,0.36195,-0.181646,-0.936369,0.300272,-0.181646,-0.936369,0.300272,-0.181677,-0.936369,0.300333,-0.181677,-0.936369,0.300333,-0.0930204,-0.980956,0.170415,-0.0930204,-0.980956,0.170415,-0.0929899,-0.980926,0.170629,-0.0929899,-0.980926,0.17066,-0.0791345,-0.996826,0.00680563,-0.0791345,-0.996826,0.00680563,-0.079104,-0.996826,0.00671407,-0.079104,-0.996826,0.00671407,-0.144047,-0.978545,-0.147221,-0.143864,-0.978515,-0.147496,-0.143864,-0.978515,-0.147496,-0.144078,-0.978545,-0.147221],
                "type":"Float32Array",
                "itemSize":3
            },
            "uv":{
                "array":[0.8154,0.2563,0.8154,0.2269,0.8762,0.2269,0.8762,0.2563,0.9371,0.2563,0.8762,0.2563,0.8762,0.2269,0.9371,0.2269,0.998,0.2269,0.998,0.2563,0.9371,0.2563,0.9371,0.2269,0.2675,0.2269,0.3284,0.2269,0.3284,0.2563,0.2675,0.2563,0.3892,0.2269,0.3892,0.2563,0.3284,0.2563,0.3284,0.2269,0.4501,0.2269,0.4501,0.2563,0.3892,0.2563,0.3892,0.2269,0.4501,0.2563,0.4501,0.2269,0.511,0.2269,0.511,0.2563,0.511,0.2563,0.511,0.2269,0.5719,0.2269,0.5719,0.2563,0.6327,0.2563,0.5719,0.2563,0.5719,0.2269,0.6327,0.2269,0.6327,0.2563,0.6327,0.2269,0.6936,0.2269,0.6936,0.2563,0.6936,0.2563,0.6936,0.2269,0.7545,0.2269,0.7545,0.2563,0.8154,0.2563,0.7545,0.2563,0.7545,0.2269,0.8154,0.2269,0.0902,0.4933,0.0955,0.4734,0.1432,0.4737,0.1484,0.4935,0.0396,0.4644,0.0541,0.4498,0.0106,0.4139,0.0305,0.4085,0.0107,0.3556,0.0306,0.361,0.0544,0.3198,0.0398,0.3052,0.0902,0.276,0.0955,0.2958,0.1485,0.2762,0.1431,0.2962,0.1845,0.3197,0.1991,0.3051,0.2082,0.361,0.2281,0.3557,0.228,0.4139,0.2081,0.4086,0.1989,0.4644,0.1843,0.4498,0.2514,0.1637,0.2562,0.165,0.222,0.2233,0.2185,0.2197,0.1632,0.2567,0.1619,0.2519,0.0956,0.2562,0.0969,0.2514,0.0373,0.222,0.0408,0.2185,0.0087,0.1619,0.0039,0.1632,0.0044,0.0956,0.0092,0.0969,0.0386,0.0373,0.0421,0.0408,0.0974,0.0039,0.0987,0.0087,0.165,0.0044,0.1637,0.0092,0.2233,0.0386,0.2197,0.0421,0.2567,0.0974,0.2519,0.0987,0.0563,0.4017,0.0878,0.3932,0.0962,0.4078,0.073,0.4309,0.0563,0.3679,0.0878,0.3763,0.0732,0.3386,0.0962,0.3617,0.1024,0.3217,0.1108,0.3533,0.1509,0.3763,0.1425,0.3617,0.1656,0.3386,0.1824,0.3679,0.1824,0.4017,0.1509,0.3932,0.1425,0.4078,0.1655,0.4309,0.1362,0.4479,0.1279,0.4162,0.3921,0.1737,0.3838,0.1419,0.3986,0.1334,0.4217,0.1569,0.358,0.1735,0.3667,0.1417,0.3286,0.1562,0.352,0.1331,0.3118,0.1266,0.3436,0.1183,0.3672,0.0782,0.3524,0.0866,0.3293,0.0631,0.3589,0.0463,0.3842,0.0783,0.393,0.0465,0.3989,0.0869,0.4224,0.0638,0.4392,0.0934,0.4073,0.1017,0.3988,0.1998,0.4406,0.1761,0.3508,0.1994,0.3094,0.1751,0.2857,0.1334,0.3104,0.0439,0.3521,0.0202,0.4001,0.0206,0.4415,0.0449,0.4652,0.0866,0.1109,0.4163,0.1193,0.3848,0.1277,0.3533,0.3755,0.11,0.4072,0.1187,0.3438,0.1013,0.5265,0.0023,0.5262,0.0317,0.5088,0.0315,0.509,0.0021,0.4924,0.0314,0.4926,0.002,0.6097,0.003,0.6268,0.0031,0.6265,0.0325,0.6094,0.0324,0.5933,0.0322,0.5935,0.0028,0.6097,0.003,0.6094,0.0324,0.5772,0.0321,0.5774,0.0027,0.5774,0.0027,0.5772,0.0321,0.5601,0.032,0.5603,0.0026,0.5437,0.0318,0.5439,0.0024,0.5262,0.0317,0.5265,0.0023,0.0355,0.5112,0.0352,0.5406,0.0191,0.5405,0.0193,0.5111,0.002,0.5403,0.0023,0.5109,0.0193,0.5111,0.0191,0.5405,0.12,0.512,0.1364,0.5122,0.1361,0.5416,0.1197,0.5414,0.1023,0.5413,0.1026,0.5119,0.0851,0.5117,0.1026,0.5119,0.1023,0.5413,0.0848,0.5411,0.0684,0.5409,0.0687,0.5115,0.0514,0.5408,0.0516,0.5114,0.0516,0.5114,0.0514,0.5408,0.4449,0.1482,0.4577,0.1327,0.4649,0.1346,0.4087,0.1191,0.4198,0.1046,0.3401,0.0827,0.3249,0.0697,0.2963,0.1072,0.3114,0.1187,0.1463,0.3496,0.1592,0.3343,0.1214,0.3061,0.1102,0.3212,0.0817,0.4539,0.0974,0.4663,0.1252,0.4286,0.1106,0.4176,0.1172,0.4635,0.1285,0.4483,0.0924,0.4199,0.0795,0.4352,0.1135,0.3409,0.4108,0.1373,0.4261,0.1503,0.3311,0.1154,0.4396,0.1013,0.157,0.3156,0.306,0.0718,0.3423,0.1009,0.2861,0.0854,0.2933,0.0873,0.4547,0.1128,0.1413,0.3032,0.1281,0.3519,0.098,0.4643,0.0985,0.4623,0.115,0.4599,0.1161,0.4617,0.4435,0.1456,0.4548,0.1319,0.4555,0.1321,0.4439,0.1462,0.1161,0.4617,0.115,0.4599,0.1243,0.4472,0.1264,0.4478,0.4269,0.1474,0.4435,0.1456,0.4439,0.1462,0.4267,0.1481,0.1243,0.4472,0.1218,0.4311,0.1236,0.4299,0.1264,0.4478,0.4129,0.1365,0.4136,0.1362,0.4269,0.1474,0.4267,0.1481,0.1236,0.4299,0.1218,0.4311,0.1095,0.4218,0.11,0.4197,0.4108,0.1197,0.4115,0.1199,0.4136,0.1362,0.4129,0.1365,0.11,0.4197,0.1095,0.4218,0.0942,0.4239,0.0932,0.4219,0.4212,0.1064,0.4217,0.107,0.4115,0.1199,0.4108,0.1197,0.0942,0.4239,0.0835,0.4363,0.0815,0.4357,0.0932,0.4219,0.439,0.1035,0.4388,0.1042,0.4217,0.107,0.4212,0.1064,0.0815,0.4357,0.0835,0.4363,0.0854,0.4519,0.0835,0.4529,0.4528,0.1139,0.4521,0.1143,0.4388,0.1042,0.439,0.1035,0.0835,0.4529,0.0854,0.4519,0.0985,0.4623,0.098,0.4643,0.4555,0.1321,0.4548,0.1319,0.4521,0.1143,0.4528,0.1139,0.1287,0.3498,0.1292,0.3478,0.1445,0.3457,0.1455,0.3476,0.3298,0.1136,0.3293,0.113,0.3394,0.1001,0.3401,0.1003,0.1445,0.3457,0.1551,0.3332,0.1572,0.3338,0.1455,0.3476,0.312,0.1165,0.3122,0.1158,0.3293,0.113,0.3298,0.1136,0.1572,0.3338,0.1551,0.3332,0.1533,0.3176,0.1551,0.3166,0.2988,0.1057,0.3122,0.1158,0.312,0.1165,0.2982,0.1061,0.1551,0.3166,0.1533,0.3176,0.1402,0.3073,0.1407,0.3052,0.2954,0.0879,0.2962,0.0881,0.2988,0.1057,0.2982,0.1061,0.1402,0.3073,0.1236,0.3096,0.1225,0.3078,0.1407,0.3052,0.3071,0.0738,0.3075,0.0744,0.2962,0.0881,0.2954,0.0879,0.1225,0.3078,0.1236,0.3096,0.1144,0.3223,0.1123,0.3218,0.3241,0.0726,0.3075,0.0744,0.3071,0.0738,0.3243,0.0719,0.1144,0.3223,0.1169,0.3385,0.1151,0.3396,0.1123,0.3218,0.3374,0.0838,0.3241,0.0726,0.3243,0.0719,0.3381,0.0835,0.1169,0.3385,0.1292,0.3478,0.1287,0.3498,0.1151,0.3396,0.3401,0.1003,0.3394,0.1001,0.3374,0.0838,0.3381,0.0835,0.0974,0.4663,0.098,0.4643,0.1161,0.4617,0.1172,0.4635,0.4449,0.1482,0.4439,0.1462,0.4555,0.1321,0.4577,0.1327,0.1264,0.4478,0.1285,0.4483,0.1172,0.4635,0.1161,0.4617,0.4449,0.1482,0.4261,0.1503,0.4267,0.1481,0.4439,0.1462,0.1264,0.4478,0.1236,0.4299,0.1252,0.4286,0.1285,0.4483,0.4108,0.1373,0.4129,0.1365,0.4267,0.1481,0.4261,0.1503,0.11,0.4197,0.1106,0.4176,0.1252,0.4286,0.1236,0.4299,0.4129,0.1365,0.4108,0.1373,0.4087,0.1191,0.4108,0.1197,0.11,0.4197,0.0932,0.4219,0.0924,0.4199,0.1106,0.4176,0.4198,0.1046,0.4212,0.1064,0.4108,0.1197,0.4087,0.1191,0.0932,0.4219,0.0815,0.4357,0.0795,0.4352,0.0924,0.4199,0.4198,0.1046,0.4396,0.1013,0.439,0.1035,0.4212,0.1064,0.0815,0.4357,0.0835,0.4529,0.0817,0.4539,0.0795,0.4352,0.4547,0.1128,0.4528,0.1139,0.439,0.1035,0.4396,0.1013,0.0835,0.4529,0.098,0.4643,0.0974,0.4663,0.0817,0.4539,0.4528,0.1139,0.4547,0.1128,0.4577,0.1327,0.4555,0.1321,0.1455,0.3476,0.1463,0.3496,0.1281,0.3519,0.1287,0.3498,0.3401,0.1003,0.3423,0.1009,0.3311,0.1154,0.3298,0.1136,0.1463,0.3496,0.1455,0.3476,0.1572,0.3338,0.1592,0.3343,0.312,0.1165,0.3298,0.1136,0.3311,0.1154,0.3114,0.1187,0.157,0.3156,0.1592,0.3343,0.1572,0.3338,0.1551,0.3166,0.2982,0.1061,0.312,0.1165,0.3114,0.1187,0.2963,0.1072,0.1551,0.3166,0.1407,0.3052,0.1413,0.3032,0.157,0.3156,0.2963,0.1072,0.2933,0.0873,0.2954,0.0879,0.2982,0.1061,0.1225,0.3078,0.1214,0.3061,0.1413,0.3032,0.1407,0.3052,0.3071,0.0738,0.2954,0.0879,0.2933,0.0873,0.306,0.0718,0.1123,0.3218,0.1102,0.3212,0.1214,0.3061,0.1225,0.3078,0.3249,0.0697,0.3243,0.0719,0.3071,0.0738,0.306,0.0718,0.1102,0.3212,0.1123,0.3218,0.1151,0.3396,0.1135,0.3409,0.3249,0.0697,0.3401,0.0827,0.3381,0.0835,0.3243,0.0719,0.1135,0.3409,0.1151,0.3396,0.1287,0.3498,0.1281,0.3519,0.3381,0.0835,0.3401,0.0827,0.3423,0.1009,0.3401,0.1003,0.4526,0.1882,0.4813,0.1392,0.4031,0.2163,0.3463,0.2159,0.2973,0.1871,0.2692,0.1377,0.2696,0.0808,0.2984,0.0318,0.3478,0.0037,0.4047,0.0041,0.4537,0.0329,0.4817,0.0823,0.2766,0.2798,0.2728,0.2797,0.2728,0.2797,0.2766,0.2798,0.2766,0.2798,0.28,0.2778,0.28,0.2778,0.2766,0.2798,0.282,0.2745,0.28,0.2778,0.28,0.2778,0.282,0.2745,0.282,0.2706,0.282,0.2745,0.282,0.2745,0.282,0.2706,0.282,0.2706,0.282,0.2706,0.2801,0.2672,0.2801,0.2672,0.2767,0.2652,0.2801,0.2672,0.2801,0.2672,0.2767,0.2652,0.2729,0.2652,0.2729,0.2652,0.2767,0.2652,0.2767,0.2652,0.2729,0.2652,0.2729,0.2652,0.2695,0.2671,0.2695,0.2671,0.2675,0.2705,0.2695,0.2671,0.2695,0.2671,0.2675,0.2705,0.2675,0.2705,0.2675,0.2744,0.2675,0.2744,0.2675,0.2705,0.2694,0.2778,0.2694,0.2778,0.2675,0.2744,0.2675,0.2744,0.2694,0.2778,0.2694,0.2778,0.2728,0.2797,0.2728,0.2797,0.0069,0.564,0.0105,0.564,0.0105,0.564,0.0069,0.564,0.0038,0.5622,0.0038,0.5622,0.0069,0.564,0.0069,0.564,0.0038,0.5622,0.0038,0.5622,0.002,0.559,0.002,0.559,0.002,0.559,0.002,0.559,0.002,0.5554,0.002,0.5554,0.002,0.5554,0.002,0.5554,0.0039,0.5523,0.0039,0.5523,0.007,0.5505,0.0039,0.5523,0.0039,0.5523,0.007,0.5505,0.007,0.5505,0.007,0.5505,0.0106,0.5505,0.0106,0.5505,0.0106,0.5505,0.0106,0.5505,0.0138,0.5523,0.0138,0.5523,0.0156,0.5555,0.0138,0.5523,0.0138,0.5523,0.0156,0.5555,0.0156,0.5555,0.0156,0.5555,0.0155,0.5591,0.0155,0.5591,0.0155,0.5591,0.0155,0.5591,0.0137,0.5622,0.0137,0.5622,0.0137,0.5622,0.0105,0.564,0.0105,0.564,0.0137,0.5622,0.223,0.2244,0.222,0.2233,0.2562,0.165,0.2576,0.1654,0.1632,0.2567,0.222,0.2233,0.223,0.2244,0.1636,0.2581,0.0952,0.2576,0.0956,0.2562,0.1632,0.2567,0.1636,0.2581,0.0373,0.222,0.0956,0.2562,0.0952,0.2576,0.0362,0.223,0.0025,0.1636,0.0039,0.1632,0.0373,0.222,0.0362,0.223,0.0039,0.1632,0.0025,0.1636,0.003,0.0952,0.0044,0.0956,0.0376,0.0362,0.0386,0.0373,0.0044,0.0956,0.003,0.0952,0.0974,0.0039,0.0386,0.0373,0.0376,0.0362,0.097,0.0025,0.1654,0.003,0.165,0.0044,0.0974,0.0039,0.097,0.0025,0.2233,0.0386,0.165,0.0044,0.1654,0.003,0.2244,0.0376,0.2581,0.097,0.2567,0.0974,0.2233,0.0386,0.2244,0.0376,0.2576,0.1654,0.2562,0.165,0.2567,0.0974,0.2581,0.097,0.25,0.1633,0.2514,0.1637,0.2185,0.2197,0.2174,0.2187,0.2519,0.0987,0.2514,0.1637,0.25,0.1633,0.2504,0.099,0.2197,0.0421,0.2519,0.0987,0.2504,0.099,0.2187,0.0432,0.1633,0.0106,0.1637,0.0092,0.2197,0.0421,0.2187,0.0432,0.099,0.0102,0.0987,0.0087,0.1637,0.0092,0.1633,0.0106,0.0432,0.0419,0.0421,0.0408,0.0987,0.0087,0.099,0.0102,0.0106,0.0973,0.0092,0.0969,0.0421,0.0408,0.0432,0.0419,0.0102,0.1616,0.0087,0.1619,0.0092,0.0969,0.0106,0.0973,0.0087,0.1619,0.0102,0.1616,0.0419,0.2174,0.0408,0.2185,0.0973,0.25,0.0969,0.2514,0.0408,0.2185,0.0419,0.2174,0.0969,0.2514,0.0973,0.25,0.1616,0.2504,0.1619,0.2519,0.2185,0.2197,0.1619,0.2519,0.1616,0.2504,0.2174,0.2187,0.2576,0.1654,0.2581,0.1655,0.2234,0.2247,0.223,0.2244,0.1636,0.2581,0.223,0.2244,0.2234,0.2247,0.1637,0.2586,0.1636,0.2581,0.1637,0.2586,0.0951,0.2581,0.0952,0.2576,0.0362,0.223,0.0952,0.2576,0.0951,0.2581,0.0359,0.2234,0.002,0.1637,0.0025,0.1636,0.0362,0.223,0.0359,0.2234,0.002,0.1637,0.0025,0.0951,0.003,0.0952,0.0025,0.1636,0.003,0.0952,0.0025,0.0951,0.0372,0.0359,0.0376,0.0362,0.097,0.0025,0.0376,0.0362,0.0372,0.0359,0.0969,0.002,0.097,0.0025,0.0969,0.002,0.1655,0.0025,0.1654,0.003,0.1654,0.003,0.1655,0.0025,0.2247,0.0372,0.2244,0.0376,0.2586,0.0969,0.2581,0.097,0.2244,0.0376,0.2247,0.0372,0.2581,0.097,0.2586,0.0969,0.2581,0.1655,0.2576,0.1654,0.2495,0.1631,0.25,0.1633,0.2174,0.2187,0.2171,0.2183,0.2504,0.099,0.25,0.1633,0.2495,0.1631,0.2499,0.0992,0.2499,0.0992,0.2183,0.0435,0.2187,0.0432,0.2504,0.099,0.1631,0.0111,0.1633,0.0106,0.2187,0.0432,0.2183,0.0435,0.1631,0.0111,0.0992,0.0107,0.099,0.0102,0.1633,0.0106,0.0432,0.0419,0.099,0.0102,0.0992,0.0107,0.0435,0.0423,0.0106,0.0973,0.0432,0.0419,0.0435,0.0423,0.0111,0.0974,0.0106,0.0973,0.0111,0.0974,0.0107,0.1614,0.0102,0.1616,0.0102,0.1616,0.0107,0.1614,0.0423,0.2171,0.0419,0.2174,0.0973,0.25,0.0419,0.2174,0.0423,0.2171,0.0974,0.2495,0.1614,0.2499,0.1616,0.2504,0.0973,0.25,0.0974,0.2495,0.2171,0.2183,0.2174,0.2187,0.1616,0.2504,0.1614,0.2499,0.4831,0.1397,0.4538,0.1895,0.4535,0.1892,0.4826,0.1395,0.4036,0.218,0.4035,0.2176,0.4535,0.1892,0.4538,0.1895,0.4035,0.2176,0.4036,0.218,0.3458,0.2176,0.3459,0.2172,0.3459,0.2172,0.3458,0.2176,0.296,0.1883,0.2963,0.188,0.296,0.1883,0.2675,0.1381,0.2679,0.138,0.2963,0.188,0.2683,0.0805,0.2679,0.138,0.2675,0.1381,0.2679,0.0803,0.2975,0.0308,0.2683,0.0805,0.2679,0.0803,0.2971,0.0305,0.3474,0.002,0.3475,0.0024,0.2975,0.0308,0.2971,0.0305,0.4051,0.0024,0.405,0.0028,0.3475,0.0024,0.3474,0.002,0.405,0.0028,0.4051,0.0024,0.455,0.0317,0.4546,0.032,0.4835,0.0819,0.483,0.082,0.4546,0.032,0.455,0.0317,0.4831,0.1397,0.4826,0.1395,0.483,0.082,0.4835,0.0819,0.4813,0.1392,0.4826,0.1395,0.4535,0.1892,0.4526,0.1882,0.4031,0.2163,0.4526,0.1882,0.4535,0.1892,0.4035,0.2176,0.4035,0.2176,0.3459,0.2172,0.3463,0.2159,0.4031,0.2163,0.2973,0.1871,0.3463,0.2159,0.3459,0.2172,0.2963,0.188,0.2963,0.188,0.2679,0.138,0.2692,0.1377,0.2973,0.1871,0.2679,0.138,0.2683,0.0805,0.2696,0.0808,0.2692,0.1377,0.2696,0.0808,0.2683,0.0805,0.2975,0.0308,0.2984,0.0318,0.2984,0.0318,0.2975,0.0308,0.3475,0.0024,0.3478,0.0037,0.3475,0.0024,0.405,0.0028,0.4047,0.0041,0.3478,0.0037,0.4546,0.032,0.4537,0.0329,0.4047,0.0041,0.405,0.0028,0.483,0.082,0.4817,0.0823,0.4537,0.0329,0.4546,0.032,0.4813,0.1392,0.4817,0.0823,0.483,0.082,0.4826,0.1395,0.1496,0.4978,0.1507,0.502,0.0879,0.502,0.089,0.4977,0.2052,0.4707,0.1507,0.502,0.1496,0.4978,0.202,0.4675,0.2323,0.4151,0.2366,0.4162,0.2052,0.4707,0.202,0.4675,0.2366,0.4162,0.2323,0.4151,0.2324,0.3545,0.2367,0.3533,0.2022,0.302,0.2053,0.2988,0.2367,0.3533,0.2324,0.3545,0.1508,0.2675,0.2053,0.2988,0.2022,0.302,0.1497,0.2719,0.0891,0.2718,0.0879,0.2675,0.1508,0.2675,0.1497,0.2719,0.0879,0.2675,0.0891,0.2718,0.0366,0.302,0.0335,0.2989,0.002,0.3533,0.0335,0.2989,0.0366,0.302,0.0064,0.3545,0.002,0.4162,0.002,0.3533,0.0064,0.3545,0.0063,0.415,0.0365,0.4675,0.0333,0.4707,0.002,0.4162,0.0063,0.415,0.0333,0.4707,0.0365,0.4675,0.089,0.4977,0.0879,0.502,0.1484,0.4935,0.1496,0.4978,0.089,0.4977,0.0902,0.4933,0.1989,0.4644,0.202,0.4675,0.1496,0.4978,0.1484,0.4935,0.202,0.4675,0.1989,0.4644,0.228,0.4139,0.2323,0.4151,0.2281,0.3557,0.2324,0.3545,0.2323,0.4151,0.228,0.4139,0.1991,0.3051,0.2022,0.302,0.2324,0.3545,0.2281,0.3557,0.1497,0.2719,0.2022,0.302,0.1991,0.3051,0.1485,0.2762,0.1497,0.2719,0.1485,0.2762,0.0902,0.276,0.0891,0.2718,0.0366,0.302,0.0891,0.2718,0.0902,0.276,0.0398,0.3052,0.0107,0.3556,0.0064,0.3545,0.0366,0.302,0.0398,0.3052,0.0064,0.3545,0.0107,0.3556,0.0106,0.4139,0.0063,0.415,0.0063,0.415,0.0106,0.4139,0.0396,0.4644,0.0365,0.4675,0.089,0.4977,0.0365,0.4675,0.0396,0.4644,0.0902,0.4933],
                "type":"Float32Array",
                "itemSize":2
            },
            "position":{
                "array":[0.265993,0.867534,-0.0720917,0.265273,0.865853,-0.0720063,0.262014,0.867178,-0.0734116,0.262734,0.868859,-0.0734971,0.259248,0.870381,-0.0729156,0.262734,0.868859,-0.0734971,0.262014,0.867178,-0.0734116,0.258528,0.868701,-0.0728303,0.25575,0.870013,-0.070418,0.25647,0.871694,-0.0705034,0.259248,0.870381,-0.0729156,0.258528,0.868701,-0.0728303,0.25575,0.870013,-0.070418,0.254424,0.870764,-0.0668212,0.255144,0.872444,-0.0669065,0.25647,0.871694,-0.0705034,0.254905,0.870752,-0.0630036,0.255625,0.872432,-0.0630888,0.255144,0.872444,-0.0669065,0.254424,0.870764,-0.0668212,0.257065,0.86998,-0.0599881,0.257785,0.87166,-0.0600735,0.255625,0.872432,-0.0630888,0.254905,0.870752,-0.0630036,0.257785,0.87166,-0.0600735,0.257065,0.86998,-0.0599881,0.260324,0.868655,-0.0585829,0.261044,0.870335,-0.0586681,0.261044,0.870335,-0.0586681,0.260324,0.868655,-0.0585829,0.26381,0.867132,-0.0591642,0.26453,0.868813,-0.0592496,0.267308,0.8675,-0.0616617,0.26453,0.868813,-0.0592496,0.26381,0.867132,-0.0591642,0.266588,0.86582,-0.0615763,0.267308,0.8675,-0.0616617,0.266588,0.86582,-0.0615763,0.267914,0.865069,-0.0651732,0.268634,0.866749,-0.0652586,0.268634,0.866749,-0.0652586,0.267914,0.865069,-0.0651732,0.267433,0.865081,-0.0689908,0.268152,0.866762,-0.0690762,0.265993,0.867534,-0.0720917,0.268152,0.866762,-0.0690762,0.267433,0.865081,-0.0689908,0.265273,0.865853,-0.0720063,0.264924,0.86562,-0.0716888,0.264206,0.865981,-0.0706372,0.26168,0.867008,-0.0717264,0.261827,0.866879,-0.0730239,0.266975,0.864887,-0.0688242,0.265879,0.865383,-0.0683003,0.267433,0.864875,-0.0651974,0.266252,0.865373,-0.0653416,0.266173,0.865588,-0.0617804,0.265225,0.865955,-0.0625541,0.263072,0.866972,-0.0606844,0.263534,0.866835,-0.0594887,0.260223,0.868282,-0.0589364,0.26037,0.868152,-0.0602339,0.257126,0.86954,-0.0602715,0.257844,0.869179,-0.0613231,0.256171,0.869777,-0.0636602,0.255075,0.870274,-0.0631362,0.255798,0.869787,-0.0666188,0.254617,0.870285,-0.0667629,0.255877,0.869572,-0.0701799,0.256825,0.869205,-0.0694063,0.258516,0.868325,-0.0724716,0.258978,0.868188,-0.0712758,0.265885,0.867894,-0.0717889,0.266039,0.867817,-0.0720143,0.262829,0.869122,-0.0733987,0.262797,0.869149,-0.0731206,0.259396,0.870622,-0.0728259,0.259495,0.870592,-0.0725697,0.256659,0.871914,-0.0704498,0.256862,0.871836,-0.070284,0.255353,0.872654,-0.066907,0.255606,0.872547,-0.0668761,0.256062,0.872535,-0.0632589,0.255827,0.872642,-0.0631466,0.257954,0.871881,-0.0601764,0.258108,0.871804,-0.0604018,0.261165,0.870576,-0.0587922,0.261196,0.870549,-0.0590701,0.264598,0.869076,-0.0593649,0.264499,0.869106,-0.059621,0.267334,0.867784,-0.0617409,0.267131,0.867862,-0.0619066,0.26864,0.867044,-0.0652837,0.268388,0.867151,-0.0653147,0.268167,0.867056,-0.0690441,0.267932,0.867163,-0.0689318,0.264735,0.866014,-0.0655269,0.26288,0.866797,-0.0657535,0.262748,0.8668,-0.0668033,0.26447,0.866021,-0.0676266,0.264005,0.866427,-0.0635488,0.262515,0.867004,-0.0647644,0.262478,0.867149,-0.0622219,0.261751,0.867365,-0.064101,0.26056,0.867986,-0.0619022,0.260793,0.867783,-0.0639411,0.25917,0.868363,-0.0662068,0.259302,0.86836,-0.0651569,0.25758,0.86914,-0.0643338,0.257315,0.869146,-0.0664333,0.258045,0.868734,-0.0684116,0.259535,0.868157,-0.0671958,0.260299,0.867796,-0.0678593,0.259573,0.868012,-0.0697384,0.261489,0.867174,-0.0700582,0.261257,0.867377,-0.0680192,0.260436,0.870028,-0.0698407,0.261163,0.869813,-0.0679616,0.262121,0.869394,-0.0681216,0.262353,0.869191,-0.0701605,0.258908,0.87075,-0.068514,0.260399,0.870174,-0.0672983,0.258179,0.871163,-0.0665357,0.260034,0.87038,-0.0663092,0.258444,0.871156,-0.064436,0.260166,0.870377,-0.0652593,0.262615,0.869381,-0.0642035,0.261657,0.8698,-0.0640435,0.261424,0.870003,-0.0620047,0.263341,0.869166,-0.0623243,0.263379,0.86902,-0.0648668,0.264869,0.868444,-0.0636511,0.263744,0.868814,-0.0658559,0.265599,0.868031,-0.0656294,0.265334,0.868038,-0.0677291,0.263611,0.868817,-0.0669057,0.259842,0.870205,-0.0713782,0.262543,0.869025,-0.0718288,0.257689,0.871222,-0.0695087,0.256662,0.871804,-0.0667211,0.257035,0.871794,-0.0637625,0.261234,0.870169,-0.0603364,0.263936,0.868989,-0.0607869,0.266088,0.867972,-0.0626565,0.267116,0.86739,-0.0654439,0.266743,0.8674,-0.0684026,0.262154,0.867013,-0.0676327,0.261025,0.86758,-0.0659801,0.259896,0.868148,-0.0643276,0.261889,0.869597,-0.0660826,0.263017,0.86903,-0.0677349,0.26076,0.870164,-0.06443,0.263918,0.86633,-0.07012,0.264638,0.86801,-0.0702052,0.263656,0.868419,-0.0704398,0.262937,0.866739,-0.0703545,0.262844,0.868795,-0.0698898,0.262124,0.867115,-0.0698043,0.26191,0.86726,-0.0687439,0.262124,0.867115,-0.0698043,0.262844,0.868795,-0.0698898,0.26263,0.868941,-0.0688294,0.263099,0.868784,-0.0679519,0.262379,0.867104,-0.0678665,0.26191,0.86726,-0.0687439,0.26263,0.868941,-0.0688294,0.264003,0.86841,-0.0677091,0.263283,0.866729,-0.0676239,0.263283,0.866729,-0.0676239,0.264003,0.86841,-0.0677091,0.264872,0.86801,-0.0682351,0.264152,0.86633,-0.0681498,0.265123,0.867852,-0.0692431,0.264403,0.866171,-0.0691579,0.264638,0.86801,-0.0702052,0.263918,0.86633,-0.07012,0.259815,0.868393,-0.0641109,0.260534,0.870074,-0.0641961,0.259631,0.870448,-0.064439,0.258911,0.868768,-0.0643536,0.258762,0.870847,-0.0639131,0.258042,0.869167,-0.0638276,0.258911,0.868768,-0.0643536,0.259631,0.870448,-0.064439,0.25779,0.869326,-0.0628196,0.258042,0.869167,-0.0638276,0.258762,0.870847,-0.0639131,0.25851,0.871006,-0.0629049,0.258995,0.870847,-0.0619428,0.258275,0.869167,-0.0618574,0.259257,0.868758,-0.0616228,0.258275,0.869167,-0.0618574,0.258995,0.870847,-0.0619428,0.259977,0.870439,-0.0617082,0.26079,0.870062,-0.0622584,0.26007,0.868382,-0.062173,0.261004,0.869917,-0.0633188,0.260284,0.868236,-0.0632335,0.260284,0.868236,-0.0632335,0.261004,0.869917,-0.0633188,0.263701,0.86859,-0.070632,0.264813,0.868127,-0.070364,0.265069,0.867998,-0.0707396,0.263069,0.869004,-0.0678102,0.264075,0.868587,-0.0675312,0.26124,0.870012,-0.0633803,0.260998,0.870178,-0.0621568,0.258414,0.871248,-0.0628898,0.258699,0.871068,-0.0640324,0.258839,0.86859,-0.0645315,0.257835,0.869051,-0.06393,0.259213,0.868588,-0.0614307,0.260134,0.868161,-0.0620545,0.2645,0.865929,-0.0691728,0.263949,0.86611,-0.0702616,0.261674,0.867165,-0.0686824,0.262205,0.866987,-0.0677079,0.262837,0.866573,-0.0705296,0.261916,0.866999,-0.0699059,0.263211,0.86657,-0.0674288,0.264215,0.86611,-0.0680303,0.260376,0.867996,-0.0632777,0.262538,0.869182,-0.0687849,0.26278,0.869016,-0.0700084,0.259703,0.870607,-0.0646338,0.265079,0.868126,-0.0681327,0.25755,0.869231,-0.0627874,0.260077,0.870604,-0.0615333,0.260709,0.87019,-0.064355,0.258708,0.871196,-0.0614255,0.258965,0.871067,-0.0618011,0.265364,0.867946,-0.0692753,0.258101,0.86905,-0.0616986,0.259845,0.868173,-0.0642525,0.26389,0.866191,-0.0701511,0.263918,0.86633,-0.07012,0.262937,0.866739,-0.0703545,0.262876,0.866613,-0.070394,0.263656,0.868419,-0.0704398,0.264638,0.86801,-0.0702052,0.264718,0.868124,-0.0702493,0.263704,0.868546,-0.0704921,0.262876,0.866613,-0.070394,0.262937,0.866739,-0.0703545,0.262124,0.867115,-0.0698043,0.262036,0.867002,-0.0698254,0.262844,0.868795,-0.0698898,0.263656,0.868419,-0.0704398,0.263704,0.868546,-0.0704921,0.262864,0.868934,-0.0699236,0.262124,0.867115,-0.0698043,0.26191,0.86726,-0.0687439,0.261815,0.867152,-0.0687242,0.262036,0.867002,-0.0698254,0.262643,0.869085,-0.0688224,0.26263,0.868941,-0.0688294,0.262844,0.868795,-0.0698898,0.262864,0.868934,-0.0699236,0.261815,0.867152,-0.0687242,0.26191,0.86726,-0.0687439,0.262379,0.867104,-0.0678665,0.2623,0.86699,-0.0678225,0.263128,0.868923,-0.0679207,0.263099,0.868784,-0.0679519,0.26263,0.868941,-0.0688294,0.262643,0.869085,-0.0688224,0.2623,0.86699,-0.0678225,0.262379,0.867104,-0.0678665,0.263283,0.866729,-0.0676239,0.263229,0.866605,-0.0675708,0.264056,0.868538,-0.067669,0.264003,0.86841,-0.0677091,0.263099,0.868784,-0.0679519,0.263128,0.868923,-0.0679207,0.263283,0.866729,-0.0676239,0.264152,0.86633,-0.0681498,0.264132,0.866191,-0.0681157,0.263229,0.866605,-0.0675708,0.26496,0.868123,-0.0682138,0.264872,0.86801,-0.0682351,0.264003,0.86841,-0.0677091,0.264056,0.868538,-0.067669,0.264132,0.866191,-0.0681157,0.264152,0.86633,-0.0681498,0.264403,0.866171,-0.0691579,0.264392,0.866027,-0.0691574,0.26522,0.867959,-0.0692554,0.265123,0.867852,-0.0692431,0.264872,0.86801,-0.0682351,0.26496,0.868123,-0.0682138,0.264392,0.866027,-0.0691574,0.264403,0.866171,-0.0691579,0.263918,0.86633,-0.07012,0.26389,0.866191,-0.0701511,0.264718,0.868124,-0.0702493,0.264638,0.86801,-0.0702052,0.265123,0.867852,-0.0692431,0.26522,0.867959,-0.0692554,0.259786,0.868254,-0.064142,0.259815,0.868393,-0.0641109,0.258911,0.868768,-0.0643536,0.258857,0.868639,-0.0643938,0.259685,0.870572,-0.0644919,0.259631,0.870448,-0.064439,0.260534,0.870074,-0.0641961,0.260614,0.870187,-0.0642402,0.258911,0.868768,-0.0643536,0.258042,0.869167,-0.0638276,0.257954,0.869054,-0.063849,0.258857,0.868639,-0.0643938,0.258782,0.870986,-0.0639471,0.258762,0.870847,-0.0639131,0.259631,0.870448,-0.064439,0.259685,0.870572,-0.0644919,0.257954,0.869054,-0.063849,0.258042,0.869167,-0.0638276,0.25779,0.869326,-0.0628196,0.257694,0.869218,-0.0628073,0.25851,0.871006,-0.0629049,0.258762,0.870847,-0.0639131,0.258782,0.870986,-0.0639471,0.258522,0.871151,-0.0629054,0.257694,0.869218,-0.0628073,0.25779,0.869326,-0.0628196,0.258275,0.869167,-0.0618574,0.258196,0.869054,-0.0618134,0.259024,0.870986,-0.0619116,0.258995,0.870847,-0.0619428,0.25851,0.871006,-0.0629049,0.258522,0.871151,-0.0629054,0.258275,0.869167,-0.0618574,0.259257,0.868758,-0.0616228,0.25921,0.868631,-0.0615707,0.258196,0.869054,-0.0618134,0.260038,0.870564,-0.0616687,0.259977,0.870439,-0.0617082,0.258995,0.870847,-0.0619428,0.259024,0.870986,-0.0619116,0.25921,0.868631,-0.0615707,0.259257,0.868758,-0.0616228,0.26007,0.868382,-0.062173,0.26005,0.868243,-0.062139,0.26079,0.870062,-0.0622584,0.259977,0.870439,-0.0617082,0.260038,0.870564,-0.0616687,0.260878,0.870175,-0.0622372,0.26007,0.868382,-0.062173,0.260284,0.868236,-0.0632335,0.260271,0.868092,-0.0632403,0.26005,0.868243,-0.062139,0.261004,0.869917,-0.0633188,0.26079,0.870062,-0.0622584,0.260878,0.870175,-0.0622372,0.261099,0.870025,-0.0633384,0.260284,0.868236,-0.0632335,0.259815,0.868393,-0.0641109,0.259786,0.868254,-0.064142,0.260271,0.868092,-0.0632403,0.260614,0.870187,-0.0642402,0.260534,0.870074,-0.0641961,0.261004,0.869917,-0.0633188,0.261099,0.870025,-0.0633384,0.263949,0.86611,-0.0702616,0.26389,0.866191,-0.0701511,0.262876,0.866613,-0.070394,0.262837,0.866573,-0.0705296,0.263701,0.86859,-0.070632,0.263704,0.868546,-0.0704921,0.264718,0.868124,-0.0702493,0.264813,0.868127,-0.070364,0.262036,0.867002,-0.0698254,0.261916,0.866999,-0.0699059,0.262837,0.866573,-0.0705296,0.262876,0.866613,-0.070394,0.263701,0.86859,-0.070632,0.26278,0.869016,-0.0700084,0.262864,0.868934,-0.0699236,0.263704,0.868546,-0.0704921,0.262036,0.867002,-0.0698254,0.261815,0.867152,-0.0687242,0.261674,0.867165,-0.0686824,0.261916,0.866999,-0.0699059,0.262538,0.869182,-0.0687849,0.262643,0.869085,-0.0688224,0.262864,0.868934,-0.0699236,0.26278,0.869016,-0.0700084,0.2623,0.86699,-0.0678225,0.262205,0.866987,-0.0677079,0.261674,0.867165,-0.0686824,0.261815,0.867152,-0.0687242,0.262643,0.869085,-0.0688224,0.262538,0.869182,-0.0687849,0.263069,0.869004,-0.0678102,0.263128,0.868923,-0.0679207,0.2623,0.86699,-0.0678225,0.263229,0.866605,-0.0675708,0.263211,0.86657,-0.0674288,0.262205,0.866987,-0.0677079,0.264075,0.868587,-0.0675312,0.264056,0.868538,-0.067669,0.263128,0.868923,-0.0679207,0.263069,0.869004,-0.0678102,0.263229,0.866605,-0.0675708,0.264132,0.866191,-0.0681157,0.264215,0.86611,-0.0680303,0.263211,0.86657,-0.0674288,0.264075,0.868587,-0.0675312,0.265079,0.868126,-0.0681327,0.26496,0.868123,-0.0682138,0.264056,0.868538,-0.067669,0.264132,0.866191,-0.0681157,0.264392,0.866027,-0.0691574,0.2645,0.865929,-0.0691728,0.264215,0.86611,-0.0680303,0.265364,0.867946,-0.0692753,0.26522,0.867959,-0.0692554,0.26496,0.868123,-0.0682138,0.265079,0.868126,-0.0681327,0.264392,0.866027,-0.0691574,0.26389,0.866191,-0.0701511,0.263949,0.86611,-0.0702616,0.2645,0.865929,-0.0691728,0.26522,0.867959,-0.0692554,0.265364,0.867946,-0.0692753,0.264813,0.868127,-0.070364,0.264718,0.868124,-0.0702493,0.258857,0.868639,-0.0643938,0.258839,0.86859,-0.0645315,0.259845,0.868173,-0.0642525,0.259786,0.868254,-0.064142,0.260614,0.870187,-0.0642402,0.260709,0.87019,-0.064355,0.259703,0.870607,-0.0646338,0.259685,0.870572,-0.0644919,0.258839,0.86859,-0.0645315,0.258857,0.868639,-0.0643938,0.257954,0.869054,-0.063849,0.257835,0.869051,-0.06393,0.258782,0.870986,-0.0639471,0.259685,0.870572,-0.0644919,0.259703,0.870607,-0.0646338,0.258699,0.871068,-0.0640324,0.25755,0.869231,-0.0627874,0.257835,0.869051,-0.06393,0.257954,0.869054,-0.063849,0.257694,0.869218,-0.0628073,0.258522,0.871151,-0.0629054,0.258782,0.870986,-0.0639471,0.258699,0.871068,-0.0640324,0.258414,0.871248,-0.0628898,0.257694,0.869218,-0.0628073,0.258196,0.869054,-0.0618134,0.258101,0.86905,-0.0616986,0.25755,0.869231,-0.0627874,0.258414,0.871248,-0.0628898,0.258965,0.871067,-0.0618011,0.259024,0.870986,-0.0619116,0.258522,0.871151,-0.0629054,0.25921,0.868631,-0.0615707,0.259213,0.868588,-0.0614307,0.258101,0.86905,-0.0616986,0.258196,0.869054,-0.0618134,0.260038,0.870564,-0.0616687,0.259024,0.870986,-0.0619116,0.258965,0.871067,-0.0618011,0.260077,0.870604,-0.0615333,0.26005,0.868243,-0.062139,0.260134,0.868161,-0.0620545,0.259213,0.868588,-0.0614307,0.25921,0.868631,-0.0615707,0.260998,0.870178,-0.0621568,0.260878,0.870175,-0.0622372,0.260038,0.870564,-0.0616687,0.260077,0.870604,-0.0615333,0.260134,0.868161,-0.0620545,0.26005,0.868243,-0.062139,0.260271,0.868092,-0.0632403,0.260376,0.867996,-0.0632777,0.260998,0.870178,-0.0621568,0.26124,0.870012,-0.0633803,0.261099,0.870025,-0.0633384,0.260878,0.870175,-0.0622372,0.260376,0.867996,-0.0632777,0.260271,0.868092,-0.0632403,0.259786,0.868254,-0.064142,0.259845,0.868173,-0.0642525,0.261099,0.870025,-0.0633384,0.26124,0.870012,-0.0633803,0.260709,0.87019,-0.064355,0.260614,0.870187,-0.0642402,0.262664,0.868919,-0.0728853,0.265654,0.867704,-0.0715959,0.259466,0.870317,-0.072352,0.256917,0.871521,-0.0701387,0.2557,0.872209,-0.0668386,0.256142,0.872198,-0.0633359,0.258123,0.87149,-0.0605692,0.261114,0.870274,-0.0592798,0.264312,0.868877,-0.0598133,0.266861,0.867673,-0.0620266,0.268077,0.866984,-0.0653265,0.267636,0.866996,-0.0688293,0.262798,0.86901,-0.0735047,0.266058,0.867685,-0.0720993,0.265993,0.867534,-0.0720917,0.262734,0.868859,-0.0734971,0.262734,0.868859,-0.0734971,0.259248,0.870381,-0.0729156,0.259313,0.870533,-0.0729234,0.262798,0.86901,-0.0735047,0.256535,0.871845,-0.0705111,0.259313,0.870533,-0.0729234,0.259248,0.870381,-0.0729156,0.25647,0.871694,-0.0705034,0.255209,0.872596,-0.0669141,0.256535,0.871845,-0.0705111,0.25647,0.871694,-0.0705034,0.255144,0.872444,-0.0669065,0.255209,0.872596,-0.0669141,0.255144,0.872444,-0.0669065,0.255625,0.872432,-0.0630888,0.25569,0.872583,-0.0630966,0.25785,0.871811,-0.0600812,0.25569,0.872583,-0.0630966,0.255625,0.872432,-0.0630888,0.257785,0.87166,-0.0600735,0.261044,0.870335,-0.0586681,0.261109,0.870486,-0.0586757,0.25785,0.871811,-0.0600812,0.257785,0.87166,-0.0600735,0.261109,0.870486,-0.0586757,0.261044,0.870335,-0.0586681,0.26453,0.868813,-0.0592496,0.264595,0.868964,-0.0592572,0.267372,0.867651,-0.0616694,0.264595,0.868964,-0.0592572,0.26453,0.868813,-0.0592496,0.267308,0.8675,-0.0616617,0.267308,0.8675,-0.0616617,0.268634,0.866749,-0.0652586,0.268698,0.866901,-0.0652662,0.267372,0.867651,-0.0616694,0.268152,0.866762,-0.0690762,0.268217,0.866913,-0.0690839,0.268698,0.866901,-0.0652662,0.268634,0.866749,-0.0652586,0.268217,0.866913,-0.0690839,0.268152,0.866762,-0.0690762,0.265993,0.867534,-0.0720917,0.266058,0.867685,-0.0720993,0.265781,0.867824,-0.0716938,0.262741,0.86906,-0.0730043,0.26272,0.869009,-0.0730016,0.265759,0.867774,-0.0716911,0.267773,0.867054,-0.0688793,0.267795,0.867104,-0.0688818,0.265781,0.867824,-0.0716938,0.265759,0.867774,-0.0716911,0.267795,0.867104,-0.0688818,0.267773,0.867054,-0.0688793,0.268222,0.867042,-0.0653193,0.268243,0.867093,-0.0653219,0.268243,0.867093,-0.0653219,0.268222,0.867042,-0.0653193,0.266985,0.867742,-0.0619652,0.267007,0.867793,-0.0619677,0.267007,0.867793,-0.0619677,0.266985,0.867742,-0.0619652,0.264395,0.868966,-0.0597158,0.264416,0.869017,-0.0597184,0.261166,0.870437,-0.0591762,0.264416,0.869017,-0.0597184,0.264395,0.868966,-0.0597158,0.261144,0.870386,-0.0591738,0.261166,0.870437,-0.0591762,0.261144,0.870386,-0.0591738,0.258105,0.871622,-0.0604841,0.258127,0.871672,-0.0604866,0.258127,0.871672,-0.0604866,0.258105,0.871622,-0.0604841,0.256091,0.872342,-0.0632962,0.256113,0.872392,-0.0632986,0.255664,0.872404,-0.0668586,0.256113,0.872392,-0.0632986,0.256091,0.872342,-0.0632962,0.255642,0.872353,-0.066856,0.255664,0.872404,-0.0668586,0.255642,0.872353,-0.066856,0.256879,0.871653,-0.0702101,0.2569,0.871703,-0.0702126,0.2569,0.871703,-0.0702126,0.256879,0.871653,-0.0702101,0.259469,0.870429,-0.0724597,0.259491,0.87048,-0.072462,0.259469,0.870429,-0.0724597,0.26272,0.869009,-0.0730016,0.262741,0.86906,-0.0730043,0.259491,0.87048,-0.072462,0.262828,0.869088,-0.0734807,0.262829,0.869122,-0.0733987,0.266039,0.867817,-0.0720143,0.266075,0.867768,-0.0720807,0.259396,0.870622,-0.0728259,0.262829,0.869122,-0.0733987,0.262828,0.869088,-0.0734807,0.259355,0.870605,-0.0729016,0.256587,0.871913,-0.0704982,0.256659,0.871914,-0.0704498,0.259396,0.870622,-0.0728259,0.259355,0.870605,-0.0729016,0.255353,0.872654,-0.066907,0.256659,0.871914,-0.0704498,0.256587,0.871913,-0.0704982,0.255266,0.872661,-0.066915,0.255746,0.872648,-0.0631118,0.255827,0.872642,-0.0631466,0.255353,0.872654,-0.066907,0.255266,0.872661,-0.066915,0.255827,0.872642,-0.0631466,0.255746,0.872648,-0.0631118,0.257897,0.871879,-0.0601074,0.257954,0.871881,-0.0601764,0.261145,0.870559,-0.0587075,0.261165,0.870576,-0.0587922,0.257954,0.871881,-0.0601764,0.257897,0.871879,-0.0601074,0.264598,0.869076,-0.0593649,0.261165,0.870576,-0.0587922,0.261145,0.870559,-0.0587075,0.264617,0.869042,-0.0592866,0.267385,0.867735,-0.0616898,0.267334,0.867784,-0.0617409,0.264598,0.869076,-0.0593649,0.264617,0.869042,-0.0592866,0.26864,0.867044,-0.0652837,0.267334,0.867784,-0.0617409,0.267385,0.867735,-0.0616898,0.268706,0.866987,-0.0652731,0.268226,0.866999,-0.0690765,0.268167,0.867056,-0.0690441,0.26864,0.867044,-0.0652837,0.268706,0.866987,-0.0652731,0.266075,0.867768,-0.0720807,0.266039,0.867817,-0.0720143,0.268167,0.867056,-0.0690441,0.268226,0.866999,-0.0690765,0.265828,0.867892,-0.0717201,0.265885,0.867894,-0.0717889,0.262797,0.869149,-0.0731206,0.262777,0.869133,-0.0730358,0.267932,0.867163,-0.0689318,0.265885,0.867894,-0.0717889,0.265828,0.867892,-0.0717201,0.26785,0.867169,-0.0688968,0.268388,0.867151,-0.0653147,0.267932,0.867163,-0.0689318,0.26785,0.867169,-0.0688968,0.268301,0.867158,-0.0653226,0.26706,0.867861,-0.061955,0.267131,0.867862,-0.0619066,0.268388,0.867151,-0.0653147,0.268301,0.867158,-0.0653226,0.264459,0.869089,-0.0596967,0.264499,0.869106,-0.059621,0.267131,0.867862,-0.0619066,0.26706,0.867861,-0.061955,0.261195,0.870515,-0.0591523,0.261196,0.870549,-0.0590701,0.264499,0.869106,-0.059621,0.264459,0.869089,-0.0596967,0.258144,0.871755,-0.0604682,0.258108,0.871804,-0.0604018,0.261196,0.870549,-0.0590701,0.261195,0.870515,-0.0591523,0.256122,0.872478,-0.0632912,0.256062,0.872535,-0.0632589,0.258108,0.871804,-0.0604018,0.258144,0.871755,-0.0604682,0.256062,0.872535,-0.0632589,0.256122,0.872478,-0.0632912,0.255671,0.87249,-0.0668655,0.255606,0.872547,-0.0668761,0.256912,0.871787,-0.0702331,0.256862,0.871836,-0.070284,0.255606,0.872547,-0.0668761,0.255671,0.87249,-0.0668655,0.256862,0.871836,-0.070284,0.256912,0.871787,-0.0702331,0.259513,0.870558,-0.0724916,0.259495,0.870592,-0.0725697,0.262797,0.869149,-0.0731206,0.259495,0.870592,-0.0725697,0.259513,0.870558,-0.0724916,0.262777,0.869133,-0.0730358,0.266075,0.867768,-0.0720807,0.266058,0.867685,-0.0720993,0.262798,0.86901,-0.0735047,0.262828,0.869088,-0.0734807,0.259355,0.870605,-0.0729016,0.262828,0.869088,-0.0734807,0.262798,0.86901,-0.0735047,0.259313,0.870533,-0.0729234,0.259355,0.870605,-0.0729016,0.259313,0.870533,-0.0729234,0.256535,0.871845,-0.0705111,0.256587,0.871913,-0.0704982,0.255266,0.872661,-0.066915,0.256587,0.871913,-0.0704982,0.256535,0.871845,-0.0705111,0.255209,0.872596,-0.0669141,0.25569,0.872583,-0.0630966,0.255746,0.872648,-0.0631118,0.255266,0.872661,-0.066915,0.255209,0.872596,-0.0669141,0.25569,0.872583,-0.0630966,0.25785,0.871811,-0.0600812,0.257897,0.871879,-0.0601074,0.255746,0.872648,-0.0631118,0.257897,0.871879,-0.0601074,0.25785,0.871811,-0.0600812,0.261109,0.870486,-0.0586757,0.261145,0.870559,-0.0587075,0.264617,0.869042,-0.0592866,0.261145,0.870559,-0.0587075,0.261109,0.870486,-0.0586757,0.264595,0.868964,-0.0592572,0.264617,0.869042,-0.0592866,0.264595,0.868964,-0.0592572,0.267372,0.867651,-0.0616694,0.267385,0.867735,-0.0616898,0.267385,0.867735,-0.0616898,0.267372,0.867651,-0.0616694,0.268698,0.866901,-0.0652662,0.268706,0.866987,-0.0652731,0.268217,0.866913,-0.0690839,0.268226,0.866999,-0.0690765,0.268706,0.866987,-0.0652731,0.268698,0.866901,-0.0652662,0.268226,0.866999,-0.0690765,0.268217,0.866913,-0.0690839,0.266058,0.867685,-0.0720993,0.266075,0.867768,-0.0720807,0.265781,0.867824,-0.0716938,0.265828,0.867892,-0.0717201,0.262777,0.869133,-0.0730358,0.262741,0.86906,-0.0730043,0.26785,0.867169,-0.0688968,0.265828,0.867892,-0.0717201,0.265781,0.867824,-0.0716938,0.267795,0.867104,-0.0688818,0.267795,0.867104,-0.0688818,0.268243,0.867093,-0.0653219,0.268301,0.867158,-0.0653226,0.26785,0.867169,-0.0688968,0.267007,0.867793,-0.0619677,0.26706,0.867861,-0.061955,0.268301,0.867158,-0.0653226,0.268243,0.867093,-0.0653219,0.267007,0.867793,-0.0619677,0.264416,0.869017,-0.0597184,0.264459,0.869089,-0.0596967,0.26706,0.867861,-0.061955,0.261195,0.870515,-0.0591523,0.264459,0.869089,-0.0596967,0.264416,0.869017,-0.0597184,0.261166,0.870437,-0.0591762,0.258144,0.871755,-0.0604682,0.261195,0.870515,-0.0591523,0.261166,0.870437,-0.0591762,0.258127,0.871672,-0.0604866,0.258144,0.871755,-0.0604682,0.258127,0.871672,-0.0604866,0.256113,0.872392,-0.0632986,0.256122,0.872478,-0.0632912,0.256122,0.872478,-0.0632912,0.256113,0.872392,-0.0632986,0.255664,0.872404,-0.0668586,0.255671,0.87249,-0.0668655,0.256912,0.871787,-0.0702331,0.255671,0.87249,-0.0668655,0.255664,0.872404,-0.0668586,0.2569,0.871703,-0.0702126,0.259491,0.87048,-0.072462,0.259513,0.870558,-0.0724916,0.256912,0.871787,-0.0702331,0.2569,0.871703,-0.0702126,0.262741,0.86906,-0.0730043,0.262777,0.869133,-0.0730358,0.259513,0.870558,-0.0724916,0.259491,0.87048,-0.072462,0.265759,0.867774,-0.0716911,0.26272,0.869009,-0.0730016,0.262684,0.868936,-0.07297,0.265711,0.867706,-0.0716648,0.259469,0.870429,-0.0724597,0.259447,0.870351,-0.07243,0.262684,0.868936,-0.07297,0.26272,0.869009,-0.0730016,0.259447,0.870351,-0.07243,0.259469,0.870429,-0.0724597,0.256879,0.871653,-0.0702101,0.256867,0.87157,-0.0701897,0.256867,0.87157,-0.0701897,0.256879,0.871653,-0.0702101,0.255642,0.872353,-0.066856,0.255635,0.872267,-0.0668491,0.255642,0.872353,-0.066856,0.256091,0.872342,-0.0632962,0.256082,0.872255,-0.0633035,0.255635,0.872267,-0.0668491,0.258088,0.871538,-0.0605029,0.256082,0.872255,-0.0633035,0.256091,0.872342,-0.0632962,0.258105,0.871622,-0.0604841,0.261115,0.870308,-0.0591977,0.258088,0.871538,-0.0605029,0.258105,0.871622,-0.0604841,0.261144,0.870386,-0.0591738,0.264395,0.868966,-0.0597158,0.264352,0.868894,-0.0597375,0.261115,0.870308,-0.0591977,0.261144,0.870386,-0.0591738,0.266985,0.867742,-0.0619652,0.266932,0.867675,-0.0619779,0.264352,0.868894,-0.0597375,0.264395,0.868966,-0.0597158,0.266932,0.867675,-0.0619779,0.266985,0.867742,-0.0619652,0.268222,0.867042,-0.0653193,0.268164,0.866978,-0.0653185,0.267773,0.867054,-0.0688793,0.267717,0.866989,-0.0688642,0.268164,0.866978,-0.0653185,0.268222,0.867042,-0.0653193,0.265759,0.867774,-0.0716911,0.265711,0.867706,-0.0716648,0.267717,0.866989,-0.0688642,0.267773,0.867054,-0.0688793,0.265654,0.867704,-0.0715959,0.265711,0.867706,-0.0716648,0.262684,0.868936,-0.07297,0.262664,0.868919,-0.0728853,0.259466,0.870317,-0.072352,0.262664,0.868919,-0.0728853,0.262684,0.868936,-0.07297,0.259447,0.870351,-0.07243,0.259447,0.870351,-0.07243,0.256867,0.87157,-0.0701897,0.256917,0.871521,-0.0701387,0.259466,0.870317,-0.072352,0.2557,0.872209,-0.0668386,0.256917,0.871521,-0.0701387,0.256867,0.87157,-0.0701897,0.255635,0.872267,-0.0668491,0.255635,0.872267,-0.0668491,0.256082,0.872255,-0.0633035,0.256142,0.872198,-0.0633359,0.2557,0.872209,-0.0668386,0.256082,0.872255,-0.0633035,0.258088,0.871538,-0.0605029,0.258123,0.87149,-0.0605692,0.256142,0.872198,-0.0633359,0.258123,0.87149,-0.0605692,0.258088,0.871538,-0.0605029,0.261115,0.870308,-0.0591977,0.261114,0.870274,-0.0592798,0.261114,0.870274,-0.0592798,0.261115,0.870308,-0.0591977,0.264352,0.868894,-0.0597375,0.264312,0.868877,-0.0598133,0.264352,0.868894,-0.0597375,0.266932,0.867675,-0.0619779,0.266861,0.867673,-0.0620266,0.264312,0.868877,-0.0598133,0.268164,0.866978,-0.0653185,0.268077,0.866984,-0.0653265,0.266861,0.867673,-0.0620266,0.266932,0.867675,-0.0619779,0.267717,0.866989,-0.0688642,0.267636,0.866996,-0.0688293,0.268077,0.866984,-0.0653265,0.268164,0.866978,-0.0653185,0.265654,0.867704,-0.0715959,0.267636,0.866996,-0.0688293,0.267717,0.866989,-0.0688642,0.265711,0.867706,-0.0716648,0.261895,0.866935,-0.0733063,0.262014,0.867178,-0.0734116,0.265273,0.865853,-0.0720063,0.265114,0.865627,-0.0719184,0.258528,0.868701,-0.0728303,0.262014,0.867178,-0.0734116,0.261895,0.866935,-0.0733063,0.258453,0.868439,-0.0727321,0.25571,0.869735,-0.0703499,0.25575,0.870013,-0.070418,0.258528,0.868701,-0.0728303,0.258453,0.868439,-0.0727321,0.25575,0.870013,-0.070418,0.25571,0.869735,-0.0703499,0.2544,0.870476,-0.066798,0.254424,0.870764,-0.0668212,0.254876,0.870464,-0.0630282,0.254905,0.870752,-0.0630036,0.254424,0.870764,-0.0668212,0.2544,0.870476,-0.066798,0.257065,0.86998,-0.0599881,0.254905,0.870752,-0.0630036,0.254876,0.870464,-0.0630282,0.257008,0.869702,-0.0600504,0.260227,0.868393,-0.0586626,0.260324,0.868655,-0.0585829,0.257065,0.86998,-0.0599881,0.257008,0.869702,-0.0600504,0.260324,0.868655,-0.0585829,0.260227,0.868393,-0.0586626,0.263669,0.86689,-0.0592367,0.26381,0.867132,-0.0591642,0.266588,0.86582,-0.0615763,0.26381,0.867132,-0.0591642,0.263669,0.86689,-0.0592367,0.266412,0.865594,-0.0616188,0.267914,0.865069,-0.0651732,0.266588,0.86582,-0.0615763,0.266412,0.865594,-0.0616188,0.267722,0.864852,-0.0651708,0.267246,0.864865,-0.0689406,0.267433,0.865081,-0.0689908,0.267914,0.865069,-0.0651732,0.267722,0.864852,-0.0651708,0.267433,0.865081,-0.0689908,0.267246,0.864865,-0.0689406,0.265114,0.865627,-0.0719184,0.265273,0.865853,-0.0720063,0.261827,0.866879,-0.0730239,0.261895,0.866935,-0.0733063,0.265114,0.865627,-0.0719184,0.264924,0.86562,-0.0716888,0.258516,0.868325,-0.0724716,0.258453,0.868439,-0.0727321,0.261895,0.866935,-0.0733063,0.261827,0.866879,-0.0730239,0.258453,0.868439,-0.0727321,0.258516,0.868325,-0.0724716,0.255877,0.869572,-0.0701799,0.25571,0.869735,-0.0703499,0.254617,0.870285,-0.0667629,0.2544,0.870476,-0.066798,0.25571,0.869735,-0.0703499,0.255877,0.869572,-0.0701799,0.255075,0.870274,-0.0631362,0.254876,0.870464,-0.0630282,0.2544,0.870476,-0.066798,0.254617,0.870285,-0.0667629,0.257008,0.869702,-0.0600504,0.254876,0.870464,-0.0630282,0.255075,0.870274,-0.0631362,0.257126,0.86954,-0.0602715,0.257008,0.869702,-0.0600504,0.257126,0.86954,-0.0602715,0.260223,0.868282,-0.0589364,0.260227,0.868393,-0.0586626,0.263669,0.86689,-0.0592367,0.260227,0.868393,-0.0586626,0.260223,0.868282,-0.0589364,0.263534,0.866835,-0.0594887,0.266173,0.865588,-0.0617804,0.266412,0.865594,-0.0616188,0.263669,0.86689,-0.0592367,0.263534,0.866835,-0.0594887,0.266412,0.865594,-0.0616188,0.266173,0.865588,-0.0617804,0.267433,0.864875,-0.0651974,0.267722,0.864852,-0.0651708,0.267722,0.864852,-0.0651708,0.267433,0.864875,-0.0651974,0.266975,0.864887,-0.0688242,0.267246,0.864865,-0.0689406,0.265114,0.865627,-0.0719184,0.267246,0.864865,-0.0689406,0.266975,0.864887,-0.0688242,0.264924,0.86562,-0.0716888],
                "type":"Float32Array",
                "itemSize":3
            }
        }
    },
    "metadata":{
        "type":"BufferGeometry",
        "uv":982,
        "generator":"io_three",
        "position":982,
        "normal":982,
        "version":3
    }
}