{
    "data":{
        "index":{
            "type":"Uint16Array",
            "itemSize":1,
            "array":[0,1,2,2,3,4,4,5,6,6,7,8,8,9,10,9,11,10,12,13,11,14,15,13,16,17,15,18,19,17,20,21,19,21,22,0,22,23,1,23,3,1,24,5,3,25,7,5,26,9,7,27,12,9,28,14,12,14,29,16,16,30,18,18,31,20,20,32,33,33,34,22,34,35,23,23,36,24,24,37,25,25,38,26,26,39,27,27,40,28,40,41,28,42,29,41,43,30,29,44,31,30,45,32,31,46,34,32,47,48,35,35,49,36,36,50,37,37,51,38,38,52,39,39,53,40,53,42,40,54,43,42,55,44,43,56,45,44,57,46,45,58,47,46,59,60,48,48,61,49,49,62,50,50,63,51,51,64,52,52,65,53,65,54,53,66,55,54,67,56,55,68,57,56,69,58,57,70,59,58,71,72,60,60,73,61,61,74,62,62,75,63,63,76,64,64,77,65,77,66,65,78,67,66,79,68,67,80,69,68,81,70,69,82,71,70,83,84,72,72,85,73,73,86,74,74,87,75,75,88,76,76,89,77,89,78,77,90,79,78,91,80,79,92,81,80,93,82,81,94,83,82,95,84,96,97,85,84,98,86,85,99,87,86,100,88,87,101,89,88,89,102,90,90,103,91,91,104,92,92,105,93,93,106,94,94,95,96,107,97,95,108,98,97,109,99,98,110,100,99,111,101,100,112,113,101,113,114,102,102,115,103,103,116,104,104,117,105,105,118,106,106,107,95,119,108,107,120,109,108,121,110,109,122,111,110,123,112,111,124,125,112,125,126,114,114,127,115,115,128,116,116,129,117,117,130,118,118,119,107,131,120,119,132,121,120,133,122,121,134,123,122,135,124,123,136,137,124,137,138,126,126,139,127,127,140,128,128,141,129,129,142,130,130,131,119,143,132,131,144,133,132,145,134,133,146,135,134,147,136,135,148,149,136,149,150,138,138,151,139,139,152,140,140,153,141,141,154,142,142,143,131,143,155,144,144,156,145,145,157,146,146,158,147,147,159,148,148,160,161,160,150,161,162,151,150,163,152,151,164,153,152,165,154,153,166,143,154,167,155,168,169,156,155,170,157,156,171,158,157,172,159,158,159,173,160,160,174,162,162,175,163,163,176,164,164,177,165,165,178,166,166,167,168,179,169,167,180,170,169,181,171,170,182,172,171,183,184,172,184,185,173,173,186,174,174,187,175,175,188,176,176,189,177,177,190,178,190,167,178,179,191,180,180,192,181,181,193,182,182,194,183,183,195,196,196,197,185,197,186,185,198,187,186,199,188,187,200,189,188,201,190,189,202,179,190,203,204,191,191,205,192,192,206,193,193,207,194,194,208,195,195,209,197,209,198,197,210,199,198,211,200,199,212,201,200,213,202,201,214,203,202,215,216,204,204,217,205,205,218,206,206,219,207,207,220,208,208,221,209,221,210,209,222,211,210,223,212,211,224,213,212,225,214,213,226,215,214,227,228,216,216,229,217,217,230,218,218,231,219,219,232,220,232,221,220,233,222,221,234,223,222,235,224,223,236,225,224,237,226,225,238,227,226,239,228,240,241,229,228,242,230,229,243,231,230,244,232,231,245,233,232,246,234,233,234,247,235,235,248,236,236,249,237,237,250,238,238,239,240,251,241,239,252,242,241,253,243,242,254,244,243,255,245,244,256,246,245,246,257,258,258,259,247,247,260,248,248,261,249,249,262,250,250,251,239,251,263,252,252,264,253,253,265,254,254,266,255,255,267,256,256,268,269,268,257,269,270,259,257,271,260,259,272,261,260,273,262,261,274,251,262,275,276,263,263,277,264,264,278,265,265,279,266,266,280,267,267,281,282,282,283,270,270,284,271,284,272,271,285,273,272,286,274,273,287,275,274,288,276,289,290,277,276,291,278,277,292,279,278,293,280,279,280,294,281,281,295,283,283,296,284,284,297,285,285,298,286,286,299,287,287,288,289,300,290,288,301,291,290,302,292,291,303,293,292,304,305,293,306,294,305,294,307,295,295,308,296,296,309,297,297,310,298,298,311,299,299,300,288,312,301,300,313,302,301,314,303,302,315,304,303,316,306,304,317,318,306,318,319,307,307,320,308,308,321,309,309,322,310,310,323,311,311,312,300,324,313,312,325,314,313,326,315,314,327,316,315,328,317,316,329,330,317,330,331,319,319,332,320,320,333,321,321,334,322,322,335,323,323,324,312,324,336,325,325,337,326,326,338,327,327,339,328,328,340,329,340,341,329,342,331,341,343,332,331,344,333,332,345,334,333,346,335,334,335,347,324,347,348,336,336,349,337,337,350,338,338,351,339,339,352,340,352,342,340,353,343,342,354,344,343,355,345,344,356,346,345,357,358,346,358,359,347,360,348,359,361,349,348,362,350,349,363,351,350,364,352,351,365,353,352,353,366,354,354,367,355,355,368,356,356,369,357,357,370,371,371,360,359,360,372,361,361,373,362,362,374,363,363,375,364,364,376,365,376,377,365,378,366,377,379,367,366,380,368,367,381,369,368,382,370,369,370,383,360,383,384,372,372,385,373,373,386,374,374,387,375,375,388,376,376,389,378,389,379,378,390,380,379,391,381,380,392,382,381,393,394,382,395,383,394,396,397,384,384,398,385,385,399,386,386,400,387,387,401,388,388,402,389,402,390,389,403,391,390,404,392,391,405,393,392,406,395,393,407,396,395,408,409,397,397,410,398,398,411,399,399,412,400,400,413,401,401,414,402,414,403,402,415,404,403,416,405,404,417,406,405,418,407,406,419,408,407,420,421,409,409,422,410,410,423,411,411,424,412,412,425,413,413,426,414,426,415,414,427,416,415,428,417,416,429,418,417,430,419,418,431,420,419,432,421,433,434,422,421,435,423,422,436,424,423,437,425,424,438,426,425,426,439,427,427,440,428,428,441,429,429,442,430,430,443,431,431,432,433,444,434,432,445,435,434,446,436,435,447,437,436,448,438,437,449,450,438,450,451,439,439,452,440,440,453,441,441,454,442,442,455,443,443,444,432,456,445,444,457,446,445,458,447,446,459,448,447,460,449,448,461,462,449,462,463,451,451,464,452,452,465,453,453,466,454,454,467,455,455,456,444,468,457,456,469,458,457,470,459,458,471,460,459,472,461,460,473,474,461,474,475,463,463,476,464,464,477,465,465,478,466,466,479,467,467,468,456,468,480,469,469,481,470,481,471,470,482,472,471,483,473,472,484,485,473,486,475,485,487,476,475,476,488,477,477,489,478,478,490,479,479,491,468,491,492,480,480,493,481,481,494,482,482,495,483,483,496,484,496,486,484,497,487,486,498,499,487,500,488,499,501,489,488,502,490,489,490,503,491,504,492,503,505,493,492,506,494,493,507,495,494,508,496,495,509,497,496,497,510,498,498,511,500,500,512,501,501,513,502,502,514,515,515,504,503,504,516,505,505,517,506,506,518,507,507,519,508,508,520,509,509,521,522,521,510,522,523,511,510,524,512,511,525,513,512,526,514,513,527,504,514,528,529,516,516,530,517,517,531,518,518,532,519,519,533,520,520,534,521,534,523,521,535,524,523,536,525,524,537,526,525,538,527,526,539,528,527,540,541,529,529,542,530,530,543,531,531,544,532,532,545,533,533,546,534,546,535,534,547,536,535,548,537,536,549,538,537,550,539,538,551,540,539,552,553,541,541,554,542,542,555,543,543,556,544,544,557,545,557,546,545,558,547,546,559,548,547,560,549,548,561,550,549,562,551,550,563,552,551,564,553,565,566,554,553,567,555,554,568,556,555,556,569,557,557,570,558,570,559,558,559,571,560,560,572,561,561,573,562,562,574,563,563,564,565,575,566,564,576,567,566,577,568,567,578,579,568,580,569,579,569,581,570,570,582,583,583,584,571,571,585,572,572,586,573,573,587,574,574,575,564,588,576,575,589,577,576,590,578,577,591,580,578,592,593,580,594,581,593,581,595,582,582,596,584,584,597,585,585,598,586,586,599,587,587,588,575,588,600,589,589,601,590,590,602,591,591,603,592,592,604,594,594,605,606,605,595,606,607,596,595,608,597,596,609,598,597,610,599,598,611,588,599,612,613,600,600,614,601,601,615,602,602,616,603,603,617,604,604,618,605,605,619,607,619,608,607,620,609,608,621,610,609,622,611,610,623,612,611,624,613,625,626,614,613,627,615,614,628,616,615,616,629,617,617,630,618,630,619,618,619,631,620,620,632,621,621,633,622,622,634,623,634,625,623,635,626,624,636,627,626,637,628,627,638,639,628,640,629,639,629,641,642,642,643,644,644,645,631,631,646,632,632,647,633,633,648,634,634,635,624,649,636,635,650,637,636,651,638,637,652,640,638,653,654,640,655,641,654,641,656,643,643,657,645,645,658,646,646,659,647,647,660,648,648,649,635,661,650,649,662,651,650,663,652,651,664,653,652,665,655,653,666,667,655,667,668,656,656,669,657,657,670,658,658,671,659,659,672,660,660,661,649,661,2,662,662,4,663,663,6,664,664,8,665,665,10,666,666,11,673,673,13,668,668,15,669,669,17,670,670,19,671,671,21,672,672,0,661,0,22,1,2,1,3,4,3,5,6,5,7,8,7,9,9,12,11,12,14,13,14,16,15,16,18,17,18,20,19,20,33,21,21,33,22,22,34,23,23,24,3,24,25,5,25,26,7,26,27,9,27,28,12,28,41,14,14,41,29,16,29,30,18,30,31,20,31,32,33,32,34,34,47,35,23,35,36,24,36,37,25,37,38,26,38,39,27,39,40,40,42,41,42,43,29,43,44,30,44,45,31,45,46,32,46,47,34,47,59,48,35,48,49,36,49,50,37,50,51,38,51,52,39,52,53,53,54,42,54,55,43,55,56,44,56,57,45,57,58,46,58,59,47,59,71,60,48,60,61,49,61,62,50,62,63,51,63,64,52,64,65,65,66,54,66,67,55,67,68,56,68,69,57,69,70,58,70,71,59,71,83,72,60,72,73,61,73,74,62,74,75,63,75,76,64,76,77,77,78,66,78,79,67,79,80,68,80,81,69,81,82,70,82,83,71,83,96,84,72,84,85,73,85,86,74,86,87,75,87,88,76,88,89,89,90,78,90,91,79,91,92,80,92,93,81,93,94,82,94,96,83,95,97,84,97,98,85,98,99,86,99,100,87,100,101,88,101,113,89,89,113,102,90,102,103,91,103,104,92,104,105,93,105,106,94,106,95,107,108,97,108,109,98,109,110,99,110,111,100,111,112,101,112,125,113,113,125,114,102,114,115,103,115,116,104,116,117,105,117,118,106,118,107,119,120,108,120,121,109,121,122,110,122,123,111,123,124,112,124,137,125,125,137,126,114,126,127,115,127,128,116,128,129,117,129,130,118,130,119,131,132,120,132,133,121,133,134,122,134,135,123,135,136,124,136,149,137,137,149,138,126,138,139,127,139,140,128,140,141,129,141,142,130,142,131,143,144,132,144,145,133,145,146,134,146,147,135,147,148,136,148,161,149,149,161,150,138,150,151,139,151,152,140,152,153,141,153,154,142,154,143,143,168,155,144,155,156,145,156,157,146,157,158,147,158,159,148,159,160,160,162,150,162,163,151,163,164,152,164,165,153,165,166,154,166,168,143,167,169,155,169,170,156,170,171,157,171,172,158,172,184,159,159,184,173,160,173,174,162,174,175,163,175,176,164,176,177,165,177,178,166,178,167,179,180,169,180,181,170,181,182,171,182,183,172,183,196,184,184,196,185,173,185,186,174,186,187,175,187,188,176,188,189,177,189,190,190,179,167,179,203,191,180,191,192,181,192,193,182,193,194,183,194,195,196,195,197,197,198,186,198,199,187,199,200,188,200,201,189,201,202,190,202,203,179,203,215,204,191,204,205,192,205,206,193,206,207,194,207,208,195,208,209,209,210,198,210,211,199,211,212,200,212,213,201,213,214,202,214,215,203,215,227,216,204,216,217,205,217,218,206,218,219,207,219,220,208,220,221,221,222,210,222,223,211,223,224,212,224,225,213,225,226,214,226,227,215,227,240,228,216,228,229,217,229,230,218,230,231,219,231,232,232,233,221,233,234,222,234,235,223,235,236,224,236,237,225,237,238,226,238,240,227,239,241,228,241,242,229,242,243,230,243,244,231,244,245,232,245,246,233,246,258,234,234,258,247,235,247,248,236,248,249,237,249,250,238,250,239,251,252,241,252,253,242,253,254,243,254,255,244,255,256,245,256,269,246,246,269,257,258,257,259,247,259,260,248,260,261,249,261,262,250,262,251,251,275,263,252,263,264,253,264,265,254,265,266,255,266,267,256,267,268,268,270,257,270,271,259,271,272,260,272,273,261,273,274,262,274,275,251,275,289,276,263,276,277,264,277,278,265,278,279,266,279,280,267,280,281,282,281,283,270,283,284,284,285,272,285,286,273,286,287,274,287,289,275,288,290,276,290,291,277,291,292,278,292,293,279,293,305,280,280,305,294,281,294,295,283,295,296,284,296,297,285,297,298,286,298,299,287,299,288,300,301,290,301,302,291,302,303,292,303,304,293,304,306,305,306,318,294,294,318,307,295,307,308,296,308,309,297,309,310,298,310,311,299,311,300,312,313,301,313,314,302,314,315,303,315,316,304,316,317,306,317,330,318,318,330,319,307,319,320,308,320,321,309,321,322,310,322,323,311,323,312,324,325,313,325,326,314,326,327,315,327,328,316,328,329,317,329,341,330,330,341,331,319,331,332,320,332,333,321,333,334,322,334,335,323,335,324,324,347,336,325,336,337,326,337,338,327,338,339,328,339,340,340,342,341,342,343,331,343,344,332,344,345,333,345,346,334,346,358,335,335,358,347,347,359,348,336,348,349,337,349,350,338,350,351,339,351,352,352,353,342,353,354,343,354,355,344,355,356,345,356,357,346,357,371,358,358,371,359,360,361,348,361,362,349,362,363,350,363,364,351,364,365,352,365,377,353,353,377,366,354,366,367,355,367,368,356,368,369,357,369,370,371,370,360,360,383,372,361,372,373,362,373,374,363,374,375,364,375,376,376,378,377,378,379,366,379,380,367,380,381,368,381,382,369,382,394,370,370,394,383,383,396,384,372,384,385,373,385,386,374,386,387,375,387,388,376,388,389,389,390,379,390,391,380,391,392,381,392,393,382,393,395,394,395,396,383,396,408,397,384,397,398,385,398,399,386,399,400,387,400,401,388,401,402,402,403,390,403,404,391,404,405,392,405,406,393,406,407,395,407,408,396,408,420,409,397,409,410,398,410,411,399,411,412,400,412,413,401,413,414,414,415,403,415,416,404,416,417,405,417,418,406,418,419,407,419,420,408,420,433,421,409,421,422,410,422,423,411,423,424,412,424,425,413,425,426,426,427,415,427,428,416,428,429,417,429,430,418,430,431,419,431,433,420,432,434,421,434,435,422,435,436,423,436,437,424,437,438,425,438,450,426,426,450,439,427,439,440,428,440,441,429,441,442,430,442,443,431,443,432,444,445,434,445,446,435,446,447,436,447,448,437,448,449,438,449,462,450,450,462,451,439,451,452,440,452,453,441,453,454,442,454,455,443,455,444,456,457,445,457,458,446,458,459,447,459,460,448,460,461,449,461,474,462,462,474,463,451,463,464,452,464,465,453,465,466,454,466,467,455,467,456,468,469,457,469,470,458,470,471,459,471,472,460,472,473,461,473,485,474,474,485,475,463,475,476,464,476,477,465,477,478,466,478,479,467,479,468,468,491,480,469,480,481,481,482,471,482,483,472,483,484,473,484,486,485,486,487,475,487,499,476,476,499,488,477,488,489,478,489,490,479,490,491,491,503,492,480,492,493,481,493,494,482,494,495,483,495,496,496,497,486,497,498,487,498,500,499,500,501,488,501,502,489,502,515,490,490,515,503,504,505,492,505,506,493,506,507,494,507,508,495,508,509,496,509,522,497,497,522,510,498,510,511,500,511,512,501,512,513,502,513,514,515,514,504,504,528,516,505,516,517,506,517,518,507,518,519,508,519,520,509,520,521,521,523,510,523,524,511,524,525,512,525,526,513,526,527,514,527,528,504,528,540,529,516,529,530,517,530,531,518,531,532,519,532,533,520,533,534,534,535,523,535,536,524,536,537,525,537,538,526,538,539,527,539,540,528,540,552,541,529,541,542,530,542,543,531,543,544,532,544,545,533,545,546,546,547,535,547,548,536,548,549,537,549,550,538,550,551,539,551,552,540,552,565,553,541,553,554,542,554,555,543,555,556,544,556,557,557,558,546,558,559,547,559,560,548,560,561,549,561,562,550,562,563,551,563,565,552,564,566,553,566,567,554,567,568,555,568,579,556,556,579,569,557,569,570,570,583,559,559,583,571,560,571,572,561,572,573,562,573,574,563,574,564,575,576,566,576,577,567,577,578,568,578,580,579,580,593,569,569,593,581,570,581,582,583,582,584,571,584,585,572,585,586,573,586,587,574,587,575,588,589,576,589,590,577,590,591,578,591,592,580,592,594,593,594,606,581,581,606,595,582,595,596,584,596,597,585,597,598,586,598,599,587,599,588,588,612,600,589,600,601,590,601,602,591,602,603,592,603,604,594,604,605,605,607,595,607,608,596,608,609,597,609,610,598,610,611,599,611,612,588,612,625,613,600,613,614,601,614,615,602,615,616,603,616,617,604,617,618,605,618,619,619,620,608,620,621,609,621,622,610,622,623,611,623,625,612,624,626,613,626,627,614,627,628,615,628,639,616,616,639,629,617,629,630,630,644,619,619,644,631,620,631,632,621,632,633,622,633,634,634,624,625,635,636,626,636,637,627,637,638,628,638,640,639,640,654,629,629,654,641,642,641,643,644,643,645,631,645,646,632,646,647,633,647,648,634,648,635,649,650,636,650,651,637,651,652,638,652,653,640,653,655,654,655,667,641,641,667,656,643,656,657,645,657,658,646,658,659,647,659,660,648,660,649,661,662,650,662,663,651,663,664,652,664,665,653,665,666,655,666,673,667,667,673,668,656,668,669,657,669,670,658,670,671,659,671,672,660,672,661,661,0,2,662,2,4,663,4,6,664,6,8,665,8,10,666,10,11,673,11,13,668,13,15,669,15,17,670,17,19,671,19,21,672,21,0]
        },
        "attributes":{
            "normal":{
                "type":"Float32Array",
                "itemSize":3,
                "array":[-0.194342,-0.970702,0.141087,0.0224616,-0.811853,0.583361,0.0148015,-0.810175,0.585986,0.223884,-0.433851,0.872707,0.222083,-0.433424,0.873348,0.36552,0.0605487,0.9288,0.372112,0.0587787,0.926298,0.409345,0.539232,0.735954,0.424604,0.534928,0.73043,0.343242,0.873501,0.345195,0.365398,0.867336,0.33787,0.210211,0.966643,-0.146214,0.184729,0.972961,-0.138585,0.000701926,0.805933,-0.591968,-0.0234382,0.810602,-0.585101,-0.206885,0.428358,-0.879574,-0.225196,0.430464,-0.87402,-0.356853,-0.0645772,-0.931913,-0.366344,-0.0647908,-0.92819,-0.408979,-0.540574,-0.73516,-0.409253,-0.542222,-0.733787,-0.349467,-0.872127,-0.342387,-0.18482,-0.972961,0.138432,0.0426649,-0.816492,0.575732,0.234901,-0.436354,0.868557,0.364422,0.0608234,0.929228,0.396405,0.542253,0.740806,0.321879,0.878384,0.353221,0.160772,0.978423,-0.129551,-0.236122,0.432997,-0.8699,-0.365123,-0.0650349,-0.928678,-0.396222,-0.545152,-0.738762,-0.321421,-0.879238,-0.351543,-0.342784,-0.874355,-0.343425,-0.160833,-0.978454,0.129337,0.0635395,-0.820734,0.567736,0.24604,-0.438765,0.864254,0.362896,0.0609455,0.929807,0.38258,0.544847,0.746147,0.299448,0.882839,0.361766,0.135716,0.983428,-0.120121,-0.0435804,0.81521,-0.577471,-0.0645161,0.8193,-0.569689,-0.247291,0.435041,-0.865749,-0.363536,-0.0655538,-0.929258,-0.382336,-0.548051,-0.743919,-0.298959,-0.883724,-0.359996,-0.135807,-0.983428,0.119846,0.087344,-0.824854,0.558519,0.258583,-0.441206,0.85931,0.360851,0.0608234,0.930601,0.366497,0.547258,0.752434,0.273598,0.887082,0.371746,0.106937,0.98822,-0.109287,-0.0884732,0.823145,-0.560869,-0.259957,0.43675,-0.861171,-0.361461,-0.0663167,-0.929991,-0.3661,-0.551042,-0.74987,-0.272988,-0.88815,-0.369671,-0.107089,-0.98825,0.108921,0.116337,-0.828822,0.547227,0.273782,-0.443709,0.853298,0.358226,0.0604877,0.931639,0.346721,0.549303,0.760247,0.24192,0.891049,0.384014,0.0717795,0.992767,-0.0961028,-0.117679,0.826655,-0.550218,-0.275277,0.438124,-0.855678,-0.358715,-0.0673544,-0.930998,-0.34608,-0.554064,-0.757103,-0.241096,-0.892361,-0.381451,-0.0719626,-0.992798,0.095584,0.1536,-0.83224,0.532701,0.293191,-0.446181,0.845515,0.354717,0.0596942,0.933042,0.321207,0.550645,0.77044,0.201086,0.894223,0.399884,0.0264595,0.99649,-0.0791345,-0.155248,0.829371,-0.536668,-0.29487,0.438795,-0.848811,-0.354961,-0.0687277,-0.93234,-0.320048,-0.556871,-0.766411,-0.199927,-0.895932,-0.396588,-0.0267037,-0.996551,0.0784326,0.200537,-0.833583,0.514634,0.31782,-0.447462,0.835902,0.350505,0.0588397,0.93469,0.289224,0.550676,0.782952,0.149785,0.89523,0.41966,-0.0303964,0.997833,-0.0578021,-0.202338,0.830134,-0.519517,-0.319285,0.438551,-0.840052,-0.350169,-0.0697653,-0.93408,-0.287423,-0.558214,-0.778283,-0.148259,-0.897336,-0.415662,0.0845363,-0.995727,0.0367138,0.0300913,-0.997894,0.0570086,0.245827,-0.831416,0.498276,0.341746,-0.445479,0.827479,0.346507,0.0600604,0.936094,0.25837,0.550523,0.793817,0.100436,0.893551,0.437513,-0.247017,0.828852,-0.501938,-0.342479,0.438856,-0.830714,-0.345836,-0.0682394,-0.935789,-0.256661,-0.556139,-0.790429,-0.0992157,-0.895138,-0.434553,0.124729,-0.991943,0.0217292,0.279275,-0.827967,0.486221,0.359416,-0.442976,0.821314,0.343516,0.0609149,0.937132,0.235481,0.549181,0.801813,0.0639363,0.890378,0.450667,-0.0847194,0.995697,-0.0372631,-0.280068,0.826106,-0.488937,-0.359752,0.438124,-0.823756,-0.342753,-0.0668661,-0.93701,-0.234077,-0.553301,-0.799402,-0.0630207,-0.891537,-0.448531,0.155065,-0.987823,0.0104068,0.304453,-0.824396,0.477096,0.372631,-0.440718,0.816614,0.341166,0.0612201,0.937986,0.218177,0.547319,0.807947,0.0364086,0.886807,0.460677,-0.124912,0.991913,-0.0221564,-0.305063,0.822901,-0.479293,-0.372784,0.436903,-0.818598,-0.340434,-0.06592,-0.937925,-0.216987,-0.550554,-0.806085,-0.0356761,-0.887692,-0.458998,0.179968,-0.983642,0.00112918,0.325053,-0.820856,0.469558,0.383374,-0.438673,0.812738,0.339122,0.0611896,0.938719,0.203925,0.545183,0.813105,0.0138249,0.883084,0.468947,-0.155217,0.987793,-0.010773,-0.325541,0.819575,-0.47145,-0.383435,0.435377,-0.814478,-0.338389,-0.0652486,-0.938719,-0.202826,-0.547929,-0.811518,-0.0131535,-0.883847,-0.467544,0.202521,-0.979247,-0.00723289,0.343638,-0.817194,0.462661,0.392987,-0.43672,0.809198,0.337199,0.0609149,0.939451,0.190954,0.542711,0.817896,-0.00668355,0.879086,0.476577,-0.180059,0.983642,-0.00146489,-0.344066,0.815943,-0.464522,-0.392956,0.433546,-0.810907,-0.336406,-0.0647908,-0.939482,-0.189856,-0.545335,-0.816401,0.00732444,-0.879818,-0.475204,0.362865,-0.812983,0.455367,0.402875,-0.434736,0.805383,0.335093,0.060152,0.940245,0.177374,0.539445,0.823084,-0.0281075,0.874233,0.484664,-0.226173,0.973937,0.0156255,-0.202643,0.979217,0.00689718,-0.363353,0.811548,-0.457503,-0.402753,0.431135,-0.807367,-0.334086,-0.0645466,-0.940306,-0.176061,-0.542436,-0.821406,0.0288705,-0.875027,-0.483139,0.241157,-0.970244,-0.0211798,0.22602,-0.973968,-0.0160527,0.376141,-0.809046,0.451521,0.410474,-0.431288,0.8034,0.33488,0.0619831,0.940184,0.169561,0.538743,0.82519,-0.240974,0.970275,0.0216681,-0.376141,0.809046,-0.451552,-0.410443,0.43083,-0.803644,-0.334666,-0.0628376,-0.940214,-0.169195,-0.539598,-0.824732,0.0415357,-0.87167,-0.488296,0.242866,-0.969817,-0.0214545,0.379986,-0.807764,0.450636,0.415296,-0.429456,0.801904,0.339396,0.0637532,0.938444,0.172704,0.539872,0.823817,-0.0411695,0.871273,0.489029,-0.242439,0.969878,0.0225837,-0.379772,0.808405,-0.449629,-0.415357,0.430189,-0.801477,-0.339518,-0.063448,-0.938444,-0.172582,-0.540147,-0.823664,0.0405896,-0.871914,-0.48793,0.400647,-0.8034,0.440413,0.429518,-0.42909,0.79458,0.34373,0.0603351,0.937101,0.165654,0.534623,0.828669,-0.0573748,0.865871,0.496933,-0.0402234,0.871548,0.488632,-0.265206,0.963683,0.0306406,-0.401349,0.801111,-0.443953,-0.429121,0.422651,-0.798242,-0.341502,-0.0685751,-0.937346,-0.162694,-0.540513,-0.825434,0.0591754,-0.867672,-0.493576,0.265206,-0.963683,-0.0306406,0.473037,-0.780236,0.409162,0.469039,-0.421125,0.776269,0.340648,0.0509049,0.93878,0.12009,0.512101,0.850459,-0.134495,0.837062,0.530259,-0.353252,0.933378,0.0631428,-0.474654,0.772942,-0.420942,-0.466048,0.402722,-0.787744,-0.332194,-0.0732444,-0.940336,-0.110752,-0.52736,-0.842341,0.139256,-0.841243,-0.522385,0.352489,-0.933531,-0.0651875,0.618854,-0.702933,0.350566,0.54503,-0.387371,0.743553,0.328654,0.0305185,0.943937,0.0218818,0.44554,0.894986,0.681509,0.690176,-0.243141,0.679983,0.673238,-0.290353,-0.619129,0.689566,-0.375683,-0.531754,0.354717,-0.769005,-0.303751,-0.0695517,-0.950194,0.00167852,-0.472121,-0.881527,0.306406,-0.751732,-0.583941,0.531907,-0.836116,-0.133946,0.805658,-0.520096,0.283486,0.64037,-0.298929,0.70748,0.310007,-0.000305185,0.950713,-0.108371,0.303812,0.946532,0.537706,-0.544939,-0.64333,0.763939,-0.608234,-0.21543,-0.799982,0.506882,-0.321024,-0.609363,0.267037,-0.746513,-0.262093,-0.0378124,-0.964293,0.149327,-0.330119,-0.932035,0.523667,-0.538469,-0.660115,0.91995,-0.293893,-0.259377,0.763878,-0.608173,-0.215857,0.930296,-0.26899,0.249306,0.700064,-0.174627,0.692373,0.286996,-0.0344554,0.957305,-0.208869,0.117008,0.970885,-0.344981,-0.913358,0.216071,-0.441908,-0.894192,0.0715354,-0.666707,0.162542,-0.727348,-0.238655,0.0190435,-0.970885,0.24778,-0.128208,-0.960265,0.670461,-0.242409,-0.701193,0.966277,-0.00946074,-0.257241,0.966704,-0.0438551,0.252022,0.715293,-0.0668355,0.695578,0.275033,-0.0723899,0.958678,-0.244118,-0.0586261,0.967956,-0.703452,-0.0284738,0.710135,-0.95938,0.0454115,-0.27839,-0.922025,0.264565,-0.282479,-0.686972,0.0679342,-0.723472,-0.234687,0.0719932,-0.96939,0.275796,0.0571306,-0.959502,0.71392,0.0274056,-0.699637,0.93466,0.212317,0.285104,0.704703,0.0566729,0.707205,0.293497,-0.113895,0.949126,-0.203894,-0.257759,0.944426,-0.333293,0.875637,0.349467,-0.96411,-0.116916,0.238289,-0.968169,0.009888,0.249977,-0.393445,0.918363,0.0418714,-0.662404,-0.0357372,-0.748283,-0.232795,0.134495,-0.963164,0.252632,0.268807,-0.929441,0.675375,0.334727,-0.657094,0.925108,0.314188,-0.21308,0.786493,0.492172,0.373028,0.63216,0.19422,0.750053,0.316141,-0.153783,0.936155,-0.0896329,-0.468093,0.879086,0.552232,-0.812311,-0.187414,0.73986,0.66512,-0.100803,0.850856,0.497665,-0.16834,0.484146,-0.714896,-0.50444,-0.59978,-0.151097,-0.78573,-0.265511,0.199316,-0.943266,0.133335,0.495529,-0.858272,0.500107,0.666311,-0.553087,0.491745,0.870449,0.0213019,0.739372,0.665395,-0.102756,0.587268,0.655873,0.474227,0.529984,0.270791,0.803583,0.333781,-0.186651,0.923948,0.046083,-0.599567,0.798975,0.705893,-0.575488,-0.412885,-0.588061,-0.639485,-0.495193,-0.519181,-0.235878,-0.821467,-0.312174,0.22483,-0.923002,-0.0251778,0.622883,-0.781884,0.268014,0.858364,-0.437452,0.325877,0.940275,0.0982086,0.451949,0.710288,0.539628,0.458785,0.292337,0.839045,0.34373,-0.204535,0.916501,0.13596,-0.649007,0.748497,-0.257363,-0.853084,0.45381,-0.109775,-0.919828,0.376568,-0.453444,-0.702719,-0.548173,-0.45671,-0.275369,-0.845882,-0.337107,0.22367,-0.914487,-0.1283,0.66097,-0.739311,0.113895,0.922391,-0.36906,0.254311,0.958312,0.130192,0.391217,0.72335,0.568926,0.423902,0.295389,0.856166,0.343333,-0.21189,0.914975,0.170721,-0.663106,0.728751,-0.0480056,-0.936827,0.346446,-0.326334,-0.93997,-0.0994903,-0.391644,-0.721732,-0.570696,-0.423658,-0.29078,-0.857845,-0.341807,0.217719,-0.914182,-0.168493,0.667196,-0.725516,0.0495926,0.937895,-0.343303,0.244118,0.960265,0.135166,0.378857,0.724174,0.576159,0.411939,0.294107,0.862392,0.334727,-0.214362,0.9176,0.168065,-0.665273,0.727409,-0.0434584,-0.938353,0.342875,-0.254036,-0.958464,-0.12949,-0.378368,-0.726127,-0.574053,-0.412061,-0.296945,-0.861385,-0.335276,0.212104,-0.917905,-0.168432,0.664571,-0.727958,0.043733,0.938536,-0.342357,0.380749,0.724326,0.574725,0.407971,0.295907,0.863704,0.325938,-0.211646,0.921384,0.156713,-0.662496,0.732444,-0.0544755,-0.936094,0.347484,-0.243446,-0.960692,-0.133274,-0.251106,-0.959075,-0.130558,-0.380535,-0.725181,-0.573809,-0.408002,-0.296793,-0.863369,-0.32606,0.211249,-0.921415,-0.15659,0.662679,-0.732292,0.251534,0.958831,0.131687,0.369854,0.727622,0.577685,0.40022,0.299631,0.866024,0.323527,-0.208838,0.92288,0.160009,-0.661824,0.732353,-0.0466018,-0.937437,0.344951,-0.240822,-0.961058,-0.135411,-0.37022,-0.726127,-0.579333,-0.400037,-0.296152,-0.867306,-0.32252,0.212867,-0.9223,-0.158696,0.664418,-0.730277,0.0548112,0.936338,-0.346751,0.240761,0.961089,0.135258,0.218451,0.965148,0.143986,0.351085,0.730979,0.585131,0.389935,0.30134,0.870113,0.324503,-0.209204,0.922452,0.171972,-0.664144,0.727531,-0.0268258,-0.941069,0.337046,-0.351451,-0.729576,-0.586627,-0.389843,-0.298166,-0.871242,-0.323649,0.212867,-0.921903,-0.170843,0.666463,-0.725669,0.0274972,0.941588,-0.335551,0.0473952,0.938017,-0.343242,0.332987,0.733818,0.59209,0.380322,0.302927,0.873806,0.325938,-0.209357,0.921903,0.184088,-0.665975,0.722861,-0.00729392,-0.944121,0.329478,-0.218513,-0.965087,-0.144169,-0.196814,-0.968474,-0.152654,-0.333384,-0.732322,-0.593707,-0.380291,-0.299539,-0.874966,-0.325144,0.213172,-0.921293,-0.182989,0.668386,-0.720908,0.196722,0.968535,0.152348,0.31315,0.736503,0.599536,0.370006,0.304514,0.877682,0.327891,-0.209296,0.921201,0.197821,-0.667562,0.717765,0.0144658,-0.946867,0.321238,-0.172857,-0.971526,-0.16187,-0.313669,-0.734733,-0.601428,-0.370067,-0.300577,-0.879025,-0.327097,0.213721,-0.920469,-0.196661,0.670309,-0.715506,0.00793481,0.944639,-0.327982,-0.0137333,0.947447,-0.319559,0.172735,0.971618,0.161504,0.289315,0.739006,0.608356,0.357738,0.306192,0.882168,0.330576,-0.208991,0.920316,0.214698,-0.668844,0.711692,0.0409558,-0.94937,0.311411,-0.143925,-0.974334,-0.172979,-0.290017,-0.736778,-0.610736,-0.357952,-0.301248,-0.883785,-0.329753,0.214545,-0.91934,-0.213355,0.672262,-0.708853,-0.0401013,0.950102,-0.309336,0.143742,0.974456,0.172491,0.258278,0.741203,0.619556,0.341899,0.307932,0.887814,0.334269,-0.208258,0.919156,0.236946,-0.669515,0.70397,0.0756249,-0.951262,0.298868,-0.106204,-0.976531,-0.187231,-0.259346,-0.738182,-0.6227,-0.342418,-0.301279,-0.889889,-0.333445,0.215674,-0.917753,-0.235328,0.674123,-0.700095,-0.0745567,0.952239,-0.29606,0.10593,0.976714,0.186529,0.217231,0.741905,0.634297,0.320688,0.309,0.895321,0.338694,-0.20719,0.917783,0.265877,-0.668996,0.694021,0.12122,-0.951506,0.282693,-0.0563982,-0.976989,-0.205634,-0.218726,-0.738121,-0.638203,-0.321757,-0.300455,-0.897855,-0.338145,0.216803,-0.915738,-0.264107,0.675039,-0.688864,-0.119877,0.952788,-0.278909,0.00512711,0.9747,0.223365,0.0561235,0.977172,0.204871,0.175146,0.739555,0.649861,0.298685,0.307169,0.903531,0.34257,-0.207892,0.916166,0.294656,-0.668233,0.683096,0.167302,-0.949431,0.265633,-0.176489,-0.736534,-0.652943,-0.299875,-0.300302,-0.905454,-0.342509,0.215705,-0.914396,-0.293466,0.673116,-0.678762,-0.166265,0.950499,-0.262459,-0.0351268,0.970702,0.237617,0.141972,0.735954,0.661946,0.28135,0.304697,0.909909,0.345653,-0.208533,0.914884,0.317331,-0.666616,0.674459,0.203619,-0.945952,0.252297,-0.00531022,-0.974578,-0.223914,-0.143101,-0.733604,-0.664296,-0.282479,-0.299448,-0.911313,-0.345866,0.214484,-0.913419,-0.31663,0.670309,-0.671133,-0.202887,0.946745,-0.249947,-0.0667135,0.966277,0.248604,0.116214,0.73217,0.671102,0.268227,0.302408,0.91464,0.348613,-0.208686,0.913724,0.335612,-0.664418,0.667745,0.232368,-0.942015,0.242012,0.0349437,-0.97058,-0.238105,-0.117191,-0.730216,-0.673055,-0.269295,-0.298074,-0.915738,-0.348949,0.213507,-0.912473,-0.335154,0.667379,-0.664998,-0.231819,0.942625,-0.24015,-0.0932646,0.961699,0.257698,0.094821,0.728385,0.678518,0.257729,0.300363,0.918332,0.351787,-0.208411,0.912564,0.351604,-0.661855,0.662038,0.256905,-0.937803,0.233375,0.0664998,-0.966186,-0.249092,-0.0957671,-0.726585,-0.680319,-0.258766,-0.296518,-0.919279,-0.352184,0.212653,-0.911435,-0.351268,0.664388,-0.659658,-0.256478,0.938322,-0.231819,0.0755638,0.724509,0.68508,0.248787,0.298563,0.921384,0.355602,-0.207709,0.911252,0.367138,-0.658773,0.656667,0.279977,-0.933134,0.225379,0.0930815,-0.961577,-0.258248,0.117466,-0.956572,-0.266671,-0.0765709,-0.722648,-0.686911,-0.35612,0.211798,-0.910092,-0.366894,0.661153,-0.654378,-0.279611,0.933592,-0.224036,-0.11774,0.956725,0.265969,0.0558489,0.720145,0.691549,0.240486,0.296976,0.92407,0.360942,-0.206153,0.909513,0.384655,-0.65453,0.650807,0.304941,-0.927335,0.216865,0.143101,-0.95053,-0.275613,-0.0571917,-0.717887,-0.693777,-0.249947,-0.294717,-0.9223,-0.241951,-0.292489,-0.925138,-0.361644,0.210791,-0.90817,-0.384442,0.657155,-0.648305,-0.143498,0.950774,0.274545,-0.165136,0.945067,0.282083,0.0401013,0.715537,0.697378,0.234748,0.294504,0.926328,0.366619,-0.205634,0.907346,0.40025,-0.651021,0.644917,0.326395,-0.921781,0.209174,-0.0409864,-0.714133,-0.698782,-0.235694,-0.291818,-0.926969,-0.367107,0.20838,-0.906522,-0.400159,0.652516,-0.643483,-0.326243,0.921995,-0.208502,-0.304575,0.927763,-0.215552,0.026429,0.711692,0.701956,0.229194,0.293191,0.928159,0.370678,-0.204108,0.906034,0.412885,-0.647114,0.640889,0.344218,-0.916593,0.203375,0.182958,-0.939695,-0.288949,0.16483,-0.944884,-0.282846,-0.0274361,-0.710135,-0.703513,-0.230354,-0.289987,-0.928861,-0.371319,0.207526,-0.904996,-0.412793,0.649129,-0.638905,-0.343913,0.916929,-0.202216,-0.183203,0.939817,0.288339,-0.0139775,0.700736,0.713248,0.209815,0.291879,0.933134,0.378246,-0.195898,0.904721,0.445692,-0.632862,0.633076,0.392651,-0.900021,0.189093,0.232734,-0.922758,-0.307077,0.00967437,-0.694571,-0.719321,-0.215308,-0.279244,-0.935759,-0.381664,0.209449,-0.900235,-0.445845,0.640828,-0.624897,-0.391614,0.901456,-0.184362,-0.233741,0.923307,0.304697,-0.118656,0.656545,0.744865,0.159368,0.277657,0.947356,0.39668,-0.176153,0.900876,0.529801,-0.587085,0.612049,-0.732597,-0.581011,0.354472,-0.780389,-0.595264,0.19129,0.106571,-0.64272,-0.758629,-0.17658,-0.249489,-0.952116,-0.409436,0.206305,-0.888699,-0.532945,0.604907,-0.591632,-0.516739,0.844539,-0.140263,-0.365459,0.863399,0.347789,-0.291116,0.527116,0.798334,0.0752892,0.222877,0.971923,0.423719,-0.140202,0.894833,0.665273,-0.47203,0.578387,-0.724967,0.684988,-0.0720847,-0.583697,0.696219,0.417768,-0.71221,-0.701926,0.00350963,-0.115452,-0.184942,-0.975921,-0.457472,0.180456,-0.870693,-0.678549,0.496292,-0.54149,-0.72512,0.684835,-0.0719016,-0.777673,0.411695,0.475051,-0.583667,0.696219,0.417798,-0.44319,0.303964,0.843287,0.00451674,0.118229,0.99295,0.452986,-0.09888,0.886013,0.554704,0.830775,-0.045259,-0.777764,0.411145,0.475387,-0.05356,-0.0960723,-0.993927,-0.496597,0.122044,-0.85934,-0.807611,0.306772,-0.503586,-0.910703,0.412671,-0.0171819,-0.85641,0.152837,0.493088,-0.502396,0.10062,0.85873,-0.0163274,0.0219733,0.999603,0.476272,-0.0628071,0.877041,0.787652,-0.29255,0.542192,0.845332,-0.131443,0.517777,0.284463,0.950133,-0.127628,0.484115,-0.0979034,-0.869503,0.362285,0.877255,-0.314829,-0.0143132,-0.0168767,-0.999725,-0.504105,0.0678121,-0.860958,-0.857936,0.134068,-0.495895,-0.986267,0.165075,-0.00155644,-0.87051,-0.00894192,0.49205,-0.511551,-0.0246895,0.858852,-0.0167852,-0.0339671,0.999268,0.484237,-0.0342112,0.874233,0.857814,-0.0252388,0.51326,0.986267,-0.164525,0.0134281,0.999878,-0.00933866,0.010712,0.499069,0.0250862,-0.866176,-0.00354015,0.0341502,-0.99939,-0.502396,0.0340281,-0.863948,-0.86581,0.0248421,-0.49968,-0.999939,0.00915555,-0.00421155,-0.503403,-0.166173,0.847896,-0.0198676,-0.0939665,0.995361,0.47145,0.00332652,0.881863,0.842097,0.101138,0.52971,0.330393,-0.943388,-0.0287484,0.293222,-0.93585,-0.195379,0.868191,0.00912503,-0.496109,0.478469,0.163274,-0.862758,-0.0192572,0.0870693,-0.996002,-0.506058,-0.0112003,-0.862392,-0.857265,-0.105991,-0.503769,-0.984802,-0.17307,-0.0141301,-0.855586,-0.195044,0.479476,-0.42906,-0.389386,0.814997,0.00732444,-0.193793,0.980987,0.443709,0.0526444,0.89462,0.770928,0.291391,0.566332,-0.888791,-0.455092,-0.0539872,-0.756981,-0.485031,0.437819,0.41023,-0.830287,-0.377178,-0.0594501,0.166997,-0.98413,-0.489486,-0.0820032,-0.868129,-0.790307,-0.308023,-0.529618,-0.888577,-0.455519,-0.0535905,-0.545366,-0.756645,0.360607,-0.756676,-0.485336,0.437971,-0.264321,-0.599902,0.75512,0.084109,-0.288736,0.953673,0.412244,0.0986663,0.905698,-0.593921,0.734153,0.32899,-0.658315,-0.63863,0.39845,-0.119785,0.25132,-0.960448,-0.44203,-0.139958,-0.885983,-0.646992,-0.491806,-0.582629,-0.68511,-0.717063,-0.128208,-0.337596,-0.896268,0.287576,-0.0989715,-0.707877,0.699332,0.165807,-0.333537,0.928037,0.387982,0.130558,0.912351,0.633656,0.465407,0.617939,0.507736,0.563372,0.651753,0.335948,0.89584,-0.29078,0.411969,0.852138,-0.322642,0.089053,0.696829,-0.711661,-0.756554,0.652547,0.0421461,-0.179937,0.308969,-0.933866,-0.398358,-0.158116,-0.90347,-0.510147,-0.580645,-0.63448,-0.487777,-0.849818,-0.199561,-0.22132,-0.943297,0.247291,-0.00372326,-0.743309,0.668905,0.215064,-0.345622,0.913358,0.377026,0.145085,0.914762,0.438276,0.598346,0.670705,0.489669,0.846004,0.210822,0.38139,0.891385,0.244819,0.000579852,0.739006,-0.673666,-0.219398,0.33549,-0.916105,-0.379803,-0.156896,-0.911649,-0.438337,-0.606037,-0.663747,-0.3802,-0.893246,-0.239845,-0.187017,-0.953307,0.237007,0.0258492,-0.749321,0.661672,0.229804,-0.344371,0.910245,0.37022,0.153417,0.916166,0.409467,0.611011,0.67745,0.336863,0.905576,0.257668,0.220954,0.943175,-0.248115,-0.0417188,0.753227,-0.656392,-0.24601,0.347056,-0.904996,-0.386242,-0.151494,-0.909848,-0.425001,-0.60857,-0.670064,-0.352,-0.901883,-0.250282,0.171667,0.957762,-0.230659]
            },
            "position":{
                "type":"Float32Array",
                "itemSize":3,
                "array":[-0.0012098,0.0777381,0.19152,-0.00028294,0.0777179,0.191704,-0.00099649,0.0779024,0.191973,-7.76197e-05,0.078104,0.191999,-0.000785273,0.078287,0.192266,6.64238e-05,0.0786081,0.192055,-0.000632743,0.0787888,0.192319,0.000110595,0.079095,0.191858,-0.00057977,0.0792735,0.192118,4.30583e-05,0.0794344,0.19146,-0.000640548,0.0796112,0.191718,-0.000798791,0.0797113,0.191225,-0.000118089,0.0795353,0.190968,-0.0010121,0.079547,0.190772,-0.000329669,0.0793706,0.190514,-0.00122331,0.0791624,0.190479,-0.000534988,0.0789844,0.19022,-0.00137584,0.0786606,0.190426,-0.000679031,0.0784804,0.190163,-0.00142882,0.0781759,0.190627,-0.000723203,0.0779934,0.190361,-0.00136804,0.0778382,0.191027,-0.00049452,0.0775532,0.19125,0.000586738,0.0775188,0.191375,0.000782691,0.0779071,0.191673,0.000914371,0.078414,0.191734,0.000946495,0.0789037,0.191542,0.000870455,0.079245,0.191147,0.000706626,0.0793465,0.190656,0.000302952,0.0787927,0.189903,0.000171272,0.0782858,0.189842,0.000139148,0.077796,0.190035,0.000215188,0.0774547,0.190429,-0.000655667,0.077654,0.190758,0.000379018,0.0773532,0.19092,0.00157048,0.0773221,0.191003,0.00175652,0.0777123,0.191305,0.00187523,0.0782218,0.191371,0.00189482,0.0787141,0.191183,0.00181003,0.0790571,0.190792,0.00164358,0.0791591,0.190302,0.000498905,0.0791809,0.190201,0.00144007,0.0789927,0.189845,0.00125404,0.0786025,0.189543,0.00113532,0.0780929,0.189477,0.00111573,0.0776007,0.189665,0.00120053,0.0772576,0.190056,0.00136698,0.0771556,0.190546,0.00263277,0.0771431,0.190601,0.00280732,0.0775352,0.190908,0.00291112,0.0780473,0.190979,0.00291635,0.0785419,0.190796,0.00282161,0.0788867,0.190409,0.00265229,0.0789891,0.18992,0.00245375,0.0788219,0.189461,0.00227919,0.0784297,0.189155,0.00217539,0.0779177,0.189084,0.00217016,0.077423,0.189266,0.0022649,0.0770783,0.189654,0.00243423,0.0769758,0.190143,0.00373809,0.0769975,0.190184,0.00389854,0.0773916,0.190495,0.00398408,0.077906,0.190574,0.00397178,0.078403,0.190398,0.00386494,0.0787493,0.190015,0.00369219,0.0788522,0.189527,0.00349982,0.0786842,0.189066,0.00333937,0.0782901,0.188755,0.00325383,0.0777757,0.188676,0.00326613,0.0772787,0.188852,0.00337297,0.0769324,0.189235,0.00354572,0.0768295,0.189723,0.0048518,0.0769016,0.189764,0.00499402,0.0772972,0.190082,0.005056,0.0778137,0.190169,0.00502114,0.0783126,0.190002,0.00489877,0.0786603,0.189625,0.00472169,0.0787636,0.189139,0.00453733,0.0785948,0.188675,0.00439511,0.0781992,0.188357,0.00433313,0.0776827,0.188269,0.004368,0.0771838,0.188437,0.00449037,0.0768361,0.188814,0.00466745,0.0767328,0.1893,0.0059374,0.0768724,0.189356,0.00605673,0.0772686,0.189683,0.00608912,0.0777859,0.189781,0.00602591,0.0782855,0.189624,0.00588401,0.0786338,0.189254,0.00570146,0.0787372,0.188771,0.00552718,0.0785682,0.188303,0.00540785,0.0781719,0.187976,0.00537545,0.0776547,0.187878,0.00543867,0.077155,0.188034,0.00558056,0.0768068,0.188404,0.00688023,0.0767529,0.188469,0.00576311,0.0767034,0.188888,0.00704497,0.0769215,0.18894,0.00714247,0.0773168,0.189275,0.00714659,0.0778328,0.189384,0.00705624,0.0783312,0.189238,0.00689562,0.0786786,0.188875,0.00654303,0.0786132,0.187922,0.00644553,0.078218,0.187587,0.00644141,0.077702,0.187478,0.00653176,0.0772035,0.187624,0.00669238,0.0768561,0.187987,0.0080611,0.0768685,0.188026,0.00821882,0.0770364,0.188501,0.0083002,0.0774301,0.188842,0.00828345,0.0779441,0.188959,0.00817304,0.0784406,0.18882,0.00799857,0.0787866,0.188462,0.00670777,0.0787818,0.188393,0.00764906,0.0787215,0.187508,0.00756767,0.0783278,0.187166,0.00758443,0.0778138,0.18705,0.00769484,0.0773173,0.187189,0.00786931,0.0769713,0.187546,0.00926086,0.0770333,0.187578,0.00941324,0.0772005,0.188054,0.00948245,0.0775925,0.1884,0.00944993,0.0781043,0.188522,0.00932441,0.0785987,0.188389,0.00913951,0.0789433,0.188035,0.00780678,0.0788894,0.187982,0.0087924,0.0788785,0.18708,0.0087232,0.0784865,0.186734,0.00875572,0.0779747,0.186612,0.00888124,0.0774803,0.186745,0.00906614,0.0771357,0.187099,0.0104347,0.0772315,0.187139,0.0105827,0.0773979,0.187617,0.0106419,0.0777882,0.187967,0.0105964,0.0782978,0.188094,0.0104585,0.0787902,0.187965,0.0102651,0.0791333,0.187615,0.00894478,0.0790457,0.187556,0.00992003,0.0790689,0.186659,0.00986085,0.0786786,0.186309,0.00990632,0.078169,0.186182,0.0100442,0.0776766,0.186311,0.0102377,0.0773335,0.186661,0.0115366,0.0774477,0.186729,0.0116805,0.0776134,0.187208,0.0117305,0.0780019,0.187561,0.0116733,0.0785092,0.187693,0.0115242,0.0789993,0.187568,0.0113231,0.079341,0.18722,0.010068,0.0792353,0.187137,0.0109801,0.0792769,0.186264,0.01093,0.0788884,0.185911,0.0109872,0.0783811,0.185779,0.0111364,0.077891,0.185903,0.0113375,0.0775493,0.186251,0.0126601,0.0778318,0.186843,0.0127006,0.0782182,0.1872,0.0126311,0.0787227,0.187336,0.0124703,0.0792102,0.187216,0.0122612,0.0795501,0.186871,0.01206,0.0796513,0.186395,0.0111239,0.0794426,0.186743,0.0119204,0.0794866,0.185914,0.01188,0.0791002,0.185557,0.0119495,0.0785956,0.185421,0.0121103,0.0781081,0.185541,0.0123194,0.0777682,0.185886,0.0133276,0.0778717,0.186063,0.0125206,0.0776671,0.186362,0.0134652,0.0780359,0.186545,0.0135002,0.0784209,0.186903,0.0134231,0.0789235,0.187042,0.0132546,0.0794091,0.186925,0.0128366,0.0798482,0.186106,0.012699,0.079684,0.185625,0.012664,0.079299,0.185266,0.0127411,0.0787964,0.185127,0.0129096,0.0783108,0.185244,0.0131242,0.0779723,0.185587,0.0139636,0.078037,0.185824,0.0141033,0.0782017,0.186305,0.0141394,0.078587,0.186663,0.0140622,0.0790896,0.186802,0.0138923,0.0795748,0.186686,0.01304,0.0797476,0.186582,0.0134693,0.0800126,0.185869,0.0133296,0.0798479,0.185388,0.0132935,0.0794626,0.18503,0.0133707,0.07896,0.184891,0.0135406,0.0784748,0.185008,0.0137576,0.0781369,0.185349,0.0146492,0.0783425,0.186096,0.014678,0.0787259,0.186457,0.0145897,0.0792256,0.1866,0.0144078,0.0797077,0.186488,0.0141812,0.0800431,0.18615,0.0136753,0.0799126,0.186344,0.0139705,0.0801418,0.185677,0.0138323,0.0799774,0.185195,0.0138034,0.079594,0.184835,0.0138918,0.0790943,0.184691,0.0140736,0.0786121,0.184803,0.0143003,0.0782768,0.185141,0.0145109,0.0781781,0.185614,0.0151438,0.0784996,0.185904,0.0151373,0.0788718,0.186279,0.0150031,0.079357,0.18644,0.0147771,0.0798251,0.186345,0.0145199,0.0801507,0.186019,0.0143004,0.0802466,0.185549,0.0141775,0.080087,0.185062,0.0141839,0.0797148,0.184687,0.0143182,0.0792296,0.184526,0.0145441,0.0787615,0.184621,0.0148013,0.0784359,0.184947,0.0150208,0.07834,0.185417,0.0156164,0.0787341,0.185724,0.0155334,0.0790685,0.186128,0.0153026,0.0795058,0.186326,0.0149859,0.0799289,0.186265,0.0146681,0.0802244,0.185962,0.0144344,0.0803131,0.185498,0.0143473,0.0801712,0.184997,0.0144303,0.0798369,0.184593,0.014661,0.0793995,0.184395,0.0149778,0.0789765,0.184456,0.0152956,0.078681,0.184759,0.0155293,0.0785923,0.185223,0.0160404,0.0791305,0.185573,0.0158555,0.0793697,0.186013,0.0154976,0.0796883,0.186256,0.0150627,0.080001,0.186237,0.0146673,0.0802238,0.185962,0.0144173,0.0802972,0.185503,0.0143798,0.0802015,0.184985,0.0145647,0.0799622,0.184545,0.0149225,0.0796436,0.184302,0.0153574,0.079331,0.18432,0.0157528,0.0791081,0.184596,0.0163004,0.0796577,0.184973,0.0160028,0.0790347,0.185054,0.0163053,0.0796853,0.1855,0.0160545,0.0797867,0.185958,0.0156152,0.0799349,0.186224,0.0151051,0.08009,0.186226,0.0146609,0.0802106,0.185964,0.0144016,0.0802643,0.185508,0.0146475,0.0801353,0.184522,0.0150868,0.0799872,0.184256,0.0155969,0.079832,0.184255,0.0160411,0.0797114,0.184517,0.0164028,0.0803558,0.184982,0.0163984,0.0803204,0.185509,0.0161292,0.0802971,0.185965,0.0156674,0.0802922,0.186229,0.0151367,0.080307,0.186229,0.0146793,0.0803375,0.185965,0.0144223,0.080411,0.184982,0.0143967,0.0802367,0.18498,0.0146914,0.0804343,0.184526,0.0151532,0.0804392,0.184263,0.0156839,0.0804244,0.184263,0.0161413,0.0803939,0.184526,0.0163379,0.0809845,0.18559,0.0160818,0.0808178,0.186029,0.0156361,0.0806371,0.186271,0.0151201,0.080491,0.186251,0.014672,0.0804184,0.185975,0.0144121,0.0804389,0.185517,0.0144178,0.0803755,0.185509,0.0144098,0.0805471,0.184999,0.0146659,0.0807138,0.18456,0.0151116,0.0808945,0.184318,0.0156277,0.0810407,0.184338,0.0160757,0.0811132,0.184613,0.0163356,0.0810927,0.185072,0.0160389,0.0815565,0.185768,0.0158639,0.0812351,0.186159,0.015518,0.0808637,0.186341,0.0150939,0.0805416,0.186267,0.0147053,0.0803553,0.185956,0.0144563,0.0803546,0.185491,0.0144121,0.0804389,0.185517,0.0144135,0.0805398,0.184997,0.0145885,0.0808611,0.184606,0.0149344,0.0812326,0.184424,0.0153585,0.0815546,0.184498,0.0157471,0.0817409,0.184809,0.015477,0.0821364,0.185531,0.0159962,0.0817416,0.185274,0.0155732,0.0819107,0.185999,0.0155082,0.0815059,0.186335,0.0152994,0.0810303,0.18645,0.0150026,0.0806114,0.186312,0.0144658,0.0803474,0.185486,0.0143695,0.080573,0.185019,0.0144345,0.0809779,0.184683,0.0146434,0.0814535,0.184568,0.0149401,0.0818723,0.184705,0.0152452,0.0821223,0.185058,0.014946,0.0823358,0.185772,0.0150747,0.0820981,0.186225,0.0150798,0.081667,0.186529,0.0149599,0.081158,0.186604,0.0147471,0.0807076,0.186429,0.0146975,0.0803614,0.18596,0.0144984,0.0804363,0.18605,0.0141518,0.0806547,0.185118,0.0141467,0.0810857,0.184813,0.0142666,0.0815947,0.184739,0.0144794,0.0820452,0.184914,0.0147281,0.0823164,0.185292,0.0144148,0.0824571,0.186001,0.0145545,0.0822169,0.186449,0.0145875,0.0817795,0.186741,0.0145047,0.0812621,0.1868,0.0143285,0.0808032,0.186609,0.014106,0.080526,0.18622,0.0142805,0.0804169,0.185571,0.0137571,0.0807447,0.185288,0.0137242,0.0811821,0.184996,0.0138069,0.0816996,0.184937,0.0139831,0.0821584,0.185128,0.0142056,0.0824357,0.185517,0.0138513,0.0825628,0.186235,0.0139886,0.0823231,0.186684,0.0140227,0.0818855,0.186976,0.0139442,0.0813673,0.187033,0.0137744,0.0809072,0.18684,0.0135586,0.0806287,0.186447,0.0138969,0.0805045,0.185736,0.0132174,0.0808459,0.185513,0.0131834,0.0812835,0.18522,0.0132618,0.0818018,0.185164,0.0134317,0.0822618,0.185357,0.0136474,0.0825404,0.185749,0.0133465,0.0824549,0.186944,0.0133744,0.0820186,0.187239,0.0132909,0.0815014,0.187298,0.0131184,0.0810419,0.187105,0.0129031,0.0807632,0.186713,0.0133547,0.0806062,0.185962,0.0127028,0.08074,0.186226,0.0125711,0.0809786,0.185775,0.0125432,0.0814149,0.18548,0.0126267,0.0819321,0.185421,0.0127992,0.0823916,0.185614,0.0132148,0.0826935,0.186493,0.0125546,0.0826205,0.187259,0.0125852,0.0821836,0.187553,0.0125067,0.0816654,0.18761,0.01234,0.0812046,0.187415,0.0121298,0.0809249,0.18702,0.0119324,0.0809012,0.186532,0.0118007,0.0811397,0.186081,0.0117701,0.0815766,0.185787,0.0118487,0.0820949,0.18573,0.0120154,0.0825556,0.185925,0.0130145,0.0826703,0.186006,0.0124229,0.0828591,0.186808,0.0114635,0.0830326,0.187184,0.0115987,0.0827934,0.187634,0.0116381,0.0823549,0.187924,0.011571,0.0818346,0.187976,0.0114155,0.0813718,0.187777,0.0112132,0.0810907,0.18738,0.0108831,0.0813057,0.18644,0.0108438,0.0817442,0.18615,0.0109108,0.0822645,0.186098,0.0110663,0.0827272,0.186297,0.0112686,0.0830084,0.186695,0.0122256,0.0828353,0.186319,0.0105322,0.0829593,0.188047,0.0105802,0.0825195,0.188334,0.0105244,0.0819974,0.188382,0.0103797,0.081533,0.188179,0.010185,0.0812507,0.187778,0.0110184,0.0810665,0.18689,0.00999233,0.0812261,0.187288,0.00985339,0.0814658,0.18684,0.00980539,0.0819057,0.186553,0.00986119,0.0824278,0.186505,0.0100058,0.0828922,0.186708,0.0103932,0.0831991,0.187599,0.00939665,0.0831062,0.188483,0.00945432,0.0826651,0.188766,0.009411,0.0821414,0.18881,0.00927829,0.0816754,0.188602,0.00909176,0.081392,0.188198,0.00890138,0.0813672,0.187707,0.00875816,0.0816075,0.18726,0.00870049,0.0820486,0.186977,0.00874381,0.0825723,0.186934,0.00887652,0.0830383,0.187142,0.0102006,0.0831745,0.187109,0.00906306,0.0833216,0.187546,0.00925344,0.0833465,0.188037,0.00823404,0.0832216,0.188925,0.0083035,0.0827794,0.189204,0.0082753,0.0822542,0.189241,0.00815698,0.0817868,0.189028,0.00798026,0.0815024,0.18862,0.00779248,0.0814773,0.188128,0.00764396,0.0817182,0.187684,0.00757449,0.0821604,0.187405,0.0076027,0.0826856,0.187368,0.00772102,0.083153,0.187581,0.00789774,0.0834374,0.187988,0.00808552,0.0834625,0.18848,0.00708536,0.083293,0.189356,0.00717028,0.0828498,0.189629,0.00716181,0.0823234,0.189659,0.00706222,0.0818548,0.189438,0.00689819,0.0815697,0.189026,0.00671368,0.0815444,0.188533,0.00655813,0.0817856,0.188091,0.00647321,0.0822289,0.187818,0.00648169,0.0827553,0.187788,0.00658128,0.0832238,0.188009,0.0067453,0.083509,0.188421,0.00692981,0.0835343,0.188914,0.00599183,0.083307,0.18976,0.00609703,0.0828635,0.190025,0.00611455,0.0823367,0.190046,0.00603971,0.0818678,0.189816,0.00589256,0.0815825,0.189398,0.00571252,0.0815571,0.188903,0.00554784,0.0817985,0.188464,0.00544264,0.082242,0.188199,0.00542512,0.0827687,0.188178,0.00549996,0.0832376,0.188408,0.00564711,0.083523,0.188826,0.00473136,0.0834927,0.189716,0.00582715,0.0835484,0.189321,0.0049051,0.0832518,0.190151,0.00503086,0.0828094,0.190409,0.00507495,0.082284,0.19042,0.00502554,0.0818164,0.190181,0.00489589,0.0815319,0.189757,0.00454698,0.0817477,0.188825,0.00442122,0.0821901,0.188567,0.00437713,0.0827155,0.188556,0.00442654,0.0831831,0.188795,0.00455619,0.0834676,0.189219,0.0035963,0.0833768,0.190116,0.00377718,0.0831366,0.190549,0.00391916,0.0826958,0.190801,0.0039842,0.0821725,0.190805,0.00395487,0.081707,0.190559,0.00383903,0.0814239,0.19013,0.00472072,0.0815068,0.18926,0.00348684,0.0816394,0.189199,0.00334486,0.0820802,0.188946,0.00327982,0.0826034,0.188943,0.00330915,0.083069,0.189189,0.00342499,0.083352,0.189618,0.00246237,0.0832161,0.19051,0.0026491,0.0829767,0.190941,0.00280398,0.0825378,0.191189,0.00288551,0.0820168,0.191187,0.00287185,0.0815535,0.190935,0.00276665,0.081272,0.190502,0.00366772,0.0813992,0.189632,0.00241138,0.081487,0.189572,0.0022565,0.081926,0.189324,0.00217497,0.0824469,0.189327,0.00218863,0.0829102,0.189578,0.00229383,0.0831918,0.190011,0.0013683,0.0830255,0.190886,0.00156029,0.082787,0.191315,0.00172627,0.08235,0.191559,0.00182176,0.0818315,0.191552,0.00182119,0.0813705,0.191296,0.0017247,0.0810904,0.19086,0.00259811,0.0812476,0.190003,0.00136616,0.0813049,0.189931,0.00120018,0.0817419,0.189687,0.00110468,0.0822604,0.189694,0.00110526,0.0827214,0.18995,0.00120175,0.0830015,0.190386,0.000550929,0.0825818,0.19166,0.000727463,0.0821469,0.1919,0.000835935,0.081631,0.191888,0.000847281,0.0811724,0.191629,0.000758462,0.080894,0.19119,0.00155814,0.0810664,0.19036,0.000593275,0.0808702,0.19069,0.000395982,0.0811076,0.190262,0.000110976,0.0820584,0.190033,9.96292e-05,0.082517,0.190293,0.000188449,0.0827954,0.190732,0.000353636,0.0828192,0.191232,-0.000339007,0.082375,0.191962,-0.00015087,0.0819428,0.192199,-2.85674e-05,0.0814302,0.192182,-4.87175e-06,0.0809745,0.191918,-8.61306e-05,0.0806978,0.191477,-0.000250572,0.0806742,0.190977,-0.000454133,0.0809101,0.190551,0.000219448,0.0815425,0.190022,-0.00064227,0.0813423,0.190315,-0.000764572,0.081855,0.190331,-0.000788268,0.0823107,0.190595,-0.000542569,0.082611,0.191537,-0.0012724,0.0824166,0.191786,-0.00106304,0.0821822,0.192209,-0.000864755,0.0817527,0.192442,-0.000730667,0.0812432,0.192422,-0.000696709,0.0807902,0.192154,-0.000771979,0.0805151,0.191711,-0.00114567,0.080726,0.190787,-0.00134396,0.0811555,0.190554,-0.00147804,0.081665,0.190574,-0.001512,0.082118,0.190842,-0.00143673,0.0823931,0.191285,-0.000707009,0.0825874,0.191037,-0.0016201,0.0820223,0.192399,-0.00141352,0.0815952,0.192629,-0.00126965,0.0810885,0.192606,-0.00122703,0.080638,0.192335,-0.00129709,0.0803644,0.19189,-0.00146106,0.080341,0.19139,-0.00093631,0.0804916,0.19121,-0.001675,0.080574,0.190968,-0.00188158,0.0810011,0.190738,-0.00202545,0.0815078,0.190761,-0.00206807,0.0819584,0.191032,-0.00199801,0.082232,0.191477,-0.00183404,0.0822554,0.191978,-0.00207566,0.0818799,0.192555,-0.00184688,0.0814598,0.192777,-0.00167605,0.0809615,0.192745,-0.00160893,0.0805186,0.192466,-0.00166352,0.0802499,0.192015,-0.00182519,0.0802272,0.191514,-0.00205061,0.0804566,0.191096,-0.00227939,0.0808768,0.190874,-0.00245022,0.0813751,0.190906,-0.00251734,0.0818179,0.191185,-0.00246275,0.0820867,0.191636,-0.00230109,0.0821094,0.192137,-0.0024857,0.0817081,0.192693,-0.00219827,0.0813125,0.192896,-0.00195622,0.0808441,0.192839,-0.00182441,0.0804283,0.192538,-0.00183816,0.0801766,0.192074,-0.00199378,0.0801565,0.191571,-0.00224957,0.0803732,0.191163,-0.002537,0.0807688,0.190961,-0.00277905,0.0812372,0.191017,-0.00291086,0.081653,0.191318,-0.00289712,0.0819046,0.191782,-0.0027415,0.0819248,0.192285,-0.0028745,0.0814318,0.19282,-0.00248777,0.0811068,0.19299,-0.0021251,0.0807241,0.192894,-0.00188367,0.0803862,0.192558,-0.00182817,0.0801837,0.192071,-0.00197347,0.0801709,0.191564,-0.00228065,0.0803511,0.191173,-0.00266738,0.0806761,0.191003,-0.00303005,0.0810589,0.191099,-0.00327148,0.0813967,0.191435,-0.00332698,0.0815992,0.191922,-0.00351353,0.0811226,0.192526,-0.00318167,0.081612,0.192429,-0.00316177,0.0810081,0.192904,-0.00268882,0.0808103,0.193049,-0.00222139,0.0805821,0.192922,-0.00176909,0.0802709,0.192053,-0.0019054,0.0802713,0.191544,-0.00273012,0.0805836,0.191021,-0.00319754,0.0808118,0.191148,-0.00353418,0.0810093,0.191513,-0.00364985,0.081123,0.192017,-0.00365579,0.0805897,0.192555,-0.00328799,0.0805353,0.19293,-0.00278403,0.0804536,0.193069,-0.00227895,0.0803665,0.192934,-0.00188475,0.0803846,0.192558,-0.00190807,0.0802972,0.192563,-0.00190388,0.080277,0.191544,-0.00227168,0.0803313,0.191169,-0.00225716,0.0803858,0.191166,-0.00277564,0.0804131,0.191031,-0.00328072,0.0805002,0.191165,-0.0036516,0.0805694,0.191537,-0.00378888,0.0806022,0.192045,-0.00369287,0.0800677,0.192548,-0.0033223,0.0800515,0.192923,-0.00281317,0.0800422,0.193062,-0.00230191,0.0800422,0.192929,-0.0019255,0.0800514,0.192559,-0.00177079,0.0802645,0.192054,-0.00178481,0.0800674,0.192051,-0.0022881,0.0801021,0.191166,-0.00279723,0.0801115,0.191026,-0.00330849,0.0801115,0.191159,-0.0036849,0.0801023,0.19153,-0.00382559,0.0800862,0.192038,-0.00329569,0.0795514,0.192896,-0.0027911,0.0796276,0.19304,-0.00228522,0.0797287,0.192912,-0.00191359,0.0798277,0.192547,-0.00177579,0.0798981,0.192042,-0.00190875,0.0799209,0.191532,-0.00191753,0.080086,0.191541,-0.00227684,0.0798901,0.191155,-0.00278143,0.0798139,0.19101,-0.00328731,0.0797127,0.191138,-0.00365893,0.0796137,0.191504,-0.00379673,0.0795434,0.192009,-0.00366377,0.0795205,0.192519,-0.00314455,0.0790586,0.192832,-0.00268128,0.0792692,0.192994,-0.00222452,0.0795304,0.192887,-0.00189667,0.0797722,0.19254,-0.00178558,0.07993,0.192046,-0.00192101,0.0799613,0.191538,-0.00226668,0.0798579,0.19115,-0.00272996,0.0796473,0.190989,-0.00318671,0.0793861,0.191095,-0.00351456,0.0791443,0.191442,-0.00362565,0.0789865,0.191936,-0.00311591,0.0784842,0.192308,-0.00349022,0.0789552,0.192445,-0.00282132,0.0786517,0.192714,-0.00245473,0.0789837,0.192911,-0.00211438,0.0793914,0.192847,-0.00184567,0.0800055,0.192068,-0.00198933,0.0800475,0.191563,-0.0026505,0.079548,0.19096,-0.00299086,0.0791404,0.191024,-0.00321379,0.0787664,0.191332,-0.00325956,0.0785262,0.191802,-0.00266159,0.0782032,0.192147,-0.00241487,0.0784001,0.19257,-0.00214183,0.0787899,0.1928,-0.00191562,0.0792682,0.192776,-0.00189144,0.0797654,0.192538,-0.00179687,0.0797067,0.192505,-0.00197167,0.0800367,0.191557,-0.00198933,0.0800475,0.191563,-0.00221839,0.0798397,0.191134,-0.00228392,0.07988,0.191157,-0.00249143,0.0794499,0.190904,-0.00271764,0.0789717,0.190927,-0.00283639,0.0785332,0.191199,-0.00281588,0.0782519,0.191645,-0.00221245,0.0780354,0.191987,-0.00198952,0.0782412,0.192418,-0.00176592,0.0786494,0.192666,-0.00160156,0.0791508,0.192665,-0.00154048,0.0796108,0.192414,-0.00181738,0.079988,0.192059,-0.00159905,0.0799064,0.191981,-0.00198449,0.0797525,0.191051,-0.00220809,0.0793442,0.190803,-0.00237245,0.0788429,0.190804,-0.00243353,0.0783828,0.191055,-0.00237497,0.0780873,0.191488,-0.00173637,0.0778995,0.191814,-0.00151931,0.0781069,0.192247,-0.00131131,0.0785196,0.192501,-0.0011681,0.0790269,0.192507,-0.00112805,0.0794931,0.192264,-0.0012019,0.079793,0.191837,-0.00176156,0.0799582,0.191482,-0.00158691,0.079639,0.190906,-0.00179491,0.0792263,0.190653,-0.00193812,0.078719,0.190646,-0.00197816,0.0782529,0.19089,-0.00190432,0.0779529,0.191317,-0.00136985,0.0798464,0.19134]
            }
        }
    },
    "metadata":{
        "type":"BufferGeometry",
        "normal":674,
        "generator":"io_three",
        "version":3,
        "position":674
    }
}