{
    "data":{
        "index":{
            "type":"Uint16Array",
            "itemSize":1,
            "array":[0,1,2,2,3,4,4,5,6,6,7,8,8,9,10,9,11,10,12,13,11,14,15,13,16,17,15,18,19,17,20,21,19,21,22,0,22,23,1,23,3,1,24,5,3,25,7,5,26,9,7,27,12,9,28,14,12,14,29,16,16,30,18,18,31,20,20,32,33,33,34,22,34,35,23,23,36,24,24,37,25,25,38,26,26,39,27,27,40,28,40,41,28,42,29,41,43,30,29,44,31,30,45,32,31,46,34,32,47,48,35,35,49,36,36,50,37,37,51,38,38,52,39,39,53,40,53,42,40,54,43,42,55,44,43,56,45,44,57,46,45,58,47,46,59,60,48,48,61,49,49,62,50,50,63,51,51,64,52,52,65,53,65,54,53,66,55,54,67,56,55,68,57,56,69,58,57,70,59,58,71,72,60,60,73,61,61,74,62,62,75,63,63,76,64,64,77,65,77,66,65,78,67,66,79,68,67,80,69,68,81,70,69,82,71,70,83,84,72,72,85,73,73,86,74,74,87,75,75,88,76,76,89,77,89,78,77,90,79,78,91,80,79,92,81,80,93,82,81,94,83,82,95,84,96,97,85,84,98,86,85,99,87,86,100,88,87,101,89,88,89,102,90,90,103,91,91,104,92,92,105,93,93,106,94,94,95,96,107,97,95,108,98,97,109,99,98,110,100,99,111,101,100,112,113,101,113,114,102,102,115,103,103,116,104,104,117,105,105,118,106,106,107,95,119,108,107,120,109,108,121,110,109,122,111,110,123,112,111,124,125,112,125,126,114,114,127,115,115,128,116,116,129,117,117,130,118,118,119,107,131,120,119,132,121,120,133,122,121,134,123,122,135,124,123,136,137,124,137,138,126,126,139,127,127,140,128,128,141,129,129,142,130,130,131,119,143,132,131,144,133,132,145,134,133,146,135,134,147,136,135,148,149,136,149,150,138,138,151,139,139,152,140,140,153,141,141,154,142,142,143,131,143,155,144,144,156,145,145,157,146,146,158,147,147,159,148,148,160,161,160,150,161,162,151,150,163,152,151,164,153,152,165,154,153,166,143,154,167,155,168,169,156,155,170,157,156,171,158,157,172,159,158,159,173,160,160,174,162,162,175,163,163,176,164,164,177,165,165,178,166,166,167,168,179,169,167,180,170,169,181,171,170,182,172,171,183,184,172,184,185,173,173,186,174,174,187,175,175,188,176,176,189,177,177,190,178,190,167,178,179,191,180,180,192,181,181,193,182,182,194,183,183,195,196,196,197,185,197,186,185,198,187,186,199,188,187,200,189,188,201,190,189,202,179,190,203,204,191,191,205,192,192,206,193,193,207,194,194,208,195,195,209,197,209,198,197,210,199,198,211,200,199,212,201,200,213,202,201,214,203,202,215,216,204,204,217,205,205,218,206,206,219,207,207,220,208,208,221,209,221,210,209,222,211,210,223,212,211,224,213,212,225,214,213,226,215,214,227,228,216,216,229,217,217,230,218,218,231,219,219,232,220,232,221,220,233,222,221,234,223,222,235,224,223,236,225,224,237,226,225,238,227,226,239,228,240,241,229,228,242,230,229,243,231,230,244,232,231,245,233,232,246,234,233,234,247,235,235,248,236,236,249,237,237,250,238,238,239,240,251,241,239,252,242,241,253,243,242,254,244,243,255,245,244,256,246,245,246,257,258,258,259,247,247,260,248,248,261,249,249,262,250,250,251,239,251,263,252,252,264,253,253,265,254,254,266,255,255,267,256,256,268,269,268,257,269,270,259,257,271,260,259,272,261,260,273,262,261,274,251,262,275,276,263,263,277,264,264,278,265,265,279,266,266,280,267,267,281,282,282,283,270,270,284,271,284,272,271,285,273,272,286,274,273,287,275,274,288,276,289,290,277,276,291,278,277,292,279,278,293,280,279,280,294,281,281,295,283,283,296,284,284,297,285,285,298,286,286,299,287,287,288,289,300,290,288,301,291,290,302,292,291,303,293,292,304,305,293,306,294,305,294,307,295,295,308,296,296,309,297,297,310,298,298,311,299,299,300,288,312,301,300,313,302,301,314,303,302,315,304,303,316,306,304,317,318,306,318,319,307,307,320,308,308,321,309,309,322,310,310,323,311,311,312,300,324,313,312,325,314,313,326,315,314,327,316,315,328,317,316,329,330,317,330,331,319,319,332,320,320,333,321,321,334,322,322,335,323,323,324,312,324,336,325,325,337,326,326,338,327,327,339,328,328,340,329,340,341,329,342,331,341,343,332,331,344,333,332,345,334,333,346,335,334,335,347,324,347,348,336,336,349,337,337,350,338,338,351,339,339,352,340,352,342,340,353,343,342,354,344,343,355,345,344,356,346,345,357,358,346,358,359,347,360,348,359,361,349,348,362,350,349,363,351,350,364,352,351,365,353,352,353,366,354,354,367,355,355,368,356,356,369,357,357,370,371,371,360,359,360,372,361,361,373,362,362,374,363,363,375,364,364,376,365,376,377,365,378,366,377,379,367,366,380,368,367,381,369,368,382,370,369,370,383,360,383,384,372,372,385,373,373,386,374,374,387,375,375,388,376,376,389,378,389,379,378,390,380,379,391,381,380,392,382,381,393,394,382,395,383,394,396,397,384,384,398,385,385,399,386,386,400,387,387,401,388,388,402,389,402,390,389,403,391,390,404,392,391,405,393,392,406,395,393,407,396,395,408,409,397,397,410,398,398,411,399,399,412,400,400,413,401,401,414,402,414,403,402,415,404,403,416,405,404,417,406,405,418,407,406,419,408,407,420,421,409,409,422,410,410,423,411,411,424,412,412,425,413,413,426,414,426,415,414,427,416,415,428,417,416,429,418,417,430,419,418,431,420,419,432,421,433,434,422,421,435,423,422,436,424,423,437,425,424,438,426,425,426,439,427,427,440,428,428,441,429,429,442,430,430,443,431,431,432,433,444,434,432,445,435,434,446,436,435,447,437,436,448,438,437,449,450,438,450,451,439,439,452,440,440,453,441,441,454,442,442,455,443,443,444,432,456,445,444,457,446,445,458,447,446,459,448,447,460,449,448,461,462,449,462,463,451,451,464,452,452,465,453,453,466,454,454,467,455,455,456,444,468,457,456,469,458,457,470,459,458,471,460,459,472,461,460,473,474,461,474,475,463,463,476,464,464,477,465,465,478,466,466,479,467,467,468,456,468,480,469,469,481,470,481,471,470,482,472,471,483,473,472,484,485,473,486,475,485,487,476,475,476,488,477,477,489,478,478,490,479,479,491,468,491,492,480,480,493,481,481,494,482,482,495,483,483,496,484,496,486,484,497,487,486,498,499,487,500,488,499,501,489,488,502,490,489,490,503,491,504,492,503,505,493,492,506,494,493,507,495,494,508,496,495,509,497,496,497,510,498,498,511,500,500,512,501,501,513,502,502,514,515,515,504,503,504,516,505,505,517,506,506,518,507,507,519,508,508,520,509,509,521,522,521,510,522,523,511,510,524,512,511,525,513,512,526,514,513,527,504,514,528,529,516,516,530,517,517,531,518,518,532,519,519,533,520,520,534,521,534,523,521,535,524,523,536,525,524,537,526,525,538,527,526,539,528,527,540,541,529,529,542,530,530,543,531,531,544,532,532,545,533,533,546,534,546,535,534,547,536,535,548,537,536,549,538,537,550,539,538,551,540,539,552,553,541,541,554,542,542,555,543,543,556,544,544,557,545,557,546,545,558,547,546,559,548,547,560,549,548,561,550,549,562,551,550,563,552,551,564,553,565,566,554,553,567,555,554,568,556,555,556,569,557,557,570,558,570,559,558,559,571,560,560,572,561,561,573,562,562,574,563,563,564,565,575,566,564,576,567,566,577,568,567,578,579,568,580,569,579,569,581,570,570,582,583,583,584,571,571,585,572,572,586,573,573,587,574,574,575,564,588,576,575,589,577,576,590,578,577,591,580,578,592,593,580,594,581,593,581,595,582,582,596,584,584,597,585,585,598,586,586,599,587,587,588,575,588,600,589,589,601,590,590,602,591,591,603,592,592,604,594,594,605,606,605,595,606,607,596,595,608,597,596,609,598,597,610,599,598,611,588,599,612,613,600,600,614,601,601,615,602,602,616,603,603,617,604,604,618,605,605,619,607,619,608,607,620,609,608,621,610,609,622,611,610,623,612,611,624,613,625,626,614,613,627,615,614,628,616,615,616,629,617,617,630,618,630,619,618,619,631,620,620,632,621,621,633,622,622,634,623,634,625,623,635,626,624,636,627,626,637,628,627,638,639,628,640,629,639,629,641,642,642,643,644,644,645,631,631,646,632,632,647,633,633,648,634,634,635,624,649,636,635,650,637,636,651,638,637,652,640,638,653,654,640,655,641,654,641,656,643,643,657,645,645,658,646,646,659,647,647,660,648,648,649,635,661,650,649,662,651,650,663,652,651,664,653,652,665,655,653,666,667,655,667,668,656,656,669,657,657,670,658,658,671,659,659,672,660,660,661,649,661,2,662,662,4,663,663,6,664,664,8,665,665,10,666,666,11,673,673,13,668,668,15,669,669,17,670,670,19,671,671,21,672,672,0,661,0,22,1,2,1,3,4,3,5,6,5,7,8,7,9,9,12,11,12,14,13,14,16,15,16,18,17,18,20,19,20,33,21,21,33,22,22,34,23,23,24,3,24,25,5,25,26,7,26,27,9,27,28,12,28,41,14,14,41,29,16,29,30,18,30,31,20,31,32,33,32,34,34,47,35,23,35,36,24,36,37,25,37,38,26,38,39,27,39,40,40,42,41,42,43,29,43,44,30,44,45,31,45,46,32,46,47,34,47,59,48,35,48,49,36,49,50,37,50,51,38,51,52,39,52,53,53,54,42,54,55,43,55,56,44,56,57,45,57,58,46,58,59,47,59,71,60,48,60,61,49,61,62,50,62,63,51,63,64,52,64,65,65,66,54,66,67,55,67,68,56,68,69,57,69,70,58,70,71,59,71,83,72,60,72,73,61,73,74,62,74,75,63,75,76,64,76,77,77,78,66,78,79,67,79,80,68,80,81,69,81,82,70,82,83,71,83,96,84,72,84,85,73,85,86,74,86,87,75,87,88,76,88,89,89,90,78,90,91,79,91,92,80,92,93,81,93,94,82,94,96,83,95,97,84,97,98,85,98,99,86,99,100,87,100,101,88,101,113,89,89,113,102,90,102,103,91,103,104,92,104,105,93,105,106,94,106,95,107,108,97,108,109,98,109,110,99,110,111,100,111,112,101,112,125,113,113,125,114,102,114,115,103,115,116,104,116,117,105,117,118,106,118,107,119,120,108,120,121,109,121,122,110,122,123,111,123,124,112,124,137,125,125,137,126,114,126,127,115,127,128,116,128,129,117,129,130,118,130,119,131,132,120,132,133,121,133,134,122,134,135,123,135,136,124,136,149,137,137,149,138,126,138,139,127,139,140,128,140,141,129,141,142,130,142,131,143,144,132,144,145,133,145,146,134,146,147,135,147,148,136,148,161,149,149,161,150,138,150,151,139,151,152,140,152,153,141,153,154,142,154,143,143,168,155,144,155,156,145,156,157,146,157,158,147,158,159,148,159,160,160,162,150,162,163,151,163,164,152,164,165,153,165,166,154,166,168,143,167,169,155,169,170,156,170,171,157,171,172,158,172,184,159,159,184,173,160,173,174,162,174,175,163,175,176,164,176,177,165,177,178,166,178,167,179,180,169,180,181,170,181,182,171,182,183,172,183,196,184,184,196,185,173,185,186,174,186,187,175,187,188,176,188,189,177,189,190,190,179,167,179,203,191,180,191,192,181,192,193,182,193,194,183,194,195,196,195,197,197,198,186,198,199,187,199,200,188,200,201,189,201,202,190,202,203,179,203,215,204,191,204,205,192,205,206,193,206,207,194,207,208,195,208,209,209,210,198,210,211,199,211,212,200,212,213,201,213,214,202,214,215,203,215,227,216,204,216,217,205,217,218,206,218,219,207,219,220,208,220,221,221,222,210,222,223,211,223,224,212,224,225,213,225,226,214,226,227,215,227,240,228,216,228,229,217,229,230,218,230,231,219,231,232,232,233,221,233,234,222,234,235,223,235,236,224,236,237,225,237,238,226,238,240,227,239,241,228,241,242,229,242,243,230,243,244,231,244,245,232,245,246,233,246,258,234,234,258,247,235,247,248,236,248,249,237,249,250,238,250,239,251,252,241,252,253,242,253,254,243,254,255,244,255,256,245,256,269,246,246,269,257,258,257,259,247,259,260,248,260,261,249,261,262,250,262,251,251,275,263,252,263,264,253,264,265,254,265,266,255,266,267,256,267,268,268,270,257,270,271,259,271,272,260,272,273,261,273,274,262,274,275,251,275,289,276,263,276,277,264,277,278,265,278,279,266,279,280,267,280,281,282,281,283,270,283,284,284,285,272,285,286,273,286,287,274,287,289,275,288,290,276,290,291,277,291,292,278,292,293,279,293,305,280,280,305,294,281,294,295,283,295,296,284,296,297,285,297,298,286,298,299,287,299,288,300,301,290,301,302,291,302,303,292,303,304,293,304,306,305,306,318,294,294,318,307,295,307,308,296,308,309,297,309,310,298,310,311,299,311,300,312,313,301,313,314,302,314,315,303,315,316,304,316,317,306,317,330,318,318,330,319,307,319,320,308,320,321,309,321,322,310,322,323,311,323,312,324,325,313,325,326,314,326,327,315,327,328,316,328,329,317,329,341,330,330,341,331,319,331,332,320,332,333,321,333,334,322,334,335,323,335,324,324,347,336,325,336,337,326,337,338,327,338,339,328,339,340,340,342,341,342,343,331,343,344,332,344,345,333,345,346,334,346,358,335,335,358,347,347,359,348,336,348,349,337,349,350,338,350,351,339,351,352,352,353,342,353,354,343,354,355,344,355,356,345,356,357,346,357,371,358,358,371,359,360,361,348,361,362,349,362,363,350,363,364,351,364,365,352,365,377,353,353,377,366,354,366,367,355,367,368,356,368,369,357,369,370,371,370,360,360,383,372,361,372,373,362,373,374,363,374,375,364,375,376,376,378,377,378,379,366,379,380,367,380,381,368,381,382,369,382,394,370,370,394,383,383,396,384,372,384,385,373,385,386,374,386,387,375,387,388,376,388,389,389,390,379,390,391,380,391,392,381,392,393,382,393,395,394,395,396,383,396,408,397,384,397,398,385,398,399,386,399,400,387,400,401,388,401,402,402,403,390,403,404,391,404,405,392,405,406,393,406,407,395,407,408,396,408,420,409,397,409,410,398,410,411,399,411,412,400,412,413,401,413,414,414,415,403,415,416,404,416,417,405,417,418,406,418,419,407,419,420,408,420,433,421,409,421,422,410,422,423,411,423,424,412,424,425,413,425,426,426,427,415,427,428,416,428,429,417,429,430,418,430,431,419,431,433,420,432,434,421,434,435,422,435,436,423,436,437,424,437,438,425,438,450,426,426,450,439,427,439,440,428,440,441,429,441,442,430,442,443,431,443,432,444,445,434,445,446,435,446,447,436,447,448,437,448,449,438,449,462,450,450,462,451,439,451,452,440,452,453,441,453,454,442,454,455,443,455,444,456,457,445,457,458,446,458,459,447,459,460,448,460,461,449,461,474,462,462,474,463,451,463,464,452,464,465,453,465,466,454,466,467,455,467,456,468,469,457,469,470,458,470,471,459,471,472,460,472,473,461,473,485,474,474,485,475,463,475,476,464,476,477,465,477,478,466,478,479,467,479,468,468,491,480,469,480,481,481,482,471,482,483,472,483,484,473,484,486,485,486,487,475,487,499,476,476,499,488,477,488,489,478,489,490,479,490,491,491,503,492,480,492,493,481,493,494,482,494,495,483,495,496,496,497,486,497,498,487,498,500,499,500,501,488,501,502,489,502,515,490,490,515,503,504,505,492,505,506,493,506,507,494,507,508,495,508,509,496,509,522,497,497,522,510,498,510,511,500,511,512,501,512,513,502,513,514,515,514,504,504,528,516,505,516,517,506,517,518,507,518,519,508,519,520,509,520,521,521,523,510,523,524,511,524,525,512,525,526,513,526,527,514,527,528,504,528,540,529,516,529,530,517,530,531,518,531,532,519,532,533,520,533,534,534,535,523,535,536,524,536,537,525,537,538,526,538,539,527,539,540,528,540,552,541,529,541,542,530,542,543,531,543,544,532,544,545,533,545,546,546,547,535,547,548,536,548,549,537,549,550,538,550,551,539,551,552,540,552,565,553,541,553,554,542,554,555,543,555,556,544,556,557,557,558,546,558,559,547,559,560,548,560,561,549,561,562,550,562,563,551,563,565,552,564,566,553,566,567,554,567,568,555,568,579,556,556,579,569,557,569,570,570,583,559,559,583,571,560,571,572,561,572,573,562,573,574,563,574,564,575,576,566,576,577,567,577,578,568,578,580,579,580,593,569,569,593,581,570,581,582,583,582,584,571,584,585,572,585,586,573,586,587,574,587,575,588,589,576,589,590,577,590,591,578,591,592,580,592,594,593,594,606,581,581,606,595,582,595,596,584,596,597,585,597,598,586,598,599,587,599,588,588,612,600,589,600,601,590,601,602,591,602,603,592,603,604,594,604,605,605,607,595,607,608,596,608,609,597,609,610,598,610,611,599,611,612,588,612,625,613,600,613,614,601,614,615,602,615,616,603,616,617,604,617,618,605,618,619,619,620,608,620,621,609,621,622,610,622,623,611,623,625,612,624,626,613,626,627,614,627,628,615,628,639,616,616,639,629,617,629,630,630,644,619,619,644,631,620,631,632,621,632,633,622,633,634,634,624,625,635,636,626,636,637,627,637,638,628,638,640,639,640,654,629,629,654,641,642,641,643,644,643,645,631,645,646,632,646,647,633,647,648,634,648,635,649,650,636,650,651,637,651,652,638,652,653,640,653,655,654,655,667,641,641,667,656,643,656,657,645,657,658,646,658,659,647,659,660,648,660,649,661,662,650,662,663,651,663,664,652,664,665,653,665,666,655,666,673,667,667,673,668,656,668,669,657,669,670,658,670,671,659,671,672,660,672,661,661,0,2,662,2,4,663,4,6,664,6,8,665,8,10,666,10,11,673,11,13,668,13,15,669,15,17,670,17,19,671,19,21,672,21,0]
        },
        "attributes":{
            "normal":{
                "type":"Float32Array",
                "itemSize":3,
                "array":[-0.94583,0.324595,0.00323496,-0.743217,0.497909,0.446822,-0.741111,0.504746,0.44264,-0.339305,0.546403,0.765679,-0.338847,0.548021,0.764733,0.155675,0.448714,0.879971,0.153539,0.442701,0.883389,0.609485,0.230659,0.758476,0.604358,0.216895,0.766594,0.89996,-0.0495621,0.433119,0.892666,-0.0690329,0.445357,0.940947,-0.338481,0.00561541,0.948485,-0.31663,-0.0089114,0.735954,-0.519059,-0.434645,0.741813,-0.498459,-0.448561,0.332804,-0.562151,-0.757073,0.335826,-0.54619,-0.767357,-0.160161,-0.456374,-0.87524,-0.159856,-0.44734,-0.87994,-0.610767,-0.230171,-0.757591,-0.612262,-0.228828,-0.756798,-0.89819,0.0556352,-0.436018,-0.948515,0.316538,0.00875881,-0.749016,0.479385,0.457289,-0.342479,0.536302,0.771386,0.156072,0.449721,0.879391,0.613239,0.2425,0.751732,0.906095,-0.0299997,0.421979,0.955351,-0.294626,-0.021424,0.339,-0.536149,-0.773034,-0.160131,-0.448469,-0.879299,-0.615925,-0.240791,-0.750084,-0.906735,0.0310373,-0.420484,-0.900662,0.0506607,-0.431532,-0.955382,0.294534,0.0212104,-0.754479,0.460097,0.468001,-0.3455,0.525956,0.777123,0.156224,0.451186,0.878628,0.616657,0.255348,0.744621,0.911832,-0.00927763,0.410382,0.961791,-0.271584,-0.0344249,0.747581,-0.479965,-0.458998,0.752861,-0.460768,-0.469955,0.341655,-0.525925,-0.778863,-0.160741,-0.449904,-0.878475,-0.619587,-0.253548,-0.742821,-0.912534,0.0103763,-0.408795,-0.961821,0.271432,0.0341197,-0.760002,0.437941,0.480148,-0.348704,0.514267,0.783502,0.156285,0.453108,0.877621,0.620014,0.270363,0.736503,0.9176,0.0147099,0.397198,0.96823,-0.245033,-0.0492874,0.758049,-0.438795,-0.482467,0.344096,-0.514328,-0.785516,-0.161657,-0.451735,-0.877346,-0.623493,-0.26838,-0.734275,-0.918424,-0.0134892,-0.395306,-0.968291,0.24485,0.0489212,-0.765679,0.41081,0.494888,-0.352092,0.500015,0.791162,0.156102,0.455672,0.876339,0.62328,0.289041,0.726585,0.92346,0.0443434,0.381085,0.974822,-0.21247,-0.0674459,0.763237,-0.411939,-0.497696,0.346324,-0.50029,-0.793542,-0.162816,-0.454207,-0.875881,-0.627644,-0.28666,-0.723777,-0.924497,-0.042848,-0.378735,-0.974914,0.212226,0.0669271,-0.771325,0.375774,0.513627,-0.355754,0.481674,0.800867,0.155492,0.45909,0.87466,0.626148,0.313273,0.713981,0.929044,0.0827662,0.360546,0.98117,-0.170354,-0.090701,0.768059,-0.377392,-0.517319,0.348094,-0.482345,-0.803827,-0.164403,-0.457533,-0.873836,-0.631916,-0.310465,-0.710105,-0.930418,-0.080874,-0.357433,-0.981292,0.170019,0.0900296,-0.775475,0.331553,0.537248,-0.358531,0.458419,0.813166,0.154912,0.463149,0.872616,0.628132,0.343669,0.69808,0.933103,0.131138,0.334788,0.98587,-0.117161,-0.119663,0.771538,-0.333689,-0.541581,0.349254,-0.4597,-0.816462,-0.165685,-0.461867,-0.871303,-0.635151,-0.340648,-0.693197,-0.934782,-0.128971,-0.330912,-0.986999,0.0656148,0.146519,-0.985992,0.116764,0.1189,-0.775903,0.289346,0.560533,-0.357891,0.436201,0.825587,0.156346,0.46672,0.870449,0.629658,0.372112,0.681906,0.934294,0.177099,0.309366,0.772942,-0.291086,-0.563707,0.350963,-0.437513,-0.827876,-0.164434,-0.466201,-0.869228,-0.634938,-0.370128,-0.678091,-0.935545,-0.175542,-0.306436,-0.985595,0.0276193,0.166784,-0.774377,0.258034,0.577685,-0.356395,0.419752,0.834712,0.157323,0.469405,0.868831,0.629658,0.3932,0.669973,0.933195,0.211188,0.290689,0.986908,-0.0658895,-0.147038,0.77224,-0.259377,-0.579943,0.351329,-0.420881,-0.836299,-0.163244,-0.469222,-0.867824,-0.633473,-0.391949,-0.667104,-0.934111,-0.21012,-0.288491,-0.983276,-0.00112918,0.182012,-0.772271,0.234321,0.590472,-0.3549,0.407361,0.841456,0.157781,0.471572,0.86758,0.628773,0.409375,0.661061,0.931211,0.237129,0.276681,0.985504,-0.0278329,-0.16718,0.770562,-0.23542,-0.592273,0.350902,-0.408368,-0.842647,-0.162481,-0.471572,-0.866695,-0.631794,-0.40846,-0.658742,-0.931944,-0.236274,-0.275002,-0.98059,-0.0248115,0.194403,-0.769951,0.21482,0.600818,-0.353465,0.397198,0.846889,0.157903,0.473434,0.866543,0.627461,0.422773,0.653829,0.928831,0.258522,0.265297,0.983215,0.000946074,-0.182318,0.768456,-0.215796,-0.602374,0.349986,-0.398144,-0.847896,-0.161931,-0.473525,-0.865749,-0.630055,-0.422071,-0.651814,-0.929441,-0.25782,-0.263833,-0.977508,-0.0463271,0.205664,-0.767388,0.197119,0.610096,-0.352092,0.388043,0.851711,0.15772,0.475265,0.865566,0.625721,0.435133,0.647359,0.926054,0.278085,0.255074,0.980529,0.024659,-0.194708,0.765954,-0.198126,-0.61156,0.348766,-0.38905,-0.852626,-0.161565,-0.475448,-0.864772,-0.628224,-0.434462,-0.645375,-0.926633,-0.277413,-0.25367,-0.764336,0.178594,0.619556,-0.350688,0.378521,0.856563,0.157079,0.477309,0.864559,0.62331,0.448225,0.640736,0.922483,0.298654,0.244514,0.973601,0.0686666,-0.217658,0.977447,0.0461745,-0.206,0.762688,-0.179785,-0.621235,0.346904,-0.379742,-0.85757,-0.161473,-0.477645,-0.863552,-0.626148,-0.447584,-0.638417,-0.923154,-0.297952,-0.242866,-0.970763,-0.0829798,0.225135,-0.973662,-0.0688803,0.217292,-0.761071,0.166662,0.62685,-0.347636,0.371715,0.860775,0.158879,0.477248,0.864254,0.623005,0.455,0.636219,0.970855,0.083224,-0.224677,0.761071,-0.166662,-0.62685,0.347179,-0.371868,-0.860897,-0.159734,-0.477371,-0.86404,-0.623768,-0.454848,-0.635578,-0.920591,-0.310465,-0.236854,-0.970397,-0.0843532,0.226203,-0.759972,0.163335,0.629048,-0.34608,0.36726,0.863308,0.160375,0.472793,0.866421,0.62392,0.451796,0.637623,0.920255,0.3108,0.237648,0.97058,0.084933,-0.225196,0.760735,-0.162786,-0.628285,0.346843,-0.366985,-0.863124,-0.16007,-0.472762,-0.866512,-0.624134,-0.451735,-0.63744,-0.920774,-0.309519,-0.237373,-0.757103,0.141697,0.637715,-0.346721,0.352367,0.869228,0.156774,0.469253,0.869015,0.619312,0.460555,0.635853,0.916013,0.32786,0.231025,0.920469,0.309854,0.238105,0.965728,0.106479,-0.236671,0.754479,-0.143681,-0.64037,0.339946,-0.354808,-0.870907,-0.165014,-0.470168,-0.867,-0.624897,-0.459548,-0.631092,-0.917478,-0.326365,-0.227302,-0.965728,-0.106479,0.236641,-0.738792,0.0685751,0.6704,-0.341502,0.31196,0.886563,0.147649,0.473556,0.868282,0.600116,0.508866,0.617145,0.892392,0.406232,0.196326,0.940703,0.191504,-0.279946,0.730277,-0.0756554,-0.678915,0.32194,-0.320811,-0.890713,-0.170171,-0.478072,-0.86166,-0.614582,-0.507553,-0.603839,-0.895779,-0.403027,-0.187414,-0.941069,-0.192511,0.278024,-0.670919,-0.07828,0.737358,-0.312998,0.234352,0.920377,0.128208,0.487197,0.863796,0.540483,0.612934,0.576312,0.71514,-0.672781,0.18952,0.625538,-0.727103,0.282785,0.654927,0.0608844,-0.753197,0.277413,-0.259041,-0.925138,-0.168096,-0.504471,-0.846889,-0.565905,-0.615894,-0.548051,-0.816492,-0.567339,-0.106998,-0.854915,-0.371014,0.362529,-0.499832,-0.26841,0.82345,-0.230628,0.136448,0.963408,0.0985748,0.50734,0.856075,0.407544,0.750572,0.520096,-0.623859,-0.781518,0.002472,-0.641438,-0.605945,0.470473,0.482681,0.237922,-0.84283,0.194067,-0.182989,-0.963744,-0.138829,-0.545396,-0.826563,-0.432936,-0.764122,-0.478133,-0.616718,-0.787133,-0.00567644,-0.336589,-0.770806,0.540819,-0.641407,-0.606159,0.470229,-0.256233,-0.399518,0.880154,-0.109806,0.07416,0.99115,0.0657369,0.530595,0.845058,0.226478,0.852443,0.471145,-0.878414,0.473678,-0.0628071,-0.873104,0.427992,-0.233345,0.0933256,-0.121189,-0.98822,-0.0834071,-0.571093,-0.816614,-0.237098,-0.868954,-0.434339,-0.329539,-0.942167,0.0605487,-0.0545061,-0.826472,0.56032,-0.0328074,-0.442579,0.896115,-0.00259407,0.0564592,0.998383,0.0284433,0.543107,0.839167,0.0522172,0.889859,0.45323,0.0619831,0.996033,-0.0636006,0.031373,0.417951,-0.907926,0.248268,0.369732,-0.895321,9.15555e-05,-0.0960417,-0.995361,-0.0306711,-0.577532,-0.81576,-0.0533158,-0.904202,-0.42375,-0.0619526,-0.994995,0.07828,0.225929,-0.420881,0.878506,0.121586,0.0604877,0.990722,-0.0141606,0.527665,0.8493,-0.148869,0.864589,0.479873,0.914365,0.397992,-0.0742515,-0.0736106,0.822748,-0.563555,0.0541093,0.82223,-0.566546,0.92407,0.208167,-0.320475,-0.106021,-0.121006,-0.986969,0.0320444,-0.580004,-0.813959,0.160772,-0.886441,-0.433973,0.248787,-0.966735,0.0589007,0.272713,-0.796838,0.539079,0.516343,-0.284158,0.807825,0.26429,0.127262,0.955992,-0.0556352,0.506851,0.860225,-0.366985,0.76046,0.535722,-0.837916,-0.42555,0.341685,0.637043,-0.6245,0.451796,0.461379,-0.731864,0.501419,-0.775536,-0.626514,0.0771813,-0.225898,-0.179296,-0.957488,0.0992462,-0.54973,-0.829402,0.395978,-0.776177,-0.490616,0.59273,-0.804987,-0.0245064,0.858821,-0.389111,0.33314,0.637104,-0.625355,0.450575,0.693594,-0.0929289,0.714316,0.348003,0.227241,0.909513,-0.0899991,0.489273,0.867458,-0.509018,0.623707,0.593188,-0.628742,-0.720725,0.291879,-0.679403,0.0763573,-0.729728,-0.31547,-0.251015,-0.915098,0.127598,-0.506302,-0.85284,0.533647,-0.62682,-0.567675,0.800348,-0.584094,-0.135044,0.939543,-0.229163,0.254372,0.757164,0.0397351,0.651997,0.374554,0.298502,0.877834,-0.108737,0.478774,0.871151,-0.565203,0.53148,0.630879,-0.793481,0.588855,0.1536,-0.870907,0.440321,0.218177,-0.750542,-0.0458388,-0.659169,-0.358501,-0.306528,-0.881741,0.127812,-0.483444,-0.865963,0.578021,-0.530808,-0.619739,0.874172,-0.437666,-0.210273,0.962218,-0.159917,0.220252,0.774468,0.100314,0.624592,0.380139,0.333964,0.862484,-0.116153,0.478652,0.870266,-0.582018,0.495224,0.644948,-0.892178,0.378826,0.245888,-0.93936,0.228492,-0.255623,-0.773034,-0.101505,-0.626148,-0.375683,-0.335765,-0.863765,0.122044,-0.479568,-0.868954,0.586444,-0.494705,-0.641316,0.893551,-0.377606,-0.242744,0.964873,-0.149693,0.215766,0.776299,0.113773,0.619983,0.379742,0.346599,0.857692,-0.118198,0.486435,0.865658,-0.584277,0.4962,0.64214,-0.894162,0.373302,0.247078,-0.96231,0.160283,-0.219672,-0.778008,-0.112339,-0.618091,-0.382427,-0.34547,-0.856929,0.11594,-0.486099,-0.866146,0.583514,-0.496292,-0.64275,0.894375,-0.373119,-0.24659,0.776238,0.111454,0.620472,0.381726,0.350017,0.855403,-0.114933,0.494797,0.861354,-0.580767,0.507157,0.636769,-0.891201,0.38377,0.241707,-0.965117,0.15067,-0.213996,-0.963103,0.157598,-0.218085,-0.777001,-0.110813,-0.619648,-0.38258,-0.34962,-0.85519,0.114536,-0.494766,-0.861415,0.580981,-0.507157,-0.636555,0.962951,-0.156987,0.219153,0.780023,0.120518,0.614002,0.385815,0.356456,0.850887,-0.111911,0.497238,0.860347,-0.580157,0.504837,0.639119,-0.892972,0.376843,0.246071,-0.965758,0.147404,-0.213385,-0.77871,-0.121647,-0.615436,-0.382458,-0.357891,-0.851833,0.116001,-0.497879,-0.859432,0.582934,-0.50441,-0.636952,0.891537,-0.383465,-0.240944,0.965789,-0.147496,0.213263,0.97116,-0.126682,0.20191,0.784509,0.138096,0.604511,0.388104,0.3661,0.845729,-0.112369,0.496323,0.860805,-0.583209,0.493606,0.6451,-0.897794,0.358287,0.255989,-0.783288,-0.139134,-0.605853,-0.385083,-0.367321,-0.846614,0.116062,-0.496811,-0.860042,0.585711,-0.493149,-0.643208,0.898465,-0.357677,-0.254585,0.893735,-0.376141,-0.244362,0.788415,0.154912,0.595264,0.390271,0.375072,0.840815,-0.112583,0.49501,0.861538,-0.585772,0.482315,0.651295,-0.901975,0.340068,0.265969,-0.971129,0.126591,-0.202124,-0.975768,0.106326,-0.191076,-0.787133,-0.156011,-0.596698,-0.387036,-0.376263,-0.841762,0.116459,-0.495437,-0.860775,0.588336,-0.481826,-0.649342,0.975799,-0.106449,0.190863,0.79223,0.173284,0.58504,0.392468,0.384594,0.835475,-0.112644,0.493179,0.862575,-0.588122,0.469649,0.658406,-0.906003,0.319865,0.277108,-0.980255,0.0839259,-0.17893,-0.790704,-0.174535,-0.586779,-0.388714,-0.385907,-0.836604,0.11713,-0.493576,-0.861751,0.591083,-0.468978,-0.656209,0.902646,-0.339427,-0.264504,0.906766,-0.319102,-0.275491,0.980316,-0.0841395,0.178564,0.796136,0.195318,0.57271,0.394818,0.395856,0.829066,-0.112491,0.490738,0.864009,-0.59035,0.454115,0.667257,-0.910031,0.295328,0.290841,-0.984771,0.0568865,-0.16419,-0.794183,-0.196814,-0.574877,-0.390118,-0.397382,-0.830561,0.118107,-0.491073,-0.863063,0.594043,-0.4532,-0.664571,0.910977,-0.294382,-0.288827,0.984832,-0.0571612,0.163701,0.800073,0.223884,0.556536,0.397473,0.410321,0.820734,-0.111942,0.48735,0.865963,-0.592273,0.43379,0.678976,-0.913907,0.263344,0.308817,-0.989196,0.0216376,-0.144963,-0.797418,-0.225806,-0.559526,-0.391095,-0.412152,-0.822871,0.11948,-0.487533,-0.864864,0.597247,-0.432386,-0.675497,0.915159,-0.262032,-0.306223,0.989257,-0.0220038,0.144292,0.803095,0.261788,0.535203,0.399731,0.429792,0.809595,-0.111087,0.483322,0.868343,-0.593371,0.4073,0.694235,-0.916715,0.22129,0.332591,-0.992523,-0.0247505,-0.119449,-0.799738,-0.264077,-0.539079,-0.391491,-0.431745,-0.812555,0.120884,-0.483077,-0.867183,0.599872,-0.405164,-0.689871,0.918393,-0.219489,-0.329173,0.993103,0.0719321,0.0925321,0.992615,0.0243538,0.118748,0.803217,0.301309,0.51381,0.399182,0.450575,0.798486,-0.112094,0.479659,0.870235,-0.594287,0.380139,0.708701,-0.917325,0.178076,0.356029,-0.800531,-0.303018,-0.516984,-0.39256,-0.451827,-0.80105,0.120029,-0.479049,-0.869503,0.599628,-0.378124,-0.705283,0.918699,-0.176489,-0.353252,0.991394,0.109439,0.071749,0.801569,0.332469,0.496902,0.397717,0.466933,0.789788,-0.112918,0.476699,0.871761,-0.594043,0.358623,0.720054,-0.915983,0.143925,0.374462,-0.993011,-0.0722373,-0.0930815,-0.799432,-0.33372,-0.499466,-0.392621,-0.467727,-0.791833,0.118961,-0.476028,-0.871334,0.598041,-0.356945,-0.717551,0.91702,-0.142705,-0.372417,0.988739,0.138798,0.0554216,0.799249,0.356609,0.483718,0.396222,0.479324,0.783074,-0.113224,0.473922,0.873226,-0.592883,0.34135,0.729331,-0.913694,0.116947,0.389172,-0.991302,-0.109714,-0.0722678,-0.797479,-0.357616,-0.485855,-0.39201,-0.479843,-0.784875,0.118137,-0.47322,-0.872951,0.596118,-0.339915,-0.727348,0.914487,-0.11597,-0.387555,0.985656,0.163518,0.0416578,0.796686,0.376598,0.472671,0.394757,0.489181,0.777703,-0.113132,0.470931,0.874874,-0.591235,0.326365,0.73748,-0.910886,0.0939665,0.401746,-0.988678,-0.139073,-0.0559099,-0.795068,-0.377483,-0.474685,-0.391003,-0.489547,-0.779351,0.117496,-0.470199,-0.87466,0.594012,-0.325053,-0.735832,0.911557,-0.0931425,-0.400464,0.793847,0.394513,0.462722,0.393445,0.497482,0.773095,-0.112644,0.467391,0.876827,-0.589038,0.311838,0.745476,-0.907529,0.0723899,0.413678,-0.985565,-0.163793,-0.0421766,-0.981964,-0.186621,-0.0295419,-0.79223,-0.395398,-0.464736,0.116825,-0.466567,-0.876705,0.591693,-0.310556,-0.743919,0.908109,-0.0716575,-0.412519,0.982055,0.186254,0.028901,0.790582,0.412702,0.452376,0.392285,0.505112,0.7687,-0.111393,0.462416,0.879604,-0.585803,0.295572,0.754601,-0.903104,0.0490738,0.426527,-0.977386,-0.2107,-0.01648,-0.788537,-0.413709,-0.45497,-0.389721,-0.497787,-0.774773,-0.387982,-0.505356,-0.770745,0.116123,-0.461379,-0.879543,0.588702,-0.294076,-0.752953,0.977538,0.21015,0.0154424,0.973022,0.230537,0.0044557,0.78695,0.427869,0.444533,0.390271,0.510819,0.765954,-0.111209,0.457015,0.882443,-0.583209,0.280587,0.762291,-0.898831,0.0286874,0.43733,-0.785668,-0.428449,-0.446211,-0.387616,-0.51091,-0.767266,0.114048,-0.456343,-0.882443,0.584887,-0.279702,-0.761345,0.899106,-0.0283212,-0.436781,0.903684,-0.0483413,-0.425428,0.783837,0.440626,0.437513,0.389203,0.515946,0.763085,-0.109928,0.453261,0.884548,-0.580004,0.268868,0.768944,-0.89462,0.0121769,0.446638,-0.968749,-0.247871,0.00418104,-0.97293,-0.230903,-0.00515763,-0.782434,-0.441237,-0.439375,-0.38609,-0.516007,-0.764611,0.113437,-0.452345,-0.884579,0.582232,-0.267678,-0.767663,0.895077,-0.011536,-0.445723,0.968841,0.247597,-0.00469985,0.774926,0.476669,0.415021,0.388806,0.532517,0.751823,-0.102023,0.446547,0.888913,-0.567278,0.240181,0.787683,-0.880612,-0.0318918,0.472701,-0.954802,-0.295755,0.028779,-0.769372,-0.478957,-0.42262,-0.376415,-0.53206,-0.758415,0.116031,-0.442152,-0.88937,0.576128,-0.234718,-0.782891,0.882473,0.0345775,-0.469039,0.955107,0.294565,-0.0311594,0.73629,0.57326,0.359416,0.377087,0.577563,0.724021,-0.0831324,0.42967,0.899136,-0.52562,0.1648,0.834559,-0.521897,0.805292,-0.281137,-0.556932,0.71221,-0.427229,-0.723899,-0.576495,-0.378887,-0.349345,-0.572466,-0.741752,0.114658,-0.414991,-0.902554,0.545579,-0.149205,-0.824641,0.832942,0.155156,-0.531114,0.902585,0.418989,-0.0986969,0.616504,0.738792,0.272134,0.326792,0.656392,0.679952,-0.0485244,0.403943,0.91348,-0.41435,0.0369884,0.90933,0.686117,0.358409,-0.633045,0.7481,0.63039,-0.207129,-0.681509,0.537614,-0.496445,-0.288888,-0.636586,-0.715018,0.0917997,-0.367534,-0.925443,0.445692,-0.005768,-0.895138,0.685385,0.358226,-0.633931,0.474807,0.827601,-0.299326,0.747978,0.630451,-0.207373,0.402326,0.893338,0.20014,0.226356,0.728538,0.646474,-0.00894192,0.374279,0.927244,0.811853,-0.474746,0.339793,0.473251,0.828455,-0.299448,-0.203558,-0.699088,-0.685415,0.0356761,-0.32783,-0.94406,0.263771,0.125156,-0.95642,0.424146,0.54677,-0.721885,0.220985,0.917173,-0.331553,0.203009,0.962889,0.177679,0.131748,0.756279,0.640828,0.0253914,0.348857,0.936827,-0.241646,-0.0893277,0.966216,-0.0886563,-0.155858,0.983764,0.92468,-0.373821,0.0719321,-0.201422,-0.959136,-0.198645,0.8305,-0.55681,0.0148625,-0.126194,-0.736656,-0.664357,-0.0182501,-0.31901,-0.947569,0.0938444,0.180273,-0.979125,0.181097,0.631367,-0.754021,0.0603046,0.940886,-0.333293,0.0785852,0.980834,0.178259,0.0761742,0.761528,0.643574,0.0534684,0.338786,0.939329,0.0162358,-0.177435,0.983978,-0.17832,-0.623096,0.761528,-0.025605,-0.648183,0.76101,-0.0787988,-0.978118,-0.19248,-0.0755944,-0.748314,-0.658986,-0.0521867,-0.319193,-0.946226,-0.0149846,0.192877,-0.981079,0.0260628,0.653035,-0.756859,-0.0633259,0.98059,0.185492,0.0161443,0.766381,0.64214,0.0917997,0.349376,0.932463,0.143925,-0.166692,0.975433,-0.946562,-0.150395,0.285226,-0.956633,-0.250313,0.1489,-0.0604877,-0.942381,0.32902,0.0589312,-0.975005,-0.214087,-0.022309,-0.740379,-0.671804,-0.0969268,-0.31135,-0.945311,-0.145634,0.196539,-0.969604,-0.156346,0.652852,-0.741142,-0.126286,0.939177,-0.319315,-0.290048,0.928129,0.233222,-0.0850856,0.747154,0.659139,0.142735,0.37257,0.916929,0.337413,-0.111545,0.93469,-0.442549,0.586535,-0.678274,-0.420484,0.870663,-0.255104,-0.875332,-0.471725,0.106021,0.0589923,-0.712516,-0.699118,-0.168218,-0.319865,-0.932371,-0.350414,0.152196,-0.924131,-0.443007,0.586688,-0.677847,-0.702872,0.699271,-0.130131,-0.421064,0.870479,-0.254769,-0.508713,0.794885,0.330607,-0.183782,0.685141,0.704794,0.190313,0.397229,0.897763,0.776513,0.566271,-0.276254,-0.579485,0.790643,-0.197516,0.146458,-0.663015,-0.734123,-0.228614,-0.35902,-0.904874,-0.541429,0.0357067,-0.839961,-0.714743,0.421796,-0.557848,-0.853267,0.521256,-0.0132145,-0.62508,0.654714,0.424909,-0.232551,0.616474,0.75222,0.223029,0.415052,0.882015,0.518113,0.00146489,0.855281,0.622486,0.100772,0.776086,0.852565,-0.522477,0.00949126,0.804407,-0.592059,0.0482192,0.612903,-0.656514,-0.43965,0.666341,0.466292,-0.581835,0.20777,-0.60918,-0.765282,-0.249275,-0.398999,-0.882382,-0.637745,-0.0846278,-0.765557,-0.857967,0.251228,-0.448012,-0.906461,0.419141,0.0508438,-0.665242,0.57268,0.478988,-0.246986,0.574206,0.780541,0.237953,0.422681,0.874447,0.660573,0.157292,0.734092,0.855342,-0.243843,0.457015,0.906064,-0.151372,0.395123,0.660482,-0.573779,-0.484237,0.236702,-0.572558,-0.784936,-0.249245,-0.417432,-0.873836,-0.66744,-0.151311,-0.729118,-0.907407,0.154515,-0.39079,-0.918149,0.389874,0.0705283,-0.672567,0.548387,0.496902,-0.246345,0.562151,0.789453,0.246529,0.427473,0.869747,0.674429,0.180059,0.716025,0.922361,-0.113865,0.369091,0.906247,-0.419538,-0.0516068,0.677267,-0.534349,-0.505692,0.249886,-0.547807,-0.798364,-0.243629,-0.412366,-0.877804,-0.670888,-0.164586,-0.723045,-0.9176,0.129002,-0.375896,0.923521,-0.375469,-0.0781884]
            },
            "position":{
                "type":"Float32Array",
                "itemSize":3,
                "array":[0.00459521,0.835868,0.0922862,0.00457909,0.835398,0.0931064,0.00480445,0.836051,0.092734,0.00499155,0.835447,0.0934312,0.00521504,0.836095,0.0930619,0.00549615,0.835347,0.0935467,0.00571697,0.835987,0.0931819,0.0059577,0.835125,0.0934221,0.00617574,0.835757,0.0930619,0.00625252,0.83484,0.0930908,0.00646843,0.835465,0.092734,0.00651661,0.835191,0.0922862,0.00630161,0.834569,0.0926414,0.00630737,0.835008,0.0918384,0.00609182,0.834384,0.0921945,0.00589678,0.834964,0.0915106,0.00567936,0.834335,0.0918698,0.00539486,0.835072,0.0913906,0.00517475,0.834435,0.0917542,0.00493608,0.835303,0.0915106,0.00471321,0.834657,0.0918788,0.00464339,0.835594,0.0918384,0.0043693,0.835214,0.0926595,0.00433001,0.8346,0.0935583,0.00474515,0.834657,0.0938782,0.0052533,0.834569,0.0939873,0.0057183,0.834357,0.0938564,0.00601555,0.83408,0.0935207,0.00606541,0.833811,0.0930699,0.00543937,0.833565,0.0923051,0.00493122,0.833654,0.092196,0.00446623,0.833865,0.0923269,0.00416897,0.834142,0.0926626,0.00441839,0.834942,0.0922102,0.00411911,0.834411,0.0931134,0.00407648,0.833694,0.0940676,0.00449417,0.83376,0.0943823,0.00500566,0.833684,0.0944848,0.00547389,0.833484,0.0943474,0.0057734,0.833215,0.0940071,0.00582393,0.832948,0.093555,0.00585451,0.833623,0.092625,0.00561195,0.832756,0.0931123,0.00519425,0.832689,0.0927975,0.00468276,0.832766,0.0926951,0.00421453,0.832966,0.0928325,0.00391503,0.833235,0.0931728,0.00386449,0.833501,0.0936249,0.00383595,0.832712,0.0946157,0.00425624,0.832789,0.0949245,0.00477111,0.832726,0.0950192,0.00524259,0.83254,0.0948745,0.00554435,0.83228,0.094529,0.00559553,0.832016,0.0940755,0.00538242,0.831819,0.0936353,0.00496213,0.831742,0.0933265,0.00444726,0.831805,0.0932317,0.00397578,0.831991,0.0933765,0.00367402,0.832251,0.0937219,0.00362284,0.832515,0.0941755,0.0036262,0.831687,0.0951838,0.00404917,0.831778,0.0954854,0.0045675,0.831731,0.0955708,0.00504231,0.831561,0.095417,0.00534636,0.831312,0.0950653,0.0053982,0.831052,0.09461,0.00518392,0.830849,0.094173,0.00476095,0.830759,0.0938714,0.00424261,0.830805,0.0937861,0.00376781,0.830975,0.0939399,0.00346375,0.831224,0.0942915,0.00341192,0.831484,0.0947469,0.00346534,0.83065,0.0957538,0.00389095,0.830758,0.0960461,0.00441268,0.830733,0.0961193,0.00489075,0.830584,0.095954,0.00519704,0.83035,0.0955944,0.0052495,0.830093,0.0951369,0.00503407,0.829883,0.094704,0.00460846,0.829776,0.0944117,0.00408673,0.8298,0.0943385,0.00360866,0.829949,0.0945038,0.00330236,0.830183,0.0948634,0.00324991,0.83044,0.0953209,0.00337255,0.829634,0.0963064,0.00380011,0.829763,0.0965869,0.00432438,0.829767,0.0966452,0.00480486,0.829644,0.0964654,0.00511283,0.829428,0.0960959,0.00516576,0.829176,0.0956355,0.00494946,0.828957,0.0952078,0.0045219,0.828828,0.0949272,0.00399764,0.828824,0.094869,0.00351715,0.828947,0.0950487,0.00320918,0.829163,0.0954183,0.00314002,0.828363,0.0964432,0.00315625,0.829415,0.0958786,0.00335645,0.828591,0.0968662,0.00378433,0.82874,0.0971357,0.004309,0.828771,0.0971796,0.00478988,0.828674,0.0969862,0.00509812,0.828475,0.0966072,0.00493469,0.828,0.0957212,0.00450682,0.827851,0.0954517,0.00398214,0.82782,0.0954077,0.00350126,0.827918,0.0956012,0.00319302,0.828116,0.0959802,0.00318575,0.827245,0.0970368,0.00340191,0.82748,0.0974562,0.00382916,0.827645,0.0977176,0.00435303,0.827695,0.0977511,0.00483313,0.827617,0.0975475,0.00514084,0.827431,0.0971616,0.00515113,0.828229,0.0961442,0.00497753,0.826953,0.0962772,0.00455027,0.826789,0.0960157,0.00402641,0.826739,0.0959823,0.0035463,0.826817,0.0961858,0.0032386,0.827002,0.0965718,0.00327931,0.826106,0.0976374,0.00349506,0.826346,0.0980542,0.00392136,0.826522,0.0983095,0.004444,0.826587,0.0983351,0.00492292,0.826523,0.098124,0.00522981,0.826348,0.0977328,0.00519369,0.827188,0.0966966,0.00506669,0.825867,0.0968496,0.00464038,0.825691,0.0965942,0.00411775,0.825626,0.0965687,0.00363882,0.82569,0.0967798,0.00333193,0.825866,0.097171,0.00340767,0.824988,0.0982233,0.00362293,0.825232,0.0986379,0.00404814,0.825418,0.0988882,0.00456936,0.825495,0.0989073,0.00504693,0.825443,0.09869,0.00535289,0.825276,0.0982946,0.00528243,0.826108,0.0972663,0.00518999,0.824794,0.0974124,0.00476478,0.824608,0.097162,0.00424356,0.824531,0.0971429,0.00376599,0.824583,0.0973602,0.00346003,0.82475,0.0977557,0.00355826,0.823936,0.0987719,0.00377297,0.824184,0.0991844,0.00419693,0.824379,0.0994302,0.00471654,0.824467,0.0994435,0.00519258,0.824426,0.0992206,0.00549749,0.824266,0.0988213,0.00540525,0.825038,0.0978269,0.00533486,0.823782,0.0979401,0.0049109,0.823587,0.0976943,0.00439129,0.823499,0.0976811,0.00391525,0.82354,0.097904,0.00361034,0.8237,0.0983032,0.00393292,0.823247,0.0996711,0.00435531,0.823451,0.0999121,0.00487291,0.823551,0.0999192,0.00534704,0.823521,0.0996905,0.00565065,0.823369,0.0992873,0.00570239,0.823135,0.0988176,0.00554956,0.82403,0.0983526,0.0054884,0.822882,0.0984073,0.005066,0.822679,0.0981662,0.0045484,0.822578,0.0981591,0.00407427,0.822609,0.0983878,0.00377066,0.822761,0.098791,0.00387533,0.822221,0.0996607,0.00371892,0.822995,0.0992607,0.00408894,0.822476,0.10007,0.00451026,0.822685,0.100308,0.0050264,0.822792,0.100312,0.00549906,0.822769,0.100079,0.00585291,0.82239,0.0992026,0.00563929,0.822136,0.0987932,0.00521797,0.821927,0.0985548,0.00470183,0.82182,0.0985515,0.00422918,0.821842,0.0987839,0.00392666,0.821989,0.0991899,0.00400227,0.821609,0.099974,0.00421631,0.821862,0.100384,0.00463786,0.822069,0.100623,0.00515396,0.822177,0.100627,0.00562633,0.822156,0.100393,0.00580158,0.822622,0.0996733,0.00597921,0.821782,0.0995143,0.00576517,0.821529,0.0991038,0.00534362,0.821322,0.0988649,0.00482752,0.821214,0.0988616,0.00435515,0.821235,0.0990948,0.00405309,0.82138,0.099502,0.00432369,0.821333,0.10065,0.00474383,0.821548,0.100886,0.00525775,0.821666,0.100884,0.00572776,0.821657,0.100645,0.00602791,0.821521,0.100233,0.00592839,0.822011,0.0999863,0.00607778,0.821296,0.0997585,0.00586401,0.821043,0.0993488,0.00544387,0.820828,0.0991135,0.00492995,0.820709,0.0991156,0.00445994,0.820719,0.0993546,0.00415979,0.820855,0.0997664,0.00410992,0.821079,0.100241,0.00445018,0.82085,0.100889,0.00486132,0.8211,0.101107,0.00536353,0.821263,0.101083,0.00582224,0.821296,0.100822,0.00611454,0.82119,0.100396,0.00616211,0.820974,0.0999172,0.0059522,0.820705,0.0995149,0.00554106,0.820456,0.0992966,0.00503885,0.820293,0.0993208,0.00458014,0.82026,0.0995811,0.00428784,0.820365,0.100008,0.00424027,0.820582,0.100486,0.00465523,0.820383,0.101113,0.00503326,0.820708,0.101295,0.00549362,0.820966,0.101225,0.00591296,0.821089,0.100921,0.0061789,0.821043,0.100466,0.0062202,0.820841,0.0999806,0.00602579,0.820537,0.0995953,0.00564776,0.820212,0.0994133,0.0051874,0.819954,0.0994834,0.00476807,0.819831,0.0997867,0.00450212,0.819876,0.100242,0.00446082,0.820078,0.100727,0.00502514,0.819954,0.10131,0.0053144,0.820382,0.101444,0.00566398,0.820769,0.101315,0.00598023,0.821011,0.100957,0.0061784,0.821044,0.100465,0.0062054,0.820859,0.0999725,0.00605398,0.820504,0.0996103,0.00576473,0.820076,0.0994757,0.00541514,0.819689,0.0996049,0.00509889,0.819447,0.0999633,0.00490072,0.819414,0.100455,0.00547875,0.819284,0.101082,0.00487373,0.8196,0.100948,0.00556395,0.819673,0.101429,0.00571939,0.820171,0.101534,0.00590342,0.820644,0.101368,0.00606672,0.820966,0.100976,0.00616555,0.821051,0.100462,0.00617342,0.820875,0.0999653,0.00593278,0.819988,0.099513,0.00574875,0.819515,0.099679,0.00558544,0.819193,0.100071,0.00548662,0.819109,0.100585,0.00617182,0.819159,0.101124,0.00619448,0.819559,0.101468,0.00622608,0.820079,0.101565,0.00625815,0.82058,0.10139,0.00628209,0.820927,0.100989,0.0062915,0.821028,0.10047,0.00626117,0.820455,0.0996282,0.00608822,0.820486,0.0996178,0.00622957,0.819934,0.0995311,0.0061975,0.819434,0.0997064,0.00617356,0.819086,0.100107,0.00616416,0.818986,0.100626,0.00686439,0.819596,0.101436,0.00675131,0.820108,0.10154,0.0066061,0.820599,0.101373,0.00646768,0.820938,0.10098,0.00637314,0.821032,0.100466,0.00634781,0.820859,0.0999689,0.00628384,0.820855,0.0999719,0.00639847,0.820463,0.0996217,0.00651155,0.81995,0.0995176,0.00665676,0.819459,0.0996844,0.00679518,0.819121,0.100077,0.00688972,0.819026,0.100591,0.00691506,0.8192,0.101089,0.00745759,0.819872,0.101294,0.00718413,0.82031,0.101436,0.00684103,0.820709,0.101317,0.00652024,0.820962,0.100968,0.0063077,0.821002,0.100482,0.00626036,0.820818,0.0999901,0.00634781,0.820859,0.0999689,0.00639092,0.820459,0.0996237,0.00666438,0.820022,0.0994809,0.00700748,0.819623,0.0996001,0.00732827,0.81937,0.0999494,0.00754081,0.81933,0.100435,0.0080177,0.82001,0.100681,0.00758814,0.819514,0.100927,0.00784308,0.820317,0.101073,0.00747876,0.82065,0.101268,0.00702236,0.820918,0.101213,0.00659618,0.821049,0.100925,0.00625254,0.820809,0.0999949,0.00642716,0.820502,0.099603,0.00679148,0.820169,0.099408,0.00724788,0.819901,0.0994621,0.00767406,0.81977,0.0997508,0.00795584,0.819809,0.100197,0.00825157,0.82052,0.100426,0.00806275,0.820796,0.100834,0.00766764,0.821061,0.101062,0.00717211,0.821244,0.101051,0.00670893,0.821295,0.100802,0.0063144,0.82101,0.100479,0.00640221,0.821201,0.100383,0.00652296,0.820711,0.0994989,0.00691807,0.820446,0.0992702,0.0074136,0.820264,0.0992817,0.00787678,0.820212,0.0995302,0.0081835,0.820306,0.0999492,0.00840652,0.821029,0.100169,0.00821455,0.821295,0.100581,0.00781136,0.821533,0.100824,0.00730499,0.82168,0.10083,0.00683113,0.821696,0.100599,0.00651673,0.821577,0.100193,0.00633414,0.820987,0.0999063,0.00663802,0.821089,0.0993075,0.00704121,0.820851,0.0990654,0.00754757,0.820704,0.0990588,0.00802144,0.820688,0.0992895,0.00833584,0.820807,0.0996957,0.00854713,0.821564,0.0998912,0.0083558,0.821833,0.100303,0.00795237,0.82207,0.100546,0.00744493,0.822213,0.100554,0.00696947,0.822223,0.100327,0.00665337,0.822098,0.0999238,0.00644605,0.821355,0.0997204,0.00677267,0.821602,0.0990419,0.0071761,0.821365,0.0987992,0.00768353,0.821222,0.0987904,0.008159,0.821212,0.099018,0.0084751,0.821337,0.0994209,0.00852653,0.822437,0.0999816,0.00812474,0.82268,0.100221,0.00761865,0.822828,0.100227,0.00714388,0.82284,0.0999985,0.00682764,0.822714,0.0995959,0.00658133,0.82187,0.0994535,0.00675467,0.822484,0.0991273,0.00694452,0.82221,0.0987185,0.00734632,0.821967,0.0984789,0.0078524,0.82182,0.0984727,0.00832717,0.821807,0.0987016,0.00871638,0.822163,0.0995727,0.00873949,0.823177,0.099581,0.00833693,0.823417,0.0998221,0.00782951,0.82356,0.0998308,0.0073532,0.823568,0.0996048,0.00703562,0.823437,0.0992047,0.00696186,0.823204,0.0987377,0.0071517,0.82293,0.0983289,0.00755426,0.82269,0.0980878,0.00806168,0.822547,0.0980791,0.00853799,0.82254,0.0983051,0.00864341,0.821933,0.0991042,0.00892933,0.822903,0.0991723,0.00915981,0.823799,0.0986852,0.00896911,0.824069,0.0990959,0.00856446,0.824301,0.0993413,0.00805428,0.824434,0.0993558,0.00757527,0.82443,0.0991355,0.00725579,0.824293,0.0987394,0.00737213,0.823787,0.0978631,0.00777678,0.823554,0.0976176,0.00828696,0.823422,0.0976031,0.00876597,0.823425,0.0978234,0.00908546,0.823563,0.0982195,0.00885557,0.82267,0.0987052,0.00919801,0.825064,0.0985531,0.0087915,0.825288,0.098803,0.0082789,0.82541,0.0988232,0.00779757,0.825396,0.0986085,0.00747646,0.825251,0.0982162,0.00718143,0.824057,0.0982737,0.00740163,0.825014,0.0977516,0.00759313,0.824747,0.0973391,0.00799964,0.824523,0.0970892,0.00851223,0.824401,0.097069,0.00899357,0.824414,0.0972838,0.0093895,0.824797,0.0981406,0.00941164,0.826122,0.0979742,0.00900331,0.826337,0.098229,0.00848836,0.826447,0.0982556,0.00800478,0.826423,0.0980469,0.00768213,0.82627,0.0976588,0.00760688,0.826031,0.0971954,0.00779918,0.825768,0.0967807,0.0082075,0.825553,0.0965259,0.00872245,0.825442,0.0964993,0.00920603,0.825467,0.096708,0.00931467,0.824559,0.097676,0.00952868,0.82562,0.0970961,0.00960394,0.825859,0.0975595,0.00959514,0.827206,0.0973804,0.00918496,0.82741,0.0976412,0.00866762,0.827506,0.0976756,0.00818177,0.827468,0.0974742,0.00785757,0.827306,0.0970912,0.00778191,0.827064,0.096629,0.00797505,0.826806,0.0962116,0.00838524,0.826602,0.0959508,0.00890257,0.826506,0.0959165,0.00938842,0.826544,0.0961178,0.00971262,0.826706,0.0965009,0.00978828,0.826948,0.096963,0.00973344,0.828276,0.0967927,0.00932139,0.828466,0.0970614,0.00880168,0.828543,0.0971059,0.00831357,0.828488,0.0969141,0.00798785,0.828315,0.0965375,0.00791179,0.828069,0.0960771,0.00810577,0.827818,0.0956561,0.00851782,0.827628,0.0953874,0.00903753,0.82755,0.095343,0.00952564,0.827606,0.0955347,0.00985136,0.827779,0.0959113,0.00992742,0.828025,0.0963717,0.00981067,0.829295,0.0962321,0.00939719,0.829466,0.0965112,0.00887565,0.82952,0.096569,0.00838579,0.829441,0.0963899,0.00805887,0.829252,0.096022,0.00798249,0.829002,0.0955638,0.00817712,0.82876,0.0951382,0.0085906,0.828589,0.094859,0.00911214,0.828535,0.0948013,0.009602,0.828614,0.0949804,0.00992892,0.828803,0.0953483,0.0100125,0.830073,0.0952425,0.0100053,0.829052,0.0958064,0.0098178,0.830307,0.0956728,0.00940419,0.830459,0.0959625,0.00888247,0.830488,0.0960339,0.00839244,0.830386,0.095868,0.00806541,0.83018,0.0955091,0.00818368,0.829692,0.0946231,0.0085973,0.82954,0.0943334,0.00911901,0.829511,0.094262,0.00960904,0.829613,0.0944279,0.00993607,0.829819,0.0947868,0.00996098,0.831129,0.0946561,0.00976662,0.831357,0.0950901,0.00935374,0.831494,0.0953882,0.00883298,0.831503,0.0954704,0.00834386,0.831382,0.0953148,0.00801746,0.831164,0.0949631,0.007989,0.829926,0.0950534,0.00813558,0.830678,0.0940754,0.00854846,0.830542,0.0937773,0.00906923,0.830532,0.0936951,0.00955834,0.830653,0.0938507,0.00988475,0.830872,0.0942024,0.00986435,0.832184,0.0940689,0.00967049,0.832406,0.094506,0.00925871,0.832531,0.0948107,0.00873935,0.832525,0.0949015,0.00825157,0.832389,0.094754,0.00792607,0.832161,0.0944078,0.00794122,0.830906,0.0945094,0.00804393,0.831679,0.0935185,0.00845571,0.831554,0.0932137,0.00897508,0.83156,0.093123,0.00946286,0.831696,0.0932704,0.00978835,0.831924,0.0936167,0.00973526,0.833202,0.0935018,0.00954202,0.833419,0.0939416,0.00913154,0.833534,0.0942521,0.00861383,0.833515,0.0943501,0.00812759,0.833367,0.0942094,0.00780312,0.833131,0.0938677,0.00785007,0.831901,0.0939555,0.0079206,0.832651,0.0929767,0.00833108,0.832537,0.0926662,0.00884879,0.832556,0.0925682,0.00933503,0.832704,0.0927089,0.0096595,0.83294,0.0930506,0.00939346,0.83436,0.0934185,0.00898454,0.834464,0.0937345,0.00846873,0.834433,0.0938393,0.00798425,0.834274,0.0937047,0.00766091,0.834031,0.093367,0.00772736,0.832869,0.0934165,0.00758535,0.833767,0.0929165,0.00777782,0.833555,0.092474,0.00870254,0.833482,0.0920532,0.00918702,0.83364,0.0921878,0.00951036,0.833884,0.0925255,0.00958592,0.834147,0.092976,0.00923674,0.83519,0.0929582,0.00882986,0.835284,0.0932802,0.00831649,0.83524,0.0933921,0.00783418,0.83507,0.093264,0.00751218,0.834819,0.0929301,0.00743675,0.834555,0.09248,0.00762812,0.834348,0.0920342,0.00818674,0.83345,0.092158,0.00803499,0.834255,0.0917123,0.00854836,0.834299,0.0916004,0.00903067,0.834469,0.0917285,0.0094281,0.834984,0.0925125,0.00927497,0.835667,0.0921367,0.00908482,0.835868,0.0925855,0.00868007,0.835953,0.0929127,0.00816918,0.835898,0.0930306,0.00768902,0.835718,0.0929078,0.00736828,0.835461,0.092577,0.00748302,0.834996,0.0916782,0.00788777,0.834912,0.091351,0.00839867,0.834967,0.091233,0.00887882,0.835147,0.0913559,0.00919957,0.835403,0.0916867,0.00935267,0.83472,0.0920624,0.00895656,0.836392,0.0922999,0.00855372,0.836469,0.0926313,0.00804508,0.836404,0.0927543,0.00756692,0.836216,0.0926359,0.00724737,0.835955,0.0923078,0.00717205,0.835691,0.0918579,0.00729287,0.835197,0.092127,0.00736114,0.835494,0.0914068,0.00776398,0.835417,0.0910754,0.00827262,0.835482,0.0909524,0.00875078,0.83567,0.0910708,0.00907033,0.835931,0.0913989,0.00914565,0.836195,0.0918488,0.00884007,0.836821,0.0920667,0.0084429,0.836877,0.0924095,0.00794115,0.836787,0.0925463,0.00746926,0.836576,0.0924404,0.00715367,0.8363,0.0921203,0.00707893,0.836034,0.0916716,0.00726509,0.835848,0.0912146,0.00766225,0.835792,0.0908718,0.008164,0.835882,0.090735,0.00863589,0.836093,0.0908409,0.00895149,0.836369,0.0911611,0.00902622,0.836635,0.0916098,0.00869156,0.83721,0.0918583,0.00831564,0.83721,0.0922309,0.00783969,0.837053,0.0924039,0.00739122,0.83678,0.0923309,0.00709042,0.836466,0.0920315,0.00701787,0.836194,0.0915859,0.00719302,0.836036,0.0911135,0.00756894,0.836036,0.0907409,0.0080449,0.836194,0.0905679,0.00849336,0.836466,0.0906409,0.00879417,0.836781,0.0909403,0.00886671,0.837053,0.0913859,0.00843765,0.837586,0.0916644,0.00812659,0.83749,0.0920866,0.0077294,0.837216,0.0923197,0.00735253,0.836838,0.0923014,0.00709694,0.836456,0.0920365,0.00703113,0.836174,0.091596,0.00717273,0.836066,0.091098,0.00748379,0.836163,0.0906758,0.00788097,0.836437,0.0904427,0.00825785,0.836815,0.0904611,0.00851344,0.837196,0.0907259,0.00810941,0.837816,0.0910093,0.00857925,0.837479,0.0911664,0.00803095,0.837878,0.0915284,0.00784196,0.837694,0.0919914,0.00759308,0.837314,0.0922741,0.00718059,0.836396,0.0920645,0.0071275,0.836105,0.0916283,0.00739495,0.836226,0.0906461,0.00764383,0.836607,0.0903634,0.00788591,0.837082,0.0903367,0.00805632,0.837525,0.0905731,0.00758549,0.837981,0.0909525,0.0075661,0.838025,0.0914781,0.0074913,0.837805,0.0919534,0.00738113,0.837381,0.0922512,0.007351,0.836839,0.0923009,0.0072651,0.836866,0.0922916,0.00713308,0.836103,0.0916289,0.00715247,0.836059,0.0911033,0.00720596,0.836043,0.0911091,0.00722727,0.836279,0.090628,0.00733744,0.836703,0.0903302,0.00745347,0.837218,0.0902898,0.00754426,0.837686,0.0905176,0.00706649,0.838049,0.0909504,0.00708514,0.838088,0.0914761,0.00708228,0.837858,0.0919517,0.00705868,0.837423,0.0922498,0.00702066,0.836898,0.0922905,0.00717431,0.836398,0.0920638,0.00697841,0.836424,0.0920629,0.0069246,0.836089,0.0911022,0.00692745,0.836318,0.0906266,0.00695105,0.836754,0.0903285,0.00698907,0.837279,0.0902878,0.00703133,0.837753,0.0905155,0.00658466,0.838097,0.0915082,0.00666738,0.837866,0.0919784,0.00674506,0.837429,0.0922699,0.00679686,0.836902,0.0923049,0.00680892,0.836427,0.0920737,0.00677799,0.836131,0.0916385,0.00694325,0.836128,0.0916279,0.00671237,0.836093,0.0911158,0.00662965,0.836324,0.0906457,0.00655197,0.836762,0.0903541,0.00650017,0.837289,0.0903192,0.00648812,0.837764,0.0905503,0.00651904,0.83806,0.0909855,0.00608528,0.837996,0.091609,0.00630417,0.837793,0.0920517,0.00654405,0.837388,0.0923105,0.00674064,0.836891,0.0923163,0.00684128,0.836434,0.0920674,0.00681899,0.836139,0.0916305,0.00667975,0.836087,0.0911227,0.00646087,0.83629,0.0906801,0.00622099,0.836694,0.0904212,0.0060244,0.837192,0.0904154,0.00592376,0.837649,0.0906644,0.00545648,0.83764,0.0913216,0.00594604,0.837943,0.0911013,0.00566228,0.837734,0.0917994,0.00600748,0.837609,0.0921851,0.00639959,0.837299,0.0923755,0.00691985,0.836483,0.0920322,0.00690859,0.836195,0.0915905,0.00635759,0.836225,0.090727,0.00596549,0.836535,0.0905366,0.00563154,0.836948,0.0905926,0.00544523,0.837352,0.0908799,0.00515157,0.837247,0.0915752,0.00538936,0.837383,0.0920263,0.00579726,0.837339,0.0923599,0.00626598,0.837128,0.0924866,0.00673354,0.836887,0.0923195,0.00666992,0.836805,0.0923725,0.00689689,0.83618,0.0916005,0.00690859,0.836195,0.0915905,0.00665909,0.836044,0.0911494,0.0067028,0.836101,0.0911127,0.00625119,0.836088,0.0908159,0.00578247,0.836299,0.0906891,0.00537853,0.836622,0.0908032,0.0051476,0.836969,0.0911276,0.00495941,0.836848,0.0918187,0.00520733,0.837005,0.0922569,0.00563635,0.837005,0.0925637,0.00613153,0.836848,0.0926569,0.00656018,0.836577,0.0925116,0.00690085,0.836458,0.0920482,0.00680745,0.836264,0.0921667,0.00655916,0.835837,0.0912763,0.00613014,0.835836,0.0909695,0.00563496,0.835993,0.0908763,0.00520631,0.836264,0.0910216,0.00495904,0.836577,0.0913666,0.00479701,0.836418,0.0920722,0.0050469,0.83658,0.0925072,0.00548123,0.836595,0.0928057,0.00598363,0.836457,0.0928877,0.00641947,0.836205,0.0927312,0.00667198,0.835906,0.0923781,0.00680708,0.835993,0.0917145,0.00642361,0.835478,0.091488,0.00598928,0.835464,0.0911895,0.00548688,0.835601,0.0911075,0.00505104,0.835853,0.0912641,0.00479853,0.836152,0.0916171,0.0066735,0.83564,0.0919231]
            }
        }
    },
    "metadata":{
        "type":"BufferGeometry",
        "normal":674,
        "generator":"io_three",
        "version":3,
        "position":674
    }
}