{
    "metadata":{
        "generator":"io_three",
        "version":3,
        "position":172,
        "type":"BufferGeometry",
        "normal":172,
        "uv":172
    },
    "data":{
        "attributes":{
            "normal":{
                "itemSize":3,
                "array":[0.539506,-0.0676901,0.839229,0.543809,-0.042024,0.83813,0.603748,-0.097293,0.791192,0.537919,-0.0467849,0.84167,0.491531,-0.0360118,0.870083,0.597247,-0.219062,0.771538,0.411664,0.250404,0.876217,0.452376,0.204962,0.867916,0.638905,0.165716,0.751183,0.367779,0.258095,0.893368,0.405744,0.264168,0.874935,0.142979,0.0792566,0.986541,0.144047,0.102054,0.984283,-0.0448317,0.121586,0.991546,0.142094,0.0680563,0.987487,0.189276,0.0573443,0.980224,0.294595,0.0390637,0.954802,0.289499,0.0755028,0.954161,0.186316,0.0932951,0.978027,0.284219,0.128636,0.950072,0.183813,0.145177,0.972167,0.13654,0.128452,0.982238,0.129093,0.151952,0.979888,-0.0703452,0.176916,0.981689,0.401502,0.00848415,0.915799,0.386486,0.0492264,0.920957,0.478225,0.0108341,0.87814,0.463179,0.0723594,0.883267,0.373974,0.105045,0.921445,0.346446,0.251137,0.903806,0.360698,0.174261,0.916227,0.443678,0.143651,0.884579,0.418073,0.224738,0.880154,0.272866,0.260353,0.926145,0.27781,0.195166,0.94058,0.181188,0.264962,0.94705,0.182623,0.207709,0.960967,0.138707,0.239204,0.960997,0.130253,0.210883,0.96878,0.145451,0.272683,0.951018,-0.0281686,0.267586,0.963103,0.129917,0.18131,0.974792,-0.0634175,0.211005,0.975402,0.138401,0.286019,0.948149,0.137761,0.255776,0.956847,0.00671407,0.292459,0.956236,0.277352,0.296213,0.913938,0.190313,0.282113,0.940275,0.34199,0.291116,0.89346,0.419263,-0.0179754,0.907651,0.498184,-0.057741,0.865108,0.300638,0.0147099,0.953612,0.297861,-0.144963,0.94351,0.432844,-0.162114,0.886746,0.520676,-0.196997,0.830683,0.194494,0.036317,0.980224,0.147343,0.0546281,0.987548,0.151524,0.050325,0.987152,-0.0401013,0.0809046,0.995911,0.0630818,-0.121403,0.99057,-0.0161443,0.0111087,0.999786,0.156499,-0.143803,0.977142,0.459761,0.165441,0.872463,0.474502,0.125736,0.871181,0.644368,0.0970183,0.758507,0.488205,0.084109,0.868648,0.504257,0.0540178,0.861843,0.649739,0.0289315,0.759575,0.529374,-0.0370495,0.84756,0.521592,-0.00619526,0.853145,0.641499,-0.0591449,0.764824,0.512375,0.0199591,0.858516,0.65157,-0.0224006,0.758232,0.740074,-0.0747093,0.668325,0.699515,-0.272866,0.660421,0.746666,-0.0657369,0.661916,0.547716,-0.042848,0.835536,0.80105,0.161504,0.576342,0.781823,0.12067,0.611682,0.866359,0.0994598,0.489364,0.48204,0.252602,0.838923,-0.204138,0.110813,0.972625,-0.194006,0.137303,0.971313,-0.211097,0.106357,0.971648,0.119419,0.0676901,0.990509,0.294595,0.0390637,0.954802,0.289499,0.0755028,0.954161,0.112583,0.103854,0.988189,0.284219,0.128636,0.950072,0.107822,0.155065,0.981994,-0.191595,0.154027,0.969298,-0.187841,0.180212,0.965514,0.401502,0.00848415,0.915799,0.386486,0.0492264,0.920957,0.535112,0.00149541,0.844752,0.520066,0.0619221,0.851863,0.373974,0.105045,0.921445,0.346446,0.251137,0.903806,0.360698,0.174261,0.916227,0.501755,0.133427,0.85464,0.480575,0.21485,0.850185,0.272866,0.260353,0.926145,0.27781,0.195166,0.94058,0.104923,0.273202,0.956206,0.106052,0.217078,0.970367,-0.163244,0.259804,0.95175,-0.175237,0.235267,0.955992,-0.149693,0.294382,0.943876,-0.182165,0.204413,0.96176,-0.145146,0.296701,0.943846,-0.140172,0.268441,0.953032,0.277352,0.296213,0.913938,0.116001,0.289285,0.950163,0.34199,0.291116,0.89346,0.409711,-0.213324,0.886898,0.528214,-0.275521,0.803156,0.289163,-0.187872,0.938658,0.0940275,-0.21482,0.972106,-0.211737,0.0883511,0.973296,-0.20954,-0.212287,0.954466,0.775872,0.103092,0.622395,0.760186,0.0636616,0.646565,0.762535,0.0390027,0.645711,0.755303,0.00686666,0.655293,0.750511,-0.0557878,0.658467,0.751061,-0.0399182,0.658986,0.756828,-0.0133366,0.653462,0.589465,0.202795,0.781884,0.556383,-0.118961,0.822321,0.603748,-0.097293,0.791192,0.597247,-0.219062,0.771538,0.603748,-0.097293,0.791192,0.515671,-0.0599994,0.854671,0.641499,-0.0591449,0.764824,0.520676,-0.196997,0.830683,0.65157,-0.0224006,0.758232,0.432844,-0.162114,0.886746,0.521256,-0.0624104,0.85107,0.538102,-0.0161443,0.842708,0.649739,0.0289315,0.759575,0.297861,-0.144963,0.94351,0.437117,-0.0645466,0.897061,0.514817,0.0317087,0.856685,0.644368,0.0970183,0.758507,0.156499,-0.143803,0.977142,0.31016,-0.0249947,0.950346,0.479507,0.10474,0.871242,0.638905,0.165716,0.751183,0.0630818,-0.121403,0.99057,0.206214,0.0231635,0.97821,0.40434,0.180242,0.896664,0.589465,0.202795,0.781884,-0.0161443,0.0111087,0.999786,0.171148,0.0529191,0.983795,0.13126,0.0737327,0.988586,-0.0161443,0.0111087,0.999786,-0.0401013,0.0809046,0.995911,-0.0448317,0.121586,0.991546,-0.0703452,0.176916,0.981689,0.0724815,0.135289,0.988128,-0.0634175,0.211005,0.975402,-0.00781274,0.191717,0.981414,-0.0281686,0.267586,0.963103,0.00799585,0.198767,0.98001,0.00671407,0.292459,0.956236,0.0670797,0.253609,0.964965,0.494644,-0.0574053,0.867153,0.494644,-0.0574053,0.867153,0.368633,0.219214,0.903317,0.13419,0.0526139,0.989532,0.13419,0.0526139,0.989532,0.129704,0.284433,0.949858],
                "type":"Float32Array"
            },
            "position":{
                "itemSize":3,
                "array":[-0.165142,0.49185,-0.00917341,-0.165651,0.484759,-0.00939252,-0.15666,0.483958,-0.0153237,-0.164583,0.499628,-0.00889641,-0.173944,0.499657,-0.00291966,-0.165434,0.476233,-0.0097215,-0.159573,0.569358,-0.0185629,-0.160171,0.561038,-0.0157074,-0.156061,0.561259,-0.0178941,-0.159043,0.576268,-0.0207774,-0.167448,0.576368,-0.0166074,-0.245186,0.506792,0.0204972,-0.244591,0.514743,0.0197934,-0.257562,0.514958,0.021817,-0.245655,0.500524,0.021115,-0.235668,0.50027,0.0197285,-0.213561,0.499946,0.0142488,-0.211928,0.514395,0.0129222,-0.233968,0.51456,0.0183787,-0.210259,0.52916,0.0109002,-0.232362,0.529121,0.0163472,-0.244091,0.521422,0.0188523,-0.243508,0.529202,0.0178031,-0.257364,0.52929,0.019615,-0.192965,0.49979,0.00669987,-0.191254,0.514422,0.00550455,-0.172173,0.514511,-0.00359541,-0.170446,0.529717,-0.00521362,-0.189501,0.5294,0.00357024,-0.186782,0.559959,-0.00337445,-0.187947,0.544616,0.000668124,-0.168991,0.545173,-0.00782287,-0.167955,0.560762,-0.0115715,-0.207402,0.559187,0.00375875,-0.208696,0.544124,0.00788547,-0.229614,0.558638,0.00939395,-0.230895,0.54385,0.0133908,-0.241882,0.550934,0.0130932,-0.242414,0.543819,0.0149322,-0.241316,0.558485,0.0110644,-0.255895,0.558329,0.0135426,-0.242988,0.536157,0.0164448,-0.256661,0.543787,0.0168727,-0.24078,0.565644,0.0087159,-0.24022,0.574962,0.0061443,-0.256422,0.575408,0.0080211,-0.206609,0.574992,-0.00156036,-0.228669,0.574668,0.00433807,-0.186189,0.575334,-0.00868433,-0.194531,0.485481,0.00731829,-0.175615,0.485057,-0.00297091,-0.215145,0.485789,0.0151387,-0.217229,0.467462,0.0159191,-0.196662,0.466997,0.00780524,-0.177295,0.4703,-0.00329693,-0.237305,0.486185,0.020668,-0.246267,0.492345,0.0216131,-0.246707,0.486465,0.0220175,-0.25806,0.500854,0.0229187,-0.249377,0.476619,0.0228668,-0.258797,0.487258,0.0239492,-0.238875,0.471931,0.0213782,-0.160674,0.554034,-0.0142628,-0.161295,0.545388,-0.0121576,-0.155739,0.545394,-0.0151031,-0.161797,0.538402,-0.0112965,-0.162409,0.529882,-0.00997034,-0.155955,0.529686,-0.0136991,-0.16405,0.507051,-0.00900963,-0.163507,0.514612,-0.00894136,-0.156651,0.49905,-0.014005,-0.162929,0.522649,-0.00958998,-0.156365,0.514223,-0.0132703,-0.164243,0.49185,-0.00352173,-0.164752,0.484759,-0.00387541,-0.163684,0.499628,-0.00328588,-0.173944,0.499657,0.00545768,-0.158674,0.569358,-0.0125145,-0.159272,0.561038,-0.00950075,-0.158144,0.576268,-0.0148579,-0.167448,0.576368,-0.0082301,-0.246393,0.506792,0.0273569,-0.245797,0.514743,0.0265264,-0.246862,0.500524,0.0280534,-0.235668,0.50027,0.0281058,-0.213561,0.499946,0.0226262,-0.211928,0.514395,0.0212996,-0.233968,0.51456,0.0267561,-0.210259,0.52916,0.0192776,-0.232362,0.529121,0.0247245,-0.245297,0.521422,0.0255294,-0.244715,0.529202,0.0243813,-0.192965,0.49979,0.0150772,-0.191254,0.514422,0.0138819,-0.172173,0.514511,0.00478193,-0.170446,0.529717,0.00316372,-0.189501,0.5294,0.0119476,-0.186782,0.559959,0.00500289,-0.187947,0.544616,0.00904546,-0.168991,0.545173,0.000554467,-0.167955,0.560762,-0.00319417,-0.207402,0.559187,0.0121361,-0.208696,0.544124,0.0162628,-0.229614,0.558638,0.0177713,-0.230895,0.54385,0.0217681,-0.243088,0.550934,0.0195743,-0.243621,0.543819,0.0214252,-0.242523,0.558485,0.0175142,-0.244194,0.536157,0.0230052,-0.241987,0.565644,0.0151577,-0.241427,0.574962,0.0126154,-0.206609,0.574992,0.00681698,-0.228669,0.574668,0.0127154,-0.186189,0.575334,-0.000306986,-0.194531,0.485481,0.0156956,-0.175615,0.485057,0.00540643,-0.215145,0.485789,0.023516,-0.237305,0.486185,0.0290453,-0.247474,0.492345,0.0286746,-0.247914,0.486465,0.0291515,-0.159775,0.554034,-0.00802924,-0.160396,0.545388,-0.00590139,-0.160898,0.538402,-0.00508881,-0.16151,0.529882,-0.00385385,-0.163151,0.507051,-0.00323556,-0.162608,0.514612,-0.00308252,-0.16203,0.522649,-0.00357205,-0.156541,0.57656,-0.0217374,-0.163031,0.470617,-0.0124178,-0.15666,0.483958,-0.0153237,-0.165434,0.476233,-0.0097215,-0.15666,0.483958,-0.0153237,-0.151459,0.49928,-0.0171164,-0.156651,0.49905,-0.014005,-0.177295,0.4703,-0.00329693,-0.156365,0.514223,-0.0132703,-0.196662,0.466997,0.00780524,-0.176249,0.463987,-0.00440358,-0.15069,0.514098,-0.0169262,-0.155955,0.529686,-0.0136991,-0.217229,0.467462,0.0159191,-0.196479,0.460191,0.00719872,-0.150194,0.529376,-0.0171855,-0.155739,0.545394,-0.0151031,-0.238875,0.471931,0.0213782,-0.21807,0.460676,0.0160012,-0.14987,0.544997,-0.0183729,-0.156061,0.561259,-0.0178941,-0.249377,0.476619,0.0228668,-0.241177,0.465667,0.0219849,-0.149858,0.560833,-0.0206477,-0.156541,0.57656,-0.0217374,-0.258797,0.487258,0.0239492,-0.253175,0.471078,0.0238607,-0.264751,0.501664,0.0238177,-0.258797,0.487258,0.0239492,-0.25806,0.500854,0.0229187,-0.257562,0.514958,0.021817,-0.257364,0.52929,0.019615,-0.264262,0.515757,0.0222989,-0.256661,0.543787,0.0168727,-0.26407,0.529717,0.0194688,-0.255895,0.558329,0.0135426,-0.26337,0.544086,0.0168182,-0.256422,0.575408,0.0080211,-0.262618,0.559065,0.0137613,-0.151181,0.481297,-0.0186248,-0.151181,0.481297,-0.0186248,-0.150324,0.576769,-0.0243253,-0.265869,0.484638,0.0250476,-0.265869,0.484638,0.0250476,-0.263144,0.57616,0.00871413],
                "type":"Float32Array"
            },
            "uv":{
                "itemSize":2,
                "array":[0.483669,0.343281,0.483775,0.339819,0.488885,0.340101,0.483504,0.347076,0.478132,0.346656,0.483906,0.336515,0.485009,0.381096,0.48447,0.376906,0.489625,0.377493,0.485434,0.384778,0.480955,0.38426,0.441206,0.348097,0.441412,0.352014,0.435211,0.351964,0.441012,0.344975,0.445994,0.345008,0.457143,0.345375,0.457716,0.352453,0.446676,0.352056,0.458413,0.35967,0.447404,0.359223,0.441655,0.355339,0.441908,0.359166,0.435898,0.359104,0.467809,0.345958,0.46832,0.353097,0.478482,0.353885,0.479008,0.36126,0.468981,0.360386,0.470495,0.375391,0.469724,0.367813,0.479618,0.368772,0.480275,0.376428,0.460058,0.374502,0.459212,0.367015,0.449015,0.373903,0.448185,0.366504,0.442876,0.370028,0.44252,0.366432,0.443256,0.373807,0.437332,0.373707,0.442206,0.362645,0.43657,0.366355,0.443671,0.377489,0.444124,0.381309,0.438196,0.381163,0.460858,0.382173,0.44983,0.381449,0.471233,0.383165,0.467466,0.338939,0.477989,0.339501,0.456663,0.338401,0.456205,0.33132,0.46715,0.331802,0.477918,0.332204,0.445406,0.338026,0.440839,0.340927,0.440685,0.337989,0.434532,0.344933,0.440532,0.333713,0.433926,0.337937,0.444901,0.330919,0.484212,0.37348,0.483822,0.369232,0.489113,0.369811,0.483697,0.365849,0.483466,0.361717,0.488711,0.362255,0.483476,0.350672,0.483369,0.354339,0.488465,0.347463,0.483458,0.358221,0.488452,0.35481,0.483669,0.343281,0.483775,0.339819,0.483504,0.347076,0.478132,0.346656,0.485009,0.381096,0.48447,0.376906,0.485434,0.384778,0.480955,0.38426,0.441206,0.348097,0.441412,0.352014,0.441012,0.344975,0.445994,0.345008,0.457143,0.345375,0.457716,0.352453,0.446676,0.352056,0.458413,0.35967,0.447404,0.359223,0.441655,0.355339,0.441908,0.359166,0.467809,0.345958,0.46832,0.353097,0.478482,0.353885,0.479008,0.36126,0.468981,0.360386,0.470495,0.375391,0.469724,0.367813,0.479618,0.368772,0.480275,0.376428,0.460058,0.374502,0.459212,0.367015,0.449015,0.373903,0.448185,0.366504,0.442876,0.370028,0.44252,0.366432,0.443256,0.373807,0.442206,0.362645,0.443671,0.377489,0.444124,0.381309,0.460858,0.382173,0.44983,0.381449,0.471233,0.383165,0.467466,0.338939,0.477989,0.339501,0.456663,0.338401,0.445406,0.338026,0.440839,0.340927,0.440685,0.337989,0.484212,0.37348,0.483822,0.369232,0.483697,0.365849,0.483466,0.361717,0.483476,0.350672,0.483369,0.354339,0.483458,0.358221,0.490229,0.385332,0.483607,0.328577,0.48697,0.335712,0.482558,0.331464,0.488382,0.340619,0.490868,0.347678,0.488566,0.347686,0.476461,0.328414,0.488996,0.354773,0.466446,0.326716,0.476793,0.325169,0.491704,0.3546,0.489468,0.361975,0.455862,0.326955,0.466599,0.323218,0.492214,0.361719,0.489844,0.369276,0.444805,0.329253,0.4555,0.323467,0.492641,0.368982,0.49006,0.376631,0.439443,0.331662,0.443622,0.326033,0.492915,0.376328,0.490069,0.383996,0.433861,0.33693,0.437454,0.328814,0.424634,0.344661,0.42767,0.337623,0.427967,0.344617,0.428272,0.35167,0.428502,0.358829,0.424934,0.351708,0.428619,0.366057,0.425173,0.358682,0.42872,0.373306,0.425294,0.365848,0.428808,0.38053,0.425373,0.373312,0.489418,0.334072,0.490654,0.339257,0.492954,0.383698,0.430225,0.335584,0.424259,0.335951,0.425461,0.380544],
                "type":"Float32Array"
            }
        },
        "index":{
            "itemSize":1,
            "array":[0,1,2,0,3,4,5,2,1,6,7,8,6,9,10,11,12,13,11,14,15,16,17,18,18,15,16,17,19,20,20,18,17,21,22,23,21,12,18,24,25,17,17,16,24,4,26,25,25,24,4,26,27,28,28,25,26,25,28,19,19,17,25,29,30,31,31,32,29,33,34,30,30,29,33,34,19,28,28,30,34,30,28,27,27,31,30,35,36,34,34,33,35,37,38,36,37,39,40,41,22,20,41,38,42,36,20,19,19,34,36,43,44,45,43,39,35,33,46,47,47,35,33,29,48,46,46,33,29,32,10,48,48,29,32,24,49,50,50,4,24,16,51,49,49,24,16,51,52,53,53,49,51,49,53,54,54,50,49,15,55,51,51,16,15,56,57,55,56,14,58,59,57,60,55,61,52,52,51,55,62,63,64,62,7,32,65,66,67,65,63,31,68,69,26,68,3,70,71,66,27,71,69,72,73,74,2,73,75,76,5,2,74,77,78,8,77,79,80,81,82,13,81,83,84,85,86,87,87,84,85,86,88,89,89,87,86,90,91,23,90,82,87,92,93,86,86,85,92,76,94,93,93,92,76,94,95,96,96,93,94,93,96,88,88,86,93,97,98,99,99,100,97,101,102,98,98,97,101,102,88,96,96,98,102,98,96,95,95,99,98,103,104,102,102,101,103,105,106,104,105,107,40,108,91,89,108,106,42,104,89,88,88,102,104,109,110,45,109,107,103,101,111,112,112,103,101,97,113,111,111,101,97,100,80,113,113,97,100,92,114,115,115,76,92,85,116,114,114,92,85,116,52,53,53,114,116,114,53,54,54,115,114,84,117,116,116,85,84,118,119,117,118,83,58,59,119,60,117,61,52,52,116,117,120,121,64,120,78,100,122,123,67,122,121,99,124,125,94,124,75,70,126,123,95,126,125,72,11,18,12,11,58,14,90,89,91,21,20,22,21,13,12,37,42,38,105,103,107,37,35,39,108,23,91,41,23,22,108,104,106,41,36,38,43,47,44,43,40,39,56,60,57,118,84,83,56,15,14,59,117,119,59,55,57,81,87,82,81,58,83,90,13,82,105,42,106,109,112,110,109,40,107,118,60,119,73,115,74,0,50,1,73,70,75,0,70,3,74,54,5,50,5,1,77,100,78,6,32,7,68,72,69,6,127,9,62,31,63,62,8,7,65,27,66,65,64,63,68,4,3,71,67,66,71,26,69,124,76,75,77,127,79,120,99,121,120,8,78,122,95,123,122,64,121,124,72,125,126,67,123,126,94,125,128,129,130,131,132,133,134,128,130,132,135,133,136,137,134,138,139,135,140,141,136,142,143,139,144,145,140,146,147,143,148,149,144,150,151,147,152,153,148,154,155,156,157,154,156,158,159,157,160,161,158,162,163,160,164,165,162,11,15,18,11,13,58,90,87,89,21,18,20,21,23,13,37,40,42,105,104,103,37,36,35,108,42,23,41,42,23,108,89,104,41,20,36,43,35,47,43,45,40,56,58,60,118,117,84,56,55,15,59,61,117,59,61,55,81,84,87,81,13,58,90,23,13,105,40,42,109,103,112,109,45,40,118,58,60,73,76,115,0,4,50,73,2,70,0,2,70,74,115,54,50,54,5,77,80,100,6,10,32,68,70,72,6,8,127,62,32,31,62,64,8,65,31,27,65,67,64,68,26,4,71,72,67,71,27,26,124,94,76,77,8,127,120,100,99,120,64,8,122,99,95,122,67,64,124,70,72,126,72,67,126,95,94,128,166,129,131,167,132,134,137,128,132,138,135,136,141,137,138,142,139,140,145,141,142,146,143,144,149,145,146,150,147,148,153,149,150,168,151,152,169,153,154,170,155,157,159,154,158,161,159,160,163,161,162,165,163,164,171,165],
            "type":"Uint16Array"
        }
    }
}